[18:14:35] New map: surf_lux
[18:14:51] Client "KJelles The Camel" spawned in server <STEAM_0:0:50269528> (took 16 seconds).
[18:14:53] Dropped "KJelles The Camel" from server<STEAM_0:0:50269528>



[18:20:12] New map: surf_lux
[18:20:16] Client "KJelles The Camel" spawned in server <STEAM_0:0:50269528> (took 5 seconds).
[18:20:16] Client "Bot01" connected.
[18:20:16] Client "Bot01" spawned in server <BOT> (took 17 seconds).
[18:20:18] Client "Bot02" connected.
[18:20:18] Client "Bot02" spawned in server <BOT> (took 19 seconds).
[18:22:31] KJelles The Camel changed the map to surf_lux
[18:22:31] KJelles The Camel: !map surf_lux
[18:22:31] Server is shutting down/changing levels.



[18:22:33] New map: surf_lux
[18:22:37] Client "KJelles The Camel" spawned in server <STEAM_0:0:50269528> (took 5 seconds).
[18:22:37] Client "Bot03" connected.
[18:22:37] Client "Bot03" spawned in server <BOT> (took 5 seconds).
[18:22:39] Client "Bot04" connected.
[18:22:39] Client "Bot04" spawned in server <BOT> (took 7 seconds).
[18:23:31] KJelles The Camel changed the map to surf_lux
[18:23:31] KJelles The Camel: !map surf_lux
[18:23:31] Server is shutting down/changing levels.



[18:23:33] New map: surf_lux
[18:23:37] Client "KJelles The Camel" spawned in server <STEAM_0:0:50269528> (took 5 seconds).
[18:23:37] Client "Bot05" connected.
[18:23:37] Client "Bot05" spawned in server <BOT> (took 5 seconds).
[18:23:39] Client "Bot06" connected.
[18:23:39] Client "Bot06" spawned in server <BOT> (took 7 seconds).
[18:31:54] KJelles The Camel changed the map to surf_lux
[18:31:54] KJelles The Camel: !map surf_lux
[18:31:54] Server is shutting down/changing levels.



[18:31:57] New map: surf_lux
[18:32:00] Client "KJelles The Camel" spawned in server <STEAM_0:0:50269528> (took 4 seconds).
[18:32:00] Client "Bot07" connected.
[18:32:00] Client "Bot07" spawned in server <BOT> (took 4 seconds).
[18:32:02] Client "Bot08" connected.
[18:32:02] Client "Bot08" spawned in server <BOT> (took 6 seconds).
[18:42:17] KJelles The Camel changed the map to surf_lux
[18:42:17] KJelles The Camel: !map surf_lux
[18:42:17] Server is shutting down/changing levels.



[18:42:19] New map: surf_lux
[18:42:23] Client "KJelles The Camel" spawned in server <STEAM_0:0:50269528> (took 5 seconds).
[18:42:23] Client "Bot09" connected.
[18:42:23] Client "Bot09" spawned in server <BOT> (took 5 seconds).
[18:42:25] Client "Bot10" connected.
[18:42:25] Client "Bot10" spawned in server <BOT> (took 7 seconds).
[18:54:21] KJelles The Camel changed the map to surf_lux
[18:54:21] KJelles The Camel: !map surf_lux
[18:54:21] Server is shutting down/changing levels.



[18:54:23] New map: surf_lux
[18:54:27] Client "KJelles The Camel" spawned in server <STEAM_0:0:50269528> (took 5 seconds).
[18:54:27] Client "Bot11" connected.
[18:54:27] Client "Bot11" spawned in server <BOT> (took 5 seconds).
[18:54:29] Client "Bot12" connected.
[18:54:29] Client "Bot12" spawned in server <BOT> (took 7 seconds).
[18:54:44] KJelles The Camel changed the map to surf_lux
[18:54:44] KJelles The Camel: !map surf_lux
[18:54:44] Server is shutting down/changing levels.



[18:54:46] New map: surf_lux
[18:54:50] Client "KJelles The Camel" spawned in server <STEAM_0:0:50269528> (took 5 seconds).
[18:54:50] Client "Bot13" connected.
[18:54:50] Client "Bot13" spawned in server <BOT> (took 5 seconds).
[18:54:52] Client "Bot14" connected.
[18:54:52] Client "Bot14" spawned in server <BOT> (took 7 seconds).
[19:04:46] Dropped "KJelles The Camel" from server<STEAM_0:0:50269528>
[19:04:46] Dropped "Bot13" from server<BOT>
[19:04:46] Dropped "Bot14" from server<BOT>
[19:14:15] Client "KJelles The Camel" connected.
[19:14:19] Client "KJelles The Camel" spawned in server <STEAM_0:0:50269528> (took 4 seconds).
[19:14:19] Client "Bot15" connected.
[19:14:19] Client "Bot15" spawned in server <BOT> (took 1174 seconds).
[19:14:21] Client "Bot16" connected.
[19:14:21] Client "Bot16" spawned in server <BOT> (took 1176 seconds).
[19:42:49] KJelles The Camel: !r
[19:56:32] Client "Bot17" connected.
[19:56:32] Client "Bot17" spawned in server <BOT> (took 3707 seconds).
[19:56:33] Client "Bot18" connected.
[19:56:33] Client "Bot18" spawned in server <BOT> (took 3708 seconds).
[19:56:34] Client "Bot19" connected.
[19:56:34] Client "Bot19" spawned in server <BOT> (took 3709 seconds).
[19:56:35] Client "Bot20" connected.
[19:56:35] Client "Bot20" spawned in server <BOT> (took 3710 seconds).
[19:56:36] Client "Bot21" connected.
[19:56:36] Client "Bot21" spawned in server <BOT> (took 3711 seconds).
[19:56:52] KJelles The Camel: !kick bot01
[19:56:55] KJelles The Camel: !kick bot02
[19:57:15] KJelles The Camel kicked Bot15 (reason)
[19:57:15] Dropped "Bot15" from server<BOT>
[19:57:15] KJelles The Camel kicked Bot16 (reason)
[19:57:15] KJelles The Camel kicked Bot17 (reason)
[19:57:15] KJelles The Camel kicked Bot18 (reason)
[19:57:15] KJelles The Camel kicked Bot19 (reason)
[19:57:15] Dropped "Bot16" from server<BOT>
[19:57:15] Dropped "Bot17" from server<BOT>
[19:57:15] Dropped "Bot18" from server<BOT>
[19:57:15] Dropped "Bot19" from server<BOT>
[19:57:23] KJelles The Camel kicked Bot21 (reason)
[19:57:23] Dropped "Bot21" from server<BOT>
[19:57:24] KJelles The Camel kicked Bot20 (reason)
[19:57:24] Dropped "Bot20" from server<BOT>
[19:57:29] Client "Bot22" connected.
[19:57:29] Client "Bot22" spawned in server <BOT> (took 3764 seconds).
[19:57:31] Client "Bot23" connected.
[19:57:31] Client "Bot23" spawned in server <BOT> (took 3766 seconds).
[19:59:39] KJelles The Camel: !r
[19:59:55] Client "GiO" connected.
[20:00:09] Client "GiO" spawned in server <STEAM_0:0:46809747> (took 14 seconds).
[20:02:58] GiO: !r
[20:03:14] KJelles The Camel: !r
[20:04:36] GiO: !r
[20:04:44] GiO: !r
[20:05:45] GiO: !tutorial
[20:05:54] GiO: !donate
[20:06:11] GiO: !r
[20:06:18] GiO: !knives
[20:07:05] KJelles The Camel: !r
[20:07:51] GiO: !r
[20:11:35] GiO: unmute
[20:12:29] GiO: !r
[20:12:30] GiO: !r
[20:12:41] GiO: !r
[20:13:04] GiO: !r
[20:13:06] Dropped "GiO" from server<STEAM_0:0:46809747>
[20:34:52] KJelles The Camel changed the map to surf_lux
[20:34:52] KJelles The Camel: !map surf_lux
[20:34:52] Server is shutting down/changing levels.



[20:34:55] New map: surf_lux
[20:34:59] Client "KJelles The Camel" spawned in server <STEAM_0:0:50269528> (took 5 seconds).
[20:34:59] Client "Bot24" connected.
[20:34:59] Client "Bot24" spawned in server <BOT> (took 5 seconds).
[20:35:01] Client "Bot25" connected.
[20:35:01] Client "Bot25" spawned in server <BOT> (took 7 seconds).
[20:37:39] Client "GiO" connected.
[20:37:45] Client "GiO" spawned in server <STEAM_0:0:46809747> (took 6 seconds).
[20:38:09] GiO: !r
[20:38:20] GiO: !r
[20:38:38] GiO: !r
[20:38:42] GiO: !r
[20:38:47] GiO: !r
[20:38:55] GiO: !r
[20:39:04] GiO: !r
[20:39:28] GiO: !r
[20:39:42] GiO: !r
[20:41:44] Client "TheChickenman" connected.
[20:41:59] GiO: !r
[20:42:12] GiO: !r
[20:42:17] Client "TheChickenman" spawned in server <STEAM_0:1:58447148> (took 33 seconds).
[20:42:20] GiO: !r
[20:44:05] GiO: !r
[20:44:24] GiO: !r
[20:44:28] GiO: !r
[20:45:10] GiO: !r
[20:47:01] KJelles The Camel: !styles
[20:47:08] KJelles The Camel: !r
[20:47:22] KJelles The Camel: !n
[20:51:06] Dropped "GiO" from server<STEAM_0:0:46809747>
[20:54:55] Dropped "TheChickenman" from server<STEAM_0:1:58447148>
[20:56:38] Client "TheChickenman" connected.
[20:56:42] Client "TheChickenman" spawned in server <STEAM_0:1:58447148> (took 4 seconds).
[21:08:23] Client "GiO" connected.
[21:08:29] Client "GiO" spawned in server <STEAM_0:0:46809747> (took 6 seconds).
[21:08:35] KJelles The Camel: !sw
[21:08:39] KJelles The Camel: !normal
[21:09:05] TheChickenman: !r
[21:10:03] TheChickenman: !r
[21:12:18] Dropped "TheChickenman" from server<STEAM_0:1:58447148>
[21:18:40] Dropped "KJelles The Camel" from server<STEAM_0:0:50269528>
[21:19:08] Client "KJelles The Camel" connected.
[21:19:14] Client "KJelles The Camel" spawned in server <STEAM_0:0:50269528> (took 6 seconds).
[21:19:55] Dropped "GiO" from server<STEAM_0:0:46809747>
[21:21:23] Dropped "KJelles The Camel" from server<STEAM_0:0:50269528>
[21:21:23] Dropped "Bot24" from server<BOT>
[21:21:23] Dropped "Bot25" from server<BOT>
[21:21:40] Client "KJelles The Camel" connected.
[21:21:46] Client "KJelles The Camel" spawned in server <STEAM_0:0:50269528> (took 6 seconds).
[21:21:46] Client "Bot26" connected.
[21:21:46] Client "Bot26" spawned in server <BOT> (took 2812 seconds).
[21:21:48] Client "Bot27" connected.
[21:21:48] Client "Bot27" spawned in server <BOT> (took 2814 seconds).
[21:23:00] KJelles The Camel: !sw
[21:23:05] KJelles The Camel: !hsw
[21:23:08] KJelles The Camel: !n
[21:36:43] KJelles The Camel: !admin
[21:36:54] KJelles The Camel changed the map to surf_lux
[21:36:54] KJelles The Camel: !map surf_lux
[21:36:54] Server is shutting down/changing levels.



[21:36:56] New map: surf_lux
[21:36:59] Client "KJelles The Camel" spawned in server <STEAM_0:0:50269528> (took 4 seconds).
[21:36:59] Client "Bot28" connected.
[21:36:59] Client "Bot28" spawned in server <BOT> (took 4 seconds).
[21:37:01] Client "Bot29" connected.
[21:37:01] Client "Bot29" spawned in server <BOT> (took 6 seconds).
[21:41:10] KJelles The Camel: !r
[21:42:31] Dropped "KJelles The Camel" from server<STEAM_0:0:50269528>
[21:42:31] Dropped "Bot28" from server<BOT>
[21:42:31] Dropped "Bot29" from server<BOT>
[21:43:05] Client "KJelles The Camel" connected.
[21:43:11] Client "KJelles The Camel" spawned in server <STEAM_0:0:50269528> (took 6 seconds).
[21:43:11] Client "Bot30" connected.
[21:43:11] Client "Bot30" spawned in server <BOT> (took 376 seconds).
[21:43:13] Client "Bot31" connected.
[21:43:13] Client "Bot31" spawned in server <BOT> (took 378 seconds).
[21:53:28] KJelles The Camel: !hsw
[21:53:36] KJelles The Camel: !n
