<Logging continued from "data/ulx_logs/03-31-17.txt">
[00:07:39] Server is shutting down/changing levels.



[00:07:51] New map: surf_stonework3
[00:38:26] Server is shutting down/changing levels.



[00:38:38] New map: surf_funhouse_v1
[01:08:12] Client "Cyka Blyat" connected.
[01:09:14] Server is shutting down/changing levels.



[01:09:26] New map: surf_simpsons_source
[01:12:48] Client "Cyka Blyat" spawned in server <STEAM_0:0:166476351> (took 203 seconds).
[01:12:48] Client "Bot542" connected.
[01:12:48] Client "Bot542" spawned in server <BOT> (took 203 seconds).
[01:12:50] Client "Bot543" connected.
[01:12:50] Client "Bot543" spawned in server <BOT> (took 205 seconds).
[01:15:28] Cyka Blyat: !steam
[01:15:47] Cyka Blyat: !shop
[01:17:25] Client "HighPockets" connected.
[01:17:38] Client "Rag" connected.
[01:17:44] Dropped "Cyka Blyat" from server<STEAM_0:0:166476351>
[01:19:17] Client "Rag" spawned in server <STEAM_0:1:115818776> (took 99 seconds).
[01:19:18] Client "HighPockets" connected.
[01:20:06] Rag: /r
[01:21:15] Client "HighPockets" spawned in server <STEAM_0:1:155813756> (took 117 seconds).
[01:22:04] Rag: /r
[01:22:25] Rag: /r
[01:22:51] Rag: /r
[01:23:05] Rag: /r
[01:23:17] Rag: /r
[01:23:28] Rag: /r
[01:24:30] Rag: /r
[01:25:14] Rag: /r
[01:26:22] Rag: /r
[01:26:42] Rag: /r
[01:26:46] Client "ItzSky" connected.
[01:27:03] Rag: /r
[01:28:03] Client "ItzSky" spawned in server <STEAM_0:1:206025770> (took 77 seconds).
[01:29:29] ItzSky: !spec
[01:29:42] ItzSky: !spec
[01:32:30] Rag: /r
[01:33:02] HighPockets: !steam
[01:34:14] ItzSky: !spec
[01:34:44] ItzSky: !spec
[01:37:45] Dropped "HighPockets" from server<STEAM_0:1:155813756>
[01:38:26] Dropped "ItzSky" from server<STEAM_0:1:206025770>
[01:40:29] Rag: /r
[01:40:53] Rag: /r
[01:46:52] Rag: /r
[01:47:15] Rag: /r
[01:47:41] Rag: /r
[01:54:56] Rag: /r
[02:03:43] Dropped "Rag" from server<STEAM_0:1:115818776>
[02:03:43] Dropped "Bot542" from server<BOT>
[02:03:43] Dropped "Bot543" from server<BOT>
[02:11:05] Server is shutting down/changing levels.



[02:11:17] New map: surf_mesa
[02:41:53] Server is shutting down/changing levels.



[02:42:05] New map: surf_island
[03:12:41] Server is shutting down/changing levels.



[03:12:52] New map: surf_wood
[03:19:33] Client "Bangman" connected.
[03:19:41] Client "Bangman" spawned in server <STEAM_0:1:29121980> (took 8 seconds).
[03:19:41] Client "Bot544" connected.
[03:19:41] Client "Bot544" spawned in server <BOT> (took 410 seconds).
[03:19:43] Client "Bot545" connected.
[03:19:43] Client "Bot545" spawned in server <BOT> (took 412 seconds).
[03:20:53] Bangman: !r
[03:21:37] Bangman: !r
[03:23:50] Bangman: !r
[03:23:59] Bangman: !r
[03:24:58] Bangman: !r
[03:25:13] Bangman: !r
[03:25:31] Bangman: !r
[03:25:44] Bangman: !r
[03:25:49] Bangman: !r
[03:26:34] Bangman: !r
[03:27:01] Bangman: !b
[03:27:09] Bangman: !r
[03:27:13] Bangman: !r
[03:28:44] Dropped "Bangman" from server<STEAM_0:1:29121980>
[03:28:44] Dropped "Bot544" from server<BOT>
[03:28:44] Dropped "Bot545" from server<BOT>
[03:43:28] Server is shutting down/changing levels.



[03:43:40] New map: surf_aether
[04:14:15] Server is shutting down/changing levels.



[04:14:27] New map: surf_simpsons_source
[04:45:02] Server is shutting down/changing levels.



[04:45:14] New map: surf_utopia_njv
[05:15:50] Server is shutting down/changing levels.



[05:16:02] New map: surf_reprise_fix
[05:46:37] Server is shutting down/changing levels.



[05:46:49] New map: surf_mesa
[06:17:25] Server is shutting down/changing levels.



[06:17:36] New map: surf_beginner
[06:48:12] Server is shutting down/changing levels.



[06:48:24] New map: surf_island
[07:13:49] Client "AndrewGem" connected.
[07:14:33] Client "[PB&J] Knife eater" connected.
[07:15:58] Client "AndrewGem" spawned in server <STEAM_0:0:150063951> (took 129 seconds).
[07:15:58] Client "Bot546" connected.
[07:15:58] Client "Bot546" spawned in server <BOT> (took 1655 seconds).
[07:16:00] Client "Bot547" connected.
[07:16:00] Client "Bot547" spawned in server <BOT> (took 1657 seconds).
[07:19:00] Server is shutting down/changing levels.



[07:19:12] New map: surf_dusk
[07:19:43] Client "AndrewGem" spawned in server <STEAM_0:0:150063951> (took 32 seconds).
[07:19:43] Client "Bot548" connected.
[07:19:43] Client "Bot548" spawned in server <BOT> (took 32 seconds).
[07:19:45] Client "Bot549" connected.
[07:19:46] Client "Bot549" spawned in server <BOT> (took 35 seconds).
[07:22:14] Client "kapteeni_kals_ari" connected.
[07:22:46] Dropped "AndrewGem" from server<STEAM_0:0:150063951>
[07:23:53] Client "pikaDK" connected.
[07:24:42] Client "pikaDK" spawned in server <STEAM_0:0:183835098> (took 49 seconds).
[07:25:28] Dropped "pikaDK" from server<STEAM_0:0:183835098>
[07:26:52] Client "kapteeni_kals_ari" spawned in server <STEAM_0:1:72548886> (took 278 seconds).
[07:26:52] Client "Froztbite" connected.
[07:26:52] Dropped "kapteeni_kals_ari" from server<STEAM_0:1:72548886>
[07:27:52] Client "Froztbite" spawned in server <STEAM_0:0:7660863> (took 60 seconds).
[07:28:16] Dropped "Froztbite" from server<STEAM_0:0:7660863>
[07:28:16] Dropped "Bot548" from server<BOT>
[07:28:16] Dropped "Bot549" from server<BOT>
[07:49:49] Server is shutting down/changing levels.



[07:50:00] New map: surf_lux
[08:00:11] Client "guerrit" connected.
[08:01:28] Client "guerrit" spawned in server <STEAM_0:1:169962244> (took 77 seconds).
[08:01:28] Client "Bot550" connected.
[08:01:28] Client "Bot550" spawned in server <BOT> (took 689 seconds).
[08:01:30] Client "Bot551" connected.
[08:01:30] Client "Bot551" spawned in server <BOT> (took 691 seconds).
[08:11:02] Client "[N-G]XxNedSTxX" connected.
[08:12:31] Client "[N-G]XxNedSTxX" spawned in server <STEAM_0:0:139239512> (took 89 seconds).
[08:13:42] [N-G]XxNedSTxX: !stile
[08:13:45] [N-G]XxNedSTxX: !style
[08:14:31] [N-G]XxNedSTxX: !r
[08:15:43] [N-G]XxNedSTxX: !site
[08:18:52] (TEAM) guerrit: how i do the first jump?
[08:21:39] Dropped "[N-G]XxNedSTxX" from server<STEAM_0:0:139239512>
[08:25:16] (TEAM) guerrit: !steam
[08:32:22] Client "sudo apt-get YourMum" connected.
[08:33:09] Client "[N-G]AlexCorruptor" connected.
[08:33:55] Client "[N-G]AlexCorruptor" spawned in server <STEAM_0:0:77731187> (took 46 seconds).
[08:34:11] Client "sudo apt-get YourMum" spawned in server <STEAM_0:1:77736760> (took 109 seconds).
[08:34:16] [N-G]AlexCorruptor: !r
[08:37:44] sudo apt-get YourMum: !r
[08:37:45] sudo apt-get YourMum: !r
[08:37:46] sudo apt-get YourMum: !r
[08:37:47] sudo apt-get YourMum: !r
[08:37:47] sudo apt-get YourMum: !r
[08:37:51] sudo apt-get YourMum: !r
[08:38:13] [N-G]AlexCorruptor: !r
[08:38:31] Dropped "sudo apt-get YourMum" from server<STEAM_0:1:77736760>
[08:38:38] [N-G]AlexCorruptor: !r
[08:39:52] [N-G]AlexCorruptor: !r
[08:41:08] Client "_SlamOver_" connected.
[08:41:22] Client "_SlamOver_" spawned in server <STEAM_0:1:194960052> (took 14 seconds).
[08:44:36] _SlamOver_: !rtv
[08:48:01] _SlamOver_: :I
[08:49:38] Client "kona3" connected.
[08:50:01] Client "[N-G]XxNedSTxX" connected.
[08:50:03] _SlamOver_: !spec
[08:50:29] _SlamOver_: Oh fuck Im stupid
[08:50:31] _SlamOver_: !spec
[08:50:42] Client "[N-G]XxNedSTxX" spawned in server <STEAM_0:0:139239512> (took 41 seconds).
[08:50:42] (TEAM) guerrit: im too :)
[08:51:05] Client "Shinichi Kudo" connected.
[08:51:22] [N-G]XxNedSTxX: This map...
[08:51:30] [N-G]AlexCorruptor: Yep, this map
[08:51:34] [N-G]XxNedSTxX: Has been on for sooo long
[08:52:02] (TEAM) guerrit: yes but on a nother map i have errors
[08:52:17] Client "Shinichi Kudo" spawned in server <STEAM_0:1:168750113> (took 72 seconds).
[08:52:20] [N-G]XxNedSTxX: !noclip
[08:52:23] [N-G]XxNedSTxX: !noclip
[08:52:26] Client "kona3" spawned in server <STEAM_0:0:196817199> (took 168 seconds).
[08:52:36] _SlamOver_: You need to Download the Css Textures
[08:53:16] [N-G]XxNedSTxX: !r
[08:54:12] [N-G]XxNedSTxX: !r
[08:54:18] Dropped "kona3" from server<STEAM_0:0:196817199>
[08:55:54] Client "LimeDisX" connected.
[08:56:42] Client "LimeDisX" spawned in server <STEAM_0:1:114147388> (took 48 seconds).
[08:56:49] _SlamOver_: !R
[08:56:50] Shinichi Kudo: !bot
[08:56:58] _SlamOver_: Yey Im a Amateur :D
[08:57:32] LimeDisX: Oooh this is impossible
[08:57:34] Shinichi Kudo: !r
[08:58:49] [N-G]AlexCorruptor: This is going to be bad.....
[08:59:25] [N-G]XxNedSTxX: Ping 10/10 :/
[08:59:27] Shinichi Kudo: !rrtv
[08:59:27] Client "ArmagHEADon ☕" connected.
[08:59:28] Shinichi Kudo: !rtv
[08:59:42] [N-G]AlexCorruptor: Atleast your is 10-100
[09:00:00] [N-G]AlexCorruptor: Not like mine that goes 120-250
[09:00:29] Client "ArmagHEADon ☕" spawned in server <STEAM_0:0:68013945> (took 62 seconds).
[09:04:00] [N-G]XxNedSTxX: !r
[09:04:20] _SlamOver_: !rtv
[09:05:31] Client "Gato" connected.
[09:06:09] Dropped "[N-G]XxNedSTxX" from server<STEAM_0:0:139239512>
[09:06:09] Client "Gato" spawned in server <STEAM_0:0:120013701> (took 38 seconds).
[09:06:44] Shinichi Kudo: 7
[09:07:09] Server is shutting down/changing levels.



[09:07:21] New map: surf_waterworks
[09:07:32] Client "[N-G]AlexCorruptor" spawned in server <STEAM_0:0:77731187> (took 12 seconds).
[09:07:32] Client "Bot552" connected.
[09:07:32] Client "Bot552" spawned in server <BOT> (took 12 seconds).
[09:07:34] Client "Bot553" connected.
[09:07:34] Client "Bot553" spawned in server <BOT> (took 14 seconds).
[09:07:38] Client "Gato" spawned in server <STEAM_0:0:120013701> (took 18 seconds).
[09:07:41] Client "_SlamOver_" spawned in server <STEAM_0:1:194960052> (took 21 seconds).
[09:07:43] Client "ArmagHEADon ☕" spawned in server <STEAM_0:0:68013945> (took 23 seconds).
[09:07:56] Client "guerrit" spawned in server <STEAM_0:1:169962244> (took 36 seconds).
[09:08:02] Client "LimeDisX" spawned in server <STEAM_0:1:114147388> (took 42 seconds).
[09:08:25] [N-G]AlexCorruptor: !r
[09:08:34] Client "Shinichi Kudo" spawned in server <STEAM_0:1:168750113> (took 74 seconds).
[09:08:58] Client "hyperionbear77" connected.
[09:09:42] Client "hyperionbear77" spawned in server <STEAM_0:1:156803738> (took 44 seconds).
[09:09:50] Gato: !rtv
[09:10:05] Dropped "Gato" from server<STEAM_0:0:120013701>
[09:10:16] Dropped "Shinichi Kudo" from server<STEAM_0:1:168750113>
[09:10:31] Dropped "guerrit" from server<STEAM_0:1:169962244>
[09:11:22] _SlamOver_: !spec
[09:11:37] Client "ИГОРЬ БАЛАНАР" connected.
[09:12:01] hyperionbear77: !css
[09:12:07] (TEAM) hyperionbear77: !css
[09:12:43] Client "ИГОРЬ БАЛАНАР" spawned in server <STEAM_0:1:58174314> (took 66 seconds).
[09:12:45] _SlamOver_: !spec
[09:13:26] [N-G]AlexCorruptor: !r
[09:15:12] Dropped "hyperionbear77" from server<STEAM_0:1:156803738>
[09:15:24] Client "Bangman" connected.
[09:15:32] Dropped "[N-G]AlexCorruptor" from server<STEAM_0:0:77731187>
[09:16:17] Client "Bangman" connected.
[09:16:25] Client "Bangman" spawned in server <STEAM_0:1:29121980> (took 8 seconds).
[09:17:21] Dropped "ArmagHEADon ☕" from server<STEAM_0:0:68013945>
[09:17:23] Bangman: !r
[09:18:19] Bangman: !r
[09:18:23] Bangman: !r
[09:18:32] Bangman: !r
[09:18:40] Bangman: !r
[09:19:43] Bangman: !r
[09:19:55] Bangman: !r
[09:19:58] Bangman: !r
[09:20:16] Bangman: !r
[09:20:27] Bangman: !r
[09:20:28] Client "ArmagHEADon ☕" connected.
[09:20:46] Bangman: !r
[09:20:52] Client "ArmagHEADon ☕" spawned in server <STEAM_0:0:68013945> (took 24 seconds).
[09:21:00] Bangman: !r
[09:21:10] Bangman: !r
[09:21:20] Bangman: !r
[09:22:07] Bangman: !r
[09:23:12] Bangman: !r
[09:23:12] Dropped "ArmagHEADon ☕" from server<STEAM_0:0:68013945>
[09:23:20] Bangman: !r
[09:23:46] Bangman: !r
[09:24:25] _SlamOver_: !spec
[09:24:43] Bangman: !r
[09:24:53] Bangman: !r
[09:24:54] Dropped "LimeDisX" from server<STEAM_0:1:114147388>
[09:25:09] Bangman: !r
[09:25:13] Bangman: !r
[09:25:16] ИГОРЬ БАЛАНАР: !steam
[09:25:44] Bangman: !r
[09:25:52] Bangman: !r
[09:25:55] _SlamOver_: !spec
[09:26:03] Bangman: !r
[09:26:18] Bangman: !r
[09:26:42] Bangman: !r
[09:26:45] Bangman: !r
[09:26:55] Bangman: !r
[09:27:05] Bangman: !r
[09:27:30] Bangman: !r
[09:29:07] Bangman: !r
[09:30:04] ИГОРЬ БАЛАНАР: !site
[09:30:10] Bangman: !r
[09:31:40] Bangman: !r
[09:32:17] Bangman: !r
[09:32:53] Bangman: !r
[09:33:03] Bangman: !r
[09:33:28] Bangman: !r
[09:33:30] _SlamOver_: !rtv
[09:33:31] Bangman: !r
[09:33:41] Bangman: !r
[09:33:52] Bangman: !r
[09:33:56] Bangman: !r
[09:34:06] Bangman: !r
[09:35:13] Dropped "_SlamOver_" from server<STEAM_0:1:194960052>
[09:35:23] Client "buerger060608" connected.
[09:35:47] Client "buerger060608" spawned in server <STEAM_0:1:55741087> (took 24 seconds).
[09:35:56] Dropped "buerger060608" from server<STEAM_0:1:55741087>
[09:37:09] Bangman: /spec
[09:37:57] Server is shutting down/changing levels.



[09:38:09] New map: surf_island
[09:38:21] Client "Bangman" spawned in server <STEAM_0:1:29121980> (took 13 seconds).
[09:38:21] Client "Bot554" connected.
[09:38:21] Client "Bot554" spawned in server <BOT> (took 13 seconds).
[09:38:23] Client "Bot555" connected.
[09:38:23] Client "Bot555" spawned in server <BOT> (took 15 seconds).
[09:39:53] Bangman: !r
[09:40:00] Client "Pieseł" connected.
[09:40:03] Client "szynka i wieprzyk" connected.
[09:40:05] Bangman: !r
[09:40:06] Client "Pieseł" connected.
[09:40:15] Bangman: !r
[09:40:55] Client "ИГОРЬ БАЛАНАР" spawned in server <STEAM_0:1:58174314> (took 167 seconds).
[09:41:02] Bangman: !r
[09:41:10] Bangman: !r
[09:41:12] Client "Pieseł" spawned in server <STEAM_0:1:78568112> (took 66 seconds).
[09:41:24] Client "R3fyr" connected.
[09:42:25] Dropped "Bangman" from server<STEAM_0:1:29121980>
[09:51:27] Client "szynka i wieprzyk" connected.
[09:51:48] Dropped "ИГОРЬ БАЛАНАР" from server<STEAM_0:1:58174314>
[09:52:33] Dropped "Pieseł" from server<STEAM_0:1:78568112>
[09:55:53] Client "ShineyDragooon" connected.
[09:56:04] Client "R3fyr" spawned in server <STEAM_0:0:94421204> (took 880 seconds).
[10:01:49] Client "David Kun" connected.
[10:03:09] Dropped "R3fyr" from server<STEAM_0:0:94421204>
[10:05:10] Client "David Kun" spawned in server <STEAM_0:1:166226787> (took 201 seconds).
[10:07:38] Dropped "David Kun" from server<STEAM_0:1:166226787>
[10:07:38] Dropped "Bot554" from server<BOT>
[10:07:38] Dropped "Bot555" from server<BOT>
[10:08:45] Server is shutting down/changing levels.



[10:08:57] New map: surf_utopia_njv
[10:09:28] Client "Cooby" connected.
[10:10:10] Client "Cooby" spawned in server <STEAM_0:0:193821862> (took 42 seconds).
[10:10:10] Client "Bot556" connected.
[10:10:10] Client "Bot556" spawned in server <BOT> (took 74 seconds).
[10:10:12] Client "Bot557" connected.
[10:10:12] Client "Bot557" spawned in server <BOT> (took 76 seconds).
[10:10:51] Cooby: /rtv
[10:10:53] Cooby: /r
[10:13:09] Client "kerrylavis1" connected.
[10:14:06] Client "kerrylavis1" spawned in server <STEAM_0:0:170974809> (took 57 seconds).
[10:14:29] Client "Lundaa- JNR" connected.
[10:14:38] Cooby: /r
[10:15:23] Client "Lundaa- JNR" spawned in server <STEAM_0:0:49395821> (took 54 seconds).
[10:15:24] Dropped "Cooby" from server<STEAM_0:0:193821862>
[10:16:01] Dropped "kerrylavis1" from server<STEAM_0:0:170974809>
[10:17:42] Dropped "Lundaa- JNR" from server<STEAM_0:0:49395821>
[10:17:42] Dropped "Bot556" from server<BOT>
[10:17:42] Dropped "Bot557" from server<BOT>
[10:17:56] Client "Lundaa- JNR" connected.
[10:25:17] Client "ArmagHEADon ☕" connected.
[10:25:27] Client "ArmagHEADon ☕" spawned in server <STEAM_0:0:68013945> (took 10 seconds).
[10:25:27] Client "Bot558" connected.
[10:25:27] Client "Bot558" spawned in server <BOT> (took 991 seconds).
[10:25:29] Client "Bot559" connected.
[10:25:29] Client "Bot559" spawned in server <BOT> (took 993 seconds).



[10:27:44] New map: surf_mesa
[10:28:39] Client "ArmagHEADon ☕" spawned in server <STEAM_0:0:68013945> (took 55 seconds).
[10:28:39] Client "Bot01" connected.
[10:28:39] Client "Bot01" spawned in server <BOT> (took 60 seconds).
[10:28:41] Client "Bot02" connected.
[10:28:41] Client "Bot02" spawned in server <BOT> (took 62 seconds).
[10:40:10] Client "Notnau" connected.
[10:41:32] Client "Notnau" connected.
[10:41:59] Client "Notnau" spawned in server <STEAM_0:1:56420005> (took 27 seconds).
[10:42:53] Dropped "Notnau" from server<STEAM_0:1:56420005>
[10:44:24] Client "Notnau" connected.
[10:44:29] Client "ham sandwich" connected.
[10:44:31] Client "Notnau" spawned in server <STEAM_0:1:56420005> (took 7 seconds).
[10:44:43] (TEAM) ArmagHEADon ☕: !bot
[10:45:02] (TEAM) ArmagHEADon ☕: !bot
[10:46:45] Client "ham sandwich" spawned in server <STEAM_0:1:155803930> (took 136 seconds).
[10:54:05] Notnau: !r
[10:56:16] Client "ISO" connected.
[10:57:48] Dropped "Notnau" from server<STEAM_0:1:56420005>
[10:57:56] Client "ISO" spawned in server <STEAM_0:1:176795983> (took 100 seconds).
[10:58:20] Server is shutting down/changing levels.



[10:58:27] New map: surf_sundown_njv
[10:58:44] Client "ArmagHEADon ☕" spawned in server <STEAM_0:0:68013945> (took 18 seconds).
[10:58:44] Client "Bot03" connected.
[10:58:44] Client "Bot03" spawned in server <BOT> (took 18 seconds).
[10:58:46] Client "Bot04" connected.
[10:58:46] Client "Bot04" spawned in server <BOT> (took 20 seconds).
[10:59:10] Client "ham sandwich" spawned in server <STEAM_0:1:155803930> (took 44 seconds).
[11:02:07] Dropped "ArmagHEADon ☕" from server<STEAM_0:0:68013945>
[11:03:35] Client "Lundaa- JNR" connected.
[11:03:50] Client "Sasha Braus" connected.
[11:04:01] Client "Swagonometry" connected.
[11:04:37] Client "Swagonometry" spawned in server <STEAM_0:0:56714867> (took 36 seconds).
[11:04:46] Client "Sasha Braus" spawned in server <STEAM_0:1:85097892> (took 56 seconds).
[11:05:19] Dropped "Sasha Braus" from server<STEAM_0:1:85097892>
[11:05:55] Dropped "Swagonometry" from server<STEAM_0:0:56714867>
[11:06:27] Dropped "ham sandwich" from server<STEAM_0:1:155803930>
[11:06:27] Dropped "Bot03" from server<BOT>
[11:06:27] Dropped "Bot04" from server<BOT>
[11:23:16] Client "guerrit" connected.
[11:25:22] Client "guerrit" spawned in server <STEAM_0:1:169962244> (took 126 seconds).
[11:25:22] Client "Bot05" connected.
[11:25:22] Client "Bot05" spawned in server <BOT> (took 1616 seconds).
[11:25:24] Client "Bot06" connected.
[11:25:24] Client "Bot06" spawned in server <BOT> (took 1618 seconds).
[11:29:03] Server is shutting down/changing levels.



[11:29:10] New map: surf_mesa_aether
[11:29:33] Client "guerrit" spawned in server <STEAM_0:1:169962244> (took 24 seconds).
[11:29:33] Client "Bot07" connected.
[11:29:33] Client "Bot07" spawned in server <BOT> (took 24 seconds).
[11:29:35] Client "Bot08" connected.
[11:29:35] Client "Bot08" spawned in server <BOT> (took 26 seconds).
[11:37:30] Client "Fleight" connected.
[11:38:18] Client "Fleight" spawned in server <STEAM_0:0:82803438> (took 48 seconds).
[11:42:36] Dropped "Fleight" from server<STEAM_0:0:82803438>
[11:43:30] Client "Cloud" connected.
[11:45:36] Client "Cloud" spawned in server <STEAM_0:1:187678380> (took 126 seconds).
[11:46:54] Client "jmangin1259" connected.
[11:49:52] Client "jmangin1259" spawned in server <STEAM_0:0:192258962> (took 178 seconds).
[11:58:35] Cloud: !steam
[11:59:07] Client "thedivisiondx23" connected.
[11:59:47] Server is shutting down/changing levels.



[11:59:53] New map: surf_stonework3
[12:00:32] Client "jmangin1259" spawned in server <STEAM_0:0:192258962> (took 40 seconds).
[12:00:33] Client "Bot09" connected.
[12:00:33] Client "Bot09" spawned in server <BOT> (took 41 seconds).
[12:00:35] Client "Bot10" connected.
[12:00:35] Client "Bot10" spawned in server <BOT> (took 43 seconds).
[12:00:41] Client "Cloud" spawned in server <STEAM_0:1:187678380> (took 49 seconds).
[12:00:47] Client "guerrit" spawned in server <STEAM_0:1:169962244> (took 55 seconds).
[12:01:42] Client "thedivisiondx23" spawned in server <STEAM_0:0:185899971> (took 110 seconds).
[12:05:52] Cloud: !steam
[12:05:54] (TEAM) guerrit: !steam
[12:06:16] Client "Georges" connected.
[12:06:53] Cloud: !steam
[12:06:59] Client "Georges" spawned in server <STEAM_0:1:80763561> (took 43 seconds).
[12:08:02] Client "h.jalava" connected.
[12:09:16] Georges: !r
[12:09:21] Client "h.jalava" spawned in server <STEAM_0:1:173284810> (took 79 seconds).
[12:09:53] Georges: !r
[12:10:41] Georges: !r
[12:10:48] Client "KJelles The Camel" connected.
[12:11:17] Client "KJelles The Camel" spawned in server <STEAM_0:0:50269528> (took 29 seconds).
[12:11:47] Cloud: !steam
[12:11:49] Client "SirSnake" connected.
[12:12:31] Georges: !rtv
[12:12:32] Georges: !r
[12:12:40] Cloud: !STEAM
[12:12:45] Cloud: !steam
[12:12:47] Dropped "h.jalava" from server<STEAM_0:1:173284810>
[12:13:14] KJelles The Camel: Indeed. ( ͡° ͜ʖ ͡°)
[12:13:30] Georges: !r
[12:13:55] Client "Kurtox" connected.
[12:14:39] Client "Kurtox" spawned in server <STEAM_0:0:71079069> (took 44 seconds).
[12:15:48] Dropped "jmangin1259" from server<STEAM_0:0:192258962>
[12:16:26] Georges: !r
[12:16:43] Cloud: !bot
[12:16:53] Georges: !r
[12:16:56] Georges: !r
[12:17:00] Dropped "KJelles The Camel" from server<STEAM_0:0:50269528>
[12:17:07] Georges: !rtv
[12:17:09] Georges: .!rtv pls
[12:17:31] Cloud: !steam
[12:17:47] Dropped "Kurtox" from server<STEAM_0:0:71079069>
[12:17:54] Dropped "Georges" from server<STEAM_0:1:80763561>
[12:24:54] Dropped "thedivisiondx23" from server<STEAM_0:0:185899971>
[12:25:04] Cloud: !bot add
[12:30:30] Server is shutting down/changing levels.



[12:30:38] New map: surf_classics2
[12:31:16] Client "Cloud" spawned in server <STEAM_0:1:187678380> (took 40 seconds).
[12:31:16] Client "Bot11" connected.
[12:31:16] Client "Bot11" spawned in server <BOT> (took 40 seconds).
[12:31:18] Client "Bot12" connected.
[12:31:18] Client "Bot12" spawned in server <BOT> (took 42 seconds).
[12:31:35] Client "guerrit" spawned in server <STEAM_0:1:169962244> (took 59 seconds).
[12:31:37] Client "thedivisiondx23" connected.
[12:32:25] Client "thedivisiondx23" spawned in server <STEAM_0:0:185899971> (took 48 seconds).
[12:33:08] Dropped "guerrit" from server<STEAM_0:1:169962244>
[12:33:11] Dropped "Cloud" from server<STEAM_0:1:187678380>
[12:36:27] Client "Aetii" connected.
[12:40:38] Dropped "thedivisiondx23" from server<STEAM_0:0:185899971>
[12:40:38] Dropped "Bot11" from server<BOT>
[12:40:38] Dropped "Bot12" from server<BOT>
[12:42:51] Client "Drty" connected.
[12:43:42] Client "Drty" spawned in server <STEAM_0:1:172220397> (took 51 seconds).
[12:43:42] Client "Bot13" connected.
[12:43:42] Client "Bot13" spawned in server <BOT> (took 786 seconds).
[12:43:44] Client "Bot14" connected.
[12:43:44] Client "Bot14" spawned in server <BOT> (took 788 seconds).
[12:43:57] Drty: !top
[12:45:42] Drty: !help
[12:47:05] Client "Greenpro" connected.
[12:47:37] Client "Greenpro" spawned in server <STEAM_0:1:49910556> (took 32 seconds).
[12:47:51] Greenpro: !r
[12:48:42] Dropped "Drty" from server<STEAM_0:1:172220397>
[12:50:15] Greenpro: !r
[12:51:52] Dropped "Greenpro" from server<STEAM_0:1:49910556>
[12:51:52] Dropped "Bot13" from server<BOT>
[12:51:52] Dropped "Bot14" from server<BOT>
[12:57:55] Client "Pickle [EN]" connected.
[12:58:15] Client "Pickle [EN]" spawned in server <STEAM_0:1:126440019> (took 20 seconds).
[12:58:15] Client "Bot15" connected.
[12:58:15] Client "Bot15" spawned in server <BOT> (took 1659 seconds).
[12:58:17] Client "Bot16" connected.
[12:58:17] Client "Bot16" spawned in server <BOT> (took 1661 seconds).
[13:01:14] Server is shutting down/changing levels.



[13:01:21] New map: surf_classics
[13:01:43] Client "killagarila" connected.
[13:01:50] Client "Pickle [EN]" spawned in server <STEAM_0:1:126440019> (took 30 seconds).
[13:01:50] Client "Bot17" connected.
[13:01:50] Client "Bot17" spawned in server <BOT> (took 30 seconds).
[13:01:52] Client "Bot18" connected.
[13:01:52] Client "Bot18" spawned in server <BOT> (took 32 seconds).
[13:02:14] Client "Golden Dust LTHAX" connected.
[13:03:16] Client "Golden Dust LTHAX" spawned in server <STEAM_0:0:50299059> (took 62 seconds).
[13:03:29] Client "killagarila" spawned in server <STEAM_0:1:94299340> (took 106 seconds).
[13:14:26] Client "thebeveridge" connected.
[13:16:14] Client "thebeveridge" spawned in server <STEAM_0:0:160083839> (took 108 seconds).
[13:20:37] Dropped "killagarila" from server<STEAM_0:1:94299340>
[13:22:09] Golden Dust LTHAX: a week left to F8
[13:22:41] Pickle [EN]: I'd get hyped but Idk what F8 is :/
[13:22:56] Golden Dust LTHAX: FAST AND FURIPUS 8
[13:22:59] Dropped "thebeveridge" from server<STEAM_0:0:160083839>
[13:22:59] Pickle [EN]: ew
[13:23:19] Golden Dust LTHAX: fast and furious 8
[13:23:25] Pickle [EN]: E w
[13:24:06] Client "Михаско" connected.
[13:24:20] Dropped "Pickle [EN]" from server<STEAM_0:1:126440019>
[13:26:07] Client "Михаско" spawned in server <STEAM_0:0:119840881> (took 121 seconds).
[13:26:23] Client "aggeloslewan1995" connected.
[13:26:44] Golden Dust LTHAX: russian noob 
[13:26:49] Dropped "Golden Dust LTHAX" from server<STEAM_0:0:50299059>
[13:28:07] Client "aggeloslewan1995" spawned in server <STEAM_0:1:121453278> (took 104 seconds).
[13:29:04] Dropped "Михаско" from server<STEAM_0:0:119840881>
[13:30:40] Client "Михаско" connected.
[13:30:53] Client "Михаско" spawned in server <STEAM_0:0:119840881> (took 13 seconds).
[13:31:57] Server is shutting down/changing levels.



[13:32:04] New map: surf_graphia
[13:32:41] Client "Михаско" spawned in server <STEAM_0:0:119840881> (took 38 seconds).
[13:32:41] Client "Bot19" connected.
[13:32:41] Client "Bot19" spawned in server <BOT> (took 38 seconds).
[13:32:43] Client "Bot20" connected.
[13:32:43] Client "Bot20" spawned in server <BOT> (took 40 seconds).
[13:33:04] Client "aggeloslewan1995" spawned in server <STEAM_0:1:121453278> (took 61 seconds).
[13:33:25] Dropped "Михаско" from server<STEAM_0:0:119840881>
[13:33:29] Client "Михаско" connected.
[13:33:35] Client "Михаско" connected.
[13:33:47] Client "Михаско" spawned in server <STEAM_0:0:119840881> (took 12 seconds).
[13:36:46] Client "paws" connected.
[13:36:50] Client "icanfly" connected.
[13:37:06] Client "hukchuck" connected.
[13:38:02] Client "paws" spawned in server <STEAM_0:1:26189227> (took 76 seconds).
[13:38:46] Client "icanfly" spawned in server <STEAM_0:0:163615610> (took 116 seconds).
[13:39:05] Dropped "paws" from server<STEAM_0:1:26189227>
[13:39:58] Dropped "icanfly" from server<STEAM_0:0:163615610>
[13:41:08] Client "hukchuck" spawned in server <STEAM_0:1:127091233> (took 242 seconds).
[13:41:29] Dropped "aggeloslewan1995" from server<STEAM_0:1:121453278>
[13:43:21] Client "aggeloslewan1995" connected.
[13:43:59] Client "aggeloslewan1995" spawned in server <STEAM_0:1:121453278> (took 38 seconds).
[13:44:43] Client "ГЛАЙ" connected.
[13:44:57] Dropped "hukchuck" from server<STEAM_0:1:127091233>
[13:46:16] Client "HappySlayer27" connected.
[13:46:21] Client "Роха Cardinal39" connected.
[13:46:27] Client "ГЛАЙ" spawned in server <STEAM_0:0:140910644> (took 104 seconds).
[13:47:07] Client "HappySlayer27" spawned in server <STEAM_0:0:176311387> (took 51 seconds).
[13:47:21] Client "Deatholi_2000" connected.
[13:47:34] Client "Роха Cardinal39" spawned in server <STEAM_0:0:82951281> (took 73 seconds).
[13:48:58] Client "Deatholi_2000" spawned in server <STEAM_0:1:156939123> (took 97 seconds).
[13:49:17] ГЛАЙ: !knife
[13:49:32] ГЛАЙ: hj[f
[13:49:33] (TEAM) Deatholi_2000: 1knive
[13:49:39] (TEAM) Deatholi_2000: !knive
[13:49:41] ГЛАЙ: роха
[13:49:42] ГЛАЙ: сука
[13:49:48] (TEAM) Deatholi_2000: !knive
[13:49:49] ГЛАЙ: ЖВ
[13:49:52] ГЛАЙ: ЖВ
[13:49:56] ГЛАЙ: :D
[13:50:03] ГЛАЙ: z gbhj;jr tv
[13:50:11] ГЛАЙ: я пирожок ем
[13:50:18] ГЛАЙ: да
[13:50:25] ГЛАЙ: дать?
[13:51:15] ГЛАЙ: го в дискорд?
[13:52:52] ГЛАЙ: alan walker nice
[13:52:56] ГЛАЙ: AYE
[13:53:37] (TEAM) Deatholi_2000: rtv
[13:53:42] (TEAM) Deatholi_2000: !rtv
[13:53:49] ГЛАЙ: I LOVE ALAN WALKER
[13:54:05] Dropped "Deatholi_2000" from server<STEAM_0:1:156939123>
[13:55:20] ГЛАЙ: !kb
[13:55:37] ГЛАЙ: Роха
[13:56:02] Client "JL4" connected.
[13:57:48] Client "JL4" spawned in server <STEAM_0:1:66760436> (took 106 seconds).
[13:58:02] ГЛАЙ: ,kznm xnj pf e vtyz rjvg
[13:58:09] ГЛАЙ: бля что за комп у меня такой
[13:58:16] ГЛАЙ: на минималках лагает призаписи
[13:58:20] ГЛАЙ: на высоких ент
[13:58:22] ГЛАЙ: нет
[13:58:23] ГЛАЙ: :D
[13:58:34] Dropped "HappySlayer27" from server<STEAM_0:0:176311387>
[13:59:12] Client "Nikita_M15" connected.
[13:59:24] ГЛАЙ: !ои
[13:59:57] ГЛАЙ: роха
[14:00:02] ГЛАЙ: го в дискорд
[14:00:53] Dropped "ГЛАЙ" from server<STEAM_0:0:140910644>
[14:02:04] Dropped "Роха Cardinal39" from server<STEAM_0:0:82951281>
[14:02:40] Server is shutting down/changing levels.



[14:02:47] New map: surf_beginner
[14:02:49] Client "ГЛАЙ" connected.
[14:03:11] Client "Михаско" spawned in server <STEAM_0:0:119840881> (took 25 seconds).
[14:03:11] Client "Bot21" connected.
[14:03:11] Client "Bot21" spawned in server <BOT> (took 25 seconds).
[14:03:13] Client "Bot22" connected.
[14:03:13] Client "Bot22" spawned in server <BOT> (took 27 seconds).
[14:03:34] Client "aggeloslewan1995" spawned in server <STEAM_0:1:121453278> (took 48 seconds).
[14:03:45] Client "ГЛАЙ" spawned in server <STEAM_0:0:140910644> (took 56 seconds).
[14:04:22] Client "Nikita_M15" spawned in server <STEAM_0:1:180526725> (took 96 seconds).
[14:04:36] ГЛАЙ: Никита
[14:04:39] ГЛАЙ: я пирожок ем
[14:04:40] ГЛАЙ: :D
[14:06:35] ГЛАЙ: !ои
[14:07:23] ГЛАЙ: Ybrbnf
[14:07:25] ГЛАЙ: Никита
[14:07:30] ГЛАЙ: умеешь серфить?
[14:08:00] ГЛАЙ: когда едишь по левой стороне нажимай d и не нажимай w
[14:08:07] Client "Detroit" connected.
[14:08:16] ГЛАЙ: когда едишь по правой стороне нажимай a не нажимай w
[14:09:19] ГЛАЙ: !ои
[14:09:43] ГЛАЙ: ye [p
[14:09:45] ГЛАЙ: я хз
[14:09:48] Client "Detroit" spawned in server <STEAM_0:1:128506862> (took 101 seconds).
[14:09:48] ГЛАЙ: смотри на ютубе
[14:09:50] ГЛАЙ: как
[14:09:52] ГЛАЙ: серфить
[14:10:08] ГЛАЙ: я тебя не слышу
[14:10:12] ГЛАЙ: я музыку слышу
[14:10:14] ГЛАЙ: только
[14:10:59] Client "Shinichi Kudo" connected.
[14:11:55] Client "Shinichi Kudo" spawned in server <STEAM_0:1:168750113> (took 56 seconds).
[14:11:58] Detroit: CERF 
[14:11:59] ГЛАЙ: !rtv
[14:12:02] ГЛАЙ: go rtv
[14:12:04] Detroit: QCHTO TAK LAGAET
[14:12:11] ГЛАЙ: поч
[14:12:13] ГЛАЙ: лагает?
[14:12:15] Михаско: ААААА 3 этап и я не могу его пройти
[14:12:20] ГЛАЙ: +
[14:12:40] ГЛАЙ: ALAN WALKER LOVE
[14:13:20] ГЛАЙ: НАПИШИ НА ЮТУБЕ как серфить в кс 
[14:13:23] ГЛАЙ: там тоже самое
[14:13:25] ГЛАЙ: будет
[14:13:32] Dropped "Detroit" from server<STEAM_0:1:128506862>
[14:13:42] Client "R3fyr" connected.
[14:13:56] Михаско: ааааа памагити
[14:14:06] Client "TFF RAMMIDK" connected.
[14:14:14] Михаско: как же мне сложно нубу
[14:14:29] Client "R3fyr" spawned in server <STEAM_0:0:94421204> (took 47 seconds).
[14:15:01] Client "TFF RAMMIDK" spawned in server <STEAM_0:0:119010805> (took 55 seconds).
[14:15:37] ГЛАЙ: OYE snoop doog
[14:16:55] Dropped "aggeloslewan1995" from server<STEAM_0:1:121453278>
[14:17:32] Dropped "Nikita_M15" from server<STEAM_0:1:180526725>
[14:18:05] Dropped "TFF RAMMIDK" from server<STEAM_0:0:119010805>
[14:18:30] Client "ImTheDream" connected.
[14:18:53] Shinichi Kudo:  !r
[14:18:55] Shinichi Kudo: !
[14:18:56] Dropped "R3fyr" from server<STEAM_0:0:94421204>
[14:19:02] Client "ImTheDream" spawned in server <STEAM_0:0:197188393> (took 32 seconds).
[14:19:44] Client "skerner" connected.
[14:20:00] Client "Wolfie" connected.
[14:20:07] Shinichi Kudo: immpossilb e
[14:20:40] Client "Wolfie" spawned in server <STEAM_0:1:19521155> (took 40 seconds).
[14:21:13] Shinichi Kudo: !r
[14:21:59] Dropped "Wolfie" from server<STEAM_0:1:19521155>
[14:22:59] Client "Nut"я" connected.
[14:23:02] Client "LuciuS'" connected.
[14:23:14] Client "Nut"я" spawned in server <STEAM_0:1:78849836> (took 15 seconds).
[14:24:55] Dropped "Nut"я" from server<STEAM_0:1:78849836>
[14:27:47] Dropped "ImTheDream" from server<STEAM_0:0:197188393>
[14:31:33] Dropped "ГЛАЙ" from server<STEAM_0:0:140910644>
[14:33:23] Server is shutting down/changing levels.



[14:33:31] New map: surf_island
[14:34:59] Client "Shinichi Kudo" spawned in server <STEAM_0:1:168750113> (took 89 seconds).
[14:34:59] Client "Bot23" connected.
[14:34:59] Client "Bot23" spawned in server <BOT> (took 89 seconds).
[14:35:01] Client "Bot24" connected.
[14:35:01] Client "Bot24" spawned in server <BOT> (took 91 seconds).
[14:35:54] Client "Михаско" spawned in server <STEAM_0:0:119840881> (took 144 seconds).
[14:37:45] Client "unskilled | C9 JaY // +S" connected.
[14:37:53] Client "Nut"я" connected.
[14:38:02] Client "Nut"я" spawned in server <STEAM_0:1:78849836> (took 9 seconds).
[14:38:33] Client "unskilled | C9 JaY // +S" spawned in server <STEAM_0:0:91621136> (took 48 seconds).
[14:38:57] unskilled | C9 JaY // +S: !rtv
[14:42:22] Dropped "Nut"я" from server<STEAM_0:1:78849836>
[14:42:30] Client "ReŹi" connected.
[14:43:31] Dropped "Shinichi Kudo" from server<STEAM_0:1:168750113>
[14:44:19] Client "SnapY_Czoko_" connected.
[14:44:37] unskilled | C9 JaY // +S voted for surf_funhouse_v1 (1/3)
[14:44:37] unskilled | C9 JaY // +S: !votemap 9
[14:44:48] unskilled | C9 JaY // +S: !votemap 15
[14:45:18] unskilled | C9 JaY // +S: !rtv
[14:45:27] unskilled | C9 JaY // +S: pls wirte !rtv
[14:46:38] Client "AbiPlayZx" connected.
[14:47:03] Client "AbiPlayZx" spawned in server <STEAM_0:0:158208046> (took 25 seconds).
[14:48:40] Client "Burned Brownie" connected.
[14:48:44] Client "SnapY_Czoko_" spawned in server <STEAM_0:0:180762640> (took 265 seconds).
[14:49:35] Client "Burned Brownie" spawned in server <STEAM_0:1:26617204> (took 55 seconds).
[14:50:13] Burned Brownie: !rtv
[14:50:39] unskilled | C9 JaY // +S: !votemap
[14:50:41] AbiPlayZx: !rtv
[14:51:09] unskilled | C9 JaY // +S voted for surf_classics2 (1/3)
[14:51:09] unskilled | C9 JaY // +S: !votemap 6
[14:51:15] Burned Brownie voted for surf_classics2 (2/3)
[14:51:15] Burned Brownie: !votemap 6
[14:51:33] AbiPlayZx: !votemap classic 2
[14:52:00] Burned Brownie: ,,!votemap 6
[14:52:01] Client "algotn" connected.
[14:52:04] AbiPlayZx voted for surf_classics2 (3/3)
[14:52:04] Votemap for surf_classics2 won.
[14:52:04] AbiPlayZx: !votemap 6
[14:52:04] Server is shutting down/changing levels.



[14:52:12] New map: surf_classics2
[14:52:24] Client "AbiPlayZx" spawned in server <STEAM_0:0:158208046> (took 13 seconds).
[14:52:24] Client "Bot25" connected.
[14:52:24] Client "Bot25" spawned in server <BOT> (took 13 seconds).
[14:52:26] Client "Bot26" connected.
[14:52:26] Client "Bot26" spawned in server <BOT> (took 15 seconds).
[14:52:38] Client "Burned Brownie" spawned in server <STEAM_0:1:26617204> (took 27 seconds).
[14:52:58] Client "Михаско" spawned in server <STEAM_0:0:119840881> (took 47 seconds).
[14:52:59] Client "unskilled | C9 JaY // +S" spawned in server <STEAM_0:0:91621136> (took 48 seconds).
[14:53:03] Burned Brownie: !knife
[14:54:02] Client "algotn" spawned in server <STEAM_0:0:118467911> (took 111 seconds).
[14:55:03] algotn: why is the maps texture just the pink and black boxes
[14:55:21] unskilled | C9 JaY // +S: bc you dont have the textures
[14:55:36] unskilled | C9 JaY // +S: halflife 2 and cs source
[14:55:40] algotn: ok
[14:55:51] algotn: fffffffffffffffffffffffffffffffffffffffffffffffff
[14:55:53] unskilled | C9 JaY // +S: you can write it in youtube
[14:57:34] unskilled | C9 JaY // +S: !r
[14:58:06] Dropped "algotn" from server<STEAM_0:0:118467911>
[14:58:27] AbiPlayZx: y
[14:58:31] AbiPlayZx: !knife 
[14:59:40] unskilled | C9 JaY // +S: !votemap 15
[15:01:05] AbiPlayZx: !r
[15:02:12] Dropped "Михаско" from server<STEAM_0:0:119840881>
[15:02:26] Client "Михаско" connected.
[15:02:38] Client "Михаско" spawned in server <STEAM_0:0:119840881> (took 12 seconds).
[15:05:14] unskilled | C9 JaY // +S voted for surf_kitsune (1/3)
[15:05:14] unskilled | C9 JaY // +S: !votemap 15
[15:05:40] Burned Brownie voted for surf_kitsune (2/3)
[15:05:40] Burned Brownie: !votemap 15
[15:05:56] AbiPlayZx voted for surf_kitsune (3/3)
[15:05:56] Votemap for surf_kitsune won.
[15:05:56] AbiPlayZx: !votemap 15
[15:05:56] Server is shutting down/changing levels.



[15:06:03] New map: surf_kitsune
[15:06:18] Client "AbiPlayZx" spawned in server <STEAM_0:0:158208046> (took 16 seconds).
[15:06:18] Client "Bot27" connected.
[15:06:18] Client "Bot27" spawned in server <BOT> (took 16 seconds).
[15:06:20] Client "Bot28" connected.
[15:06:20] Client "Bot28" spawned in server <BOT> (took 18 seconds).
[15:06:43] Client "unskilled | C9 JaY // +S" spawned in server <STEAM_0:0:91621136> (took 41 seconds).
[15:06:45] Client "Burned Brownie" spawned in server <STEAM_0:1:26617204> (took 43 seconds).
[15:07:08] Client "Михаско" connected.
[15:07:18] Client "ass" connected.
[15:07:20] Client "Михаско" connected.
[15:07:34] Client "cocopoulet57" connected.
[15:07:37] Client "MG fbjfdsjbkdjfeuf" connected.
[15:08:10] Client "ass" spawned in server <STEAM_0:1:67773629> (took 52 seconds).
[15:08:50] Client "cocopoulet57" spawned in server <STEAM_0:1:170010839> (took 76 seconds).
[15:09:38] Client "Михаско" connected.
[15:09:54] Client "Михаско" spawned in server <STEAM_0:0:119840881> (took 16 seconds).
[15:10:06] Client "MG fbjfdsjbkdjfeuf" spawned in server <STEAM_0:0:103792183> (took 149 seconds).
[15:11:50] unskilled | C9 JaY // +S: kreygasm
[15:11:51] AbiPlayZx: kregasm
[15:13:00] Client "algotn" connected.
[15:13:57] Client "algotn" spawned in server <STEAM_0:0:118467911> (took 57 seconds).
[15:14:43] ass: !shop
[15:15:32] Client "_SlamOver_" connected.
[15:15:53] Client "_SlamOver_" spawned in server <STEAM_0:1:194960052> (took 21 seconds).
[15:16:03] Dropped "MG fbjfdsjbkdjfeuf" from server<STEAM_0:0:103792183>
[15:16:48] Client "RevolT™" connected.
[15:17:20] Client "Strixor" connected.
[15:17:24] algotn: no
[15:17:45] algotn: yes
[15:18:30] Client "Strixor" spawned in server <STEAM_0:0:155784660> (took 70 seconds).
[15:18:46] Dropped "ass" from server<STEAM_0:1:67773629>
[15:18:52] algotn: how do i get back to the start?
[15:18:58] Dropped "Михаско" from server<STEAM_0:0:119840881>
[15:19:03] Burned Brownie: do !r
[15:19:06] (TEAM) algotn: !r
[15:19:08] algotn: /advert Over
[15:19:09] Client "KJelles The Camel" connected.
[15:19:11] algotn: tnx
[15:19:36] Client "KJelles The Camel" spawned in server <STEAM_0:0:50269528> (took 27 seconds).
[15:19:41] (TEAM) algotn: !r
[15:19:59] KJelles The Camel: Indeed. ( ͡° ͜ʖ ͡°)
[15:20:18] KJelles The Camel: !r
[15:20:52] KJelles The Camel: !r
[15:21:13] KJelles The Camel: !r
[15:21:33] KJelles The Camel: !r
[15:21:37] (TEAM) algotn: !knife
[15:21:58] (TEAM) algotn: !gun
[15:22:06] (TEAM) algotn: !pistol
[15:22:16] KJelles The Camel: cocopoulet57 what u talking about mayn
[15:22:23] KJelles The Camel: !r
[15:22:36] Client "CONORREHA FACEFUCK" connected.
[15:22:37] KJelles The Camel: !r
[15:22:57] unskilled | C9 JaY // +S: !bot
[15:23:20] Client "CONORREHA FACEFUCK" spawned in server <STEAM_0:1:158107194> (took 44 seconds).
[15:23:22] KJelles The Camel: !r
[15:23:23] Client "Михаско" connected.
[15:23:34] KJelles The Camel: !r
[15:23:37] KJelles The Camel: !r
[15:23:37] Client "Михаско" connected.
[15:24:12] Dropped "_SlamOver_" from server<STEAM_0:1:194960052>
[15:24:21] KJelles The Camel: !r
[15:24:35] KJelles The Camel: !r
[15:24:39] CONORREHA FACEFUCK: !spec
[15:24:48] Client "leenkka" connected.
[15:25:33] Client "leenkka" spawned in server <STEAM_0:0:155407636> (took 45 seconds).
[15:25:42] Client "MG fbjfdsjbkdjfeuf" connected.
[15:25:44] unskilled | C9 JaY // +S: Thanky
[15:25:54] Client "MG fbjfdsjbkdjfeuf" spawned in server <STEAM_0:0:103792183> (took 12 seconds).
[15:26:14] CONORREHA FACEFUCK: !spec
[15:26:17] CONORREHA FACEFUCK: !knife
[15:26:22] KJelles The Camel: !r
[15:26:29] KJelles The Camel: !r
[15:26:57] KJelles The Camel gagged CONORREHA FACEFUCK
[15:27:20] KJelles The Camel gagged Burned Brownie,Strixor
[15:27:24] KJelles The Camel ungagged Strixor
[15:28:09] KJelles The Camel: !r
[15:28:39] KJelles The Camel: !r
[15:28:42] Client "Dude" connected.
[15:28:51] Client "NSG_Mercury" connected.
[15:29:03] Client "Dude" spawned in server <STEAM_0:0:22442784> (took 21 seconds).
[15:29:14] KJelles The Camel gagged cocopoulet57
[15:29:16] KJelles The Camel: !r
[15:29:28] KJelles The Camel: !r
[15:29:37] KJelles The Camel: !Rtv
[15:29:37] KJelles The Camel: !r
[15:29:38] KJelles The Camel: !r
[15:29:44] Strixor: !r
[15:29:51] KJelles The Camel: !r
[15:30:19] KJelles The Camel: !r
[15:31:03] Dropped "AbiPlayZx" from server<STEAM_0:0:158208046>
[15:31:03] Dropped "leenkka" from server<STEAM_0:0:155407636>
[15:31:11] KJelles The Camel: !r
[15:31:14] Dropped "MG fbjfdsjbkdjfeuf" from server<STEAM_0:0:103792183>
[15:31:21] Client "NSG_Mercury" spawned in server <STEAM_0:1:155786530> (took 150 seconds).
[15:31:35] Client "Nut"я" connected.
[15:31:48] Client "Nut"я" spawned in server <STEAM_0:1:78849836> (took 13 seconds).
[15:32:18] Nut"я: !r
[15:32:22] KJelles The Camel: !r
[15:32:58] Client "BOT Unknown // farmskins.com" connected.
[15:33:01] KJelles The Camel: !r
[15:33:14] Dropped "Dude" from server<STEAM_0:0:22442784>
[15:33:29] Dropped "Burned Brownie" from server<STEAM_0:1:26617204>
[15:33:32] Client "BOT Unknown // farmskins.com" spawned in server <STEAM_0:0:173990737> (took 34 seconds).
[15:33:40] Dropped "CONORREHA FACEFUCK" from server<STEAM_0:1:158107194>
[15:33:49] Dropped "unskilled | C9 JaY // +S" from server<STEAM_0:0:91621136>
[15:33:55] KJelles The Camel: !r
[15:34:11] KJelles The Camel: Wanna RTV? c:
[15:34:14] Nut"я: !r
[15:34:19] Strixor: no
[15:34:19] Nut"я: !rtv
[15:34:28] Nut"я: !r
[15:34:31] KJelles The Camel: !r
[15:34:57] Nut"я: 1r
[15:34:58] Strixor: !r
[15:34:59] Nut"я: !r
[15:35:21] Dropped "NSG_Mercury" from server<STEAM_0:1:155786530>
[15:35:29] Nut"я: !r
[15:35:45] KJelles The Camel: !r
[15:35:56] Nut"я: !r
[15:35:59] Dropped "BOT Unknown // farmskins.com" from server<STEAM_0:0:173990737>
[15:36:03] Dropped "algotn" from server<STEAM_0:0:118467911>
[15:36:18] Dropped "KJelles The Camel" from server<STEAM_0:0:50269528>
[15:36:38] Dropped "Nut"я" from server<STEAM_0:1:78849836>
[15:36:39] Server is shutting down/changing levels.



[15:36:46] New map: surf_mesa
[15:36:59] Client "Strixor" spawned in server <STEAM_0:0:155784660> (took 14 seconds).
[15:36:59] Client "Bot29" connected.
[15:36:59] Client "Bot29" spawned in server <BOT> (took 14 seconds).
[15:37:01] Client "Bot30" connected.
[15:37:01] Client "Bot30" spawned in server <BOT> (took 16 seconds).
[15:37:11] Client "cocopoulet57" spawned in server <STEAM_0:1:170010839> (took 26 seconds).
[15:37:33] Strixor: !steam
[15:37:39] Strixor: !steam
[15:38:14] Strixor: !steam
[15:39:13] cocopoulet57: ff
[15:40:45] Client "chrisplaugmann" connected.
[15:41:57] Client "chrisplaugmann" spawned in server <STEAM_0:1:93963135> (took 72 seconds).
[15:43:24] chrisplaugmann: Rip knives
[15:43:39] Client "leenkka" connected.
[15:43:48] Client "konstantin_was" connected.
[15:43:54] Client "leenkka" spawned in server <STEAM_0:0:155407636> (took 15 seconds).
[15:44:54] chrisplaugmann: !r
[15:45:26] Client "_SlamOver_" connected.
[15:46:35] Client "_SlamOver_" spawned in server <STEAM_0:1:194960052> (took 69 seconds).
[15:47:07] _SlamOver_: !r
[15:47:08] Client "T0xicFuri0usX" connected.
[15:47:12] chrisplaugmann: !r
[15:47:20] _SlamOver_: !r
[15:48:17] chrisplaugmann: !r
[15:48:36] Dropped "leenkka" from server<STEAM_0:0:155407636>
[15:48:43] Client "➶Merecer➶" connected.
[15:48:44] cocopoulet57: !steam
[15:48:48] Client "algotn" connected.
[15:48:50] Client "➶Advise➶" connected.
[15:49:08] _SlamOver_: !r
[15:49:09] Client "T0xicFuri0usX" spawned in server <STEAM_0:0:181981805> (took 121 seconds).
[15:49:24] (TEAM) cocopoulet57: !stem
[15:49:31] (TEAM) cocopoulet57: !steam
[15:49:33] T0xicFuri0usX: cancer
[15:49:44] Client "algotn" spawned in server <STEAM_0:0:118467911> (took 56 seconds).
[15:49:54] Client "➶Advise➶" spawned in server <STEAM_0:0:153258647> (took 64 seconds).
[15:50:02] Client "➶Merecer➶" spawned in server <STEAM_0:0:39535572> (took 79 seconds).
[15:50:49] Dropped "chrisplaugmann" from server<STEAM_0:1:93963135>
[15:50:49] Client "chrisplaugmann" connected.
[15:51:04] Client "chrisplaugmann" spawned in server <STEAM_0:1:93963135> (took 15 seconds).
[15:51:17] Dropped "Strixor" from server<STEAM_0:0:155784660>
[15:52:01] T0xicFuri0usX: cancer
[15:52:35] Dropped "T0xicFuri0usX" from server<STEAM_0:0:181981805>
[15:54:08] Client "[N-G] Leprechaun" connected.
[15:55:49] Client "❤✪★ARAS★✪❤" connected.
[15:56:51] Client "[N-G] Leprechaun" spawned in server <STEAM_0:0:55126906> (took 163 seconds).
[15:56:57] Client "❤✪★ARAS★✪❤" spawned in server <STEAM_0:0:136598760> (took 68 seconds).
[15:57:21] _SlamOver_: !rank
[15:57:47] _SlamOver_: !rank
[16:00:02] _SlamOver_: !r
[16:00:35] Dropped "➶Advise➶" from server<STEAM_0:0:153258647>
[16:00:48] _SlamOver_: !
[16:00:50] _SlamOver_: !r
[16:01:29] Dropped "chrisplaugmann" from server<STEAM_0:1:93963135>
[16:01:31] Client "chrisplaugmann" connected.
[16:01:46] Dropped "cocopoulet57" from server<STEAM_0:1:170010839>
[16:01:52] Client "chrisplaugmann" spawned in server <STEAM_0:1:93963135> (took 21 seconds).
[16:02:06] _SlamOver_: !r
[16:02:57] _SlamOver_: !r
[16:03:27] _SlamOver_: !r
[16:04:04] Client "depeg" connected.
[16:04:13] Dropped "algotn" from server<STEAM_0:0:118467911>
[16:04:51] Client "FuriousNissanGTR" connected.
[16:04:54] Client "depeg" spawned in server <STEAM_0:0:124004500> (took 50 seconds).
[16:07:07] Dropped "➶Merecer➶" from server<STEAM_0:0:39535572>
[16:07:22] Server is shutting down/changing levels.



[16:07:30] New map: surf_happyhands
[16:07:50] Client "_SlamOver_" spawned in server <STEAM_0:1:194960052> (took 22 seconds).
[16:07:50] Client "Bot31" connected.
[16:07:50] Client "Bot31" spawned in server <BOT> (took 22 seconds).
[16:07:52] Client "Bot32" connected.
[16:07:52] Client "Bot32" spawned in server <BOT> (took 24 seconds).
[16:08:04] Client "depeg" spawned in server <STEAM_0:0:124004500> (took 36 seconds).
[16:08:05] Client "❤✪★ARAS★✪❤" spawned in server <STEAM_0:0:136598760> (took 37 seconds).
[16:08:53] Client "chrisplaugmann" spawned in server <STEAM_0:1:93963135> (took 85 seconds).
[16:09:48] Dropped "❤✪★ARAS★✪❤" from server<STEAM_0:0:136598760>
[16:10:14] _SlamOver_: !spec
[16:11:35] _SlamOver_: !spec
[16:16:38] Client "camper1034" connected.
[16:17:30] Dropped "chrisplaugmann" from server<STEAM_0:1:93963135>
[16:19:30] Client "camper1034" spawned in server <STEAM_0:0:180582190> (took 172 seconds).
[16:20:24] _SlamOver_: !spec
[16:21:33] _SlamOver_: !spec
[16:22:02] Dropped "camper1034" from server<STEAM_0:0:180582190>
[16:24:05] _SlamOver_: !rtv
[16:25:07] Client "Bekir_AMG" connected.
[16:26:44] Client "Bekir_AMG" spawned in server <STEAM_0:1:150063778> (took 97 seconds).
[16:27:24] Bekir_AMG: !rtv
[16:27:53] _SlamOver_: !rank
[16:27:58] _SlamOver_: !rank
[16:28:01] Server is shutting down/changing levels.



[16:28:10] New map: surf_sluice_final
[16:28:28] Client "Notnau" connected.
[16:28:32] Client "_SlamOver_" spawned in server <STEAM_0:1:194960052> (took 24 seconds).
[16:28:32] Client "Bot33" connected.
[16:28:32] Client "Bot33" spawned in server <BOT> (took 24 seconds).
[16:28:34] Client "Bot34" connected.
[16:28:34] Client "Bot34" spawned in server <BOT> (took 26 seconds).
[16:28:39] Client "Bekir_AMG" spawned in server <STEAM_0:1:150063778> (took 31 seconds).
[16:28:52] Client "Notnau" spawned in server <STEAM_0:1:56420005> (took 24 seconds).
[16:29:42] Client "depeg" spawned in server <STEAM_0:0:124004500> (took 94 seconds).
[16:30:05] Dropped "Notnau" from server<STEAM_0:1:56420005>
[16:30:21] Dropped "Bekir_AMG" from server<STEAM_0:1:150063778>
[16:33:28] _SlamOver_: !rtv
[16:33:42] _SlamOver_: depeq could you type !rtv
[16:36:10] Client "Sr. Kuno" connected.
[16:36:17] _SlamOver_: !spec
[16:36:30] Client "TheMortafeifer" connected.
[16:37:44] Client "Sr. Kuno" spawned in server <STEAM_0:0:159922485> (took 94 seconds).
[16:38:30] Client "TheMortafeifer" spawned in server <STEAM_0:1:64241834> (took 120 seconds).
[16:38:35] Dropped "_SlamOver_" from server<STEAM_0:1:194960052>
[16:42:06] Sr. Kuno: !RTv
[16:42:07] TheMortafeifer: !rtv
[16:42:43] Server is shutting down/changing levels.



[16:42:50] New map: surf_rebel_scaz
[16:44:00] Client "Sr. Kuno" spawned in server <STEAM_0:0:159922485> (took 71 seconds).
[16:44:00] Client "Bot35" connected.
[16:44:00] Client "Bot35" spawned in server <BOT> (took 71 seconds).
[16:44:02] Client "Bot36" connected.
[16:44:02] Client "Bot36" spawned in server <BOT> (took 73 seconds).
[16:44:44] Client "depeg" spawned in server <STEAM_0:0:124004500> (took 115 seconds).
[16:44:48] Client "TheMortafeifer" spawned in server <STEAM_0:1:64241834> (took 119 seconds).
[16:50:11] Sr. Kuno: !steam
[16:51:45] Dropped "Sr. Kuno" from server<STEAM_0:0:159922485>
[16:53:47] Dropped "TheMortafeifer" from server<STEAM_0:1:64241834>
[16:59:15] Client "Uvuvwevwevwe Onyetenyevwe Osas" connected.
[16:59:37] Client "Uvuvwevwevwe Onyetenyevwe Osas" spawned in server <STEAM_0:1:53103910> (took 22 seconds).
[16:59:38] Client "Shadow" connected.
[17:00:41] Uvuvwevwevwe Onyetenyevwe Osas: !r
[17:00:51] Client "Shadow" spawned in server <STEAM_0:1:114710017> (took 73 seconds).
[17:01:24] Uvuvwevwevwe Onyetenyevwe Osas: !r
[17:02:03] Uvuvwevwevwe Onyetenyevwe Osas: !r
[17:03:29] Uvuvwevwevwe Onyetenyevwe Osas: !r
[17:03:34] Uvuvwevwevwe Onyetenyevwe Osas: !r
[17:03:43] Dropped "depeg" from server<STEAM_0:0:124004500>
[17:03:44] Uvuvwevwevwe Onyetenyevwe Osas: !r
[17:04:08] Uvuvwevwevwe Onyetenyevwe Osas: !r
[17:04:15] Uvuvwevwevwe Onyetenyevwe Osas: !r
[17:04:17] Uvuvwevwevwe Onyetenyevwe Osas: !r
[17:04:25] Uvuvwevwevwe Onyetenyevwe Osas: !r
[17:05:27] Uvuvwevwevwe Onyetenyevwe Osas: !r
[17:06:02] Uvuvwevwevwe Onyetenyevwe Osas: !r
[17:06:05] Uvuvwevwevwe Onyetenyevwe Osas: !r
[17:06:12] Dropped "Shadow" from server<STEAM_0:1:114710017>
[17:06:47] Uvuvwevwevwe Onyetenyevwe Osas: !r
[17:06:49] Client "patrick simpson" connected.
[17:07:27] Uvuvwevwevwe Onyetenyevwe Osas: !r
[17:08:04] Client "patrick simpson" spawned in server <STEAM_0:1:96299642> (took 75 seconds).
[17:08:06] Uvuvwevwevwe Onyetenyevwe Osas: !r
[17:08:15] Uvuvwevwevwe Onyetenyevwe Osas: !r
[17:08:23] Uvuvwevwevwe Onyetenyevwe Osas: !r
[17:08:29] Uvuvwevwevwe Onyetenyevwe Osas: !r
[17:08:32] Client "Чайка Мерлин!!!" connected.
[17:08:37] Dropped "patrick simpson" from server<STEAM_0:1:96299642>
[17:08:49] Uvuvwevwevwe Onyetenyevwe Osas: !r
[17:09:28] Uvuvwevwevwe Onyetenyevwe Osas: !r
[17:09:55] Client "Чайка Мерлин!!!" spawned in server <STEAM_0:0:150896625> (took 83 seconds).
[17:10:43] Client "MADD DOGG" connected.
[17:11:11] Dropped "Uvuvwevwevwe Onyetenyevwe Osas" from server<STEAM_0:1:53103910>
[17:11:23] Client "MADD DOGG" spawned in server <STEAM_0:1:90122478> (took 40 seconds).
[17:12:24] Dropped "Чайка Мерлин!!!" from server<STEAM_0:0:150896625>
[17:13:24] MADD DOGG: !r
[17:13:26] Server is shutting down/changing levels.



[17:13:33] New map: surf_forbidden_ways_ksf
[17:13:41] Client "MADD DOGG" spawned in server <STEAM_0:1:90122478> (took 9 seconds).
[17:13:41] Client "Bot37" connected.
[17:13:41] Client "Bot37" spawned in server <BOT> (took 9 seconds).
[17:13:43] Client "Bot38" connected.
[17:13:43] Client "Bot38" spawned in server <BOT> (took 11 seconds).
[17:15:20] Client "☁ RIKYY" connected.
[17:15:29] Client "☁ RIKYY" spawned in server <STEAM_0:0:46514935> (took 9 seconds).
[17:15:31] Client "DinuS.Stres CSGOCasino.net" connected.
[17:16:28] Client "DinuS.Stres CSGOCasino.net" spawned in server <STEAM_0:1:79471311> (took 57 seconds).
[17:17:12] Dropped "MADD DOGG" from server<STEAM_0:1:90122478>
[17:18:00] ☁ RIKYY: .!jb
[17:19:46] ☁ RIKYY: !r
[17:20:44] Dropped "☁ RIKYY" from server<STEAM_0:0:46514935>
[17:20:49] Dropped "DinuS.Stres CSGOCasino.net" from server<STEAM_0:1:79471311>
[17:20:49] Dropped "Bot37" from server<BOT>
[17:20:49] Dropped "Bot38" from server<BOT>
[17:22:44] Client "Yxal" connected.
[17:23:41] Client "Yxal" spawned in server <STEAM_0:0:172335600> (took 57 seconds).
[17:23:41] Client "Bot39" connected.
[17:23:41] Client "Bot39" spawned in server <BOT> (took 609 seconds).
[17:23:43] Client "Bot40" connected.
[17:23:43] Client "Bot40" spawned in server <BOT> (took 611 seconds).
[17:24:17] Client "RAIDER_GAME" connected.
[17:24:37] Client "RAIDER_GAME" spawned in server <STEAM_0:0:100992201> (took 20 seconds).
[17:26:52] Client "Sad" connected.
[17:27:51] Client "Sad" spawned in server <STEAM_0:1:122333552> (took 59 seconds).
[17:32:43] Dropped "Sad" from server<STEAM_0:1:122333552>
[17:33:38] Client "sayshain" connected.
[17:34:44] Client "sayshain" spawned in server <STEAM_0:0:179022471> (took 66 seconds).
[17:36:35] Dropped "RAIDER_GAME" from server<STEAM_0:0:100992201>
[17:37:56] Dropped "Yxal" from server<STEAM_0:0:172335600>
[17:44:09] Server is shutting down/changing levels.



[17:44:16] New map: surf_ace
[17:44:32] Client "sayshain" spawned in server <STEAM_0:0:179022471> (took 17 seconds).
[17:44:32] Client "Bot41" connected.
[17:44:32] Client "Bot41" spawned in server <BOT> (took 17 seconds).
[17:44:34] Client "Bot42" connected.
[17:44:34] Client "Bot42" spawned in server <BOT> (took 19 seconds).
[17:45:46] Client "Uzumaki Naruto" connected.
[17:49:25] Client "Uzumaki Naruto" connected.
[17:49:55] Client "Uzumaki Naruto" spawned in server <STEAM_0:0:78987587> (took 30 seconds).
[17:54:26] Dropped "Uzumaki Naruto" from server<STEAM_0:0:78987587>
[17:56:59] Dropped "sayshain" from server<STEAM_0:0:179022471>
[17:56:59] Dropped "Bot41" from server<BOT>
[17:56:59] Dropped "Bot42" from server<BOT>
[17:57:34] Client "ThatAwkwardGuy" connected.
[18:03:08] Client "GoGoHRB [FR]" connected.
[18:06:15] Client "-AG- WoopYoAss" connected.
[18:06:52] Client "{D0M1N4TI0N}♠NaiZzeN♠" connected.
[18:07:20] Client "-AG- WoopYoAss" spawned in server <STEAM_0:0:28037227> (took 65 seconds).
[18:07:20] Client "Bot43" connected.
[18:07:20] Client "Bot43" spawned in server <BOT> (took 1385 seconds).
[18:07:22] Client "{D0M1N4TI0N}♠NaiZzeN♠" spawned in server <STEAM_0:0:190629976> (took 30 seconds).
[18:07:22] Client "Bot44" connected.
[18:07:22] Client "Bot44" spawned in server <BOT> (took 1387 seconds).
[18:08:52] -AG- WoopYoAss: !r
[18:09:21] -AG- WoopYoAss: 1r
[18:09:22] -AG- WoopYoAss: !r
[18:09:33] -AG- WoopYoAss: !r
[18:10:18] -AG- WoopYoAss: !r
[18:10:49] -AG- WoopYoAss: !r
[18:11:30] -AG- WoopYoAss: !r
[18:11:40] -AG- WoopYoAss: !r
[18:11:51] -AG- WoopYoAss: !r
[18:12:52] -AG- WoopYoAss: !r
[18:13:10] Dropped "{D0M1N4TI0N}♠NaiZzeN♠" from server<STEAM_0:0:190629976>
[18:13:19] -AG- WoopYoAss: !r
[18:14:01] -AG- WoopYoAss: !r
[18:14:50] -AG- WoopYoAss: !r
[18:14:52] Server is shutting down/changing levels.



[18:14:59] New map: surf_sundown_njv
[18:15:16] Client "-AG- WoopYoAss" spawned in server <STEAM_0:0:28037227> (took 18 seconds).
[18:15:16] Client "Bot45" connected.
[18:15:16] Client "Bot45" spawned in server <BOT> (took 18 seconds).
[18:15:18] Client "Bot46" connected.
[18:15:18] Client "Bot46" spawned in server <BOT> (took 20 seconds).
[18:16:47] -AG- WoopYoAss: !r
[18:18:03] -AG- WoopYoAss: !r
[18:18:36] -AG- WoopYoAss: !r
[18:18:45] -AG- WoopYoAss: !r
[18:21:02] -AG- WoopYoAss: !R
[18:25:07] -AG- WoopYoAss: !R
[18:25:43] Client "epocSoN" connected.
[18:26:20] Client "epocSoN" spawned in server <STEAM_0:0:73797083> (took 37 seconds).
[18:27:26] epocSoN: !knife
[18:27:33] epocSoN: !huntsman
[18:28:19] -AG- WoopYoAss: !R
[18:29:13] Dropped "epocSoN" from server<STEAM_0:0:73797083>
[18:29:31] -AG- WoopYoAss: !r
[18:34:08] -AG- WoopYoAss: !R
[18:34:49] -AG- WoopYoAss: !r
[18:35:39] -AG- WoopYoAss: !r
[18:36:03] Client "SpartA" connected.
[18:36:30] Client "SpartA" spawned in server <STEAM_0:0:46445867> (took 27 seconds).
[18:36:57] -AG- WoopYoAss: !r
[18:38:07] SpartA: /r
[18:40:35] SpartA: /r
[18:40:40] SpartA: /r
[18:40:57] Client "shaderoses" connected.
[18:41:25] SpartA: /r
[18:41:30] Client "shaderoses" spawned in server <STEAM_0:0:55267386> (took 33 seconds).
[18:41:44] SpartA: /r
[18:42:36] SpartA: /r
[18:44:57] Client "Bekir_AMG" connected.
[18:45:35] Server is shutting down/changing levels.



[18:45:42] New map: surf_rebel_scaz
[18:45:53] Client "SpartA" spawned in server <STEAM_0:0:46445867> (took 12 seconds).
[18:45:53] Client "Bot47" connected.
[18:45:53] Client "Bot47" spawned in server <BOT> (took 12 seconds).
[18:45:55] Client "Bot48" connected.
[18:45:55] Client "Bot48" spawned in server <BOT> (took 14 seconds).
[18:46:20] Client "-AG- WoopYoAss" spawned in server <STEAM_0:0:28037227> (took 39 seconds).
[18:46:42] Client "shaderoses" spawned in server <STEAM_0:0:55267386> (took 61 seconds).
[18:46:54] SpartA: /r
[18:47:29] SpartA: /r
[18:48:06] SpartA: /r
[18:48:11] SpartA: /r
[18:48:12] Client "Bekir_AMG" spawned in server <STEAM_0:1:150063778> (took 151 seconds).
[18:48:18] SpartA: /r
[18:48:41] SpartA: /r
[18:48:47] SpartA: /r
[18:48:53] SpartA: /r
[18:49:28] SpartA: /r
[18:52:11] SpartA: /r
[18:52:23] SpartA: /r
[18:52:46] SpartA: /r
[18:53:27] SpartA: /r
[18:54:03] Client "Cancerous Kid" connected.
[18:54:08] SpartA: /r
[18:54:17] Dropped "shaderoses" from server<STEAM_0:0:55267386>
[18:54:55] SpartA: /r
[18:55:13] SpartA: /r
[18:55:39] Bekir_AMG: !rtv
[18:56:13] SpartA: /r
[18:56:30] Client "Cancerous Kid" spawned in server <STEAM_0:1:127456042> (took 147 seconds).
[18:57:15] (TEAM) SpartA: /r
[18:57:26] SpartA: /r
[18:58:00] SpartA: /r
[18:58:05] Bekir_AMG: wtf
[18:58:10] SpartA: /r
[18:58:34] SpartA: /r
[18:58:43] Bekir_AMG: rtv pls
[18:58:49] SpartA: /r
[18:59:03] SpartA: /r
[18:59:04] SpartA: rtv
[18:59:07] SpartA: /rtv
[19:00:01] SpartA: /r
[19:00:15] Bekir_AMG: i havecarambit fade and bowie fade :)
[19:00:59] Client "KJelles The Camel" connected.
[19:01:15] SpartA: /r
[19:01:25] Client "KJelles The Camel" spawned in server <STEAM_0:0:50269528> (took 26 seconds).
[19:01:38] KJelles The Camel: Yoo
[19:01:46] KJelles The Camel: !glock
[19:01:58] Client "nico" connected.
[19:02:05] Client "nico" connected.
[19:02:30] KJelles The Camel: !r
[19:02:35] KJelles The Camel: !r
[19:03:06] KJelles The Camel: !r
[19:03:12] KJelles The Camel: !r
[19:03:14] KJelles The Camel: !r
[19:03:15] SpartA: /r
[19:03:27] Cancerous Kid: !steam
[19:03:30] SpartA: /r
[19:03:58] KJelles The Camel: !r
[19:04:04] SpartA: /r
[19:04:16] Client "Riise" connected.
[19:04:18] KJelles The Camel: !r
[19:04:39] SpartA: /r
[19:04:45] KJelles The Camel: !r
[19:04:59] SpartA: /r
[19:05:02] KJelles The Camel: !r
[19:05:34] KJelles The Camel: !r
[19:05:46] Cancerous Kid: !shop
[19:05:47] KJelles The Camel: !r
[19:06:11] KJelles The Camel: !r
[19:06:16] Bekir_AMG voted for surf_mesa (1/3)
[19:06:16] Bekir_AMG: !votemap 18
[19:06:23] KJelles The Camel: !rtv
[19:06:51] Client "Riise" spawned in server <STEAM_0:1:83931520> (took 155 seconds).
[19:06:53] SpartA: /r
[19:06:58] KJelles The Camel: !r
[19:07:00] Bekir_AMG: !votemap 18
[19:07:02] Client "NemBro" connected.
[19:07:14] KJelles The Camel: !r
[19:07:29] KJelles The Camel: !r
[19:07:38] SpartA: /r
[19:07:41] KJelles The Camel: !r
[19:07:46] KJelles The Camel: !r
[19:08:19] Client "VinxKow" connected.
[19:08:20] Client "NemBro" spawned in server <STEAM_0:1:56775233> (took 78 seconds).
[19:08:49] SpartA: /r
[19:08:54] SpartA: /r
[19:09:42] SpartA: /r
[19:09:47] KJelles The Camel: !r
[19:09:53] Client "[T-G] [S-G] Jaygo148" connected.
[19:09:59] KJelles The Camel: !r
[19:10:10] KJelles The Camel: !r
[19:10:11] SpartA: /r
[19:10:34] KJelles The Camel: !r
[19:10:44] Client "[T-G] [S-G] Jaygo148" spawned in server <STEAM_0:0:156050306> (took 51 seconds).
[19:11:14] SpartA: /r
[19:11:38] KJelles The Camel: !r
[19:11:49] KJelles The Camel: !r
[19:12:14] [T-G] [S-G] Jaygo148: !knife
[19:12:24] Cancerous Kid: !shop
[19:12:37] Cancerous Kid: !steam
[19:12:41] SpartA: /r
[19:13:23] SpartA: /r
[19:13:35] Client "nico" spawned in server <STEAM_0:1:5538981> (took 690 seconds).
[19:13:36] SpartA: /r
[19:13:40] KJelles The Camel: !r
[19:14:07] KJelles The Camel: !r
[19:14:52] Client "daxkow77" connected.
[19:14:59] Dropped "[T-G] [S-G] Jaygo148" from server<STEAM_0:0:156050306>
[19:15:00] SpartA: /r
[19:15:49] KJelles The Camel: 1 is hard
[19:15:51] KJelles The Camel: just sayin
[19:16:18] Server is shutting down/changing levels.



[19:16:25] New map: surf_dusk
[19:16:36] Client "SpartA" spawned in server <STEAM_0:0:46445867> (took 12 seconds).
[19:16:36] Client "Bot49" connected.
[19:16:36] Client "Bot49" spawned in server <BOT> (took 12 seconds).
[19:16:37] Client "KJelles The Camel" spawned in server <STEAM_0:0:50269528> (took 13 seconds).
[19:16:38] Client "Bot50" connected.
[19:16:38] Client "Bot50" spawned in server <BOT> (took 14 seconds).
[19:16:48] Client "-AG- WoopYoAss" spawned in server <STEAM_0:0:28037227> (took 24 seconds).
[19:16:53] Client "NemBro" spawned in server <STEAM_0:1:56775233> (took 29 seconds).
[19:16:59] Client "Riise" spawned in server <STEAM_0:1:83931520> (took 35 seconds).
[19:16:59] Client "ArmagHEADon ☕" connected.
[19:17:07] SpartA: /r
[19:17:22] SpartA: /r
[19:17:22] Client "Cancerous Kid" spawned in server <STEAM_0:1:127456042> (took 58 seconds).
[19:17:23] Client "Bekir_AMG" spawned in server <STEAM_0:1:150063778> (took 59 seconds).
[19:17:29] Client "nico" spawned in server <STEAM_0:1:5538981> (took 65 seconds).
[19:17:45] Client "ArmagHEADon ☕" spawned in server <STEAM_0:0:68013945> (took 46 seconds).
[19:18:04] Dropped "KJelles The Camel" from server<STEAM_0:0:50269528>
[19:18:05] SpartA: /r
[19:18:29] SpartA: /r
[19:18:38] Dropped "Cancerous Kid" from server<STEAM_0:1:127456042>
[19:19:43] Client "kirito" connected.
[19:19:57] SpartA: /r
[19:20:10] SpartA: /r
[19:20:19] Client "kirito" spawned in server <STEAM_0:1:191627245> (took 36 seconds).
[19:20:38] Client "生活 Yuno 友情" connected.
[19:20:49] Client "Manfred1337" connected.
[19:21:00] (TEAM) Bekir_AMG: kill
[19:21:03] Bekir_AMG: /kill
[19:21:14] Client "Manfred1337" connected.
[19:21:48] Dropped "Bekir_AMG" from server<STEAM_0:1:150063778>
[19:21:58] Client "Manfred1337" spawned in server <STEAM_0:1:82380440> (took 44 seconds).
[19:22:15] Dropped "ArmagHEADon ☕" from server<STEAM_0:0:68013945>
[19:22:16] Client "VinxKow" connected.
[19:22:16] Client "ArmagHEADon ☕" connected.
[19:22:26] Client "ArmagHEADon ☕" spawned in server <STEAM_0:0:68013945> (took 10 seconds).
[19:22:29] Dropped "kirito" from server<STEAM_0:1:191627245>
[19:22:45] Dropped "-AG- WoopYoAss" from server<STEAM_0:0:28037227>
[19:22:46] Dropped "Manfred1337" from server<STEAM_0:1:82380440>
[19:23:14] Dropped "NemBro" from server<STEAM_0:1:56775233>
[19:23:57] Dropped "Riise" from server<STEAM_0:1:83931520>
[19:26:34] Client "emamajevs" connected.
[19:26:39] Dropped "SpartA" from server<STEAM_0:0:46445867>
[19:26:39] Dropped "nico" from server<STEAM_0:1:5538981>
[19:26:39] Dropped "ArmagHEADon ☕" from server<STEAM_0:0:68013945>
[19:27:16] Client "nico" connected.
[19:27:28] Client "nico" spawned in server <STEAM_0:1:5538981> (took 12 seconds).
[19:28:17] Dropped "nico" from server<STEAM_0:1:5538981>
[19:28:45] Client "Szymon_576" connected.
[19:29:58] Dropped "Bot49" from server<BOT>
[19:29:58] Dropped "Bot50" from server<BOT>
[19:38:40] Client "_SlamOver_" connected.
[19:38:51] Client "_SlamOver_" spawned in server <STEAM_0:1:194960052> (took 11 seconds).
[19:38:51] Client "Bot51" connected.
[19:38:51] Client "Bot51" spawned in server <BOT> (took 1347 seconds).
[19:38:53] Client "Bot52" connected.
[19:38:53] Client "Bot52" spawned in server <BOT> (took 1349 seconds).
[19:40:59] _SlamOver_: !spec
[19:42:33] _SlamOver_: !rtv
[19:42:39] _SlamOver_: !spec
[19:43:09] Server is shutting down/changing levels.



[19:43:15] New map: surf_lux
[19:43:30] Client "_SlamOver_" spawned in server <STEAM_0:1:194960052> (took 16 seconds).
[19:43:30] Client "Bot53" connected.
[19:43:30] Client "Bot53" spawned in server <BOT> (took 16 seconds).
[19:43:32] Client "Bot54" connected.
[19:43:32] Client "Bot54" spawned in server <BOT> (took 18 seconds).
[19:53:37] Client "Bomj" connected.
[19:54:50] Client "Bomj" spawned in server <STEAM_0:0:140061082> (took 73 seconds).
[19:54:55] _SlamOver_: Hi
[20:00:28] _SlamOver_: !rank
[20:00:38] Dropped "_SlamOver_" from server<STEAM_0:1:194960052>
[20:06:15] Client "Iveltor" connected.
[20:08:50] Bomj: rtv
[20:11:33] Dropped "Bomj" from server<STEAM_0:0:140061082>
[20:11:33] Dropped "Bot53" from server<BOT>
[20:11:33] Dropped "Bot54" from server<BOT>
[20:13:47] Client "ChrisontapGaming" connected.
[20:13:51] Server is shutting down/changing levels.



[20:13:58] New map: surf_lt_omnific_fix
[20:15:10] Client "ChrisontapGaming" spawned in server <STEAM_0:1:156334594> (took 73 seconds).
[20:15:10] Client "Bot55" connected.
[20:15:10] Client "Bot55" spawned in server <BOT> (took 73 seconds).
[20:15:12] Client "Bot56" connected.
[20:15:12] Client "Bot56" spawned in server <BOT> (took 75 seconds).
[20:22:07] Client "❅Deadeye❅" connected.
[20:22:10] Client "unskilled | C9 JaY // +S" connected.
[20:22:59] Client "CaveOcelot" connected.
[20:23:14] Client "unskilled | C9 JaY // +S" spawned in server <STEAM_0:0:91621136> (took 64 seconds).
[20:23:36] Client "❅Deadeye❅" spawned in server <STEAM_0:1:126895448> (took 89 seconds).
[20:23:51] Client "ByTarissl" connected.
[20:24:02] Client "Burned Brownie" connected.
[20:24:27] unskilled | C9 JaY // +S: pls do !rtv
[20:24:55] Client "Burned Brownie" spawned in server <STEAM_0:1:26617204> (took 53 seconds).
[20:25:06] unskilled | C9 JaY // +S: !rtv
[20:25:30] Client "ByTarissl" spawned in server <STEAM_0:0:88338661> (took 99 seconds).
[20:25:41] Burned Brownie: !rtv
[20:28:09] Client "NemBro" connected.
[20:28:11] unskilled | C9 JaY // +S: !knife+
[20:28:13] unskilled | C9 JaY // +S: !knife
[20:28:32] unskilled | C9 JaY // +S: pls wirte !rtv
[20:29:14] Client "NemBro" spawned in server <STEAM_0:1:56775233> (took 65 seconds).
[20:29:21] (TEAM) ❅Deadeye❅: !steam'
[20:29:23] ByTarissl: !rtv
[20:29:24] (TEAM) ❅Deadeye❅: !steam
[20:29:46] ❅Deadeye❅: !rtv
[20:30:09] (TEAM) ❅Deadeye❅: t
[20:30:22] Server is shutting down/changing levels.



[20:30:29] New map: surf_milkyway
[20:30:29] Client "Hikimory" connected.
[20:30:44] Client "Burned Brownie" spawned in server <STEAM_0:1:26617204> (took 16 seconds).
[20:30:44] Client "Bot57" connected.
[20:30:44] Client "Bot57" spawned in server <BOT> (took 16 seconds).
[20:30:46] Client "Bot58" connected.
[20:30:46] Client "Bot58" spawned in server <BOT> (took 18 seconds).
[20:31:10] Client "NemBro" spawned in server <STEAM_0:1:56775233> (took 42 seconds).
[20:31:20] Client "ChrisontapGaming" spawned in server <STEAM_0:1:156334594> (took 52 seconds).
[20:31:20] Client "ByTarissl" spawned in server <STEAM_0:0:88338661> (took 52 seconds).
[20:31:34] Client "unskilled | C9 JaY // +S" spawned in server <STEAM_0:0:91621136> (took 66 seconds).
[20:31:57] Client "❅Deadeye❅" spawned in server <STEAM_0:1:126895448> (took 89 seconds).
[20:32:27] Client "Hikimory" spawned in server <STEAM_0:0:97962728> (took 118 seconds).
[20:32:58] Dropped "Burned Brownie" from server<STEAM_0:1:26617204>
[20:33:42] Dropped "Hikimory" from server<STEAM_0:0:97962728>
[20:35:06] Dropped "ByTarissl" from server<STEAM_0:0:88338661>
[20:35:40] Client "Ted_Gamer" connected.
[20:35:45] Client "BerlinOfPlay|on.youtube" connected.
[20:35:59] Dropped "ChrisontapGaming" from server<STEAM_0:1:156334594>
[20:36:16] Client "Ted_Gamer" spawned in server <STEAM_0:0:171644737> (took 36 seconds).
[20:36:32] Client "Originaire Zoran" connected.
[20:36:57] Client "Lenny" connected.
[20:36:59] Dropped "❅Deadeye❅" from server<STEAM_0:1:126895448>
[20:37:37] Client "BerlinOfPlay|on.youtube" spawned in server <STEAM_0:1:113650850> (took 112 seconds).
[20:37:45] Client "Originaire Zoran" spawned in server <STEAM_0:0:84399375> (took 73 seconds).
[20:39:23] Client "KJelles The Camel" connected.
[20:39:45] Client "KJelles The Camel" spawned in server <STEAM_0:0:50269528> (took 22 seconds).
[20:39:58] KJelles The Camel: Indeed. ( ͡° ͜ʖ ͡°)
[20:40:07] Dropped "Originaire Zoran" from server<STEAM_0:0:84399375>
[20:42:39] Client "N-G | Supraa" connected.
[20:42:56] Client "[N-G] | Gibbon" connected.
[20:43:03] Client "N-G | Supraa" spawned in server <STEAM_0:1:48981566> (took 24 seconds).
[20:43:05] Client "TwisT" connected.
[20:43:07] Client "[N-G] | Gibbon" spawned in server <STEAM_0:1:53122191> (took 11 seconds).
[20:44:28] Client "TwisT" spawned in server <STEAM_0:0:17770389> (took 83 seconds).
[20:44:28] [N-G] | Gibbon: !rtv
[20:45:51] KJelles The Camel: Indeed. ( ͡° ͜ʖ ͡°)
[20:45:55] [N-G] | Gibbon: ﴾ ✿ ‿ ✿ ﴿
[20:46:19] Client "[O&O] : Changshire" connected.
[20:46:52] Dropped "NemBro" from server<STEAM_0:1:56775233>
[20:46:58] KJelles The Camel: !r
[20:47:25] Dropped "unskilled | C9 JaY // +S" from server<STEAM_0:0:91621136>
[20:47:50] N-G | Supraa: !rtv
[20:48:06] KJelles The Camel: !r
[20:48:35] Dropped "TwisT" from server<STEAM_0:0:17770389>
[20:49:35] Client "[O&O] : Changshire" spawned in server <STEAM_0:0:98907807> (took 196 seconds).
[20:49:44] N-G | Supraa: rtv plez or ban
[20:49:48] N-G | Supraa: jk
[20:49:59] [N-G] | Gibbon: S u p r a a   S u c c
[20:50:27] KJelles The Camel: !rtv
[20:50:34] KJelles The Camel: !spec
[20:51:10] Client "Bekir_AMG" connected.
[20:51:37] N-G | Supraa: im pro
[20:51:40] [N-G] | Gibbon: nah
[20:51:47] KJelles The Camel: [Newbie] Dranxzo(176): kjelles can you tp me yo the next level plllllzzzz
[20:51:58] KJelles The Camel: !listrtv
[20:52:02] KJelles The Camel: !r
[20:52:05] KJelles The Camel: rtv bois
[20:52:22] KJelles The Camel: cmonn
[20:52:27] KJelles The Camel: this is T3 linear
[20:52:37] [N-G] | Gibbon: do it for the vine pl0x
[20:52:38] [N-G] | Gibbon: ﴾ ✿ ‿ ✿ ﴿
[20:52:42] Client "Bekir_AMG" spawned in server <STEAM_0:1:150063778> (took 92 seconds).
[20:52:58] [N-G] | Gibbon: !r
[20:53:39] N-G | Supraa: Can someone please rtv or else KJelles is gonna find you irl
[20:53:45] [O&O] : Changshire: !rtv
[20:53:46] KJelles The Camel: Indeed. ( ͡° ͜ʖ ͡°)
[20:53:50] [N-G] | Gibbon: ( ͡° ͜ʖ ͡°)
[20:53:56] KJelles The Camel: !spec
[20:53:56] [N-G] | Gibbon: Who dont want Kjelles to find them
[20:53:57] [N-G] | Gibbon: wtf
[20:54:00] [N-G] | Gibbon: bad threat
[20:54:18] Bekir_AMG: !rtv
[20:54:24] [O&O] : Changshire: i can't surf :(
[20:54:50] KJelles The Camel: !r
[20:54:54] Server is shutting down/changing levels.



[20:55:01] New map: surf_mesa
[20:55:13] Client "KJelles The Camel" spawned in server <STEAM_0:0:50269528> (took 13 seconds).
[20:55:13] Client "Bot59" connected.
[20:55:13] Client "Bot59" spawned in server <BOT> (took 13 seconds).
[20:55:15] Client "Bot60" connected.
[20:55:15] Client "Bot60" spawned in server <BOT> (took 15 seconds).
[20:55:32] KJelles The Camel: !spec
[20:55:32] Client "N-G | Supraa" spawned in server <STEAM_0:1:48981566> (took 32 seconds).
[20:55:46] Client "Bekir_AMG" spawned in server <STEAM_0:1:150063778> (took 46 seconds).
[20:55:50] Client "Ted_Gamer" spawned in server <STEAM_0:0:171644737> (took 50 seconds).
[20:56:11] Client "[N-G] | Gibbon" spawned in server <STEAM_0:1:53122191> (took 71 seconds).
[20:56:12] KJelles The Camel: !spec
[20:56:38] KJelles The Camel: !r
[20:56:50] [N-G] | Gibbon: !r
[20:56:59] Client "BerlinOfPlay|on.youtube" spawned in server <STEAM_0:1:113650850> (took 119 seconds).
[20:57:00] KJelles The Camel: !r
[20:57:24] [N-G] | Gibbon: !r
[20:57:40] [N-G] | Gibbon: !r
[20:57:42] Bekir_AMG: /kill
[20:57:54] Client "[O&O] : Changshire" spawned in server <STEAM_0:0:98907807> (took 174 seconds).
[20:58:01] KJelles The Camel: !r
[20:58:14] KJelles The Camel: !r
[20:58:19] Bekir_AMG: /kill
[20:58:22] KJelles The Camel: !r
[20:58:28] KJelles The Camel: !r
[20:58:28] [N-G] | Gibbon: !r
[20:58:35] KJelles The Camel: !r
[20:58:41] KJelles The Camel: !spec
[20:58:46] [N-G] | Gibbon: S u p r a a   S u c c
[20:58:51] Client "ColliderNine" connected.
[20:59:06] N-G | Supraa: :D
[20:59:09] KJelles The Camel: Indeed. ( ͡° ͜ʖ ͡°)
[20:59:29] [N-G] | Gibbon: !r
[21:00:11] KJelles The Camel: !spec
[21:00:35] [N-G] | Gibbon: !r
[21:00:57] [O&O] : Changshire: can someone learn me how to surf please ?
[21:01:09] KJelles The Camel: !r
[21:01:15] KJelles The Camel:  !tutorial
[21:01:16] KJelles The Camel: in chat
[21:01:20] [O&O] : Changshire: !tutorial
[21:01:22] Client "Popcornflakes" connected.
[21:01:25] Bekir_AMG: do you speak french?
[21:01:30] KJelles The Camel: no baguette
[21:01:39] Bekir_AMG: /kill
[21:01:48] [N-G] | Gibbon: !r
[21:02:24] [N-G] | Gibbon: !r
[21:02:26] Client "Popcornflakes" spawned in server <STEAM_0:1:102992623> (took 64 seconds).
[21:02:39] [N-G] | Gibbon: !r
[21:02:42] Popcornflakes: !wr
[21:02:51] [N-G] | Gibbon: !r
[21:02:55] Popcornflakes: ima get wr
[21:03:26] [N-G] | Gibbon: !r
[21:03:28] KJelles The Camel: !r
[21:03:58] Bekir_AMG: /kill
[21:04:01] [N-G] | Gibbon: !r
[21:04:06] [N-G] | Gibbon: !r
[21:04:17] KJelles The Camel: !r
[21:04:20] [N-G] | Gibbon: !r
[21:04:30] Client "Xulu" connected.
[21:04:44] Popcornflakes: !r
[21:04:46] [N-G] | Gibbon: !r
[21:05:03] Client "Xulu" spawned in server <STEAM_0:0:46857044> (took 33 seconds).
[21:05:13] KJelles The Camel: !r
[21:05:17] KJelles The Camel: Xulu cunt
[21:05:18] KJelles The Camel: !r
[21:05:20] Xulu: lul this server is still up
[21:05:22] KJelles The Camel: Indeed. ( ͡° ͜ʖ ͡°)
[21:05:23] KJelles The Camel: !r
[21:05:24] KJelles The Camel: !r
[21:05:25] Xulu: !rank
[21:05:25] KJelles The Camel: !r
[21:05:26] KJelles The Camel: !r
[21:05:28] Xulu: how many new maps?
[21:05:32] [N-G] | Gibbon: 0
[21:05:34] [N-G] | Gibbon: !r
[21:05:35] [N-G] | Gibbon: ( ͡° ͜ʖ ͡°)
[21:05:36] KJelles The Camel: eh
[21:05:42] KJelles The Camel: 5 or 6 i think
[21:05:43] KJelles The Camel: !r
[21:05:46] Xulu: there's 1.6k points im missing
[21:05:50] Xulu: so high tier maps?
[21:05:52] [N-G] | Gibbon: !r
[21:05:53] KJelles The Camel: some
[21:05:53] Xulu: !mapsleft
[21:05:58] KJelles The Camel: tier 6, 5, 4
[21:05:59] KJelles The Camel: !r
[21:06:00] Xulu: still says i only haven't done forbidden and fruits
[21:06:02] N-G | Supraa: Ye Tier 69
[21:06:03] Xulu: !nomintae
[21:06:05] [N-G] | Gibbon: !r
[21:06:05] Xulu: !nomintae
[21:06:07] Xulu: !nominate
[21:06:09] [N-G] | Gibbon: S u p r a a   S u c c
[21:06:10] [N-G] | Gibbon: !r
[21:06:10] KJelles The Camel: Indeed. ( ͡° ͜ʖ ͡°)
[21:06:15] Xulu: oh fucking hell
[21:06:16] Xulu: omnific
[21:06:18] Xulu: no fucking wonder
[21:06:23] KJelles The Camel: u bad?
[21:06:24] Popcornflakes: kjelles?
[21:06:26] KJelles The Camel: cant beat it?
[21:06:27] KJelles The Camel: !r
[21:06:28] KJelles The Camel: yeah?
[21:06:30] Xulu: of course i cant
[21:06:31] Xulu: im shit cunt
[21:06:33] Popcornflakes: r u from codename community?
[21:06:40] KJelles The Camel: Was Super admin there
[21:06:40] Xulu: yea
[21:06:41] Popcornflakes: i regonize your name
[21:06:42] Xulu: hes a gay cunt like that
[21:06:45] Xulu: !r
[21:06:48] Popcornflakes: i was super admin aswell
[21:06:49] KJelles The Camel: but that was ages ago
[21:06:51] Popcornflakes: there
[21:06:52] Popcornflakes: same
[21:06:55] KJelles The Camel: ah
[21:07:02] KJelles The Camel: Well from there then
[21:07:03] Xulu: !r
[21:07:05] Xulu: !sanic
[21:07:05] [O&O] : Changshire: how do i surf i can't surf
[21:07:08] Xulu: eww no sanic game mode
[21:07:09] Popcornflakes: use ad
[21:07:10] Xulu: !lg
[21:07:12] Popcornflakes: and mouse
[21:07:13] Xulu: !lg
[21:07:15] Xulu: no lg
[21:07:16] Xulu: omfg
[21:07:18] Xulu: !styles
[21:07:27] Xulu: i cant surf kevin
[21:07:33] Dropped "Bekir_AMG" from server<STEAM_0:1:150063778>
[21:07:40] KJelles The Camel: !r
[21:07:42] KJelles The Camel: i know
[21:07:44] Xulu: haha yeah
[21:07:48] KJelles The Camel: !r
[21:07:50] KJelles The Camel: Indeed. ( ͡° ͜ʖ ͡°)
[21:07:53] Xulu: haha yeah
[21:07:54] Popcornflakes: !r
[21:07:57] [O&O] : Changshire: can someone learn me how to surf ?
[21:07:57] Popcornflakes: (     ͡°          ͜ʖ          ͡°    )
[21:08:02] Xulu: haha no
[21:08:04] KJelles The Camel: type !tutorial
[21:08:06] [O&O] : Changshire: i don't understand the tutorial
[21:08:09] N-G | Supraa: I just wanna die lonley and horrible death ;-;
[21:08:23] KJelles The Camel: !r
[21:08:28] Xulu: !rtv
[21:08:36] Xulu: !nominate surf_omnific
[21:08:37] Xulu: !nomintae
[21:08:39] Xulu: !Nominate
[21:08:42] [N-G] | Gibbon: !r
[21:08:46] Popcornflakes: !r
[21:08:47] N-G | Supraa: !Rtv
[21:08:49] Xulu: FUCKING OMNIFIC BOYS
[21:08:50] Xulu: EZ MAP
[21:08:51] N-G | Supraa: rtv or ban
[21:08:52] Client "[Twinz] Haise Sasaki" connected.
[21:08:55] [N-G] | Gibbon: !r
[21:08:57] Popcornflakes: omnific is love
[21:08:59] Client "[Twinz]roi_miku" connected.
[21:09:01] Xulu: stfu supraa you cunt
[21:09:06] Popcornflakes: until i get to stage 19?
[21:09:08] N-G | Supraa: No you sftu
[21:09:09] Popcornflakes: or 16
[21:09:09] [N-G] | Gibbon: yea fu supraa
[21:09:11] [N-G] | Gibbon: S u p r a a   S u c c
[21:09:17] Client "[Twinz] Haise Sasaki" spawned in server <STEAM_0:0:205788895> (took 25 seconds).
[21:09:18] Xulu: fuck off gibbon
[21:09:25] [N-G] | Gibbon: yea fuck off gibbon
[21:09:26] [N-G] | Gibbon: wat
[21:09:30] Xulu: k im going to spam the secret until you cunts rtv
[21:09:40] [N-G] | Gibbon: k
[21:09:43] [N-G] | Gibbon: !r
[21:09:43] Popcornflakes: !r
[21:09:45] Popcornflakes: !rtv
[21:09:56] Dropped "[Twinz] Haise Sasaki" from server<STEAM_0:0:205788895>
[21:09:58] Xulu: !r
[21:10:01] [O&O] : Changshire: !rtv
[21:10:04] Xulu: !practice
[21:10:10] [N-G] | Gibbon: !r
[21:10:25] Xulu: haha yeah
[21:10:25] [N-G] | Gibbon: !r
[21:10:29] KJelles The Camel: !r
[21:10:34] Popcornflakes: !r
[21:10:35] Dropped "Popcornflakes" from server<STEAM_0:1:102992623>
[21:10:38] Xulu: haha yeah
[21:10:53] Xulu: !r
[21:11:06] KJelles The Camel: !r
[21:11:36] Xulu: RTV CUNTS
[21:11:38] Xulu: !r
[21:11:40] [N-G] | Gibbon: Xulu you are cool
[21:11:43] Xulu: fuck up cunt
[21:11:45] Xulu: no one likes you
[21:11:46] KJelles The Camel: ill fuck u up xulu
[21:11:55] Xulu: time and a place
[21:11:58] Xulu: ill fuck you any day
[21:11:59] KJelles The Camel: Indeed. ( ͡° ͜ʖ ͡°)
[21:12:03] KJelles The Camel: i know u will
[21:12:12] KJelles The Camel: !r
[21:12:24] [O&O] : Changshire: !r
[21:12:34] [N-G] | Gibbon: !r
[21:12:49] KJelles The Camel: !r
[21:12:58] [N-G] | Gibbon: !r
[21:13:06] Xulu: !r
[21:13:06] Dropped "N-G | Supraa" from server<STEAM_0:1:48981566>
[21:13:18] [N-G] | Gibbon: Supraa: I crashed xd skåål
[21:13:21] Xulu: haha yeah
[21:13:39] [O&O] : Changshire: !r
[21:13:48] [N-G] | Gibbon: !r
[21:13:55] [O&O] : Changshire: !r
[21:14:02] Xulu: !r
[21:14:05] [N-G] | Gibbon: !rtv
[21:14:11] Dropped "[N-G] | Gibbon" from server<STEAM_0:1:53122191>
[21:14:16] Client "Red Vienna" connected.
[21:14:25] KJelles The Camel: !r
[21:14:36] [O&O] : Changshire: !r
[21:14:48] Client "Red Vienna" spawned in server <STEAM_0:1:80820134> (took 32 seconds).
[21:15:07] Xulu: !rtv lit
[21:15:09] Xulu: !rtv list
[21:15:10] [O&O] : Changshire: !r
[21:15:11] Xulu: oi
[21:15:14] Xulu: kevin you daft cunt
[21:15:15] [O&O] : Changshire: !r
[21:15:15] Xulu: rtv
[21:15:49] [O&O] : Changshire: !r
[21:16:02] Xulu: !r
[21:16:04] Xulu: ! n
[21:16:11] [O&O] : Changshire: rtv
[21:16:12] Xulu: !n
[21:16:16] [O&O] : Changshire: !rtv
[21:16:22] [O&O] : Changshire: !rtd
[21:16:31] Dropped "BerlinOfPlay|on.youtube" from server<STEAM_0:1:113650850>
[21:16:32] Client "BerlinOfPlay|on.youtube" connected.
[21:16:32] [O&O] : Changshire: !rtd
[21:16:33] [O&O] : Changshire: !rtv
[21:16:39] [O&O] : Changshire: !r
[21:16:40] Xulu: haha yeah
[21:16:59] Client "BerlinOfPlay|on.youtube" spawned in server <STEAM_0:1:113650850> (took 27 seconds).
[21:17:01] Xulu: haha yeah
[21:17:16] Xulu: !rtv list
[21:17:19] Xulu: OI KEVIN CUNT
[21:17:25] Xulu: !spec kevin
[21:17:27] Xulu: !spec kje
[21:17:29] Xulu: KEVIN
[21:17:33] (TEAM) Xulu: YOU FUCK
[21:18:13] Xulu: <avatar>
[21:18:14] Xulu: !r
[21:18:16] KJelles The Camel: !r
[21:18:25] Xulu: rtv you fuck
[21:18:35] KJelles The Camel: !r
[21:18:37] Xulu: RTV
[21:18:37] KJelles The Camel: !rtv
[21:18:38] Xulu: CUNT
[21:18:39] Xulu: THANKS
[21:18:48] Xulu: !spec
[21:18:54] Xulu: !practice
[21:19:18] Client "Rez" connected.
[21:19:27] Xulu: !r
[21:19:43] Xulu: !n
[21:19:55] Xulu: !r
[21:20:08] Client "Rez" spawned in server <STEAM_0:0:71229359> (took 50 seconds).
[21:20:12] Xulu: !r
[21:20:24] Rez: deze loading screen whahahwah
[21:20:33] Xulu: haha yeah
[21:20:44] KJelles The Camel: !r
[21:20:59] [O&O] : Changshire: !r
[21:21:05] Client "-AG- WoopYoAss" connected.
[21:21:06] Xulu: hey kevin
[21:21:09] KJelles The Camel: hey cunt
[21:21:12] Xulu: how far can you get with mostly bhopping
[21:21:18] KJelles The Camel: not far
[21:21:25] Xulu: like the jumps you obviously need to surf for you do
[21:21:29] Xulu: but bhopping most of it
[21:21:52] Rez: !r
[21:21:58] Rez: kjelles
[21:22:03] Client "-AG- WoopYoAss" connected.
[21:22:10] Rez: remove
[21:22:12] Rez: loading
[21:22:13] Rez: screen
[21:22:15] Rez: !r
[21:22:16] [O&O] : Changshire: !rtv
[21:22:16] [O&O] : Changshire: !rtv
[21:22:21] [O&O] : Changshire: fucking rtv !
[21:22:24] Xulu: are you mental rez?
[21:22:33] Rez: !r
[21:22:43] Xulu: !r
[21:23:05] Dropped "Rez" from server<STEAM_0:0:71229359>
[21:23:05] Client "Rez" connected.
[21:23:07] Xulu: haha yeah
[21:23:13] Client "Rez" spawned in server <STEAM_0:0:71229359> (took 8 seconds).
[21:23:24] Rez: wtf
[21:23:30] Xulu: the fuck do you want cunt
[21:23:30] KJelles The Camel: i know
[21:23:31] KJelles The Camel: its shit
[21:23:32] KJelles The Camel: lmao
[21:23:39] KJelles The Camel: stfu Xulu
[21:23:41] Xulu: haha no
[21:23:42] KJelles The Camel: ill fuck u up
[21:23:47] Xulu: kevin
[21:23:52] Rez: !r
[21:23:54] Xulu: i'd like to report someone for harrassment
[21:23:57] Xulu: they threatened my family
[21:23:57] KJelles The Camel: do it
[21:23:59] Xulu: ban them
[21:24:01] KJelles The Camel: pussy
[21:24:21] Rez: xulu
[21:24:26] Rez: u made this loading screen?
[21:24:27] Rez: !r
[21:24:30] Xulu: haha no
[21:24:52] Xulu: !r
[21:25:00] [O&O] : Changshire: rtv please
[21:25:07] Client "-AG- WoopYoAss" connected.
[21:25:12] Xulu: !r
[21:25:17] Xulu: haha no
[21:25:24] Xulu: haha no
[21:25:30] Xulu: oi cunt
[21:25:35] Xulu: kevin
[21:25:44] Xulu: you wanna fucking fight cunt
[21:26:03] Rez: !r
[21:26:05] Xulu: ill pound your ass until you're dead cunt
[21:26:10] Xulu: you want that?
[21:26:12] KJelles The Camel: !r
[21:26:13] KJelles The Camel: yes
[21:26:16] Xulu: haha yeah
[21:26:17] Xulu: !r
[21:26:19] Rez: !r
[21:26:29] Client "N-G | Supraa" connected.
[21:26:39] [O&O] : Changshire: is cunt the only word you guys know ? x)
[21:26:44] Xulu: no cunt
[21:26:46] Xulu: !r
[21:26:47] Rez: nig
[21:26:48] Rez: !r
[21:26:58] Xulu: !r
[21:27:02] Xulu: !r
[21:27:04] Rez: zwarte
[21:27:05] Rez: piet
[21:27:05] KJelles The Camel: !r
[21:27:06] Rez: ?
[21:27:06] KJelles The Camel: Indeed. ( ͡° ͜ʖ ͡°)
[21:27:06] Rez: !r
[21:27:10] Client "N-G | Supraa" spawned in server <STEAM_0:1:48981566> (took 41 seconds).
[21:27:19] Xulu: !r
[21:27:25] Dropped "KJelles The Camel" from server<STEAM_0:0:50269528>
[21:27:28] Xulu: haha yeah
[21:27:35] Rez: !r
[21:27:44] Xulu: !r
[21:27:45] Xulu: !r
[21:27:50] Rez: !r
[21:27:53] Xulu: haha yeah
[21:27:53] Xulu: haha no
[21:28:01] Xulu: !r
[21:28:02] Xulu: oops
[21:28:04] Xulu: i hit the mute button
[21:28:10] (TEAM) BerlinOfPlay|on.youtube: okay
[21:28:35] Dropped "N-G | Supraa" from server<STEAM_0:1:48981566>
[21:28:41] Xulu: !r
[21:28:42] [O&O] : Changshire: !rtv
[21:28:47] Xulu: !rtv
[21:28:56] Xulu: !r
[21:28:58] Dropped "Red Vienna" from server<STEAM_0:1:80820134>
[21:29:01] Xulu: !r
[21:29:35] Client "-AG- WoopYoAss" connected.
[21:29:47] Rez: haha yeah
[21:29:47] Rez: !r
[21:29:55] Rez: !r
[21:30:14] Rez: !rtv\
[21:30:16] Rez: !rtv
[21:30:19] Xulu: haha yeah
[21:30:27] Xulu: !r
[21:30:30] Rez: !revoke
[21:30:32] Rez: !r
[21:30:33] Xulu: haha no
[21:30:34] Client "-AG- WoopYoAss" spawned in server <STEAM_0:0:28037227> (took 59 seconds).
[21:30:47] Rez: jesus
[21:30:48] Rez: ur annoying
[21:30:50] Xulu: haha yeah
[21:30:51] Dropped "Rez" from server<STEAM_0:0:71229359>
[21:31:01] Client "SliskTorsten" connected.
[21:31:56] [O&O] : Changshire: !rtv
[21:32:02] [O&O] : Changshire: !r
[21:32:16] (TEAM) [O&O] : Changshire: !r
[21:32:19] [O&O] : Changshire: !r
[21:32:41] Xulu: !r
[21:32:43] Xulu: !r
[21:33:05] [O&O] : Changshire: !r
[21:33:35] [O&O] : Changshire: !rtv
[21:33:49] Dropped "Xulu" from server<STEAM_0:0:46857044>
[21:33:49] [O&O] : Changshire: artv please for a happy changshire :c
[21:34:17] Client "sayshain" connected.
[21:35:03] Client "sayshain" spawned in server <STEAM_0:0:179022471> (took 46 seconds).
[21:35:16] Dropped "BerlinOfPlay|on.youtube" from server<STEAM_0:1:113650850>
[21:35:39] Dropped "Ted_Gamer" from server<STEAM_0:0:171644737>
[21:38:41] Dropped "-AG- WoopYoAss" from server<STEAM_0:0:28037227>
[21:40:09] [O&O] : Changshire: you got a sad changshire for not rtv
[21:40:13] [O&O] : Changshire: :c
[21:40:39] [O&O] : Changshire: yeeeee :D
[21:40:48] [O&O] : Changshire: you got a happy changshire
[21:41:08] Server is shutting down/changing levels.



[21:41:15] New map: surf_lux
[21:41:17] Client "Graden" connected.
[21:41:51] Client "[O&O] : Changshire" spawned in server <STEAM_0:0:98907807> (took 37 seconds).
[21:41:51] Client "Bot61" connected.
[21:41:51] Client "Bot61" spawned in server <BOT> (took 37 seconds).
[21:41:53] Client "Bot62" connected.
[21:41:53] Client "Bot62" spawned in server <BOT> (took 39 seconds).
[21:42:23] Client "Graden" spawned in server <STEAM_0:1:119412481> (took 66 seconds).
[21:42:31] Client "sayshain" spawned in server <STEAM_0:0:179022471> (took 77 seconds).
[21:43:40] [O&O] : Changshire: !r
[21:44:21] [O&O] : Changshire: !r
[21:45:41] [O&O] : Changshire: !r
[21:45:56] [O&O] : Changshire: !r
[21:46:52] Dropped "Graden" from server<STEAM_0:1:119412481>
[21:47:11] [O&O] : Changshire: !steam
[21:49:48] [O&O] : Changshire: !bot
[21:49:52] [O&O] : Changshire: !bot
[21:49:56] [O&O] : Changshire: !botrecord
[21:50:01] [O&O] : Changshire: !bot
[21:50:08] [O&O] : Changshire: !boton
[21:50:10] [O&O] : Changshire: !bot on
[21:50:15] [O&O] : Changshire: !bot record
[21:50:34] [O&O] : Changshire: !bot record
[21:50:36] [O&O] : Changshire: !bot 
[21:50:40] [O&O] : Changshire: !bot stop
[21:53:02] [O&O] : Changshire: !steam
[21:53:47] Client "Strixor" connected.
[21:53:53] Client "T0xicFuri0usX" connected.
[21:53:55] [O&O] : Changshire: !r
[21:54:06] [O&O] : Changshire: this map is harder than the other one :c
[21:54:17] Client "T0xicFuri0usX" spawned in server <STEAM_0:0:181981805> (took 24 seconds).
[21:54:27] [O&O] : Changshire: it said tier one
[21:54:39] Client "Strixor" spawned in server <STEAM_0:0:155784660> (took 52 seconds).
[21:54:46] Client "Bogdan254YT" connected.
[21:54:46] [O&O] : Changshire: it said tier one
[21:55:23] Client "BBG | VisuaLz" connected.
[21:55:35] Strixor: !rtv
[21:55:36] Client "BBG | VisuaLz" spawned in server <STEAM_0:1:155761931> (took 13 seconds).
[21:56:19] [O&O] : Changshire: it said tier one
[21:56:30] [O&O] : Changshire: !rtv
[21:56:59] [O&O] : Changshire: !rtv
[21:58:08] [O&O] : Changshire: !bot add
[21:58:18] [O&O] : Changshire: !bot stop
[21:58:33] [O&O] : Changshire: !bot stop
[21:58:43] [O&O] : Changshire: !r
[21:58:55] Client "Bogdan254YT" spawned in server <STEAM_0:0:152073394> (took 249 seconds).
[21:59:58] [O&O] : Changshire: !r
[22:00:53] [O&O] : Changshire: !r
[22:01:53] [O&O] : Changshire: !r
[22:01:55] [O&O] : Changshire: !rtv
[22:02:17] Dropped "Strixor" from server<STEAM_0:0:155784660>
[22:02:20] Dropped "T0xicFuri0usX" from server<STEAM_0:0:181981805>
[22:05:02] Dropped "BBG | VisuaLz" from server<STEAM_0:1:155761931>
[22:05:04] Bogdan254YT: !steam
[22:06:42] [O&O] : Changshire: meh.
[22:06:51] Client "AbiPlayZx" connected.
[22:06:51] [O&O] : Changshire: !rtv
[22:07:14] [O&O] : Changshire: !rtv
[22:07:23] Client "AbiPlayZx" spawned in server <STEAM_0:0:158208046> (took 32 seconds).
[22:07:23] Client "Burned Brownie" connected.
[22:08:26] Client "Burned Brownie" spawned in server <STEAM_0:1:26617204> (took 63 seconds).
[22:08:56] [O&O] : Changshire: nogla !
[22:09:03] Dropped "Bogdan254YT" from server<STEAM_0:0:152073394>
[22:09:17] [O&O] : Changshire: how do you change player model ?
[22:09:41] Burned Brownie: klick in the thinks and than press it to model
[22:09:58] [O&O] : Changshire: is this guy have aimbot
[22:10:39] [O&O] : Changshire: click on which thing ?
[22:11:21] [O&O] : Changshire: i cannot find where to change the player models
[22:11:51] Server is shutting down/changing levels.



[22:11:58] New map: surf_pox
[22:12:06] Client "AbiPlayZx" spawned in server <STEAM_0:0:158208046> (took 9 seconds).
[22:12:06] Client "Bot63" connected.
[22:12:06] Client "Bot63" spawned in server <BOT> (took 9 seconds).
[22:12:08] Client "Bot64" connected.
[22:12:08] Client "Bot64" spawned in server <BOT> (took 11 seconds).
[22:12:15] Client "Burned Brownie" spawned in server <STEAM_0:1:26617204> (took 18 seconds).
[22:12:25] Client "[O&O] : Changshire" spawned in server <STEAM_0:0:98907807> (took 28 seconds).
[22:12:31] Client "sayshain" spawned in server <STEAM_0:0:179022471> (took 34 seconds).
[22:12:41] Burned Brownie: !rtv
[22:12:44] AbiPlayZx: !rtv
[22:13:26] [O&O] : Changshire: !r
[22:19:39] Burned Brownie: !rtv
[22:20:56] Client "ByTarissl" connected.
[22:21:48] Client "ByTarissl" spawned in server <STEAM_0:0:88338661> (took 52 seconds).
[22:23:17] AbiPlayZx: !rtv
[22:23:21] [O&O] : Changshire: !rtv
[22:23:45] [O&O] : Changshire: rtv for a happy changshire :c
[22:23:49] [O&O] : Changshire: please
[22:24:01] ByTarissl: !rtv
[22:24:05] [O&O] : Changshire: yeeee
[22:24:37] Server is shutting down/changing levels.



[22:24:44] New map: surf_ace
[22:25:01] Client "AbiPlayZx" spawned in server <STEAM_0:0:158208046> (took 18 seconds).
[22:25:01] Client "Bot65" connected.
[22:25:01] Client "Bot65" spawned in server <BOT> (took 18 seconds).
[22:25:03] Client "Bot66" connected.
[22:25:03] Client "Bot66" spawned in server <BOT> (took 20 seconds).
[22:25:15] Client "sayshain" spawned in server <STEAM_0:0:179022471> (took 32 seconds).
[22:25:33] Client "Burned Brownie" spawned in server <STEAM_0:1:26617204> (took 50 seconds).
[22:25:51] Client "ByTarissl" spawned in server <STEAM_0:0:88338661> (took 68 seconds).
[22:25:57] Client "[O&O] : Changshire" spawned in server <STEAM_0:0:98907807> (took 74 seconds).
[22:25:57] Dropped "[O&O] : Changshire" from server<STEAM_0:0:98907807>
[22:31:24] Dropped "Burned Brownie" from server<STEAM_0:1:26617204>
[22:31:28] Client "Burned Brownie" connected.
[22:31:48] Client "Burned Brownie" spawned in server <STEAM_0:1:26617204> (took 20 seconds).
[22:34:42] Burned Brownie: y
[22:34:44] Dropped "sayshain" from server<STEAM_0:0:179022471>
[22:34:51] Client "sayshain" connected.
[22:34:57] Client "sayshain" connected.
[22:35:09] Client "sayshain" spawned in server <STEAM_0:0:179022471> (took 12 seconds).
[22:38:06] Client "123oplax321" connected.
[22:38:23] Client "BLACK DROWNHEAD" connected.
[22:38:38] Client "unskilled | C9 JaY // +S" connected.
[22:38:41] Client "BLACK DROWNHEAD" connected.
[22:39:20] Client "BLACK DROWNHEAD" spawned in server <STEAM_0:1:158107194> (took 39 seconds).
[22:39:21] Client "123oplax321" spawned in server <STEAM_0:1:114946798> (took 75 seconds).
[22:39:45] Client "unskilled | C9 JaY // +S" spawned in server <STEAM_0:0:91621136> (took 67 seconds).
[22:41:50] 123oplax321: !restart
[22:44:45] Dropped "sayshain" from server<STEAM_0:0:179022471>
[22:45:21] Burned Brownie: +
[22:45:30] unskilled | C9 JaY // +S: lappen
[22:45:33] BLACK DROWNHEAD: ja +
[22:45:41] BLACK DROWNHEAD: positiv ist der hiv test deines vaters
[22:45:43] BLACK DROWNHEAD: robin
[22:46:29] Client "Teddy" connected.
[22:46:34] AbiPlayZx: erman 
[22:46:37] BLACK DROWNHEAD: ?
[22:46:49] AbiPlayZx: du idiot !!! ;DDD
[22:46:58] Client "☯Sans☯" connected.
[22:46:59] BLACK DROWNHEAD: abi
[22:47:02] BLACK DROWNHEAD: lass mal neue konfi 
[22:47:05] BLACK DROWNHEAD: ohne den lappen
[22:47:11] unskilled | C9 JaY // +S: wo robin nicht konfileiter ist
[22:47:35] BLACK DROWNHEAD: ja
[22:48:08] Client "☯Sans☯" spawned in server <STEAM_0:1:81248303> (took 70 seconds).
[22:48:36] Client "Teddy" spawned in server <STEAM_0:0:144258390> (took 127 seconds).
[22:49:53] Dropped "Burned Brownie" from server<STEAM_0:1:26617204>
[22:50:17] 123oplax321: !restart
[22:51:17] ☯Sans☯: !r
[22:51:37] ☯Sans☯: !r
[22:51:44] Dropped "ByTarissl" from server<STEAM_0:0:88338661>
[22:51:49] ☯Sans☯: !r
[22:51:59] ☯Sans☯: !r
[22:52:41] 123oplax321: !restart
[22:52:52] ☯Sans☯: !r
[22:53:14] ☯Sans☯: !r
[22:53:19] 123oplax321: !restart
[22:53:34] 123oplax321: !restart
[22:53:46] ☯Sans☯: !r
[22:53:50] Client "hyperionbear77" connected.
[22:53:51] 123oplax321: !restart
[22:54:10] 123oplax321: !restart
[22:54:33] 123oplax321: !restart
[22:54:47] Client "hyperionbear77" spawned in server <STEAM_0:1:156803738> (took 57 seconds).
[22:55:12] 123oplax321: !restart
[22:55:20] Server is shutting down/changing levels.



[22:55:27] New map: surf_mesa_mine
[22:55:45] Client "AbiPlayZx" spawned in server <STEAM_0:0:158208046> (took 19 seconds).
[22:55:45] Client "Bot67" connected.
[22:55:45] Client "Bot67" spawned in server <BOT> (took 19 seconds).
[22:55:47] Client "Bot68" connected.
[22:55:47] Client "Bot68" spawned in server <BOT> (took 21 seconds).
[22:55:59] Client "hyperionbear77" spawned in server <STEAM_0:1:156803738> (took 33 seconds).
[22:56:03] Client "Teddy" spawned in server <STEAM_0:0:144258390> (took 37 seconds).
[22:56:10] Client "BLACK DROWNHEAD" spawned in server <STEAM_0:1:158107194> (took 44 seconds).
[22:56:53] Client "☯Sans☯" spawned in server <STEAM_0:1:81248303> (took 87 seconds).
[22:57:07] Client "unskilled | C9 JaY // +S" spawned in server <STEAM_0:0:91621136> (took 101 seconds).
[22:57:16] Teddy: !rtv
[22:57:42] Dropped "Teddy" from server<STEAM_0:0:144258390>
[22:57:46] Client "Teddy" connected.
[23:02:39] Client "[DF] VuKKaX" connected.
[23:03:38] Dropped "AbiPlayZx" from server<STEAM_0:0:158208046>
[23:03:53] Dropped "hyperionbear77" from server<STEAM_0:1:156803738>
[23:04:18] Dropped "☯Sans☯" from server<STEAM_0:1:81248303>
[23:10:57] BLACK DROWNHEAD: !r
[23:13:41] BLACK DROWNHEAD: !r
[23:21:35] Client "CrazyTrevor1" connected.
[23:22:18] Dropped "BLACK DROWNHEAD" from server<STEAM_0:1:158107194>
[23:23:54] Dropped "unskilled | C9 JaY // +S" from server<STEAM_0:0:91621136>
[23:23:54] Dropped "Bot67" from server<BOT>
[23:23:54] Dropped "Bot68" from server<BOT>
[23:26:03] Server is shutting down/changing levels.



[23:26:10] New map: surf_mesa_aether
[23:36:30] Client "iwant2dielol" connected.
[23:38:46] Client "iwant2dielol" spawned in server <STEAM_0:0:191988567> (took 136 seconds).
[23:38:46] Client "Bot69" connected.
[23:38:46] Client "Bot69" spawned in server <BOT> (took 757 seconds).
[23:38:48] Client "Bot70" connected.
[23:38:48] Client "Bot70" spawned in server <BOT> (took 759 seconds).
[23:43:58] iwant2dielol: !steam
[23:55:17] Dropped "iwant2dielol" from server<STEAM_0:0:191988567>
[23:55:17] Dropped "Bot69" from server<BOT>
[23:55:17] Dropped "Bot70" from server<BOT>
[23:56:46] Server is shutting down/changing levels.



[23:56:53] New map: surf_aether
<Logging continued in "data/ulx_logs/04-02-17.txt">
