<Logging continued from "data/ulx_logs/04-11-17.txt">
[00:28:58] Server is shutting down/changing levels.



[00:29:04] New map: surf_ace
[00:59:40] Server is shutting down/changing levels.



[00:59:47] New map: surf_stonework3
[01:30:22] Server is shutting down/changing levels.



[01:30:29] New map: surf_milkyway
[01:44:17] Client "ItzSky" connected.
[01:45:44] Client "ItzSky" spawned in server <STEAM_0:1:206025770> (took 87 seconds).
[01:45:44] Client "Bot447" connected.
[01:45:44] Client "Bot447" spawned in server <BOT> (took 916 seconds).
[01:45:46] Client "Bot448" connected.
[01:45:46] Client "Bot448" spawned in server <BOT> (took 918 seconds).
[01:50:11] ItzSky: !rtv
[01:50:47] Server is shutting down/changing levels.



[01:50:55] New map: surf_classics2
[01:51:43] Client "ItzSky" spawned in server <STEAM_0:1:206025770> (took 49 seconds).
[01:51:43] Client "Bot449" connected.
[01:51:43] Client "Bot449" spawned in server <BOT> (took 49 seconds).
[01:51:45] Client "Bot450" connected.
[01:51:45] Client "Bot450" spawned in server <BOT> (took 51 seconds).
[02:00:20] Client "N-G | Turd" connected.
[02:07:00] Dropped "ItzSky" from server<STEAM_0:1:206025770>
[02:07:00] Dropped "Bot449" from server<BOT>
[02:07:00] Dropped "Bot450" from server<BOT>
[02:21:32] Server is shutting down/changing levels.



[02:21:39] New map: surf_inspire
[02:52:14] Server is shutting down/changing levels.



[02:52:21] New map: surf_reprise_fix
[02:55:05] Client "[GD] WavyGravy" connected.
[03:04:15] Client "Defalt" connected.
[03:04:52] Client "Defalt" spawned in server <STEAM_0:0:194221661> (took 37 seconds).
[03:04:52] Client "Bot451" connected.
[03:04:52] Client "Bot451" spawned in server <BOT> (took 752 seconds).
[03:04:54] Client "Bot452" connected.
[03:04:54] Client "Bot452" spawned in server <BOT> (took 754 seconds).
[03:07:12] (TEAM) Defalt: !help
[03:08:40] (TEAM) Defalt: !request
[03:11:27] Dropped "Defalt" from server<STEAM_0:0:194221661>
[03:11:27] Dropped "Bot451" from server<BOT>
[03:11:27] Dropped "Bot452" from server<BOT>
[03:22:57] Server is shutting down/changing levels.



[03:23:04] New map: surf_prelude_ksf
[03:53:39] Server is shutting down/changing levels.



[03:53:46] New map: surf_lt_omnific_fix
[04:24:22] Server is shutting down/changing levels.



[04:24:29] New map: surf_wood
[04:55:04] Server is shutting down/changing levels.



[04:55:11] New map: surf_reprise_fix
[05:25:47] Server is shutting down/changing levels.



[05:25:54] New map: surf_prelude_ksf
[05:56:29] Server is shutting down/changing levels.



[05:56:37] New map: surf_lux
[06:27:13] Server is shutting down/changing levels.



[06:27:21] New map: surf_stonework3
[06:57:57] Server is shutting down/changing levels.



[06:58:04] New map: surf_rookie
[07:28:39] Server is shutting down/changing levels.



[07:28:46] New map: surf_ace
[07:59:22] Server is shutting down/changing levels.



[07:59:29] New map: surf_ing
[08:30:04] Server is shutting down/changing levels.



[08:30:11] New map: surf_rebel_scaz
[09:00:47] Server is shutting down/changing levels.



[09:00:54] New map: surf_reprise_fix
[09:17:13] Client "/" connected.
[09:17:54] Client "/" spawned in server <STEAM_0:1:85859702> (took 41 seconds).
[09:17:54] Client "Bot453" connected.
[09:17:54] Client "Bot453" spawned in server <BOT> (took 1021 seconds).
[09:17:56] Client "Bot454" connected.
[09:17:56] Client "Bot454" spawned in server <BOT> (took 1023 seconds).
[09:21:12] /: !tutorial
[09:24:39] /: !rtv
[09:25:15] Server is shutting down/changing levels.



[09:25:23] New map: surf_classics
[09:25:56] Client "/" spawned in server <STEAM_0:1:85859702> (took 35 seconds).
[09:25:56] Client "Bot455" connected.
[09:25:56] Client "Bot455" spawned in server <BOT> (took 35 seconds).
[09:25:58] Client "Bot456" connected.
[09:25:58] Client "Bot456" spawned in server <BOT> (took 37 seconds).
[09:36:47] Client "Tatsuja Shiba" connected.
[09:36:58] Client "Reazzy" connected.
[09:37:42] Client "Tatsuja Shiba" spawned in server <STEAM_0:0:70653129> (took 55 seconds).
[09:38:14] Client "Reazzy" spawned in server <STEAM_0:1:94928633> (took 76 seconds).
[09:42:52] Client "TheRealBoz" connected.
[09:43:57] Client "TheRealBoz" spawned in server <STEAM_0:0:98524185> (took 65 seconds).
[09:44:40] Dropped "Reazzy" from server<STEAM_0:1:94928633>
[09:46:27] Dropped "TheRealBoz" from server<STEAM_0:0:98524185>
[09:48:03] Dropped "Tatsuja Shiba" from server<STEAM_0:0:70653129>
[09:52:47] Dropped "/" from server<STEAM_0:1:85859702>
[09:52:47] Dropped "Bot455" from server<BOT>
[09:52:47] Dropped "Bot456" from server<BOT>
[09:55:59] Server is shutting down/changing levels.



[09:56:06] New map: surf_forbidden_ways_ksf
[10:05:56] Client "mightybubble34" connected.
[10:06:37] Client "mightybubble34" spawned in server <STEAM_0:1:156057074> (took 41 seconds).
[10:06:37] Client "Bot457" connected.
[10:06:37] Client "Bot457" spawned in server <BOT> (took 632 seconds).
[10:06:39] Client "Bot458" connected.
[10:06:39] Client "Bot458" spawned in server <BOT> (took 634 seconds).
[10:14:18] mightybubble34: !rtv
[10:16:29] mightybubble34: !tutorial
[10:26:18] mightybubble34: !3rd person
[10:26:23] mightybubble34: !3rd
[10:28:21] Client "SUBWAY BIG BOY CSGOPoints.com" connected.
[10:29:25] mightybubble34: !3rd
[10:29:39] mightybubble34: !bot
[10:30:25] Server is shutting down/changing levels.



[10:30:32] New map: surf_waterworks
[10:30:50] Client "mightybubble34" spawned in server <STEAM_0:1:156057074> (took 19 seconds).
[10:30:50] Client "Bot459" connected.
[10:30:50] Client "Bot459" spawned in server <BOT> (took 19 seconds).
[10:30:52] Client "Bot460" connected.
[10:30:52] Client "Bot460" spawned in server <BOT> (took 21 seconds).
[10:32:08] Client "SUBWAY BIG BOY CSGOPoints.com" spawned in server <STEAM_0:0:196696631> (took 97 seconds).
[10:34:44] mightybubble34: !rt
[10:34:47] mightybubble34: !rtv
[10:34:54] mightybubble34: !rtv
[10:35:07] mightybubble34: !rtv
[10:36:35] SUBWAY BIG BOY CSGOPoints.com: !steam
[10:38:14] mightybubble34: !bot
[10:38:35] mightybubble34: !speed bot
[10:38:40] mightybubble34: !follow
[10:38:42] mightybubble34: !bot
[10:38:56] mightybubble34: !rtv
[10:39:07] mightybubble34: !rtv plz
[10:39:12] mightybubble34: rtv plz
[10:39:33] mightybubble34: rtv
[10:39:35] mightybubble34: rtv
[10:39:37] mightybubble34: rtv
[10:39:39] mightybubble34: rtv
[10:39:41] mightybubble34: rtv
[10:39:43] mightybubble34: rtv
[10:39:44] mightybubble34: rtv
[10:39:46] mightybubble34: rtv
[10:39:48] mightybubble34: rtv
[10:39:51] mightybubble34: rtv
[10:39:53] mightybubble34: rtv
[10:39:55] mightybubble34: rtv
[10:39:56] mightybubble34: rtv
[10:39:58] mightybubble34: rtv
[10:40:00] mightybubble34: rtv
[10:40:02] mightybubble34: rtv
[10:40:03] mightybubble34: rtv
[10:40:05] mightybubble34: rtv
[10:40:07] mightybubble34: rtv
[10:40:09] mightybubble34: rtv
[10:40:11] mightybubble34: rtv
[10:40:12] mightybubble34: rtv
[10:40:14] mightybubble34: rtv
[10:40:16] mightybubble34: rtv
[10:40:18] mightybubble34: rtv
[10:40:20] mightybubble34: rtv
[10:40:21] mightybubble34: rtv
[10:40:23] mightybubble34: rtv
[10:40:26] mightybubble34: rtv
[10:40:27] mightybubble34: rtv
[10:40:29] mightybubble34: rtvv
[10:40:31] mightybubble34: rtv
[10:40:33] mightybubble34: rtv
[10:41:17] mightybubble34: sdo rtyfgvv f
[10:41:21] mightybubble34: do rtv
[10:41:24] mightybubble34: do rtv
[10:41:28] mightybubble34: do rtv
[10:41:31] mightybubble34: do rtv
[10:41:33] mightybubble34: do rtv
[10:41:37] mightybubble34: do rtv
[10:42:06] mightybubble34: !go
[10:42:10] mightybubble34: !Record
[10:42:14] mightybubble34: !bot
[10:42:22] SUBWAY BIG BOY CSGOPoints.com: !shop
[10:43:03] Dropped "mightybubble34" from server<STEAM_0:1:156057074>
[10:44:00] Client "Samurai Worf" connected.
[10:44:16] Dropped "SUBWAY BIG BOY CSGOPoints.com" from server<STEAM_0:0:196696631>
[10:44:29] Client "Samurai Worf" spawned in server <STEAM_0:0:86904184> (took 29 seconds).
[10:44:51] Samurai Worf: !r
[10:45:13] Samurai Worf: !r
[10:45:49] Samurai Worf: !r
[10:49:30] Client "РуСАЛОчка" connected.
[10:49:39] Samurai Worf: !r
[10:50:29] Client "РуСАЛОчка" spawned in server <STEAM_0:1:80319319> (took 59 seconds).
[10:52:11] Client "pipper perri" connected.
[10:52:15] Samurai Worf: !r
[10:52:20] Client "Gariven" connected.
[10:52:42] Samurai Worf: !r
[10:52:59] Client "Gariven" spawned in server <STEAM_0:1:71317331> (took 39 seconds).
[10:53:26] Samurai Worf: !r
[10:53:35] Samurai Worf: !r
[10:53:38] Dropped "Gariven" from server<STEAM_0:1:71317331>
[10:53:55] Samurai Worf: !r
[10:55:52] Samurai Worf: !r
[10:56:17] Dropped "Samurai Worf" from server<STEAM_0:0:86904184>
[10:56:32] Dropped "РуСАЛОчка" from server<STEAM_0:1:80319319>
[10:56:32] Dropped "Bot459" from server<BOT>
[10:56:32] Dropped "Bot460" from server<BOT>
[11:01:08] Server is shutting down/changing levels.



[11:01:15] New map: surf_graphia
[11:20:58] Client "Samurai Worf" connected.
[11:21:09] Client "Samurai Worf" spawned in server <STEAM_0:0:86904184> (took 11 seconds).
[11:21:09] Client "Bot461" connected.
[11:21:09] Client "Bot461" spawned in server <BOT> (took 1195 seconds).
[11:21:11] Client "Bot462" connected.
[11:21:11] Client "Bot462" spawned in server <BOT> (took 1197 seconds).
[11:21:36] Samurai Worf: !r
[11:22:20] Samurai Worf: !r
[11:22:37] Samurai Worf: !r
[11:22:57] Samurai Worf: !r
[11:23:41] Samurai Worf: !r
[11:23:56] Samurai Worf: !r
[11:24:38] Samurai Worf: !r
[11:25:01] Samurai Worf: !r
[11:25:23] Samurai Worf: !r
[11:25:41] Samurai Worf: !r
[11:26:45] Samurai Worf: !r
[11:27:36] Samurai Worf: !r
[11:28:31] Samurai Worf: !r
[11:28:34] Client "FeOdAl" connected.
[11:29:02] Samurai Worf: !r
[11:29:14] Samurai Worf: !r
[11:29:42] Client "FeOdAl" spawned in server <STEAM_0:1:109008616> (took 68 seconds).
[11:30:19] Samurai Worf: !r
[11:30:34] Samurai Worf: !r
[11:30:48] Samurai Worf: !r
[11:31:32] Samurai Worf: !r
[11:31:50] Samurai Worf: !r
[11:31:50] Server is shutting down/changing levels.



[11:31:59] New map: surf_utopia_njv
[11:32:07] Client "Samurai Worf" spawned in server <STEAM_0:0:86904184> (took 9 seconds).
[11:32:07] Client "Bot463" connected.
[11:32:07] Client "Bot463" spawned in server <BOT> (took 9 seconds).
[11:32:09] Client "Bot464" connected.
[11:32:09] Client "Bot464" spawned in server <BOT> (took 11 seconds).
[11:32:32] Client "FeOdAl" spawned in server <STEAM_0:1:109008616> (took 34 seconds).
[11:32:59] Samurai Worf: !r
[11:33:53] Samurai Worf: !r
[11:33:56] Samurai Worf: !r
[11:35:00] Samurai Worf: !r
[11:36:49] Samurai Worf: !r
[11:36:54] Samurai Worf: !r
[11:37:24] Samurai Worf: !r
[11:37:34] Samurai Worf: !r
[11:37:59] Samurai Worf: !r
[11:39:05] Samurai Worf: !r
[11:39:33] Samurai Worf: !r
[11:40:03] Samurai Worf: !r
[11:40:41] Samurai Worf: !r
[11:40:49] Samurai Worf: !r
[11:41:00] Samurai Worf: !r
[11:41:35] Samurai Worf: !r
[11:42:12] Samurai Worf: !r
[11:43:57] Client "pinguz7" connected.
[11:44:25] Samurai Worf: !r
[11:45:00] Samurai Worf: !r
[11:45:18] Samurai Worf: !r
[11:46:21] Samurai Worf: !r
[11:46:45] Client "pinguz7" spawned in server <STEAM_0:1:106875326> (took 168 seconds).
[11:47:13] Samurai Worf: !r
[11:47:35] Client "Nosey" connected.
[11:48:33] Samurai Worf: !r
[11:49:21] Client "LiamGaming33" connected.
[11:49:31] Samurai Worf: !r
[11:49:51] Client "Nosey" spawned in server <STEAM_0:1:105971659> (took 136 seconds).
[11:51:01] Client "LiamGaming33" spawned in server <STEAM_0:0:154628336> (took 100 seconds).
[11:51:22] Samurai Worf: !r
[11:51:46] LiamGaming33: hi
[11:52:25] Nosey: me??
[11:52:37] Samurai Worf: !r
[11:53:04] Nosey: i dont have a mic
[11:53:10] Nosey: !model
[11:53:19] Samurai Worf: !r
[11:53:52] Samurai Worf: !r
[11:54:28] FeOdAl: wtf
[11:54:52] Client "Wetpenny" connected.
[11:54:58] Nosey: the ncs version is better than the 1 with the singer
[11:55:20] Client "Wetpenny" spawned in server <STEAM_0:1:100280063> (took 28 seconds).
[11:55:22] FeOdAl: !rtv
[11:55:35] Nosey: !rtd
[11:56:02] LiamGaming33: idk how to do the bijump
[11:56:19] LiamGaming33: like this Hugejump where you have to go htrough a square
[11:56:24] Samurai Worf: !r
[11:56:31] Nosey: how to change playermodeL??
[11:56:59] Dropped "pinguz7" from server<STEAM_0:1:106875326>
[11:57:13] Samurai Worf: !r
[11:57:44] LiamGaming33: So close
[11:57:49] Samurai Worf: !r
[11:58:03] Client "pinguz7" connected.
[11:58:14] Client "pinguz7" spawned in server <STEAM_0:1:106875326> (took 11 seconds).
[11:58:54] Samurai Worf: !r
[12:01:00] Client "Lundaa- JNR" connected.
[12:01:13] Client "Lundaa- JNR" spawned in server <STEAM_0:0:49395821> (took 13 seconds).
[12:01:13] FeOdAl: aahahahhaha
[12:01:16] pinguz7: !steam
[12:01:18] LiamGaming33: !shop
[12:04:06] Dropped "Samurai Worf" from server<STEAM_0:0:86904184>
[12:04:08] pinguz7: !steam
[12:04:10] FeOdAl: !rtv
[12:04:13] FeOdAl: Go rtv
[12:04:15] FeOdAl: pls
[12:04:26] Lundaa- JNR: !rtv
[12:04:35] Lundaa- JNR: then shut up
[12:05:00] Dropped "pinguz7" from server<STEAM_0:1:106875326>
[12:05:39] Dropped "Wetpenny" from server<STEAM_0:1:100280063>
[12:05:41] FeOdAl: !rtv
[12:05:58] Client "🆆🅰🅻🆃🅴🆁 🆆" connected.
[12:06:41] FeOdAl: Pls
[12:06:43] FeOdAl: rtv
[12:07:11] Nosey: !steam
[12:07:24] Lundaa- JNR: we have rtv
[12:07:33] LiamGaming33: !steam
[12:07:55] LiamGaming33: !shop
[12:09:17] Lundaa- JNR: !rtv
[12:10:42] FeOdAl: РТВ плз((
[12:12:23] Client "Samurai Worf" connected.
[12:12:34] Client "Samurai Worf" spawned in server <STEAM_0:0:86904184> (took 11 seconds).
[12:12:35] Dropped "Lundaa- JNR" from server<STEAM_0:0:49395821>
[12:13:24] Samurai Worf: !r
[12:14:33] Samurai Worf: !r
[12:14:44] Client "kenny.lutz" connected.
[12:14:55] LiamGaming33: !steam
[12:15:23] Client "[T-H-C-C] Ciri" connected.
[12:16:12] Samurai Worf: !r
[12:16:30] Client "kenny.lutz" spawned in server <STEAM_0:1:93581526> (took 106 seconds).
[12:16:44] Samurai Worf: !r
[12:17:10] Client "Devil Magical" connected.
[12:17:15] Samurai Worf: !r
[12:17:27] Samurai Worf: !r
[12:17:51] Samurai Worf: !r
[12:18:06] Server is shutting down/changing levels.



[12:18:13] New map: surf_mesa_mine
[12:18:23] Client "Samurai Worf" spawned in server <STEAM_0:0:86904184> (took 11 seconds).
[12:18:23] Client "Bot465" connected.
[12:18:23] Client "Bot465" spawned in server <BOT> (took 11 seconds).
[12:18:25] Client "Bot466" connected.
[12:18:25] Client "Bot466" spawned in server <BOT> (took 13 seconds).
[12:19:23] Samurai Worf: !r
[12:19:27] Client "LiamGaming33" spawned in server <STEAM_0:0:154628336> (took 75 seconds).
[12:19:57] Client "kamorulz" connected.
[12:20:22] Client "FeOdAl" spawned in server <STEAM_0:1:109008616> (took 130 seconds).
[12:20:53] Client "Nosey" spawned in server <STEAM_0:1:105971659> (took 161 seconds).
[12:20:58] Samurai Worf: !r
[12:21:56] Samurai Worf: !r
[12:22:27] Client "Devil Magical" spawned in server <STEAM_0:1:189767546> (took 255 seconds).
[12:23:23] Samurai Worf: !r
[12:23:48] Samurai Worf: !r
[12:24:02] Samurai Worf: !r
[12:24:03] Samurai Worf: !r
[12:24:28] Devil Magical: !r
[12:24:48] Samurai Worf: !r
[12:24:51] Devil Magical: !r
[12:25:41] Samurai Worf: !r
[12:25:54] Nosey: !playermodel
[12:26:03] Nosey: /player
[12:26:07] Nosey: /playermodel
[12:26:12] Samurai Worf: !r
[12:26:59] Samurai Worf: !r
[12:28:17] Dropped "LiamGaming33" from server<STEAM_0:0:154628336>
[12:28:29] Samurai Worf: !r
[12:29:02] Samurai Worf: !r
[12:29:04] Nosey: FUCK
[12:29:06] Samurai Worf: !r
[12:29:16] FeOdAl: Yea it's hard))
[12:29:16] Nosey: i cant do the cave jumpo
[12:29:18] Samurai Worf: !r
[12:29:31] Samurai Worf: !r
[12:29:36] FeOdAl: You noob?)))
[12:29:50] Nosey: #abusive
[12:30:24] Samurai Worf: !r
[12:31:10] FeOdAl: wtf
[12:31:18] Samurai Worf: !r
[12:31:21] Samurai Worf: !r
[12:31:25] Dropped "Samurai Worf" from server<STEAM_0:0:86904184>
[12:32:39] Nosey: !rtv
[12:32:45] FeOdAl: HAAARD!((
[12:32:48] FeOdAl: !rtv
[12:33:25] Server is shutting down/changing levels.



[12:33:32] New map: surf_milkyway
[12:34:10] Client "TheBeastInside" connected.
[12:35:13] Client "TheBeastInside" spawned in server <STEAM_0:0:142812386> (took 63 seconds).
[12:35:13] Client "Bot467" connected.
[12:35:13] Client "Bot467" spawned in server <BOT> (took 103 seconds).
[12:35:15] Client "Bot468" connected.
[12:35:15] Client "Bot468" spawned in server <BOT> (took 105 seconds).
[12:35:22] Client "Nosey" spawned in server <STEAM_0:1:105971659> (took 112 seconds).
[12:35:26] Client "FeOdAl" spawned in server <STEAM_0:1:109008616> (took 116 seconds).
[12:36:24] Dropped "TheBeastInside" from server<STEAM_0:0:142812386>
[12:36:49] Client "CJ270103HD" connected.
[12:37:04] FeOdAl: !rtv
[12:37:27] FeOdAl: !rtv
[12:37:30] FeOdAl: !rtv
[12:37:31] FeOdAl: !rtv
[12:37:32] FeOdAl: !rtv
[12:37:33] FeOdAl: !rtv
[12:38:05] Nosey: !rtv
[12:38:20] Nosey: !rtv
[12:38:34] Nosey: !rtv
[12:38:59] Nosey: my reason: cant see anything in the tunnel
[12:39:10] FeOdAl: !rtv
[12:39:33] FeOdAl: let's vote!
[12:39:46] Server is shutting down/changing levels.



[12:39:53] New map: surf_classics
[12:40:34] Client "FeOdAl" spawned in server <STEAM_0:1:109008616> (took 42 seconds).
[12:40:34] Client "Bot469" connected.
[12:40:34] Client "Bot469" spawned in server <BOT> (took 42 seconds).
[12:40:36] Client "Bot470" connected.
[12:40:36] Client "Bot470" spawned in server <BOT> (took 44 seconds).
[12:41:29] Client "Nosey" spawned in server <STEAM_0:1:105971659> (took 97 seconds).
[12:42:53] FeOdAl: Yeaaa
[12:42:57] FeOdAl: Easy :D
[12:43:34] Nosey: my fav map is the one before the lava map with the cave
[12:43:48] FeOdAl: No it' haed:D
[12:45:18] Nosey: can i eat you
[12:47:48] Nosey: !rtv
[12:47:53] Nosey: impossible
[12:49:28] FeOdAl: It's very easy
[12:51:35] Nosey: /rtv
[12:52:36] (TEAM) Nosey: FUCK
[12:52:40] Nosey: FUCK
[12:52:54] Nosey: i sneezed irl and lost
[12:55:07] FeOdAl: You new player in the surf!?
[12:55:17] Nosey: me??
[12:55:20] FeOdAl: Yea
[12:55:36] Nosey: i have played it alot on cs 1.6
[12:55:42] FeOdAl: Ohh))
[12:56:02] Nosey: and alot on gmod
[12:56:07] FeOdAl: I love bunny hop)
[12:56:13] Nosey: thats hard
[12:56:18] FeOdAl: No
[12:57:05] Nosey: there is some invisible walls
[12:57:59] Nosey: stop what
[12:58:06] Nosey: my mic is broke
[12:58:31] FeOdAl: Lag..
[13:00:04] Nosey: !tutorial
[13:00:37] Dropped "Nosey" from server<STEAM_0:1:105971659>
[13:01:29] Dropped "FeOdAl" from server<STEAM_0:1:109008616>
[13:01:29] Dropped "Bot469" from server<BOT>
[13:01:29] Dropped "Bot470" from server<BOT>
[13:10:30] Server is shutting down/changing levels.



[13:10:36] New map: surf_waterworks
[13:10:37] Client "Draig" connected.
[13:11:57] Client "Draig" spawned in server <STEAM_0:0:154555743> (took 80 seconds).
[13:11:57] Client "Bot471" connected.
[13:11:57] Client "Bot471" spawned in server <BOT> (took 82 seconds).
[13:11:59] Client "Bot472" connected.
[13:11:59] Client "Bot472" spawned in server <BOT> (took 84 seconds).
[13:12:41] Client "RAIDER_GAME" connected.
[13:13:12] Client "RAIDER_GAME" spawned in server <STEAM_0:0:100992201> (took 31 seconds).
[13:17:13] Draig: !rtv
[13:19:36] Dropped "Draig" from server<STEAM_0:0:154555743>
[13:27:07] Dropped "RAIDER_GAME" from server<STEAM_0:0:100992201>
[13:27:07] Dropped "Bot471" from server<BOT>
[13:27:07] Dropped "Bot472" from server<BOT>
[13:36:46] Client "Samurai Worf" connected.
[13:36:58] Client "Samurai Worf" spawned in server <STEAM_0:0:86904184> (took 12 seconds).
[13:36:58] Client "Bot473" connected.
[13:36:58] Client "Bot473" spawned in server <BOT> (took 1583 seconds).
[13:37:00] Client "Bot474" connected.
[13:37:00] Client "Bot474" spawned in server <BOT> (took 1585 seconds).
[13:37:29] Samurai Worf: !r
[13:37:36] Samurai Worf: !r
[13:38:03] Samurai Worf: !r
[13:40:18] Client "JR N-G" connected.
[13:40:49] Client "FrooXer |Sana's <3|" connected.
[13:41:13] Server is shutting down/changing levels.



[13:41:20] New map: surf_prelude_ksf
[13:41:27] Client "Samurai Worf" spawned in server <STEAM_0:0:86904184> (took 9 seconds).
[13:41:27] Client "Bot475" connected.
[13:41:27] Client "Bot475" spawned in server <BOT> (took 9 seconds).
[13:41:29] Client "Bot476" connected.
[13:41:29] Client "Bot476" spawned in server <BOT> (took 11 seconds).
[13:41:44] Client "JR N-G" spawned in server <STEAM_0:0:109545465> (took 26 seconds).
[13:42:06] Samurai Worf: !r
[13:42:07] Client "FrooXer |Sana's <3|" spawned in server <STEAM_0:1:126572422> (took 49 seconds).
[13:42:57] Samurai Worf: !r
[13:43:29] Samurai Worf: !r
[13:43:43] JR N-G: !r
[13:44:05] Samurai Worf: !r
[13:44:11] Samurai Worf: !r
[13:44:22] Samurai Worf: !r
[13:44:30] Samurai Worf: !r
[13:44:41] FrooXer |Sana's <3|: !rtb
[13:44:43] JR N-G: !r
[13:44:44] FrooXer |Sana's <3|: !rtv
[13:44:47] JR N-G: !r
[13:44:48] FrooXer |Sana's <3|: rtv please
[13:45:00] Samurai Worf: !r
[13:45:25] JR N-G: !r
[13:45:42] JR N-G: !r
[13:45:50] Dropped "JR N-G" from server<STEAM_0:0:109545465>
[13:46:08] Samurai Worf: !r
[13:46:30] Samurai Worf: !r
[13:46:36] Client "ratbag152" connected.
[13:46:37] Samurai Worf: !r
[13:46:47] Samurai Worf: !r
[13:46:56] Client "ratbag152" connected.
[13:47:17] Samurai Worf: !r
[13:47:38] FrooXer |Sana's <3|: !rtv
[13:47:41] FrooXer |Sana's <3|: rtv pelase
[13:47:44] FrooXer |Sana's <3|: samurai?
[13:47:47] FrooXer |Sana's <3|: i please to you
[13:48:04] Samurai Worf: !r
[13:49:10] Samurai Worf: !r
[13:49:20] Samurai Worf: !r
[13:49:41] Samurai Worf: !r
[13:49:48] Samurai Worf: !r
[13:49:57] Samurai Worf: !r
[13:50:10] Samurai Worf: !style
[13:50:42] Samurai Worf: !r
[13:50:47] Samurai Worf: !r
[13:50:51] FrooXer |Sana's <3|: samurai
[13:50:51] Samurai Worf: !styl
[13:50:52] FrooXer |Sana's <3|: please
[13:50:53] FrooXer |Sana's <3|: rtv
[13:51:00] Samurai Worf: !rtv
[13:51:08] Samurai Worf: sry didnt read chat
[13:51:14] Samurai Worf: !r
[13:51:15] FrooXer |Sana's <3|: ok
[13:51:18] Samurai Worf: !r
[13:51:21] Samurai Worf: !r
[13:51:24] FrooXer |Sana's <3|: where r u from
[13:51:28] Samurai Worf: !style
[13:51:34] Samurai Worf: ger
[13:51:35] Samurai Worf: !r
[13:51:36] Server is shutting down/changing levels.



[13:51:48] New map: surf_graphia
[13:51:56] Client "Samurai Worf" spawned in server <STEAM_0:0:86904184> (took 9 seconds).
[13:51:56] Client "Bot477" connected.
[13:51:56] Client "Bot477" spawned in server <BOT> (took 9 seconds).
[13:51:58] Client "Bot478" connected.
[13:51:58] Client "Bot478" spawned in server <BOT> (took 11 seconds).
[13:51:59] Client "FrooXer |Sana's <3|" spawned in server <STEAM_0:1:126572422> (took 12 seconds).
[13:52:08] Samurai Worf: u?
[13:52:25] Samurai Worf: !r
[13:52:33] FrooXer |Sana's <3|: !r
[13:52:33] Samurai Worf: !r
[13:52:46] Samurai Worf: where are u from?
[13:52:47] Samurai Worf: !r
[13:52:51] FrooXer |Sana's <3|: !r
[13:52:54] FrooXer |Sana's <3|: indonesia
[13:52:58] Samurai Worf: k
[13:53:17] FrooXer |Sana's <3|: can u teach me
[13:53:45] Samurai Worf: !r
[13:53:50] Samurai Worf: !r
[13:54:03] Samurai Worf: !r
[13:54:53] Samurai Worf: !r
[13:55:03] Samurai Worf: !r
[13:55:05] Samurai Worf: !r
[13:56:03] Samurai Worf: !r
[13:56:05] FrooXer |Sana's <3|: !r
[13:56:17] Samurai Worf: !r
[13:56:21] Samurai Worf: !rtv
[13:56:29] Samurai Worf: !r
[13:56:33] Samurai Worf: !r
[13:57:00] Samurai Worf: !r
[13:57:04] Samurai Worf: !r
[13:57:30] Samurai Worf: !r
[13:57:47] Samurai Worf: !r
[13:58:42] Samurai Worf: !r
[13:59:03] Samurai Worf: !r
[13:59:03] FrooXer |Sana's <3|: why did u choose this map?
[13:59:07] FrooXer |Sana's <3|: (;_;
[13:59:09] Samurai Worf: !r
[13:59:13] Samurai Worf: mistake XD
[13:59:48] Samurai Worf: !r
[14:00:03] Samurai Worf: !r
[14:00:08] FrooXer |Sana's <3|: !rtv
[14:00:11] FrooXer |Sana's <3|: rtv again
[14:00:13] Samurai Worf: !rtv
[14:00:18] FrooXer |Sana's <3|: i can't finish this map
[14:00:24] (TEAM) FrooXer |Sana's <3|: pox
[14:00:28] Samurai Worf: !r
[14:00:29] Samurai Worf: !r
[14:00:30] Samurai Worf: !r
[14:00:31] Samurai Worf: !r
[14:00:32] Samurai Worf: !r
[14:00:33] Samurai Worf: !r
[14:00:35] Samurai Worf: !r
[14:00:44] Samurai Worf: !r
[14:00:49] Server is shutting down/changing levels.



[14:00:56] New map: surf_pox
[14:01:05] Client "Samurai Worf" spawned in server <STEAM_0:0:86904184> (took 10 seconds).
[14:01:05] Client "Bot479" connected.
[14:01:05] Client "Bot479" spawned in server <BOT> (took 10 seconds).
[14:01:07] Client "Bot480" connected.
[14:01:07] Client "Bot480" spawned in server <BOT> (took 12 seconds).
[14:01:19] Client "8bitsatvetures" connected.
[14:01:22] Client "FrooXer |Sana's <3|" spawned in server <STEAM_0:1:126572422> (took 27 seconds).
[14:01:44] Client "ryansel3000" connected.
[14:02:32] Client "ryansel3000" spawned in server <STEAM_0:0:155765944> (took 48 seconds).
[14:02:55] Samurai Worf: !r
[14:03:37] Samurai Worf: !r
[14:03:49] Samurai Worf: !r
[14:04:11] Samurai Worf: !r
[14:04:35] Samurai Worf: !r
[14:05:16] Samurai Worf: !r
[14:05:20] Samurai Worf: !r
[14:06:50] Samurai Worf: !r
[14:07:01] Samurai Worf: !r
[14:07:39] Samurai Worf: !r
[14:07:40] Samurai Worf: !r
[14:08:13] Samurai Worf: !r
[14:08:14] Samurai Worf: !r
[14:08:15] Samurai Worf: !r
[14:08:16] Samurai Worf: !r
[14:08:19] Samurai Worf: !r
[14:08:20] FrooXer |Sana's <3|: !r
[14:08:21] Samurai Worf: !r
[14:08:22] Samurai Worf: !r
[14:08:23] Samurai Worf: !r
[14:08:25] Samurai Worf: !r
[14:08:26] Samurai Worf: !r
[14:08:28] Samurai Worf: !r
[14:08:30] Samurai Worf: !r
[14:08:31] Samurai Worf: !r
[14:08:33] Samurai Worf: !r
[14:08:35] Samurai Worf: !r
[14:08:36] Samurai Worf: !r
[14:08:49] Samurai Worf: !r
[14:08:55] Dropped "Samurai Worf" from server<STEAM_0:0:86904184>
[14:09:19] FrooXer |Sana's <3|: rtv please
[14:09:21] FrooXer |Sana's <3|: !rtv
[14:10:17] FrooXer |Sana's <3|: !r
[14:10:38] Dropped "ryansel3000" from server<STEAM_0:0:155765944>
[14:11:14] Server is shutting down/changing levels.



[14:11:23] New map: surf_island
[14:12:33] Client "FrooXer |Sana's <3|" connected.
[14:14:37] Client "The_Ramboss" connected.
[14:18:52] Client "FeOdAl" connected.
[14:20:43] Client "FeOdAl" spawned in server <STEAM_0:1:109008616> (took 111 seconds).
[14:20:43] Client "Bot481" connected.
[14:20:43] Client "Bot481" spawned in server <BOT> (took 561 seconds).
[14:20:45] Client "Bot482" connected.
[14:20:45] Client "Bot482" spawned in server <BOT> (took 563 seconds).
[14:33:35] Client "Samurai Worf" connected.
[14:33:45] Client "Samurai Worf" spawned in server <STEAM_0:0:86904184> (took 10 seconds).
[14:34:55] FeOdAl: !rtv
[14:34:58] FeOdAl: rtv pls
[14:35:12] Samurai Worf: !rtv
[14:35:48] Server is shutting down/changing levels.



[14:35:55] New map: surf_ace
[14:36:03] Client "Samurai Worf" spawned in server <STEAM_0:0:86904184> (took 9 seconds).
[14:36:03] Client "Bot483" connected.
[14:36:03] Client "Bot483" spawned in server <BOT> (took 9 seconds).
[14:36:05] Client "Bot484" connected.
[14:36:05] Client "Bot484" spawned in server <BOT> (took 11 seconds).
[14:36:21] Client "FeOdAl" spawned in server <STEAM_0:1:109008616> (took 27 seconds).
[14:36:22] Samurai Worf: !r
[14:36:34] Samurai Worf: !r
[14:36:37] FeOdAl: Thnk)
[14:36:45] Samurai Worf: np
[14:36:46] Samurai Worf: !r
[14:37:04] FeOdAl: From you?
[14:37:57] Samurai Worf: !r
[14:38:04] Samurai Worf: !r
[14:38:23] Samurai Worf: !r
[14:38:36] Samurai Worf: !r
[14:39:30] FeOdAl: ((
[14:39:38] Samurai Worf: !r
[14:39:48] Samurai Worf: !r
[14:40:01] Samurai Worf: !r
[14:40:02] Client "-BM- Imperdius" connected.
[14:40:29] Samurai Worf: !r
[14:40:42] FeOdAl: Oh
[14:40:44] FeOdAl: Ok
[14:40:46] FeOdAl: :DDDD
[14:40:59] Samurai Worf: ? XD
[14:41:02] Samurai Worf: !r
[14:41:04] FeOdAl: Bug)
[14:41:08] Samurai Worf: lulz
[14:41:14] Samurai Worf: !r
[14:41:24] Samurai Worf: !r
[14:41:50] Samurai Worf: !r
[14:42:00] Samurai Worf: !r
[14:42:02] FeOdAl: Oh, hard))
[14:42:12] Samurai Worf: !r
[14:42:38] Samurai Worf: !r
[14:43:39] FeOdAl: Speed(
[14:43:49] Samurai Worf: !r
[14:44:00] Samurai Worf: !r
[14:44:25] Samurai Worf: !r
[14:44:57] Samurai Worf: !r
[14:45:19] Samurai Worf: !r
[14:45:32] Samurai Worf: !r
[14:45:42] Samurai Worf: !r
[14:46:04] Samurai Worf: !r
[14:46:46] Samurai Worf: !r
[14:47:47] Samurai Worf: !r
[14:48:18] Dropped "Samurai Worf" from server<STEAM_0:0:86904184>
[14:49:22] FeOdAl: How to make high jump?)
[14:50:37] FeOdAl: !rtv
[14:51:13] Server is shutting down/changing levels.



[14:51:23] New map: surf_mesa
[14:53:06] Client "FeOdAl" spawned in server <STEAM_0:1:109008616> (took 104 seconds).
[14:53:06] Client "Bot485" connected.
[14:53:06] Client "Bot485" spawned in server <BOT> (took 104 seconds).
[14:53:08] Client "Bot486" connected.
[14:53:08] Client "Bot486" spawned in server <BOT> (took 106 seconds).
[14:53:28] Client ":KilleR:." connected.
[15:03:27] Client "Craft3324" connected.
[15:04:44] Client "Jodie21" connected.
[15:05:56] Client "guerrit" connected.
[15:06:01] Client "Jodie21" spawned in server <STEAM_0:1:175928584> (took 77 seconds).
[15:07:46] Client "guerrit" spawned in server <STEAM_0:1:169962244> (took 110 seconds).
[15:08:11] FeOdAl: Yeaaaa
[15:08:15] FeOdAl: Im end :D
[15:08:34] FeOdAl: !bot
[15:08:43] (TEAM) guerrit: /vtr
[15:08:50] (TEAM) guerrit: !vtr
[15:08:56] (TEAM) guerrit: !vrt
[15:09:01] FeOdAl: !steam
[15:09:19] (TEAM) guerrit: !vrt
[15:09:23] Dropped "Jodie21" from server<STEAM_0:1:175928584>
[15:09:25] (TEAM) guerrit: !rtv
[15:09:45] Client "Jodie21" connected.
[15:10:03] Client "Jodie21" spawned in server <STEAM_0:1:175928584> (took 18 seconds).
[15:10:31] Jodie21: !rtv
[15:11:07] Server is shutting down/changing levels.



[15:11:16] New map: surf_pox
[15:11:33] Client "Jodie21" spawned in server <STEAM_0:1:175928584> (took 18 seconds).
[15:11:33] Client "Bot487" connected.
[15:11:33] Client "Bot487" spawned in server <BOT> (took 18 seconds).
[15:11:35] Client "Bot488" connected.
[15:11:35] Client "Bot488" spawned in server <BOT> (took 20 seconds).
[15:11:42] Client "guerrit" spawned in server <STEAM_0:1:169962244> (took 27 seconds).
[15:11:44] Client "FeOdAl" spawned in server <STEAM_0:1:109008616> (took 29 seconds).
[15:13:26] Client "Chufry" connected.
[15:14:29] Client "Chufry" spawned in server <STEAM_0:0:66781002> (took 63 seconds).
[15:16:35] Client "SimonSt" connected.
[15:17:08] Client "SimonSt" spawned in server <STEAM_0:0:55795416> (took 33 seconds).
[15:17:26] Chufry: !steam
[15:17:34] Jodie21: !rtv
[15:17:52] (TEAM) guerrit: !rtv
[15:18:04] (TEAM) guerrit: .!rtv 
[15:18:33] FeOdAl: !rtv
[15:19:46] Dropped "guerrit" from server<STEAM_0:1:169962244>
[15:19:50] Dropped "Jodie21" from server<STEAM_0:1:175928584>
[15:20:12] Client "guerrit" connected.
[15:20:20] Client "[N-G] Lil' Massif" connected.
[15:20:26] Client "guerrit" spawned in server <STEAM_0:1:169962244> (took 14 seconds).
[15:20:26] Dropped "Chufry" from server<STEAM_0:0:66781002>
[15:20:37] Dropped "guerrit" from server<STEAM_0:1:169962244>
[15:20:47] Client "guerrit" connected.
[15:21:06] FeOdAl: FAST
[15:21:08] FeOdAl: VOTE
[15:21:16] FeOdAl: Vote pls
[15:21:16] (TEAM) SimonSt: !rtv
[15:21:22] FeOdAl: Vote
[15:21:25] FeOdAl: Music
[15:21:52] Server is shutting down/changing levels.



[15:22:03] New map: surf_kitsune
[15:22:11] Client "SimonSt" spawned in server <STEAM_0:0:55795416> (took 9 seconds).
[15:22:11] Client "Bot489" connected.
[15:22:11] Client "Bot489" spawned in server <BOT> (took 9 seconds).
[15:22:13] Client "Bot490" connected.
[15:22:13] Client "Bot490" spawned in server <BOT> (took 11 seconds).
[15:22:13] Client "FeOdAl" spawned in server <STEAM_0:1:109008616> (took 11 seconds).
[15:22:33] Client "[N-G] Lil' Massif" spawned in server <STEAM_0:1:74663039> (took 31 seconds).
[15:23:21] (TEAM) [N-G] Lil' Massif: hi
[15:23:25] FeOdAl: Ohh hell lvl
[15:23:35] [N-G] Lil' Massif: !r
[15:24:35] [N-G] Lil' Massif: !r
[15:24:46] [N-G] Lil' Massif: !r
[15:24:57] [N-G] Lil' Massif: !r
[15:26:07] [N-G] Lil' Massif: !r
[15:26:38] [N-G] Lil' Massif: !r
[15:27:02] [N-G] Lil' Massif: !r
[15:27:34] [N-G] Lil' Massif: !r
[15:27:38] [N-G] Lil' Massif: !r
[15:27:39] [N-G] Lil' Massif: !r
[15:28:13] [N-G] Lil' Massif: !r
[15:29:47] FeOdAl: Fuck)
[15:29:56] (TEAM) [N-G] Lil' Massif: if you don't like being specced just tell me :P
[15:30:09] [N-G] Lil' Massif: I'm just speccing people cuz I'm bored
[15:30:15] [N-G] Lil' Massif: !rtv
[15:30:32] Client "SansTheShow" connected.
[15:31:12] Client "SansTheShow" spawned in server <STEAM_0:0:124539692> (took 40 seconds).
[15:31:41] [N-G] Lil' Massif: !r
[15:31:48] [N-G] Lil' Massif: !r
[15:31:52] [N-G] Lil' Massif: !r
[15:32:07] [N-G] Lil' Massif: !r
[15:32:11] [N-G] Lil' Massif: !r
[15:32:24] [N-G] Lil' Massif: !r
[15:32:27] [N-G] Lil' Massif: !r
[15:32:31] [N-G] Lil' Massif: !r
[15:32:45] [N-G] Lil' Massif: !r
[15:32:48] [N-G] Lil' Massif: !r
[15:32:56] [N-G] Lil' Massif: !r
[15:33:08] [N-G] Lil' Massif: !r
[15:33:35] Dropped "SansTheShow" from server<STEAM_0:0:124539692>
[15:34:00] Client "oliQ" connected.
[15:34:40] Client "oliQ" spawned in server <STEAM_0:1:183458094> (took 40 seconds).
[15:34:43] [N-G] Lil' Massif: !r
[15:34:52] [N-G] Lil' Massif: !r
[15:34:54] FeOdAl: it's hard((
[15:34:58] [N-G] Lil' Massif: !r
[15:35:09] [N-G] Lil' Massif: try lowering your sensetivity
[15:35:23] [N-G] Lil' Massif: it really helps on the last lvl
[15:36:06] FeOdAl: Ahah
[15:36:16] FeOdAl: My sensetive 10:D
[15:36:48] (TEAM) [N-G] Lil' Massif: my sens is 3 :P
[15:37:29] [N-G] Lil' Massif started a vote (map change?)
[15:37:31] oliQ voted for: yes
[15:37:33] FeOdAl voted for: yes
[15:37:33] [N-G] Lil' Massif voted for: yes
[15:37:33] SimonSt voted for: yes
[15:37:49] Vote results: Option 'yes' won. (4/6)
[15:37:51] Dropped "SimonSt" from server<STEAM_0:0:55795416>
[15:37:54] [N-G] Lil' Massif: !r
[15:37:56] FeOdAl: Map good or hard))
[15:38:15] (TEAM) [N-G] Lil' Massif: do you want an easy map?
[15:38:26] oliQ: yep\
[15:38:29] (TEAM) [N-G] Lil' Massif: okay
[15:38:35] FeOdAl: Normal//
[15:38:37] FeOdAl: pls
[15:38:43] (TEAM) [N-G] Lil' Massif: normal?
[15:38:46] [N-G] Lil' Massif: not easy?
[15:38:48] FeOdAl: not easy or not hard)
[15:38:59] [N-G] Lil' Massif: I'll see what I can do
[15:39:13] (TEAM) [N-G] Lil' Massif: is rebel_scaz good?
[15:39:18] (TEAM) [N-G] Lil' Massif: normal enough>
[15:39:19] [N-G] Lil' Massif: ?
[15:39:22] FeOdAl: Go
[15:39:29] [N-G] Lil' Massif changed the map to surf_rebel_scaz
[15:39:29] Server is shutting down/changing levels.



[15:39:36] New map: surf_rebel_scaz
[15:40:13] Client "FeOdAl" spawned in server <STEAM_0:1:109008616> (took 38 seconds).
[15:40:14] Client "Bot491" connected.
[15:40:14] Client "Bot491" spawned in server <BOT> (took 39 seconds).
[15:40:16] Client "Bot492" connected.
[15:40:16] Client "Bot492" spawned in server <BOT> (took 41 seconds).
[15:40:30] Client "oliQ" spawned in server <STEAM_0:1:183458094> (took 55 seconds).
[15:40:40] FeOdAl: Nice map)
[15:40:48] FeOdAl: So easy
[15:40:56] Dropped "oliQ" from server<STEAM_0:1:183458094>
[15:41:57] Client "mightybubble34" connected.
[15:42:25] Client "[N-G] Lil' Massif" spawned in server <STEAM_0:1:74663039> (took 170 seconds).
[15:42:40] Client "mightybubble34" spawned in server <STEAM_0:1:156057074> (took 43 seconds).
[15:43:10] FeOdAl: So easy))
[15:43:14] FeOdAl: Oh
[15:43:22] FeOdAl: Breaked glass
[15:43:38] mightybubble34: !knife
[15:43:53] [N-G] Lil' Massif: !r
[15:44:03] [N-G] Lil' Massif: !r
[15:44:04] [N-G] Lil' Massif: !r
[15:44:25] [N-G] Lil' Massif: !r
[15:44:33] [N-G] Lil' Massif: !r
[15:44:47] Client "{RV} Ʌ TechnoWaff1e ✯" connected.
[15:44:47] mightybubble34: !knife
[15:45:02] [N-G] Lil' Massif: !r
[15:45:10] mightybubble34: !knife
[15:45:13] [N-G] Lil' Massif: !r
[15:45:17] [N-G] Lil' Massif: !r
[15:45:23] [N-G] Lil' Massif: !r
[15:45:28] Client "{RV} Ʌ TechnoWaff1e ✯" spawned in server <STEAM_0:1:177639987> (took 41 seconds).
[15:45:28] [N-G] Lil' Massif: !r
[15:45:38] [N-G] Lil' Massif: !r
[15:45:45] [N-G] Lil' Massif: !r
[15:45:51] [N-G] Lil' Massif: !r
[15:46:01] [N-G] Lil' Massif: !r
[15:46:14] [N-G] Lil' Massif: !r
[15:46:17] {RV} Ʌ TechnoWaff1e ✯: sup guys
[15:46:22] [N-G] Lil' Massif: yo
[15:46:23] {RV} Ʌ TechnoWaff1e ✯: gud too e back
[15:46:30] [N-G] Lil' Massif: long time no see
[15:46:34] [N-G] Lil' Massif: !r
[15:46:34] {RV} Ʌ TechnoWaff1e ✯: ikr
[15:46:44] mightybubble34: !knife
[15:46:46] [N-G] Lil' Massif: !r
[15:46:55] [N-G] Lil' Massif: !r
[15:46:59] [N-G] Lil' Massif: !r
[15:47:11] [N-G] Lil' Massif: !r
[15:47:11] {RV} Ʌ TechnoWaff1e ✯: shud i apply again
[15:47:19] [N-G] Lil' Massif: !r
[15:47:28] [N-G] Lil' Massif: first, try to be active
[15:47:32] mightybubble34: !knife
[15:47:38] [N-G] Lil' Massif: it'll really help
[15:47:47] mightybubble34: !knife
[15:47:48] [N-G] Lil' Massif: to be accepted faster
[15:48:15] [N-G] Lil' Massif: !r
[15:48:21] [N-G] Lil' Massif: !r
[15:48:35] [N-G] Lil' Massif: the server has really dies though
[15:48:40] [N-G] Lil' Massif: died*
[15:48:43] [N-G] Lil' Massif: !r
[15:48:53] [N-G] Lil' Massif: !r
[15:48:54] {RV} Ʌ TechnoWaff1e ✯: i seee
[15:49:28] [N-G] Lil' Massif: surf is kinde zombiezz ignored kid :P
[15:49:40] [N-G] Lil' Massif: some new maps have been added recently
[15:49:47] {RV} Ʌ TechnoWaff1e ✯: nice
[15:49:48] FeOdAl: Mod.
[15:49:49] [N-G] Lil' Massif: but it didn't really help
[15:49:52] [N-G] Lil' Massif: ?
[15:50:09] FeOdAl: From end?
[15:50:16] (TEAM) [N-G] Lil' Massif: ?
[15:50:23] [N-G] Lil' Massif: what do you mean?
[15:50:27] [N-G] Lil' Massif: !r
[15:50:31] FeOdAl: I full ended map
[15:50:42] {RV} Ʌ TechnoWaff1e ✯: its broken
[15:50:46] [N-G] Lil' Massif: you probably need to jump higher at the end
[15:50:47] {RV} Ʌ TechnoWaff1e ✯: like it used to be
[15:51:08] (TEAM) [N-G] Lil' Massif: you need to jump really high at the end to make it
[15:51:14] [N-G] Lil' Massif: a real run killer
[15:51:30] [N-G] Lil' Massif: !r
[15:51:43] [N-G] Lil' Massif: !r
[15:51:47] [N-G] Lil' Massif: !b
[15:51:55] [N-G] Lil' Massif: !r
[15:52:11] [N-G] Lil' Massif: !r
[15:52:15] [N-G] Lil' Massif: !n
[15:52:23] Dropped "{RV} Ʌ TechnoWaff1e ✯" from server<STEAM_0:1:177639987>
[15:52:26] [N-G] Lil' Massif: !r
[15:52:33] [N-G] Lil' Massif: !r
[15:52:42] FeOdAl: Classic surf cool map
[15:52:47] FeOdAl: easy)
[15:52:50] [N-G] Lil' Massif: but long
[15:52:56] [N-G] Lil' Massif: and hard in the end
[15:52:57] FeOdAl: Yea
[15:53:05] [N-G] Lil' Massif: !r
[15:53:22] [N-G] Lil' Massif: !r
[15:53:34] [N-G] Lil' Massif: !r
[15:53:45] [N-G] Lil' Massif: !r
[15:54:14] [N-G] Lil' Massif: !r
[15:54:23] [N-G] Lil' Massif: !r
[15:54:27] FeOdAl: Maybe new map?
[15:54:42] [N-G] Lil' Massif: !r
[15:54:43] mightybubble34: how i get cs go for free
[15:54:54] [N-G] Lil' Massif: the textures?
[15:54:58] [N-G] Lil' Massif: !r
[15:55:02] mightybubble34: the game 
[15:55:07] [N-G] Lil' Massif: you can't
[15:55:23] [N-G] Lil' Massif: unless you want to download it illigally
[15:55:38] [N-G] Lil' Massif: !r
[15:56:07] [N-G] Lil' Massif: !r
[15:56:13] [N-G] Lil' Massif: !r
[15:56:22] [N-G] Lil' Massif: !r
[15:56:31] mightybubble34: ok how do i get cs go 
[15:56:41] [N-G] Lil' Massif started a vote (map change?)
[15:56:44] mightybubble34 voted for: no
[15:56:46] [N-G] Lil' Massif: pay for it
[15:56:48] [N-G] Lil' Massif voted for: no
[15:56:53] [N-G] Lil' Massif: !r
[15:57:01] [N-G] Lil' Massif: !r
[15:57:01] Vote results: Option 'no' won. (2/5)
[15:57:09] [N-G] Lil' Massif: !r
[15:57:15] [N-G] Lil' Massif: !r
[15:57:16] [N-G] Lil' Massif: !r
[15:57:18] FeOdAl: Go new map
[15:57:20] Client "Anomaly | twitch.tv/anomalyxd" connected.
[15:57:27] [N-G] Lil' Massif started a vote (map change?)
[15:57:28] [N-G] Lil' Massif voted for: yes
[15:57:28] mightybubble34 voted for: no
[15:57:29] FeOdAl voted for: yes
[15:57:45] (TEAM) [N-G] Lil' Massif: surf_aircontrol?
[15:57:47] Vote results: Option 'yes' won. (2/5)
[15:57:53] [N-G] Lil' Massif: !r
[15:57:58] FeOdAl: Go
[15:57:59] [N-G] Lil' Massif: !r
[15:58:06] mightybubble34: spec me 
[15:58:08] Client "Anomaly | twitch.tv/anomalyxd" spawned in server <STEAM_0:0:8190168> (took 48 seconds).
[15:58:14] (TEAM) [N-G] Lil' Massif: sure
[15:59:05] [N-G] Lil' Massif: !r
[15:59:07] mightybubble34: woops i failed
[15:59:11] mightybubble34: how i level up 
[15:59:34] [N-G] Lil' Massif: complete lvls
[15:59:41] [N-G] Lil' Massif: !r
[15:59:50] mightybubble34: how i level up
[15:59:58] FeOdAl: How complete it's lvl?
[16:00:18] [N-G] Lil' Massif: complete maps to level up
[16:00:25] mightybubble34: i ahev 
[16:00:31] [N-G] Lil' Massif: the faster your time, the more you level up
[16:00:31] mightybubble34: have*
[16:01:03] [N-G] Lil' Massif: !r
[16:01:05] [N-G] Lil' Massif: !r
[16:01:07] mightybubble34: crap dude i went 3k speed
[16:01:11] [N-G] Lil' Massif: !r
[16:01:18] [N-G] Lil' Massif: !r
[16:01:25] FeOdAl: :D
[16:01:39] [N-G] Lil' Massif: !r
[16:01:45] [N-G] Lil' Massif: !r
[16:01:54] [N-G] Lil' Massif: !r
[16:02:03] [N-G] Lil' Massif: just type !r when stuck :P
[16:02:05] [N-G] Lil' Massif: !r
[16:02:10] [N-G] Lil' Massif: !r
[16:02:17] FeOdAl: Crap dude, you voice..
[16:02:24] FeOdAl: You girl?
[16:02:31] [N-G] Lil' Massif: the squeek is real
[16:02:34] [N-G] Lil' Massif: :P
[16:03:09] Anomaly | twitch.tv/anomalyxd: !stea,
[16:03:10] FeOdAl: ahahah
[16:03:11] Anomaly | twitch.tv/anomalyxd: !steam
[16:03:12] FeOdAl: Dude
[16:03:14] FeOdAl: ..
[16:03:23] [N-G] Lil' Massif: lel
[16:03:30] [N-G] Lil' Massif: mightybubble
[16:03:36] [N-G] Lil' Massif: spec me 
[16:04:18] [N-G] Lil' Massif: !r
[16:04:21] [N-G] Lil' Massif: shit
[16:04:22] [N-G] Lil' Massif: :P
[16:04:29] FeOdAl: Holy shit:D
[16:04:36] [N-G] Lil' Massif: !r
[16:04:39] [N-G] Lil' Massif: !r
[16:04:49] [N-G] Lil' Massif: lower your mouse sensitivity
[16:04:53] [N-G] Lil' Massif: !r
[16:04:56] [N-G] Lil' Massif: it helps
[16:04:59] [N-G] Lil' Massif: with speed
[16:05:05] [N-G] Lil' Massif: !r
[16:05:08] [N-G] Lil' Massif: bug
[16:05:10] [N-G] Lil' Massif: lel
[16:05:20] [N-G] Lil' Massif: !r
[16:05:24] FeOdAl: woooooowwwww
[16:05:27] FeOdAl: Wtf
[16:05:27] [N-G] Lil' Massif: !r
[16:05:38] [N-G] Lil' Massif: !r
[16:05:52] [N-G] Lil' Massif: you guys want a map change?
[16:05:57] FeOdAl: No
[16:05:59] FeOdAl: stop
[16:06:04] [N-G] Lil' Massif: no, i don't, but it can sometimes help
[16:06:05] FeOdAl: i need ended it's lvl
[16:06:10] [N-G] Lil' Massif: okay :P
[16:06:23] Dropped "Anomaly | twitch.tv/anomalyxd" from server<STEAM_0:0:8190168>
[16:06:27] FeOdAl: shiiit!(
[16:06:31] [N-G] Lil' Massif: !tutorial
[16:06:51] [N-G] Lil' Massif: !practice
[16:07:15] (TEAM) [N-G] Lil' Massif: lel
[16:08:11] FeOdAl: YEAAAA
[16:08:13] FeOdAl: !bot
[16:08:14] [N-G] Lil' Massif: !n
[16:08:17] [N-G] Lil' Massif: nice!
[16:08:19] FeOdAl: 41 sec))
[16:08:31] [N-G] Lil' Massif: now try to beat my record :P
[16:08:39] Client "The Legendary Tiger" connected.
[16:08:41] [N-G] Lil' Massif: 30 secs
[16:08:45] FeOdAl: Wow))
[16:08:48] FeOdAl: Nice
[16:08:58] [N-G] Lil' Massif: !r
[16:09:07] FeOdAl: Go new map))
[16:09:09] FeOdAl: :D
[16:09:17] mightybubble34: !rtv
[16:09:19] [N-G] Lil' Massif: type !rtv if you want to change the map
[16:09:21] [N-G] Lil' Massif: !rtv
[16:09:22] FeOdAl: !rtv
[16:09:26] FeOdAl: how?
[16:09:34] FeOdAl: Ok)
[16:09:38] [N-G] Lil' Massif: 1 is really hard
[16:09:50] [N-G] Lil' Massif: I still have to beat it :P
[16:09:57] Server is shutting down/changing levels.



[16:10:04] New map: surf_lt_omnific_fix
[16:10:18] Client "FeOdAl" spawned in server <STEAM_0:1:109008616> (took 15 seconds).
[16:10:18] Client "Bot493" connected.
[16:10:18] Client "Bot493" spawned in server <BOT> (took 15 seconds).
[16:10:20] Client "Bot494" connected.
[16:10:20] Client "Bot494" spawned in server <BOT> (took 17 seconds).
[16:10:28] Client "[N-G] Lil' Massif" spawned in server <STEAM_0:1:74663039> (took 25 seconds).
[16:10:34] Client "mightybubble34" spawned in server <STEAM_0:1:156057074> (took 31 seconds).
[16:10:48] FeOdAl: Holy shit!!!!
[16:10:53] mightybubble34: !knife
[16:11:10] FeOdAl: F**c you mightybubble
[16:11:15] [N-G] Lil' Massif: wow
[16:11:21] [N-G] Lil' Massif: no need to say fuck
[16:11:25] FeOdAl: It's so hard
[16:11:30] [N-G] Lil' Massif: !r
[16:11:42] [N-G] Lil' Massif: !r
[16:11:48] FeOdAl: no
[16:11:51] [N-G] Lil' Massif: !r
[16:12:09] [N-G] Lil' Massif: it's not hard, it's a challenge
[16:12:15] [N-G] Lil' Massif: and you can beat it
[16:12:18] [N-G] Lil' Massif: just try "{
[16:12:21] [N-G] Lil' Massif: :P
[16:12:22] FeOdAl: ..
[16:12:36] FeOdAl: pls new map
[16:12:42] FeOdAl: it's so hard for me
[16:12:46] [N-G] Lil' Massif: !rtv
[16:12:47] [N-G] Lil' Massif: !r
[16:13:00] [N-G] Lil' Massif: FeOdAl, spec me
[16:13:09] [N-G] Lil' Massif: I'll show you how to do it
[16:13:40] FeOdAl: ..
[16:14:07] [N-G] Lil' Massif: !r
[16:14:17] (TEAM) [N-G] Lil' Massif: spectate me if you want to see how it's done
[16:14:25] [N-G] Lil' Massif: !r
[16:14:34] FeOdAl: Go
[16:14:52] FeOdAl: Oh
[16:14:54] FeOdAl: ..
[16:15:14] FeOdAl: Ok
[16:15:17] [N-G] Lil' Massif: !r
[16:15:20] (TEAM) [N-G] Lil' Massif: you get it?
[16:15:27] [N-G] Lil' Massif: !r
[16:15:34] FeOdAl: Ok
[16:15:38] [N-G] Lil' Massif: !r
[16:15:40] FeOdAl: My kinfes//
[16:15:42] FeOdAl: ,,
[16:15:51] FeOdAl: My Knifes..
[16:15:56] [N-G] Lil' Massif: sure
[16:16:02] Client "xxbobigamerxx" connected.
[16:16:14] Client "Stark0305" connected.
[16:16:15] Client "Stark0305" connected.
[16:16:17] Client "Stark0305" connected.
[16:16:18] Client "Stark0305" connected.
[16:16:19] Client "Stark0305" connected.
[16:16:19] Client "Stark0305" connected.
[16:16:19] Client "Stark0305" connected.
[16:16:25] FeOdAl: From my knifes?????
[16:16:50] [N-G] Lil' Massif: !r
[16:17:15] Client "xxbobigamerxx" spawned in server <STEAM_0:1:185230929> (took 73 seconds).
[16:17:15] [N-G] Lil' Massif: what's the problem with your knifes?
[16:17:22] Client "Stark0305" spawned in server <STEAM_0:1:105489512> (took 63 seconds).
[16:17:24] FeOdAl: Omg
[16:17:33] FeOdAl: My knifes..
[16:17:35] FeOdAl: sec
[16:17:53] FeOdAl: My engl always bad
[16:17:57] xxbobigamerxx: Y
[16:18:00] [N-G] Lil' Massif: :P
[16:18:59] FeOdAl: My knifes disappeared..
[16:19:21] [N-G] Lil' Massif: is it not on the screen?
[16:19:26] FeOdAl: No
[16:19:30] FeOdAl: I spectate
[16:19:31] mightybubble34: type in 
[16:19:32] FeOdAl: from you
[16:19:36] mightybubble34: !knife
[16:19:44] mightybubble34: yype in !knife
[16:20:04] FeOdAl: After the release my knifes disappeared
[16:20:16] [N-G] Lil' Massif: type !r in chat
[16:20:20] FeOdAl: !r
[16:20:21] [N-G] Lil' Massif: see if that helps
[16:20:26] mightybubble34: !r
[16:20:28] FeOdAl: Thnk))
[16:20:34] FeOdAl: Im stupid))
[16:20:51] [N-G] Lil' Massif: it's just a little bug from the server :P
[16:21:18] Dropped "mightybubble34" from server<STEAM_0:1:156057074>
[16:21:34] [N-G] Lil' Massif: !rtv
[16:22:46] FeOdAl: Nice music
[16:22:55] FeOdAl: Why vote?
[16:23:08] [N-G] Lil' Massif: I personally don't like it
[16:23:14] Client "Jamaican Nugg" connected.
[16:23:14] FeOdAl: Oh)
[16:23:17] [N-G] Lil' Massif: <hsv> ( ͡° ͜ʖ ͡°) </hsv>
[16:23:34] [N-G] Lil' Massif: !r
[16:23:53] (TEAM) [N-G] Lil' Massif: type !rtv if you want to change the map
[16:23:57] [N-G] Lil' Massif: !r
[16:24:02] Client "Jamaican Nugg" connected.
[16:24:03] FeOdAl: !rtv
[16:24:04] Client "Samurai Worf" connected.
[16:24:23] Client "Samurai Worf" spawned in server <STEAM_0:0:86904184> (took 19 seconds).
[16:24:30] [N-G] Lil' Massif: ay samurai
[16:24:37] [N-G] Lil' Massif: haven't seen you in a while
[16:24:38] Samurai Worf: aYYY
[16:24:39] FeOdAl: Samurai Hi
[16:24:53] Client "Jamaican Nugg" spawned in server <STEAM_0:0:79424976> (took 51 seconds).
[16:24:54] Samurai Worf: yh was a bit bored of surf , played bhop
[16:25:12] [N-G] Lil' Massif: I got bored of surf aswell
[16:25:12] Samurai Worf: !r
[16:25:20] [N-G] Lil' Massif: haven't played for a week
[16:25:20] Samurai Worf: !r
[16:25:24] Samurai Worf: !r
[16:25:28] (TEAM) [N-G] Lil' Massif: idk how I'm still staff
[16:25:30] [N-G] Lil' Massif: ( ͡o ͜ʖ ͡o)
[16:25:30] Samurai Worf: !r
[16:25:36] Samurai Worf: XD
[16:25:38] Samurai Worf: !r
[16:25:39] Dropped "Stark0305" from server<STEAM_0:1:105489512>
[16:25:53] FeOdAl: Why(?
[16:26:00] Samurai Worf: !r
[16:26:00] FeOdAl: shit,,
[16:26:11] [N-G] Lil' Massif: ( ͡o ͜ʖ ͡o)
[16:26:12] [N-G] Lil' Massif: <hsv> ( ͡° ͜ʖ ͡°) </hsv>
[16:26:17] FeOdAl: :D
[16:26:19] [N-G] Lil' Massif: !r
[16:26:20] Samurai Worf: !r
[16:26:25] Client "Nights" connected.
[16:27:25] Client "Nights" spawned in server <STEAM_0:0:95905369> (took 60 seconds).
[16:27:44] FeOdAl: F**c yea!!!!!!!!
[16:27:53] [N-G] Lil' Massif: you made it?
[16:27:59] FeOdAl: Yea))
[16:29:15] Dropped "xxbobigamerxx" from server<STEAM_0:1:185230929>
[16:29:27] FeOdAl: Pink ..
[16:29:35] [N-G] Lil' Massif: I really dislike this map
[16:29:42] [N-G] Lil' Massif: it's laggy
[16:29:59] Samurai Worf: its hard but its like the best map
[16:30:08] Client "Notnau" connected.
[16:30:20] Dropped "Nights" from server<STEAM_0:0:95905369>
[16:30:26] [N-G] Lil' Massif: it just needs to load so much stuff
[16:30:30] (TEAM) [N-G] Lil' Massif: it gets laggy
[16:30:46] [N-G] Lil' Massif: or it's just my potato pc :P
[16:30:46] Client "Notnau" spawned in server <STEAM_0:1:56420005> (took 38 seconds).
[16:30:54] FeOdAl: :p
[16:31:34] FeOdAl: Need downoland DayZ
[16:32:02] Samurai Worf: !r
[16:32:08] FeOdAl: But i'm lazy.. ;p
[16:32:18] (TEAM) [N-G] Lil' Massif: lel
[16:32:19] [N-G] Lil' Massif: <hsv> ( ͡° ͜ʖ ͡°) </hsv>
[16:32:35] FeOdAl: My liked Track
[16:33:38] Samurai Worf: !r
[16:34:12] Samurai Worf: !r
[16:34:16] Samurai Worf: !r
[16:34:32] Samurai Worf: !r
[16:34:38] Samurai Worf: !r
[16:35:45] Samurai Worf: !r
[16:35:50] Samurai Worf: !r
[16:36:04] FeOdAl: Mod?
[16:36:07] Samurai Worf: !r
[16:36:07] [N-G] Lil' Massif: ?
[16:36:20] Samurai Worf: !r
[16:36:30] FeOdAl: Do not be silent))
[16:36:42] [N-G] Lil' Massif: <hsv> ( ͡° ͜ʖ ͡°) </hsv>
[16:36:44] Samurai Worf: !r
[16:37:13] Samurai Worf: !r
[16:37:23] Samurai Worf: !r
[16:37:28] Dropped "Jamaican Nugg" from server<STEAM_0:0:79424976>
[16:37:51] Samurai Worf: !r
[16:37:52] [N-G] Lil' Massif: !r
[16:38:07] Samurai Worf: !r
[16:38:23] Samurai Worf: !r
[16:38:26] [N-G] Lil' Massif started a vote (map change?)
[16:38:27] [N-G] Lil' Massif voted for: yes
[16:38:28] FeOdAl voted for: yes
[16:38:30] Notnau voted for: no
[16:38:33] [N-G] Lil' Massif: !r
[16:38:46] Vote results: Option 'yes' won. (2/6)
[16:39:10] Samurai Worf: !r
[16:39:16] Samurai Worf: !r
[16:39:31] Samurai Worf: !r
[16:39:37] Samurai Worf: !r
[16:39:38] [N-G] Lil' Massif voted for surf_island (1/3)
[16:39:43] FeOdAl: !rtv
[16:39:45] (TEAM) [N-G] Lil' Massif: !rtv
[16:39:59] Samurai Worf: !r
[16:40:02] [N-G] Lil' Massif: do you guys have a specific map you want to play?
[16:40:13] Samurai Worf: MESA
[16:40:16] Samurai Worf: XD JK
[16:40:20] [N-G] Lil' Massif: ( ͡o ͜ʖ ͡o)
[16:40:22] [N-G] Lil' Massif: <hsv> ( ͡° ͜ʖ ͡°) </hsv>
[16:40:34] Samurai Worf: !r
[16:40:39] [N-G] Lil' Massif: lel
[16:40:40] Server is shutting down/changing levels.



[16:40:47] New map: surf_waterworks
[16:40:56] Client "Samurai Worf" spawned in server <STEAM_0:0:86904184> (took 10 seconds).
[16:40:56] Client "Bot495" connected.
[16:40:56] Client "Bot495" spawned in server <BOT> (took 10 seconds).
[16:40:58] Client "Bot496" connected.
[16:40:58] Client "Bot496" spawned in server <BOT> (took 12 seconds).
[16:41:12] Client "[N-G] Lil' Massif" spawned in server <STEAM_0:1:74663039> (took 26 seconds).
[16:41:21] Client "FeOdAl" spawned in server <STEAM_0:1:109008616> (took 35 seconds).
[16:41:55] [N-G] Lil' Massif: !r
[16:41:58] [N-G] Lil' Massif: !r
[16:42:18] [N-G] Lil' Massif: !r
[16:42:38] FeOdAl: Ohh anime ))
[16:42:45] FeOdAl: Live anime
[16:42:53] [N-G] Lil' Massif: !r
[16:43:02] [N-G] Lil' Massif: !r
[16:43:07] [N-G] Lil' Massif: !r
[16:43:15] [N-G] Lil' Massif: !r
[16:43:37] [N-G] Lil' Massif: !r
[16:43:46] [N-G] Lil' Massif: !r
[16:43:50] [N-G] Lil' Massif: !r
[16:44:29] [N-G] Lil' Massif: !r
[16:45:00] [N-G] Lil' Massif: !r
[16:45:18] [N-G] Lil' Massif: !r
[16:45:28] [N-G] Lil' Massif: !r
[16:45:47] [N-G] Lil' Massif: !r
[16:45:56] [N-G] Lil' Massif: !r
[16:46:02] [N-G] Lil' Massif: !r
[16:47:16] [N-G] Lil' Massif: !r
[16:48:00] [N-G] Lil' Massif: !r
[16:48:09] [N-G] Lil' Massif: !r
[16:48:13] [N-G] Lil' Massif: !r
[16:48:20] [N-G] Lil' Massif: !r
[16:48:29] [N-G] Lil' Massif: !r
[16:50:05] Dropped "[N-G] Lil' Massif" from server<STEAM_0:1:74663039>
[16:50:47] Dropped "Samurai Worf" from server<STEAM_0:0:86904184>
[16:51:25] Client "Samurai Worf" connected.
[16:51:33] Client "Samurai Worf" spawned in server <STEAM_0:0:86904184> (took 8 seconds).
[16:55:06] Samurai Worf: !r
[16:55:13] Dropped "FeOdAl" from server<STEAM_0:1:109008616>
[16:56:42] Samurai Worf: !r
[16:59:46] Samurai Worf: !r
[17:00:13] Samurai Worf: !r
[17:02:10] Samurai Worf: !r
[17:02:37] Client "Stezzi" connected.
[17:02:41] Samurai Worf: !r
[17:03:44] Client "Stezzi" spawned in server <STEAM_0:1:81911840> (took 67 seconds).
[17:04:20] Dropped "Stezzi" from server<STEAM_0:1:81911840>
[17:07:41] Samurai Worf: !r
[17:09:05] Samurai Worf: !r
[17:09:44] Samurai Worf: !r
[17:11:03] Dropped "Samurai Worf" from server<STEAM_0:0:86904184>
[17:11:03] Dropped "Bot495" from server<BOT>
[17:11:03] Dropped "Bot496" from server<BOT>
[17:11:23] Server is shutting down/changing levels.



[17:11:30] New map: surf_pox
[17:30:13] Client "JohnBodari" connected.
[17:30:56] Client "JohnBodari" spawned in server <STEAM_0:1:116666914> (took 43 seconds).
[17:30:56] Client "Bot497" connected.
[17:30:56] Client "Bot497" spawned in server <BOT> (took 1167 seconds).
[17:30:58] Client "Bot498" connected.
[17:30:58] Client "Bot498" spawned in server <BOT> (took 1169 seconds).
[17:31:12] JohnBodari: !rtv
[17:31:48] Server is shutting down/changing levels.



[17:31:56] New map: surf_lt_omnific_fix
[17:32:11] Client "JohnBodari" spawned in server <STEAM_0:1:116666914> (took 16 seconds).
[17:32:11] Client "Bot499" connected.
[17:32:11] Client "Bot499" spawned in server <BOT> (took 16 seconds).
[17:32:13] Client "Bot500" connected.
[17:32:13] Client "Bot500" spawned in server <BOT> (took 18 seconds).
[17:33:52] JohnBodari: !rtv
[17:36:10] Dropped "JohnBodari" from server<STEAM_0:1:116666914>
[17:36:10] Dropped "Bot499" from server<BOT>
[17:36:10] Dropped "Bot500" from server<BOT>
[18:02:32] Server is shutting down/changing levels.



[18:02:41] New map: surf_waterworks
[18:23:14] Client "I Finessed Your Bitch" connected.
[18:23:20] Client "Kenzo" connected.
[18:23:27] Client "®☺♫anas♥☹™" connected.
[18:23:33] Client "[N-G]Ms?" connected.
[18:23:43] Client "I Finessed Your Bitch" spawned in server <STEAM_0:1:113163207> (took 29 seconds).
[18:23:43] Client "Bot501" connected.
[18:23:43] Client "Bot501" spawned in server <BOT> (took 1263 seconds).
[18:23:45] Client "Bot502" connected.
[18:23:45] Client "Bot502" spawned in server <BOT> (took 1265 seconds).
[18:23:45] Client "Kenzo" spawned in server <STEAM_0:0:135425728> (took 25 seconds).
[18:23:54] Client "®☺♫anas♥☹™" spawned in server <STEAM_0:0:118291899> (took 27 seconds).
[18:24:03] Client "[N-G]Ms?" spawned in server <STEAM_0:1:22523479> (took 30 seconds).
[18:25:41] Client "InfinityGamerTVA☆" connected.
[18:27:43] Client "Joanxx7" connected.
[18:28:05] Client "Joanxx7" spawned in server <STEAM_0:1:186945449> (took 22 seconds).
[18:28:09] Client "InfinityGamerTVA☆" spawned in server <STEAM_0:0:141785177> (took 148 seconds).
[18:28:54] Dropped "Joanxx7" from server<STEAM_0:1:186945449>
[18:29:10] InfinityGamerTVA☆: !dj
[18:30:34] Dropped "InfinityGamerTVA☆" from server<STEAM_0:0:141785177>
[18:31:12] Kenzo: !spec
[18:31:16] Kenzo: !spec
[18:31:28] [N-G]Ms?: !spec
[18:32:10] Dropped "I Finessed Your Bitch" from server<STEAM_0:1:113163207>
[18:32:33] [N-G]Ms?: !play
[18:32:36] [N-G]Ms?: !spec
[18:33:16] Server is shutting down/changing levels.



[18:33:24] New map: surf_mesa
[18:33:50] Client "®☺♫anas♥☹™" spawned in server <STEAM_0:0:118291899> (took 28 seconds).
[18:33:50] Client "Bot503" connected.
[18:33:50] Client "Bot503" spawned in server <BOT> (took 28 seconds).
[18:33:52] Client "Bot504" connected.
[18:33:52] Client "Bot504" spawned in server <BOT> (took 30 seconds).
[18:34:05] Client "Adam Bird" connected.
[18:34:17] Client "Adam Bird" spawned in server <STEAM_0:0:82673120> (took 12 seconds).
[18:34:29] Client "Kenzo" spawned in server <STEAM_0:0:135425728> (took 67 seconds).
[18:34:36] Adam Bird: !R
[18:34:55] Client "[N-G]Ms?" spawned in server <STEAM_0:1:22523479> (took 93 seconds).
[18:34:58] Adam Bird: !R
[18:35:09] Adam Bird: !R
[18:35:14] Adam Bird: !R
[18:35:46] Adam Bird: !R
[18:35:57] Adam Bird: !R
[18:36:29] Adam Bird: !R
[18:37:15] Adam Bird: !R
[18:38:15] Adam Bird: !R
[18:38:35] Adam Bird: !R
[18:38:50] Adam Bird: !R
[18:38:58] Adam Bird: !R
[18:39:19] Adam Bird: !R
[18:39:23] Dropped "Adam Bird" from server<STEAM_0:0:82673120>
[18:39:38] Kenzo: !spec
[18:41:14] Kenzo: !spec
[18:42:01] Kenzo: !bot add
[18:44:35] [N-G]Ms?: !spec
[18:45:10] [N-G]Ms?: !spec
[18:48:35] [N-G]Ms?: !spec
[18:49:17] [N-G]Ms?: !spec
[18:50:33] Client "Haidenspreadthelulz" connected.
[18:50:35] [N-G]Ms?: !spec
[18:51:55] [N-G]Ms?: !spec
[18:51:59] Kenzo: !spec
[18:52:53] Kenzo: !spec
[18:52:57] [N-G]Ms?: !spec
[18:53:24] Dropped "®☺♫anas♥☹™" from server<STEAM_0:0:118291899>
[18:53:44] Dropped "[N-G]Ms?" from server<STEAM_0:1:22523479>
[18:53:47] Client "[N-G]Ms?" connected.
[18:54:11] Client "®☺♫anas♥☹™" connected.
[18:54:27] Client "®☺♫anas♥☹™" spawned in server <STEAM_0:0:118291899> (took 16 seconds).
[18:55:36] Client "Haidenspreadthelulz" spawned in server <STEAM_0:0:163675236> (took 303 seconds).
[18:55:42] Dropped "®☺♫anas♥☹™" from server<STEAM_0:0:118291899>
[18:56:20] Kenzo: !r
[18:56:55] Haidenspreadthelulz: !steam
[18:58:05] Client "Makura55" connected.
[18:59:11] Client "Makura55" spawned in server <STEAM_0:1:27889379> (took 66 seconds).
[18:59:39] Makura55: hi
[19:01:20] Makura55: ( ͡° ͜ʖ ͡°)
[19:01:38] Dropped "Kenzo" from server<STEAM_0:0:135425728>
[19:01:51] Client "GEN.Pies :P" connected.
[19:03:52] Client "GEN.Pies :P" spawned in server <STEAM_0:0:162333204> (took 121 seconds).
[19:04:00] Server is shutting down/changing levels.



[19:04:07] New map: surf_milkyway
[19:05:52] Client "GEN.Pies :P" spawned in server <STEAM_0:0:162333204> (took 106 seconds).
[19:05:52] Client "Bot505" connected.
[19:05:52] Client "Bot505" spawned in server <BOT> (took 106 seconds).
[19:05:54] Client "Bot506" connected.
[19:05:54] Client "Bot506" spawned in server <BOT> (took 108 seconds).
[19:10:11] Dropped "GEN.Pies :P" from server<STEAM_0:0:162333204>
[19:10:11] Dropped "Bot505" from server<BOT>
[19:10:11] Dropped "Bot506" from server<BOT>
[19:34:44] Server is shutting down/changing levels.



[19:34:53] New map: surf_sundown_njv
[20:02:18] Client "Happy." connected.
[20:02:35] Client "Happy." spawned in server <STEAM_0:0:168132318> (took 17 seconds).
[20:02:35] Client "Bot507" connected.
[20:02:35] Client "Bot507" spawned in server <BOT> (took 1663 seconds).
[20:02:37] Client "Bot508" connected.
[20:02:37] Client "Bot508" spawned in server <BOT> (took 1665 seconds).
[20:03:30] Happy.: !r
[20:03:52] Happy.: !r
[20:03:57] Happy.: !r
[20:04:40] Happy.: !r
[20:05:30] Happy.: !r
[20:06:17] Happy.: !r
[20:07:00] Happy.: !r
[20:07:27] Happy.: !r
[20:08:09] Client "★«//Âłē✘\\»★" connected.
[20:08:28] Happy.: !r
[20:08:33] Client "★«//Âłē✘\\»★" spawned in server <STEAM_0:1:79997731> (took 24 seconds).
[20:08:34] Happy.: !r
[20:09:04] Happy.: !r
[20:09:47] Happy.: !r
[20:11:13] ★«//Âłē✘\\»★: nominate
[20:11:16] ★«//Âłē✘\\»★: rtv
[20:11:16] Happy.: ╭∩╮ʕ͡°ᴥ͡°ʔ╭∩╮
[20:11:19] Happy.: ʕ͡°ᴥ͡°ʔ
[20:11:20] Happy.: !r
[20:11:42] Happy.: !r
[20:12:34] Happy.: !r
[20:13:10] Happy.: !r
[20:13:16] Happy.: !r
[20:13:21] Happy.: !r
[20:13:55] Happy.: !r
[20:14:29] Happy.: !r
[20:15:17] Happy.: !r
[20:16:52] Happy.: !r
[20:16:54] Happy.: !r
[20:17:24] Happy.: !r
[20:17:47] Dropped "★«//Âłē✘\\»★" from server<STEAM_0:1:79997731>
[20:18:04] Happy.: !r
[20:18:05] Happy.: !r
[20:18:53] Happy.: !r
[20:19:00] Happy.: !r
[20:19:49] Happy.: !r
[20:20:16] Happy.: !r
[20:20:32] Happy.: !r
[20:21:17] Happy.: !r
[20:22:19] Happy.: !r
[20:23:10] Happy.: !r
[20:23:36] Client "luckless" connected.
[20:23:36] Happy.: !r
[20:24:06] Happy.: !r
[20:25:42] Happy.: !r
[20:26:25] Happy.: !r
[20:27:06] Happy.: !r
[20:27:12] Client "luckless" spawned in server <STEAM_0:0:155815256> (took 216 seconds).
[20:27:44] Happy.: !r
[20:28:11] Happy.: !r
[20:28:31] Happy.: !r
[20:29:53] Happy.: !r
[20:29:55] Dropped "luckless" from server<STEAM_0:0:155815256>
[20:32:11] Happy.: !r
[20:32:34] Happy.: !r
[20:32:48] Happy.: !r
[20:33:08] Client "MTF Epsilon-11" connected.
[20:33:09] Dropped "Happy." from server<STEAM_0:0:168132318>
[20:34:24] Client "MTF Epsilon-11" spawned in server <STEAM_0:0:174866172> (took 76 seconds).
[20:35:01] Client "FeOdAl" connected.
[20:36:19] Client "FeOdAl" spawned in server <STEAM_0:1:109008616> (took 78 seconds).
[20:36:31] Server is shutting down/changing levels.



[20:36:38] New map: surf_aether
[20:37:41] Client "egamgram" connected.
[20:38:04] Client "MTF Epsilon-11" spawned in server <STEAM_0:0:174866172> (took 87 seconds).
[20:38:04] Client "Bot509" connected.
[20:38:04] Client "Bot509" spawned in server <BOT> (took 87 seconds).
[20:38:06] Client "Bot510" connected.
[20:38:06] Client "Bot510" spawned in server <BOT> (took 89 seconds).
[20:38:11] Client "FeOdAl" spawned in server <STEAM_0:1:109008616> (took 94 seconds).
[20:38:38] FeOdAl: Hi
[20:38:47] FeOdAl: What?
[20:38:51] Client "adam66142" connected.
[20:38:52] MTF Epsilon-11: im artyon
[20:38:56] MTF Epsilon-11: artyom*
[20:39:06] FeOdAl: Russ?
[20:39:10] MTF Epsilon-11: ne
[20:39:27] Client "egamgram" spawned in server <STEAM_0:1:173367610> (took 106 seconds).
[20:40:09] egamgram: !JB
[20:40:14] FeOdAl: !rtv
[20:40:17] FeOdAl: rtv
[20:40:18] FeOdAl: pls
[20:40:20] MTF Epsilon-11: !rtv
[20:40:23] MTF Epsilon-11: !rtv
[20:40:26] Client "adam66142" spawned in server <STEAM_0:0:138101517> (took 95 seconds).
[20:40:33] MTF Epsilon-11: !rtv
[20:40:39] MTF Epsilon-11:  Voting is not possible in this period(Please wait 1 second)
[20:41:08] MTF Epsilon-11: !Jb
[20:41:31] MTF Epsilon-11: !rtv
[20:41:40] egamgram: !rtv
[20:41:45] MTF Epsilon-11: !rtv
[20:41:50] FeOdAl: !rtv
[20:41:57] FeOdAl: 1 
[20:42:26] Server is shutting down/changing levels.



[20:42:36] New map: surf_classics2
[20:43:45] Client "egamgram" spawned in server <STEAM_0:1:173367610> (took 71 seconds).
[20:43:45] Client "Bot511" connected.
[20:43:45] Client "Bot511" spawned in server <BOT> (took 71 seconds).
[20:43:47] Client "Bot512" connected.
[20:43:47] Client "Bot512" spawned in server <BOT> (took 73 seconds).
[20:44:00] Client "adam66142" spawned in server <STEAM_0:0:138101517> (took 86 seconds).
[20:44:10] Client "FeOdAl" spawned in server <STEAM_0:1:109008616> (took 96 seconds).
[20:44:30] Client "MTF Epsilon-11" spawned in server <STEAM_0:0:174866172> (took 116 seconds).
[20:44:35] Dropped "adam66142" from server<STEAM_0:0:138101517>
[20:44:52] Client "adam66142" connected.
[20:45:19] FeOdAl: !r
[20:45:50] MTF Epsilon-11: !restart
[20:46:02] FeOdAl: !r
[20:46:19] FeOdAl: !r
[20:46:39] MTF Epsilon-11: !rtv
[20:46:46] egamgram: !rtv
[20:47:15] MTF Epsilon-11: nominate
[20:47:18] MTF Epsilon-11: !nominate
[20:48:06] egamgram: !rtv
[20:48:13] MTF Epsilon-11: !rtv
[20:48:21] FeOdAl: Noobs
[20:48:49] Server is shutting down/changing levels.



[20:48:59] New map: surf_sluice_final
[20:49:34] Client "Charlie the Chicken" connected.
[20:49:46] Client "FeOdAl" spawned in server <STEAM_0:1:109008616> (took 48 seconds).
[20:49:46] Client "Bot513" connected.
[20:49:46] Client "Bot513" spawned in server <BOT> (took 48 seconds).
[20:49:48] Client "Bot514" connected.
[20:49:48] Client "Bot514" spawned in server <BOT> (took 50 seconds).
[20:49:50] Client "MTF Epsilon-11" spawned in server <STEAM_0:0:174866172> (took 52 seconds).
[20:50:25] Client "egamgram" spawned in server <STEAM_0:1:173367610> (took 87 seconds).
[20:52:10] FeOdAl: wtf
[20:54:58] egamgram: !rtv
[20:56:25] egamgram: !rtv
[20:56:30] MTF Epsilon-11: !nominate
[20:56:48] MTF Epsilon-11: !rtv
[20:57:03] FeOdAl: 4 pls
[20:57:06] FeOdAl: it's easy)
[20:57:24] Server is shutting down/changing levels.



[20:57:31] New map: surf_rebel_scaz
[20:57:42] Client "MTF Epsilon-11" spawned in server <STEAM_0:0:174866172> (took 12 seconds).
[20:57:42] Client "Bot515" connected.
[20:57:42] Client "Bot515" spawned in server <BOT> (took 12 seconds).
[20:57:44] Client "Bot516" connected.
[20:57:44] Client "Bot516" spawned in server <BOT> (took 14 seconds).
[20:57:50] Client "FeOdAl" spawned in server <STEAM_0:1:109008616> (took 20 seconds).
[20:58:12] Client "egamgram" spawned in server <STEAM_0:1:173367610> (took 42 seconds).
[20:58:13] FeOdAl: Oh
[20:58:15] Client "N-G NoHaxJustSmoke" connected.
[20:58:15] FeOdAl: Easy
[20:59:00] Client "N-G NoHaxJustSmoke" spawned in server <STEAM_0:0:139286688> (took 45 seconds).
[21:00:43] Dropped "N-G NoHaxJustSmoke" from server<STEAM_0:0:139286688>
[21:03:27] MTF Epsilon-11: !steam
[21:07:01] Client "Samurai Worf" connected.
[21:07:17] Client "Samurai Worf" spawned in server <STEAM_0:0:86904184> (took 16 seconds).
[21:07:53] Dropped "egamgram" from server<STEAM_0:1:173367610>
[21:07:58] Dropped "MTF Epsilon-11" from server<STEAM_0:0:174866172>
[21:08:29] Samurai Worf: !r
[21:09:05] Samurai Worf: !r
[21:10:17] Samurai Worf: !r
[21:10:52] Samurai Worf: !r
[21:11:03] Samurai Worf: !r
[21:11:44] FeOdAl: WTF!!!!???
[21:11:53] Samurai Worf: ?
[21:12:03] Samurai Worf: !r
[21:12:28] FeOdAl: Me stoped invisible texture...
[21:12:37] Samurai Worf: !r
[21:12:59] Client "Galaceon" connected.
[21:13:28] Samurai Worf: !r
[21:13:48] Samurai Worf: !r
[21:14:28] Samurai Worf: !r
[21:15:02] Samurai Worf: !r
[21:15:24] Client "Joanxx7" connected.
[21:16:14] FeOdAl: Ohhh not jumped so high(
[21:16:17] Samurai Worf: !r
[21:16:25] Samurai Worf: !r
[21:17:42] FeOdAl: Fuck
[21:17:49] Samurai Worf: !r
[21:18:10] Samurai Worf: !r
[21:19:15] FeOdAl: How you record ?
[21:19:22] Samurai Worf: !r
[21:19:39] Samurai Worf: 30 sec
[21:19:53] Samurai Worf: !r
[21:20:03] FeOdAl: Fuck( 41 sec:D
[21:20:07] Samurai Worf: ^^
[21:20:08] Samurai Worf: !r
[21:20:22] Samurai Worf: !r
[21:20:44] Samurai Worf: !r
[21:20:57] FeOdAl: yeaa mthnk
[21:21:00] Samurai Worf: !r
[21:21:00] FeOdAl: Yea !
[21:21:05] Samurai Worf: nicr
[21:21:05] FeOdAl: 40 sec:D
[21:21:16] Samurai Worf: !r
[21:21:34] Samurai Worf: !r
[21:21:56] Samurai Worf: !r
[21:22:17] Samurai Worf: !r
[21:22:56] Samurai Worf: !r
[21:24:28] Samurai Worf: !r
[21:24:52] Samurai Worf: !r
[21:25:46] Dropped "Samurai Worf" from server<STEAM_0:0:86904184>
[21:27:19] Client "Redeye66" connected.
[21:28:07] Server is shutting down/changing levels.



[21:28:14] New map: surf_waterworks
[21:28:32] Client "FeOdAl" spawned in server <STEAM_0:1:109008616> (took 19 seconds).
[21:28:32] Client "Bot517" connected.
[21:28:32] Client "Bot517" spawned in server <BOT> (took 19 seconds).
[21:28:34] Client "Bot518" connected.
[21:28:34] Client "Bot518" spawned in server <BOT> (took 21 seconds).
[21:28:59] FeOdAl: oHH SHIT
[21:29:14] Client "Redeye66" spawned in server <STEAM_0:1:23494989> (took 61 seconds).
[21:31:22] FeOdAl: !rtv
[21:31:26] FeOdAl: rtv pls
[21:37:57] FeOdAl: !rtv
[21:38:23] Dropped "Redeye66" from server<STEAM_0:1:23494989>
[21:38:59] Server is shutting down/changing levels.



[21:39:06] New map: surf_funhouse_v1
[21:39:27] Client "FeOdAl" spawned in server <STEAM_0:1:109008616> (took 22 seconds).
[21:39:27] Client "Bot519" connected.
[21:39:27] Client "Bot519" spawned in server <BOT> (took 22 seconds).
[21:39:29] Client "Bot520" connected.
[21:39:29] Client "Bot520" spawned in server <BOT> (took 24 seconds).
[21:40:49] FeOdAl: !rtv
[21:41:25] Client "[N-G]XxNedSTxX" connected.
[21:42:25] Client "[N-G]XxNedSTxX" spawned in server <STEAM_0:0:139239512> (took 60 seconds).
[21:43:10] Dropped "FeOdAl" from server<STEAM_0:1:109008616>
[21:43:35] Dropped "[N-G]XxNedSTxX" from server<STEAM_0:0:139239512>
[21:43:35] Dropped "Bot519" from server<BOT>
[21:43:35] Dropped "Bot520" from server<BOT>
[21:50:21] Client "Dzwon Zygmunt" connected.
[21:51:00] Client "Dzwon Zygmunt" spawned in server <STEAM_0:1:97004445> (took 39 seconds).
[21:51:00] Client "Bot521" connected.
[21:51:00] Client "Bot521" spawned in server <BOT> (took 715 seconds).
[21:51:02] Client "Bot522" connected.
[21:51:02] Client "Bot522" spawned in server <BOT> (took 717 seconds).
[21:52:11] Dzwon Zygmunt: Rtv
[21:52:13] Dzwon Zygmunt: !~rtv
[21:52:15] Dzwon Zygmunt: !rtv
[21:52:51] Server is shutting down/changing levels.



[21:53:00] New map: surf_beginner
[21:53:21] Client "Dzwon Zygmunt" spawned in server <STEAM_0:1:97004445> (took 22 seconds).
[21:53:21] Client "Bot523" connected.
[21:53:21] Client "Bot523" spawned in server <BOT> (took 22 seconds).
[21:53:23] Client "Bot524" connected.
[21:53:23] Client "Bot524" spawned in server <BOT> (took 24 seconds).
[21:54:05] Dzwon Zygmunt: !r
[21:54:32] Dzwon Zygmunt: !r
[21:54:56] Dzwon Zygmunt: !r
[21:55:51] Dzwon Zygmunt: !r
[21:56:23] Dzwon Zygmunt: !r
[21:56:48] Dzwon Zygmunt: !r
[21:57:37] Dzwon Zygmunt: !r
[21:57:54] Dzwon Zygmunt: !r
[21:58:18] Dzwon Zygmunt: !r
[21:58:31] Dzwon Zygmunt: !r
[21:59:01] Dzwon Zygmunt: !r
[21:59:46] Client "Scottish Pigeon" connected.
[22:00:15] Dzwon Zygmunt: !r
[22:00:39] Dzwon Zygmunt: !r
[22:01:20] Dzwon Zygmunt: !r
[22:02:01] Dzwon Zygmunt: !r
[22:02:25] Dzwon Zygmunt: !r
[22:03:55] Dzwon Zygmunt: !r
[22:04:48] Dzwon Zygmunt: !r
[22:05:06] Dzwon Zygmunt: !r
[22:05:30] Dzwon Zygmunt: !r
[22:06:00] Dzwon Zygmunt: !r
[22:06:11] Dzwon Zygmunt: !r
[22:06:29] Dzwon Zygmunt: !r
[22:07:04] Dzwon Zygmunt: !r
[22:08:18] Dzwon Zygmunt: !r
[22:08:42] Client "scottryanjoe" connected.
[22:08:50] Dzwon Zygmunt: !r
[22:09:43] Dzwon Zygmunt: !r
[22:09:44] Client "scottryanjoe" spawned in server <STEAM_0:0:203137089> (took 62 seconds).
[22:10:14] Dzwon Zygmunt: !r
[22:11:19] Dzwon Zygmunt: !r
[22:11:31] Dzwon Zygmunt: !r
[22:11:54] Dzwon Zygmunt: !r
[22:12:17] Dzwon Zygmunt: !r
[22:12:44] Dzwon Zygmunt: !r
[22:13:00] Client "connorw0987" connected.
[22:13:07] Dzwon Zygmunt: !r
[22:13:10] Client "connorw0987" spawned in server <STEAM_0:1:64785296> (took 10 seconds).
[22:14:06] Client "[QcU]GoldenShower" connected.
[22:14:14] Dzwon Zygmunt: !r
[22:14:18] Client "[QcU]GoldenShower" spawned in server <STEAM_0:0:140836527> (took 12 seconds).
[22:14:42] Dzwon Zygmunt: !r
[22:15:37] Dzwon Zygmunt: !r
[22:16:00] Dzwon Zygmunt: !r
[22:16:01] Dropped "[QcU]GoldenShower" from server<STEAM_0:0:140836527>
[22:16:22] Dzwon Zygmunt: !r
[22:16:44] Dzwon Zygmunt: !r
[22:17:31] Dzwon Zygmunt: !r
[22:18:17] Dropped "Dzwon Zygmunt" from server<STEAM_0:1:97004445>
[22:18:33] scottryanjoe: how do u do number 2
[22:19:26] connorw0987: spec me 
[22:19:32] connorw0987: !r
[22:20:05] connorw0987: get it ?
[22:20:13] scottryanjoe: yes
[22:21:46] Client "★AlfStar★" connected.
[22:22:22] Client "★AlfStar★" spawned in server <STEAM_0:1:156117374> (took 36 seconds).
[22:23:10] scottryanjoe: /advert counter
[22:23:38] scottryanjoe: i did it yay
[22:31:10] Client "Kovdog" connected.
[22:32:02] Client "Get Beaned Kiddo!!!" connected.
[22:32:05] Client "Kovdog" spawned in server <STEAM_0:0:199791786> (took 55 seconds).
[22:33:06] Client "Get Beaned Kiddo!!!" spawned in server <STEAM_0:1:26473173> (took 64 seconds).
[22:33:51] Get Beaned Kiddo!!!: how do you turn off radio
[22:34:11] Dropped "Get Beaned Kiddo!!!" from server<STEAM_0:1:26473173>
[22:34:32] Dropped "★AlfStar★" from server<STEAM_0:1:156117374>
[22:34:46] connorw0987: !knife
[22:34:53] (TEAM) Kovdog: !kinfe
[22:35:03] (TEAM) Kovdog: !knife
[22:38:15] scottryanjoe: !site
[22:43:30] scottryanjoe: !tutorial
[22:45:06] Client "SimonThaBadassss" connected.
[22:45:39] Client "Linas G.D. LTHAX" connected.
[22:45:59] Client "SimonThaBadassss" spawned in server <STEAM_0:1:58830001> (took 53 seconds).
[22:46:43] Client "Linas G.D. LTHAX" spawned in server <STEAM_0:0:50299059> (took 64 seconds).
[22:47:06] Dropped "SimonThaBadassss" from server<STEAM_0:1:58830001>
[22:49:05] Dropped "Kovdog" from server<STEAM_0:0:199791786>
[22:50:19] connorw0987: rTV
[22:50:24] connorw0987: !rtv
[22:51:02] Dropped "connorw0987" from server<STEAM_0:1:64785296>
[22:54:22] scottryanjoe: /advert counter
[22:54:38] Server is shutting down/changing levels.



[22:54:45] New map: surf_utopia_njv
[22:55:02] Client "Linas G.D. LTHAX" spawned in server <STEAM_0:0:50299059> (took 18 seconds).
[22:55:02] Client "Bot525" connected.
[22:55:02] Client "Bot525" spawned in server <BOT> (took 18 seconds).
[22:55:04] Client "Bot526" connected.
[22:55:04] Client "Bot526" spawned in server <BOT> (took 20 seconds).
[22:55:23] Client "scottryanjoe" spawned in server <STEAM_0:0:203137089> (took 39 seconds).
[23:02:58] Client "drangonslayor" connected.
[23:04:09] Client "drangonslayor" spawned in server <STEAM_0:0:161735591> (took 71 seconds).
[23:14:40] scottryanjoe: try doing it backwards
[23:19:42] Linas G.D. LTHAX: oh i promoted
[23:19:47] Linas G.D. LTHAX: to private 
[23:20:05] scottryanjoe: well done
[23:20:22] Linas G.D. LTHAX: hah startter need help !! ?
[23:21:02] scottryanjoe: yes
[23:21:46] Linas G.D. LTHAX: what help you need
[23:21:57] Linas G.D. LTHAX: surf or how to get more speed
[23:22:10] drangonslayor: !shop
[23:22:17] scottryanjoe: speed
[23:23:02] Linas G.D. LTHAX: always hold space and  when you surfing from start before 2 nd ramp fell off 
[23:23:10] Linas G.D. LTHAX: awlways hold space
[23:23:15] scottryanjoe: k
[23:24:22] Linas G.D. LTHAX: you can  spectate me
[23:24:32] Linas G.D. LTHAX: F2
[23:24:56] Linas G.D. LTHAX: number 1
[23:25:06] scottryanjoe: /advert counter
[23:25:21] Server is shutting down/changing levels.



[23:25:28] New map: surf_mesa
[23:25:36] Client "Wavey Davey" connected.
[23:26:05] Client "Linas G.D. LTHAX" spawned in server <STEAM_0:0:50299059> (took 38 seconds).
[23:26:05] Client "Bot527" connected.
[23:26:05] Client "Bot527" spawned in server <BOT> (took 38 seconds).
[23:26:08] Client "Bot528" connected.
[23:26:08] Client "Bot528" spawned in server <BOT> (took 41 seconds).
[23:26:45] Client "scottryanjoe" spawned in server <STEAM_0:0:203137089> (took 78 seconds).
[23:28:30] Client "[SRP] Omega Sans" connected.
[23:28:31] Client "drangonslayor" spawned in server <STEAM_0:0:161735591> (took 184 seconds).
[23:28:41] Linas G.D. LTHAX: yay 
[23:28:52] Linas G.D. LTHAX: i am not a pro but now i am pro
[23:31:55] Client "[SRP] Omega Sans" spawned in server <STEAM_0:0:83224617> (took 205 seconds).
[23:34:09] [SRP] Omega Sans: jb
[23:37:40] Linas G.D. LTHAX: !tutorial
[23:40:21] Dropped "drangonslayor" from server<STEAM_0:0:161735591>
[23:44:41] Linas G.D. LTHAX: best rap song ever
[23:44:47] [SRP] Omega Sans: Ikr
[23:44:59] scottryanjoe: I LOVE IT!!!!!!
[23:45:07] Linas G.D. LTHAX: YES
[23:45:42] Linas G.D. LTHAX: !r
[23:46:54] Linas G.D. LTHAX: have fun dudes
[23:46:57] Linas G.D. LTHAX: bye
[23:47:12] Dropped "Linas G.D. LTHAX" from server<STEAM_0:0:50299059>
[23:47:12] scottryanjoe: bye
[23:50:05] [SRP] Omega Sans: Any tips on surfing?
[23:50:22] scottryanjoe: hold space ans smooth movements
[23:51:15] scottryanjoe: can u donate to me plz
[23:51:24] [SRP] Omega Sans: Why
[23:51:39] scottryanjoe:  i want to buy a knife
[23:53:31] scottryanjoe: /advert Hit and Run
[23:53:47] scottryanjoe: plz hit f3 then send to player
[23:54:06] [SRP] Omega Sans: If you haven't noticed I'm not the richest bloody play
[23:54:08] [SRP] Omega Sans: er
[23:54:29] scottryanjoe: give xp in the f3 menu
[23:55:45] scottryanjoe: /advert hit complete
[23:55:56] [SRP] Omega Sans: I'm not that good at surfing at
[23:55:58] [SRP] Omega Sans: m
[23:56:04] Server is shutting down/changing levels.



[23:56:11] New map: surf_beginner
[23:56:40] Client "scottryanjoe" spawned in server <STEAM_0:0:203137089> (took 30 seconds).
[23:56:41] Client "Bot529" connected.
[23:56:41] Client "Bot529" spawned in server <BOT> (took 31 seconds).
[23:56:43] Client "Bot530" connected.
[23:56:43] Client "Bot530" spawned in server <BOT> (took 33 seconds).
[23:57:29] Client "[SRP] Omega Sans" spawned in server <STEAM_0:0:83224617> (took 79 seconds).
[23:59:05] Client "vistick210101" connected.
<Logging continued in "data/ulx_logs/04-13-17.txt">
