<Logging continued from "data/ulx_logs/05-01-17.txt">
[00:00:12] Dropped "quirze" from server<STEAM_0:0:72054902>
[00:00:34] ThatOneChickenNugget: !glock
[00:01:45] Dropped "ThatOneChickenNugget" from server<STEAM_0:0:197708590>
[00:01:45] Dropped "Bot204" from server<BOT>
[00:01:45] Dropped "Bot205" from server<BOT>
[00:27:40] Server is shutting down/changing levels.



[00:27:47] New map: surf_mesa_mine
[00:46:33] Client "∂υ¢к" connected.
[00:47:11] Client "Xulu" connected.
[00:47:18] Client "∂υ¢к" spawned in server <STEAM_0:1:92708123> (took 45 seconds).
[00:47:18] Client "Bot206" connected.
[00:47:18] Client "Bot206" spawned in server <BOT> (took 1172 seconds).
[00:47:20] Client "Bot207" connected.
[00:47:20] Client "Bot207" spawned in server <BOT> (took 1174 seconds).
[00:48:07] Client "Xulu" spawned in server <STEAM_0:0:46857044> (took 56 seconds).
[00:48:25] Xulu: bloxwich
[00:48:27] Xulu: rip
[00:48:37] Dropped "Xulu" from server<STEAM_0:0:46857044>
[00:49:58] ∂υ¢к: !rtv
[00:50:09] ∂υ¢к: These fucking cockatoo's man
[00:50:12] ∂υ¢к: craptastic
[00:50:26] ∂υ¢к: These fucking cockatoo's man
[00:50:34] Server is shutting down/changing levels.



[00:50:41] New map: surf_beginner
[00:51:11] Client "∂υ¢к" spawned in server <STEAM_0:1:92708123> (took 31 seconds).
[00:51:11] Client "Bot208" connected.
[00:51:11] Client "Bot208" spawned in server <BOT> (took 31 seconds).
[00:51:13] Client "Bot209" connected.
[00:51:13] Client "Bot209" spawned in server <BOT> (took 33 seconds).
[00:53:53] ∂υ¢к: !rtv
[00:54:51] ∂υ¢к: !rtv
[00:54:55] ∂υ¢к: !rtv
[00:55:00] ∂υ¢к: !rvt]
[00:55:03] ∂υ¢к: !rtv
[00:55:23] ∂υ¢к: !rtv
[00:56:54] ∂υ¢к: !rtv
[00:57:15] ∂υ¢к: craptastic
[00:57:30] Server is shutting down/changing levels.



[00:57:37] New map: surf_forbidden_ways_ksf
[00:58:03] Client "∂υ¢к" spawned in server <STEAM_0:1:92708123> (took 27 seconds).
[00:58:03] Client "Bot210" connected.
[00:58:03] Client "Bot210" spawned in server <BOT> (took 27 seconds).
[00:58:05] Client "Bot211" connected.
[00:58:05] Client "Bot211" spawned in server <BOT> (took 29 seconds).
[01:08:56] Dropped "∂υ¢к" from server<STEAM_0:1:92708123>
[01:08:56] Dropped "Bot210" from server<BOT>
[01:08:56] Dropped "Bot211" from server<BOT>
[01:28:13] Server is shutting down/changing levels.



[01:28:20] New map: surf_happyhands
[01:58:56] Server is shutting down/changing levels.



[01:59:02] New map: surf_beginner
[02:29:38] Server is shutting down/changing levels.



[02:29:45] New map: surf_lt_omnific_fix
[02:32:07] Client "∂υ¢к" connected.
[02:33:56] Client "∂υ¢к" spawned in server <STEAM_0:1:92708123> (took 109 seconds).
[02:33:56] Client "Bot212" connected.
[02:33:56] Client "Bot212" spawned in server <BOT> (took 252 seconds).
[02:33:59] Client "Bot213" connected.
[02:33:59] Client "Bot213" spawned in server <BOT> (took 255 seconds).
[02:35:01] ∂υ¢к: !rtv
[02:35:04] ∂υ¢к: craptastic
[02:35:05] ∂υ¢к: Death to the french
[02:35:06] ∂υ¢к: Death to the french
[02:35:07] ∂υ¢к: Death to the french
[02:35:37] Server is shutting down/changing levels.



[02:35:44] New map: surf_mesa
[02:36:03] Client "∂υ¢к" spawned in server <STEAM_0:1:92708123> (took 20 seconds).
[02:36:03] Client "Bot214" connected.
[02:36:03] Client "Bot214" spawned in server <BOT> (took 20 seconds).
[02:36:05] Client "Bot215" connected.
[02:36:05] Client "Bot215" spawned in server <BOT> (took 22 seconds).
[02:39:08] Client "TY_ROONE" connected.
[02:41:08] Client "TY_ROONE" spawned in server <STEAM_0:1:162602947> (took 120 seconds).
[02:44:37] ∂υ¢к: These fucking cockatoo's man
[02:44:41] ∂υ¢к: shit
[02:44:58] ∂υ¢к: !r
[02:45:05] Dropped "TY_ROONE" from server<STEAM_0:1:162602947>
[02:45:07] ∂υ¢к: !spec
[02:51:22] ∂υ¢к: !r
[02:51:31] ∂υ¢к: !r
[02:51:50] ∂υ¢к: !r
[02:52:36] ∂υ¢к: !r
[02:58:03] ∂υ¢к: !r
[02:58:06] Dropped "∂υ¢к" from server<STEAM_0:1:92708123>
[02:58:06] Dropped "Bot214" from server<BOT>
[02:58:06] Dropped "Bot215" from server<BOT>
[03:06:20] Server is shutting down/changing levels.



[03:06:27] New map: surf_reprise_fix
[03:37:02] Server is shutting down/changing levels.



[03:37:09] New map: surf_mesa
[04:07:45] Server is shutting down/changing levels.



[04:07:52] New map: surf_simpsons_source
[04:26:49] Client "tommykeelan" connected.
[04:29:36] Client "tommykeelan" spawned in server <STEAM_0:0:102671551> (took 167 seconds).
[04:29:36] Client "Bot216" connected.
[04:29:36] Client "Bot216" spawned in server <BOT> (took 1305 seconds).
[04:29:38] Client "Bot217" connected.
[04:29:38] Client "Bot217" spawned in server <BOT> (took 1307 seconds).
[04:32:27] Dropped "tommykeelan" from server<STEAM_0:0:102671551>
[04:32:27] Dropped "Bot216" from server<BOT>
[04:32:27] Dropped "Bot217" from server<BOT>
[04:38:28] Server is shutting down/changing levels.



[04:38:35] New map: surf_lux
[05:09:10] Server is shutting down/changing levels.



[05:09:17] New map: surf_ace
[05:35:03] Client "∂υ¢к" connected.
[05:35:48] Client "∂υ¢к" spawned in server <STEAM_0:1:92708123> (took 45 seconds).
[05:35:48] Client "Bot218" connected.
[05:35:48] Client "Bot218" spawned in server <BOT> (took 1592 seconds).
[05:35:50] Client "Bot219" connected.
[05:35:50] Client "Bot219" spawned in server <BOT> (took 1594 seconds).
[05:36:13] ∂υ¢к: !r
[05:36:37] ∂υ¢к: !r
[05:36:53] ∂υ¢к: !r
[05:37:26] ∂υ¢к: !r
[05:37:55] (TEAM) ∂υ¢к: y!r
[05:37:57] ∂υ¢к: !r
[05:38:30] (TEAM) ∂υ¢к: y!r
[05:38:32] ∂υ¢к: !tr
[05:38:34] ∂υ¢к: !r
[05:39:01] ∂υ¢к: !r
[05:39:36] ∂υ¢к: Death to the french
[05:39:40] ∂υ¢к: !r
[05:39:53] Server is shutting down/changing levels.



[05:40:00] New map: surf_mesa
[05:40:21] Client "∂υ¢к" spawned in server <STEAM_0:1:92708123> (took 22 seconds).
[05:40:21] Client "Bot220" connected.
[05:40:21] Client "Bot220" spawned in server <BOT> (took 22 seconds).
[05:40:23] Client "Bot221" connected.
[05:40:23] Client "Bot221" spawned in server <BOT> (took 24 seconds).
[05:41:33] ∂υ¢к: !r
[05:44:49] ∂υ¢к: !r
[05:47:28] ∂υ¢к: !r
[05:48:58] ∂υ¢к: !r
[05:49:00] Dropped "∂υ¢к" from server<STEAM_0:1:92708123>
[05:49:00] Dropped "Bot220" from server<BOT>
[05:49:00] Dropped "Bot221" from server<BOT>
[06:10:36] Server is shutting down/changing levels.



[06:10:43] New map: surf_lux
[06:41:19] Server is shutting down/changing levels.



[06:41:26] New map: surf_beginner
[07:12:01] Server is shutting down/changing levels.



[07:12:08] New map: surf_island
[07:42:44] Server is shutting down/changing levels.



[07:42:51] New map: surf_rookie
[08:13:26] Server is shutting down/changing levels.



[08:13:33] New map: surf_lux
[08:44:09] Server is shutting down/changing levels.



[08:44:15] New map: surf_wood
[09:14:51] Server is shutting down/changing levels.



[09:14:58] New map: surf_prelude_ksf
[09:45:33] Server is shutting down/changing levels.



[09:45:40] New map: surf_stonework3
[10:16:16] Server is shutting down/changing levels.



[10:16:23] New map: surf_waterworks
[10:38:58] Client "MidnaGigglz" connected.
[10:40:23] Client "MidnaGigglz" spawned in server <STEAM_0:0:89415008> (took 85 seconds).
[10:40:23] Client "Bot222" connected.
[10:40:23] Client "Bot222" spawned in server <BOT> (took 1441 seconds).
[10:40:25] Client "Bot223" connected.
[10:40:25] Client "Bot223" spawned in server <BOT> (took 1443 seconds).
[10:42:27] MidnaGigglz: !rtv
[10:43:03] Server is shutting down/changing levels.



[10:43:10] New map: surf_milkyway
[10:43:47] Client "MidnaGigglz" spawned in server <STEAM_0:0:89415008> (took 38 seconds).
[10:43:47] Client "Bot224" connected.
[10:43:47] Client "Bot224" spawned in server <BOT> (took 38 seconds).
[10:43:49] Client "Bot225" connected.
[10:43:49] Client "Bot225" spawned in server <BOT> (took 40 seconds).
[10:45:01] Dropped "MidnaGigglz" from server<STEAM_0:0:89415008>
[10:45:01] Dropped "Bot224" from server<BOT>
[10:45:01] Dropped "Bot225" from server<BOT>
[11:13:47] Server is shutting down/changing levels.



[11:13:54] New map: surf_sundown_njv
[11:44:29] Server is shutting down/changing levels.



[11:44:36] New map: surf_waterworks
[12:15:12] Server is shutting down/changing levels.



[12:15:19] New map: surf_ace
[12:32:10] Client "LuckyFank" connected.
[12:33:07] Client "LuckyFank" spawned in server <STEAM_0:0:114166997> (took 57 seconds).
[12:33:07] Client "Bot226" connected.
[12:33:07] Client "Bot226" spawned in server <BOT> (took 1069 seconds).
[12:33:09] Client "Bot227" connected.
[12:33:09] Client "Bot227" spawned in server <BOT> (took 1071 seconds).
[12:35:22] LuckyFank: !r
[12:45:55] Server is shutting down/changing levels.



[12:46:02] New map: surf_funhouse_v1
[12:46:21] Client "LuckyFank" spawned in server <STEAM_0:0:114166997> (took 20 seconds).
[12:46:21] Client "Bot228" connected.
[12:46:21] Client "Bot228" spawned in server <BOT> (took 20 seconds).
[12:46:23] Client "Bot229" connected.
[12:46:23] Client "Bot229" spawned in server <BOT> (took 22 seconds).
[12:47:57] (TEAM) LuckyFank: !rtv
[12:50:14] (TEAM) LuckyFank: !rtv
[12:50:18] (TEAM) LuckyFank: !rtv
[12:50:56] (TEAM) LuckyFank: !rtv
[12:51:45] (TEAM) LuckyFank: !rtv
[12:52:21] Server is shutting down/changing levels.



[12:52:28] New map: surf_wood
[12:52:48] Client "LuckyFank" spawned in server <STEAM_0:0:114166997> (took 21 seconds).
[12:52:48] Client "Bot230" connected.
[12:52:48] Client "Bot230" spawned in server <BOT> (took 21 seconds).
[12:52:50] Client "Bot231" connected.
[12:52:50] Client "Bot231" spawned in server <BOT> (took 23 seconds).
[12:53:55] Dropped "LuckyFank" from server<STEAM_0:0:114166997>
[12:53:55] Dropped "Bot230" from server<BOT>
[12:53:55] Dropped "Bot231" from server<BOT>
[13:23:04] Server is shutting down/changing levels.



[13:23:11] New map: surf_waterworks
[13:53:47] Server is shutting down/changing levels.



[13:53:54] New map: surf_lux
[14:24:29] Server is shutting down/changing levels.



[14:24:36] New map: surf_mesa_aether
[14:45:34] Client "Flameyoyo^-^" connected.
[14:46:14] Client "Flameyoyo^-^" spawned in server <STEAM_0:0:182729569> (took 40 seconds).
[14:46:14] Client "Bot232" connected.
[14:46:14] Client "Bot232" spawned in server <BOT> (took 1299 seconds).
[14:46:16] Client "Bot233" connected.
[14:46:16] Client "Bot233" spawned in server <BOT> (took 1301 seconds).
[14:48:03] Flameyoyo^-^: !nominate
[14:48:11] Flameyoyo^-^: !rtv
[14:48:47] Server is shutting down/changing levels.



[14:48:54] New map: surf_beginner
[14:49:10] Client "Flameyoyo^-^" spawned in server <STEAM_0:0:182729569> (took 17 seconds).
[14:49:10] Client "Bot234" connected.
[14:49:10] Client "Bot234" spawned in server <BOT> (took 17 seconds).
[14:49:12] Client "Bot235" connected.
[14:49:12] Client "Bot235" spawned in server <BOT> (took 19 seconds).
[14:53:24] Flameyoyo^-^: !nominate
[14:53:32] Flameyoyo^-^: !rtv
[14:54:36] Flameyoyo^-^: !rtv
[14:55:12] Server is shutting down/changing levels.



[14:55:18] New map: surf_forbidden_ways_ksf
[14:55:34] Client "Flameyoyo^-^" spawned in server <STEAM_0:0:182729569> (took 17 seconds).
[14:55:34] Client "Bot236" connected.
[14:55:34] Client "Bot236" spawned in server <BOT> (took 17 seconds).
[14:55:36] Client "Bot237" connected.
[14:55:36] Client "Bot237" spawned in server <BOT> (took 19 seconds).
[15:10:19] Client "Muhairbi" connected.
[15:11:06] Client "Muhairbi" spawned in server <STEAM_0:1:122480386> (took 47 seconds).
[15:25:55] Server is shutting down/changing levels.



[15:26:01] New map: surf_stonework3
[15:26:30] Client "Flameyoyo^-^" spawned in server <STEAM_0:0:182729569> (took 30 seconds).
[15:26:30] Client "Bot238" connected.
[15:26:30] Client "Bot238" spawned in server <BOT> (took 30 seconds).
[15:26:32] Client "Bot239" connected.
[15:26:32] Client "Bot239" spawned in server <BOT> (took 32 seconds).
[15:30:57] Flameyoyo^-^: !nominate
[15:31:17] Flameyoyo^-^: !rtv
[15:31:53] Server is shutting down/changing levels.



[15:32:00] New map: surf_milkyway
[15:32:15] Client "Flameyoyo^-^" spawned in server <STEAM_0:0:182729569> (took 16 seconds).
[15:32:15] Client "Bot240" connected.
[15:32:15] Client "Bot240" spawned in server <BOT> (took 16 seconds).
[15:32:17] Client "Bot241" connected.
[15:32:17] Client "Bot241" spawned in server <BOT> (took 18 seconds).
[15:32:55] Flameyoyo^-^: !nominate
[15:33:14] Flameyoyo^-^: !rtv
[15:41:24] Flameyoyo^-^: !rtv
[15:42:00] Server is shutting down/changing levels.



[15:42:07] New map: surf_waterworks
[15:42:41] Client "Flameyoyo^-^" spawned in server <STEAM_0:0:182729569> (took 35 seconds).
[15:42:41] Client "Bot242" connected.
[15:42:41] Client "Bot242" spawned in server <BOT> (took 35 seconds).
[15:42:43] Client "Bot243" connected.
[15:42:43] Client "Bot243" spawned in server <BOT> (took 37 seconds).
[15:50:28] Client "·•ZikRow•· Novalis" connected.
[15:51:55] Client "·•ZikRow•· Novalis" spawned in server <STEAM_0:0:154348575> (took 87 seconds).
[15:54:18] Flameyoyo^-^: !rtv
[15:54:58] Flameyoyo^-^: hey can you please do !rtv
[15:55:03] ·•ZikRow•· Novalis: !rtv
[15:55:12] Flameyoyo^-^: thx
[15:55:39] Server is shutting down/changing levels.



[15:55:46] New map: surf_kitsune
[15:56:00] Client "Flameyoyo^-^" spawned in server <STEAM_0:0:182729569> (took 15 seconds).
[15:56:00] Client "Bot244" connected.
[15:56:00] Client "Bot244" spawned in server <BOT> (took 15 seconds).
[15:56:02] Client "Bot245" connected.
[15:56:02] Client "Bot245" spawned in server <BOT> (took 17 seconds).
[15:56:10] Client "·•ZikRow•· Novalis" spawned in server <STEAM_0:0:154348575> (took 25 seconds).
[15:57:30] Flameyoyo^-^: !nominate
[16:00:24] Client "GkG_GameBreaker" connected.
[16:01:23] Client "GkG_GameBreaker" spawned in server <STEAM_0:0:98027541> (took 59 seconds).
[16:08:43] Flameyoyo^-^: !rtv
[16:08:52] ·•ZikRow•· Novalis: !r
[16:09:07] ·•ZikRow•· Novalis: !r
[16:09:26] ·•ZikRow•· Novalis: !r
[16:12:26] Client "TOP(NET)" connected.
[16:15:40] Client "TOP(NET)" spawned in server <STEAM_0:0:100474608> (took 194 seconds).
[16:15:46] Dropped "Flameyoyo^-^" from server<STEAM_0:0:182729569>
[16:16:34] Client "Flameyoyo^-^" connected.
[16:16:47] Client "Flameyoyo^-^" spawned in server <STEAM_0:0:182729569> (took 13 seconds).
[16:17:21] Dropped "GkG_GameBreaker" from server<STEAM_0:0:98027541>
[16:17:35] Flameyoyo^-^: !rtv
[16:18:00] Flameyoyo^-^: !r
[16:18:27] Client "alexismeunier" connected.
[16:19:15] Client "alexismeunier" spawned in server <STEAM_0:0:170237494> (took 48 seconds).
[16:20:07] Dropped "·•ZikRow•· Novalis" from server<STEAM_0:0:154348575>
[16:20:30] alexismeunier: how do wesurf
[16:21:18] Flameyoyo^-^: can you guys pls do !rtv
[16:21:24] alexismeunier: !rtv
[16:22:00] Server is shutting down/changing levels.



[16:22:07] New map: surf_utopia_njv
[16:22:23] Client "Flameyoyo^-^" spawned in server <STEAM_0:0:182729569> (took 17 seconds).
[16:22:23] Client "Bot246" connected.
[16:22:23] Client "Bot246" spawned in server <BOT> (took 17 seconds).
[16:22:25] Client "Bot247" connected.
[16:22:25] Client "Bot247" spawned in server <BOT> (took 19 seconds).
[16:22:38] Client "alexismeunier" spawned in server <STEAM_0:0:170237494> (took 32 seconds).
[16:24:09] Client "Apollo1320" connected.
[16:24:45] Client "TOP(NET)" spawned in server <STEAM_0:0:100474608> (took 159 seconds).
[16:25:02] alexismeunier: hi
[16:25:54] Client "KJelles The Camel" connected.
[16:26:15] Client "Apollo1320" spawned in server <STEAM_0:0:79144628> (took 126 seconds).
[16:26:48] Client "KJelles The Camel" spawned in server <STEAM_0:0:50269528> (took 54 seconds).
[16:27:07] KJelles The Camel: Hello
[16:27:58] KJelles The Camel: !r
[16:28:26] Client "Kdpakado" connected.
[16:29:27] Client "Kdpakado" spawned in server <STEAM_0:0:54795385> (took 61 seconds).
[16:33:53] Dropped "TOP(NET)" from server<STEAM_0:0:100474608>
[16:34:14] KJelles The Camel: !spec
[16:34:24] Dropped "Kdpakado" from server<STEAM_0:0:54795385>
[16:38:27] Client "Malik." connected.
[16:39:34] Client "Malik." spawned in server <STEAM_0:0:114109295> (took 67 seconds).
[16:40:50] Client "Hmidou" connected.
[16:41:07] Client "Hmidou" spawned in server <STEAM_0:1:38586256> (took 17 seconds).
[16:41:57] Dropped "Malik." from server<STEAM_0:0:114109295>
[16:43:10] Client "GkG_GameBreaker" connected.
[16:43:17] Client "Notnau" connected.
[16:43:30] Client "GkG_GameBreaker" spawned in server <STEAM_0:0:98027541> (took 20 seconds).
[16:43:48] Client "Notnau" spawned in server <STEAM_0:1:56420005> (took 31 seconds).
[16:43:49] Dropped "Hmidou" from server<STEAM_0:1:38586256>
[16:46:11] Client "∂υ¢к" connected.
[16:46:57] Client "∂υ¢к" spawned in server <STEAM_0:1:92708123> (took 46 seconds).
[16:50:14] Dropped "Apollo1320" from server<STEAM_0:0:79144628>
[16:51:58] Client "chucky" connected.
[16:52:21] ∂υ¢к: craptastic
[16:52:43] Server is shutting down/changing levels.



[16:52:50] New map: surf_graphia
[16:53:04] Client "alexismeunier" spawned in server <STEAM_0:0:170237494> (took 15 seconds).
[16:53:04] Client "Bot248" connected.
[16:53:04] Client "Bot248" spawned in server <BOT> (took 15 seconds).
[16:53:06] Client "Bot249" connected.
[16:53:06] Client "Bot249" spawned in server <BOT> (took 17 seconds).
[16:53:09] Client "GkG_GameBreaker" spawned in server <STEAM_0:0:98027541> (took 20 seconds).
[16:53:18] Client "Flameyoyo^-^" spawned in server <STEAM_0:0:182729569> (took 29 seconds).
[16:53:18] Client "KJelles The Camel" spawned in server <STEAM_0:0:50269528> (took 29 seconds).
[16:53:35] Client "∂υ¢к" spawned in server <STEAM_0:1:92708123> (took 46 seconds).
[16:53:41] (TEAM) KJelles The Camel: !spec
[16:53:50] alexismeunier: !hub
[16:53:58] Flameyoyo^-^: !r
[16:53:58] Dropped "alexismeunier" from server<STEAM_0:0:170237494>
[16:54:05] ∂υ¢к: !r
[16:57:50] Dropped "∂υ¢к" from server<STEAM_0:1:92708123>
[16:58:40] Client "[N-G]XxNedSTxX" connected.
[17:00:07] Client "[N-G]XxNedSTxX" spawned in server <STEAM_0:0:139239512> (took 87 seconds).
[17:00:53] [N-G]XxNedSTxX: Hello
[17:01:00] KJelles The Camel: yo
[17:01:17] [N-G]XxNedSTxX: How's everyone ?
[17:02:22] [N-G]XxNedSTxX: Ping :/
[17:02:31] Client "Buffa" connected.
[17:02:50] Dropped "GkG_GameBreaker" from server<STEAM_0:0:98027541>
[17:03:18] Client "Buffa" spawned in server <STEAM_0:0:180362661> (took 47 seconds).
[17:04:41] Buffa: what is the mod for bhop or comand
[17:05:08] Flameyoyo^-^: !rtv
[17:05:12] [N-G]XxNedSTxX: You can hold *space* to bhop ( auto jump)
[17:05:20] Flameyoyo^-^: !nominate
[17:05:59] Buffa: yes but you need a command or a mod to do it
[17:06:06] KJelles The Camel: you do not
[17:06:11] [N-G]XxNedSTxX: Nothing this server comes with it
[17:06:16] KJelles The Camel: the script is in the gamemode
[17:06:18] KJelles The Camel: Flow Gamemode
[17:07:50] [N-G]XxNedSTxX: <3 my ping <spoiler>NOT</spoiler>
[17:09:19] [N-G]XxNedSTxX: oh yh kevin
[17:09:22] [N-G]XxNedSTxX: 1 sec
[17:09:44] Client "[N-G]  Amirobob" connected.
[17:09:59] [N-G]XxNedSTxX: Kevin u there?
[17:10:14] KJelles The Camel: yes fam
[17:10:22] [N-G]XxNedSTxX: Check pointshop inv
[17:10:38] KJelles The Camel: Sikkkkk
[17:10:53] [N-G]XxNedSTxX: Cuz u got ragdoll and shit if u want u can try it on me for fun
[17:11:00] [N-G]XxNedSTxX ragdolled Themself
[17:11:00] [N-G]XxNedSTxX: !ragdoll ned
[17:11:29] [N-G]XxNedSTxX: I guess not
[17:11:33] [N-G]XxNedSTxX unragdolled Themself
[17:11:33] [N-G]XxNedSTxX: !unragdoll *
[17:12:50] Dropped "Buffa" from server<STEAM_0:0:180362661>
[17:14:17] [N-G]XxNedSTxX: Gonna come back later my ping >_<
[17:15:07] Dropped "[N-G]XxNedSTxX" from server<STEAM_0:0:139239512>
[17:16:49] Flameyoyo^-^: !rtv
[17:16:59] Flameyoyo^-^: !nominate
[17:17:54] Client "Buffa" connected.
[17:18:07] Client "Buffa" spawned in server <STEAM_0:0:180362661> (took 13 seconds).
[17:20:56] KJelles The Camel: !listrtv
[17:20:59] KJelles The Camel: !rtv
[17:21:28] Client "GkG_GameBreaker" connected.
[17:21:35] Server is shutting down/changing levels.



[17:21:41] New map: surf_prelude_ksf
[17:21:56] Client "Buffa" spawned in server <STEAM_0:0:180362661> (took 16 seconds).
[17:21:56] Client "Bot250" connected.
[17:21:56] Client "Bot250" spawned in server <BOT> (took 16 seconds).
[17:21:58] Client "Bot251" connected.
[17:21:58] Client "Bot251" spawned in server <BOT> (took 18 seconds).
[17:22:00] Client "KJelles The Camel" spawned in server <STEAM_0:0:50269528> (took 20 seconds).
[17:22:56] Client "Flameyoyo^-^" spawned in server <STEAM_0:0:182729569> (took 76 seconds).
[17:23:17] KJelles The Camel: !spec
[17:24:58] Client "PureInsanity592" connected.
[17:25:49] Client "PureInsanity592" spawned in server <STEAM_0:0:211440630> (took 51 seconds).
[17:25:58] Client "Joehac" connected.
[17:26:15] Client "Vajčiar123" connected.
[17:26:29] Client "DAMLGPRO420" connected.
[17:27:00] Client "Joehac" spawned in server <STEAM_0:1:37655717> (took 62 seconds).
[17:27:04] Client "DAMLGPRO420" spawned in server <STEAM_0:1:173707660> (took 35 seconds).
[17:27:22] Client "JellyJiggler" connected.
[17:28:07] Dropped "DAMLGPRO420" from server<STEAM_0:1:173707660>
[17:29:14] Client "Exter" connected.
[17:29:22] Client "Vajčiar123" spawned in server <STEAM_0:0:104876023> (took 187 seconds).
[17:30:02] Dropped "PureInsanity592" from server<STEAM_0:0:211440630>
[17:31:19] Client "ДратутИ)" connected.
[17:31:20] Client "Exter" connected.
[17:32:10] (TEAM) Joehac: !tutorial
[17:33:19] Client "JellyJiggler" spawned in server <STEAM_0:1:107764156> (took 357 seconds).
[17:34:50] Dropped "Joehac" from server<STEAM_0:1:37655717>
[17:34:59] JellyJiggler: wtf
[17:35:03] JellyJiggler: i lost all my player models
[17:35:06] JellyJiggler: :(
[17:35:10] KJelles The Camel: weird
[17:35:18] JellyJiggler: and how am i a satrted?
[17:35:23] JellyJiggler: starter
[17:35:29] JellyJiggler: i have played 17hours
[17:35:36] KJelles The Camel: how long havent u played
[17:35:37] JellyJiggler: and even longer
[17:35:53] JellyJiggler: like a month
[17:35:58] Client "Joehac" connected.
[17:36:09] KJelles The Camel: weird
[17:36:10] Client "Joehac" spawned in server <STEAM_0:1:37655717> (took 12 seconds).
[17:36:20] Client "Kristofer" connected.
[17:36:21] KJelles The Camel: your rank is probably because more maps are added
[17:36:30] KJelles The Camel: i got set back 4 ranks aswell
[17:36:38] Client "·•ZikRow•· Novalis" connected.
[17:36:39] KJelles The Camel: but im not sure about your models
[17:36:50] JellyJiggler: yeah but i had just bought so much player models after the reset 
[17:36:54] JellyJiggler: the inv reset
[17:36:58] JellyJiggler: and i had alot of knifes to
[17:37:00] JellyJiggler: all gone
[17:37:06] KJelles The Camel: ill give u some points n shit
[17:37:07] JellyJiggler: so i dont have any points :(
[17:37:18] JellyJiggler: u dont have to man 
[17:37:27] JellyJiggler: i will no life those hours again :(
[17:37:32] KJelles The Camel: there ya go
[17:37:38] KJelles The Camel: gave u some XP / PS2
[17:37:38] Client "·•ZikRow•· Novalis" spawned in server <STEAM_0:0:154348575> (took 60 seconds).
[17:37:46] KJelles The Camel: i dont use them anyways
[17:37:51] Client "Kristofer" spawned in server <STEAM_0:0:185794579> (took 91 seconds).
[17:37:56] JellyJiggler: ?
[17:37:58] JellyJiggler: oke ty 
[17:38:28] Dropped "Vajčiar123" from server<STEAM_0:0:104876023>
[17:38:37] JellyJiggler: !r
[17:38:44] Client "GkG_GameBreaker" connected.
[17:39:33] JellyJiggler: this is so long ago
[17:39:36] JellyJiggler: this map
[17:39:41] ·•ZikRow•· Novalis: !rtv
[17:39:43] JellyJiggler: i used to skip the corner round one
[17:39:54] JellyJiggler: !r
[17:40:27] JellyJiggler: wel i gtg
[17:40:44] JellyJiggler: my laptop cant go without power and i need to move to the couch :(
[17:40:52] Dropped "·•ZikRow•· Novalis" from server<STEAM_0:0:154348575>
[17:41:12] JellyJiggler: !r
[17:41:48] JellyJiggler: b right back :)
[17:41:52] Dropped "JellyJiggler" from server<STEAM_0:1:107764156>
[17:42:32] Flameyoyo^-^: !rtv
[17:42:38] Dropped "Kristofer" from server<STEAM_0:0:185794579>
[17:43:40] Client "SvempaRoo" connected.
[17:44:27] Client "SvempaRoo" spawned in server <STEAM_0:1:197203278> (took 47 seconds).
[17:46:13] Flameyoyo^-^: !r
[17:47:36] Dropped "SvempaRoo" from server<STEAM_0:1:197203278>
[17:48:13] Client "BatMetal >__<" connected.
[17:49:36] Client "BatMetal >__<" spawned in server <STEAM_0:1:147580305> (took 83 seconds).
[17:52:18] Server is shutting down/changing levels.



[17:52:25] New map: surf_happyhands
[17:52:46] Client "KJelles The Camel" spawned in server <STEAM_0:0:50269528> (took 23 seconds).
[17:52:46] Client "Bot252" connected.
[17:52:46] Client "Bot252" spawned in server <BOT> (took 23 seconds).
[17:52:48] Client "Bot253" connected.
[17:52:48] Client "Bot253" spawned in server <BOT> (took 25 seconds).
[17:52:56] Client "BatMetal >__<" spawned in server <STEAM_0:1:147580305> (took 33 seconds).
[17:53:13] Client "Flameyoyo^-^" spawned in server <STEAM_0:0:182729569> (took 50 seconds).
[17:53:16] Client "Joehac" spawned in server <STEAM_0:1:37655717> (took 53 seconds).
[17:53:25] Client "Buffa" spawned in server <STEAM_0:0:180362661> (took 62 seconds).
[17:54:59] Flameyoyo^-^: !nominate
[17:55:11] KJelles The Camel: !r
[17:56:16] KJelles The Camel: !r
[17:56:19] KJelles The Camel: !r
[17:56:25] KJelles The Camel: !r
[17:56:32] KJelles The Camel: !r
[17:56:35] Dropped "Joehac" from server<STEAM_0:1:37655717>
[17:57:05] BatMetal >__<: !rtd
[17:57:13] BatMetal >__<: !rtd
[17:58:16] Dropped "BatMetal >__<" from server<STEAM_0:1:147580305>
[17:58:51] Client "Legit" connected.
[17:58:59] Client "XpS" connected.
[17:59:33] KJelles The Camel: !r
[18:01:08] Client "XpS" spawned in server <STEAM_0:1:54052269> (took 129 seconds).
[18:01:49] Dropped "KJelles The Camel" from server<STEAM_0:0:50269528>
[18:03:26] Flameyoyo^-^: !rtv
[18:03:53] Flameyoyo^-^: hey guys can rtv cause i'm bored of this map
[18:04:07] Buffa: !rtv
[18:04:15] Client "Legit" spawned in server <STEAM_0:0:45635478> (took 324 seconds).
[18:04:43] Server is shutting down/changing levels.



[18:04:50] New map: surf_waterworks
[18:05:06] Client "Flameyoyo^-^" spawned in server <STEAM_0:0:182729569> (took 17 seconds).
[18:05:06] Client "Bot254" connected.
[18:05:06] Client "Bot254" spawned in server <BOT> (took 17 seconds).
[18:05:08] Client "Bot255" connected.
[18:05:08] Client "Bot255" spawned in server <BOT> (took 19 seconds).
[18:05:09] Client "Buffa" spawned in server <STEAM_0:0:180362661> (took 20 seconds).
[18:05:23] Client "XpS" spawned in server <STEAM_0:1:54052269> (took 34 seconds).
[18:05:35] Client "Qoutex" connected.
[18:05:49] Client "Legit" spawned in server <STEAM_0:0:45635478> (took 60 seconds).
[18:06:16] Legit: !stop
[18:09:36] Client "ExoTicZz" connected.
[18:10:13] Client "ExoTicZz" spawned in server <STEAM_0:1:208206537> (took 37 seconds).
[18:11:04] ExoTicZz: !r
[18:13:31] Dropped "Legit" from server<STEAM_0:0:45635478>
[18:15:29] Dropped "XpS" from server<STEAM_0:1:54052269>
[18:16:01] Flameyoyo^-^: !nominate
[18:16:52] Client "lad" connected.
[18:18:18] Dropped "Buffa" from server<STEAM_0:0:180362661>
[18:20:06] Client "JellyJiggler" connected.
[18:21:03] Client "JellyJiggler" spawned in server <STEAM_0:1:107764156> (took 57 seconds).
[18:21:28] JellyJiggler: Hi
[18:22:03] JellyJiggler: !r
[18:22:38] JellyJiggler: !r
[18:24:47] Flameyoyo^-^: !rtv
[18:24:48] JellyJiggler: can someone show me how to do the 1st part agaiN
[18:24:49] JellyJiggler: ??
[18:24:51] Flameyoyo^-^: !r
[18:25:37] JellyJiggler: flameyo you lost ur speed with the pillar turn
[18:25:41] JellyJiggler: :(
[18:25:50] Flameyoyo^-^: yeah i know
[18:26:03] Flameyoyo^-^: but idk how to past that
[18:26:10] Flameyoyo^-^: pass*
[18:26:29] ExoTicZz: turn ya mouse
[18:26:44] JellyJiggler: !r
[18:26:53] Flameyoyo^-^: yeah ik but i keep hitting the ceiling
[18:27:07] ExoTicZz: go into low
[18:27:14] Flameyoyo^-^: k
[18:27:51] JellyJiggler: i hate this map
[18:27:52] JellyJiggler: !rtv
[18:28:02] Client "Bilal" connected.
[18:28:10] JellyJiggler: which one?
[18:28:28] Server is shutting down/changing levels.



[18:28:35] New map: surf_forbidden_ways_ksf
[18:28:46] Client "JellyJiggler" spawned in server <STEAM_0:1:107764156> (took 12 seconds).
[18:28:46] Client "Bot256" connected.
[18:28:46] Client "Bot256" spawned in server <BOT> (took 12 seconds).
[18:28:47] Client "ExoTicZz" spawned in server <STEAM_0:1:208206537> (took 13 seconds).
[18:28:48] Client "Bot257" connected.
[18:28:48] Client "Bot257" spawned in server <BOT> (took 14 seconds).
[18:28:55] Client "Flameyoyo^-^" spawned in server <STEAM_0:0:182729569> (took 21 seconds).
[18:28:59] Client "Bilal" spawned in server <STEAM_0:0:124368118> (took 25 seconds).
[18:29:03] Client "Greenpro" connected.
[18:29:29] JellyJiggler: :o nooo
[18:29:32] JellyJiggler: went so fast
[18:29:38] Client "Greenpro" spawned in server <STEAM_0:1:49910556> (took 35 seconds).
[18:29:52] JellyJiggler: !r
[18:30:28] Dropped "Greenpro" from server<STEAM_0:1:49910556>
[18:30:34] JellyJiggler: Nooooo
[18:30:43] JellyJiggler: i hit my head on the last turn
[18:31:12] Dropped "Bilal" from server<STEAM_0:0:124368118>
[18:31:23] Dropped "ExoTicZz" from server<STEAM_0:1:208206537>
[18:31:57] JellyJiggler: !r
[18:33:15] JellyJiggler: !r
[18:33:53] Client "SpartA" connected.
[18:34:26] Client "SpartA" spawned in server <STEAM_0:0:46445867> (took 33 seconds).
[18:34:48] (TEAM) SpartA: !b
[18:36:27] JellyJiggler: flameyo
[18:36:33] JellyJiggler: have u ever made it to the end/
[18:36:35] JellyJiggler: ??
[18:36:48] Dropped "Flameyoyo^-^" from server<STEAM_0:0:182729569>
[18:38:06] Client "DerSuper11" connected.
[18:39:28] Client "DerSuper11" connected.
[18:40:02] Client "DerSuper11" spawned in server <STEAM_0:0:82367484> (took 34 seconds).
[18:40:15] JellyJiggler: HI
[18:41:45] Dropped "DerSuper11" from server<STEAM_0:0:82367484>
[18:42:17] Client "Flameyoyo^-^" connected.
[18:42:36] Client "Flameyoyo^-^" spawned in server <STEAM_0:0:182729569> (took 19 seconds).
[18:45:22] JellyJiggler: omg
[18:45:29] JellyJiggler: u need to go true that portal??
[18:45:35] JellyJiggler: i landed on top of it :
[18:45:37] JellyJiggler: :(
[18:45:42] Flameyoyo^-^: oops
[18:45:46] JellyJiggler: XD
[18:48:58] Flameyoyo^-^: wtf
[18:49:03] JellyJiggler: ??
[18:49:07] JellyJiggler: do u need hel
[18:49:09] JellyJiggler: help
[18:49:17] Flameyoyo^-^: why??
[18:49:24] JellyJiggler: u said wtf?
[18:49:47] Flameyoyo^-^: cause i hit the ramp when i was going fine
[18:49:47] Client "Exter" connected.
[18:49:51] JellyJiggler: ooh
[18:50:39] JellyJiggler: omg
[18:50:44] JellyJiggler: the cockblock is real
[18:50:51] Flameyoyo^-^: oops
[18:50:59] JellyJiggler: i hit the iron bar on the bottom of the portal with my toe
[18:51:05] JellyJiggler: :(
[18:51:41] Flameyoyo^-^: omg
[18:51:49] JellyJiggler: ?
[18:51:52] Flameyoyo^-^: i just went over the portal
[18:52:03] Client "Exter" connected.
[18:52:11] JellyJiggler: haha had that to
[18:53:28] Client "ДратутИ)" connected.
[18:55:34] JellyJiggler: omfg
[18:55:39] JellyJiggler: i did a perfect run
[18:55:50] JellyJiggler: got to the portal in 55s 
[18:55:57] Flameyoyo^-^: nice
[18:55:59] JellyJiggler: hit my head against the part above it
[18:56:02] JellyJiggler: :(
[18:56:08] Flameyoyo^-^: XD
[18:57:08] Flameyoyo^-^: omfg
[18:57:21] Flameyoyo^-^: i just through the portal in 35s
[18:57:28] Flameyoyo^-^: :0
[18:57:31] JellyJiggler: :O
[18:57:34] JellyJiggler: wow i ment 45
[18:57:36] JellyJiggler: not 55
[18:57:38] JellyJiggler: XD
[18:57:43] JellyJiggler: 55 is kinda slow
[18:57:49] Flameyoyo^-^: yeah
[18:58:41] JellyJiggler: again 
[18:58:43] JellyJiggler: fk odd
[18:58:45] JellyJiggler: off
[18:58:48] JellyJiggler: headhitter
[18:58:56] JellyJiggler: which map?
[18:59:01] Flameyoyo^-^: idk
[18:59:08] JellyJiggler: i dont know this one
[18:59:12] Server is shutting down/changing levels.



[18:59:19] New map: surf_aether
[18:59:33] Client "Flameyoyo^-^" spawned in server <STEAM_0:0:182729569> (took 16 seconds).
[18:59:33] Client "Bot258" connected.
[18:59:33] Client "Bot258" spawned in server <BOT> (took 16 seconds).
[18:59:35] Client "Bot259" connected.
[18:59:35] Client "Bot259" spawned in server <BOT> (took 18 seconds).
[18:59:50] Client "SpartA" spawned in server <STEAM_0:0:46445867> (took 33 seconds).
[19:00:01] Client "JellyJiggler" spawned in server <STEAM_0:1:107764156> (took 44 seconds).
[19:00:10] SpartA: !rtv
[19:00:14] Flameyoyo^-^: ik this map
[19:00:19] JellyJiggler: i dont this map
[19:00:21] JellyJiggler: show me
[19:00:24] JellyJiggler: pls
[19:00:38] JellyJiggler: yeah go :)
[19:00:40] Flameyoyo^-^: i didn't finish it but i played it before
[19:00:58] JellyJiggler: wow
[19:01:01] JellyJiggler: that turn is hard
[19:01:07] JellyJiggler: !r
[19:01:09] Flameyoyo^-^: yeah
[19:02:23] JellyJiggler: !r
[19:02:40] JellyJiggler: !r
[19:02:48] Client "chrisy88" connected.
[19:03:08] JellyJiggler: !r
[19:04:09] SpartA: !r
[19:04:14] Flameyoyo^-^: omg that turn is hard
[19:04:18] JellyJiggler: what a sh1te map
[19:04:42] JellyJiggler: pls skip this song 
[19:05:37] JellyJiggler: did u even make it past this turn
[19:05:43] JellyJiggler: !rtv
[19:05:45] Flameyoyo^-^: no
[19:05:50] Flameyoyo^-^: !rtv
[19:05:52] Client "chrisy88" spawned in server <STEAM_0:0:98116169> (took 184 seconds).
[19:06:26] Server is shutting down/changing levels.



[19:06:34] New map: surf_mesa_aether
[19:06:48] Client "SpartA" spawned in server <STEAM_0:0:46445867> (took 15 seconds).
[19:06:48] Client "Bot260" connected.
[19:06:48] Client "Bot260" spawned in server <BOT> (took 15 seconds).
[19:06:50] Client "Bot261" connected.
[19:06:50] Client "Bot261" spawned in server <BOT> (took 17 seconds).
[19:06:50] Client "JellyJiggler" spawned in server <STEAM_0:1:107764156> (took 17 seconds).
[19:06:50] Client "Flameyoyo^-^" spawned in server <STEAM_0:0:182729569> (took 17 seconds).
[19:07:20] JellyJiggler: ooh this map
[19:07:24] JellyJiggler: always hard to finish
[19:07:55] JellyJiggler: omg
[19:08:06] JellyJiggler: just finish the first and when u fall down look at where i am
[19:08:29] Flameyoyo^-^: wow
[19:08:39] JellyJiggler: fun :D
[19:08:40] JellyJiggler: !r
[19:08:45] SpartA: !r
[19:10:19] SpartA: !r
[19:10:46] Client "chrisy88" spawned in server <STEAM_0:0:98116169> (took 253 seconds).
[19:10:56] JellyJiggler: another knight
[19:10:58] JellyJiggler: :D
[19:11:11] Flameyoyo^-^: !r
[19:11:15] JellyJiggler: sparta can u show me how u do this?
[19:12:13] SpartA: !r
[19:13:37] SpartA: !r
[19:14:07] SpartA: !r
[19:14:22] SpartA: !r
[19:14:27] JellyJiggler: !r
[19:16:18] JellyJiggler: how do u get a better rank?
[19:16:24] Flameyoyo^-^: idk
[19:16:30] JellyJiggler: finish courses?
[19:16:53] Flameyoyo^-^: !tutorial
[19:17:47] Flameyoyo^-^: !rtv
[19:19:10] JellyJiggler: !rtv
[19:20:18] JellyJiggler: pls rtv
[19:22:31] Flameyoyo^-^: can anyone do !rtv pls
[19:22:36] JellyJiggler: yes pls
[19:22:53] JellyJiggler: pls crishy
[19:22:57] JellyJiggler: chrisy
[19:23:13] Dropped "chrisy88" from server<STEAM_0:0:98116169>
[19:23:49] Server is shutting down/changing levels.



[19:23:58] New map: surf_reprise_fix
[19:24:09] Client "FearedRogue" connected.
[19:24:23] Client "SpartA" spawned in server <STEAM_0:0:46445867> (took 26 seconds).
[19:24:23] Client "Bot262" connected.
[19:24:23] Client "Bot262" spawned in server <BOT> (took 26 seconds).
[19:24:25] Client "Bot263" connected.
[19:24:25] Client "Bot263" spawned in server <BOT> (took 28 seconds).
[19:24:49] Client "JellyJiggler" spawned in server <STEAM_0:1:107764156> (took 52 seconds).
[19:25:19] Client "FearedRogue" spawned in server <STEAM_0:1:94711027> (took 70 seconds).
[19:25:22] Client "Flameyoyo^-^" spawned in server <STEAM_0:0:182729569> (took 85 seconds).
[19:25:51] SpartA: !r
[19:27:25] Dropped "FearedRogue" from server<STEAM_0:1:94711027>
[19:28:06] JellyJiggler: hey flameyo
[19:28:09] JellyJiggler: !r
[19:30:12] Flameyoyo^-^: well idk this map
[19:31:08] JellyJiggler: jezus is their a noob stage??
[19:31:18] JellyJiggler: one that i can finish :D
[19:31:21] Client "Neskyis" connected.
[19:31:46] JellyJiggler: i go play a different mode
[19:31:52] JellyJiggler: cya guys :D
[19:32:27] Client "EagleMacDeagle" connected.
[19:32:38] Client "EagleMacDeagle" spawned in server <STEAM_0:1:194960052> (took 11 seconds).
[19:33:30] Client "Neskyis" spawned in server <STEAM_0:1:94423993> (took 129 seconds).
[19:35:25] Dropped "JellyJiggler" from server<STEAM_0:1:107764156>
[19:37:40] Client "∂υ¢к" connected.
[19:38:23] Client "∂υ¢к" spawned in server <STEAM_0:1:92708123> (took 43 seconds).
[19:43:04] ∂υ¢к: !rtv
[19:43:09] Flameyoyo^-^: !rtv
[19:43:53] EagleMacDeagle: Fucking lag
[19:46:38] ∂υ¢к: so do you keep models and knifes when you buy them?
[19:46:51] EagleMacDeagle: ye
[19:47:47] EagleMacDeagle: ill try to first person this shit
[19:48:41] Dropped "EagleMacDeagle" from server<STEAM_0:1:194960052>
[19:48:58] Dropped "SpartA" from server<STEAM_0:0:46445867>
[19:49:02] ∂υ¢к: Death to the french
[19:49:04] ∂υ¢к: craptastic
[19:49:05] Client "SpartA" connected.
[19:49:05] ∂υ¢к: craptastic
[19:49:14] Client "SpartA" spawned in server <STEAM_0:0:46445867> (took 9 seconds).
[19:49:15] ∂υ¢к: my old shitty binds
[19:49:34] Server is shutting down/changing levels.



[19:49:41] New map: surf_mesa
[19:50:01] Client "∂υ¢к" spawned in server <STEAM_0:1:92708123> (took 21 seconds).
[19:50:01] Client "Bot264" connected.
[19:50:01] Client "Bot264" spawned in server <BOT> (took 21 seconds).
[19:50:03] Client "Bot265" connected.
[19:50:03] Client "Bot265" spawned in server <BOT> (took 23 seconds).
[19:50:08] Client "SpartA" spawned in server <STEAM_0:0:46445867> (took 28 seconds).
[19:50:39] ∂υ¢к: !r
[19:50:41] Client "Flameyoyo^-^" spawned in server <STEAM_0:0:182729569> (took 61 seconds).
[19:51:27] SpartA: !b
[19:52:57] Client "Neskyis" spawned in server <STEAM_0:1:94423993> (took 197 seconds).
[19:56:01] Neskyis: Who can give me pints
[19:58:53] Neskyis: Who can give me points????
[20:02:31] Neskyis: Who can give me points????
[20:03:09] Client "amelcia84" connected.
[20:03:55] Client "Alibaba SkinUp.gg" connected.
[20:04:46] Client "amelcia84" spawned in server <STEAM_0:1:191682236> (took 97 seconds).
[20:05:36] ∂υ¢к: ill alaways remeber the room
[20:08:21] Neskyis: omg.. my apple have a pennis
[20:09:40] Client "Samurai Worf" connected.
[20:10:18] Client "Samurai Worf" spawned in server <STEAM_0:0:86904184> (took 38 seconds).
[20:10:43] Dropped "Samurai Worf" from server<STEAM_0:0:86904184>
[20:11:18] Dropped "SpartA" from server<STEAM_0:0:46445867>
[20:14:41] Dropped "Neskyis" from server<STEAM_0:1:94423993>
[20:14:41] Dropped "∂υ¢к" from server<STEAM_0:1:92708123>
[20:16:10] Client "SuPeRMaRiO" connected.
[20:18:35] Client "SuPeRMaRiO" spawned in server <STEAM_0:0:129789286> (took 145 seconds).
[20:18:54] Client "Neskyis" connected.
[20:19:11] Client "Neskyis" spawned in server <STEAM_0:1:94423993> (took 17 seconds).
[20:19:43] Dropped "amelcia84" from server<STEAM_0:1:191682236>
[20:20:17] Server is shutting down/changing levels.



[20:20:25] New map: surf_simpsons_source
[20:21:25] Client "SuPeRMaRiO" spawned in server <STEAM_0:0:129789286> (took 62 seconds).
[20:21:25] Client "Bot266" connected.
[20:21:25] Client "Bot266" spawned in server <BOT> (took 62 seconds).
[20:21:27] Client "Bot267" connected.
[20:21:27] Client "Bot267" spawned in server <BOT> (took 64 seconds).
[20:22:53] Client "Neskyis" spawned in server <STEAM_0:1:94423993> (took 150 seconds).
[20:23:19] Client "Flameyoyo^-^" spawned in server <STEAM_0:0:182729569> (took 176 seconds).
[20:29:32] Neskyis: omg my internet
[20:29:36] Client "Jimmy" connected.
[20:29:45] Flameyoyo^-^: !rtv
[20:30:18] Flameyoyo^-^: !r
[20:31:44] Neskyis: fffuck
[20:32:06] Client "Jimmy" spawned in server <STEAM_0:1:119470421> (took 150 seconds).
[20:32:12] Flameyoyo^-^: just do rtv pls
[20:32:24] SuPeRMaRiO: rtv
[20:32:27] SuPeRMaRiO: /rtv
[20:34:07] Dropped "Flameyoyo^-^" from server<STEAM_0:0:182729569>
[20:34:57] Neskyis: omgggggggggg 
[20:34:58] Neskyis: eeeeeee
[20:36:11] SuPeRMaRiO: rtv
[20:36:21] Jimmy: !rtv
[20:36:57] Server is shutting down/changing levels.



[20:37:04] New map: surf_inspire
[20:37:41] Client "SuPeRMaRiO" spawned in server <STEAM_0:0:129789286> (took 39 seconds).
[20:37:41] Client "Bot268" connected.
[20:37:41] Client "Bot268" spawned in server <BOT> (took 39 seconds).
[20:37:43] Client "Bot269" connected.
[20:37:43] Client "Bot269" spawned in server <BOT> (took 41 seconds).
[20:37:49] Client "Neskyis" spawned in server <STEAM_0:1:94423993> (took 47 seconds).
[20:37:54] Client "Jimmy" spawned in server <STEAM_0:1:119470421> (took 52 seconds).
[20:42:11] Client "LuckyFank" connected.
[20:42:41] Jimmy: !jv
[20:43:08] Client "LuckyFank" spawned in server <STEAM_0:0:114166997> (took 57 seconds).
[20:43:56] Client "Mumble no.5" connected.
[20:44:53] Dropped "SuPeRMaRiO" from server<STEAM_0:0:129789286>
[20:45:31] Client "Mumble no.5" spawned in server <STEAM_0:0:57314209> (took 95 seconds).
[20:46:54] Jimmy: !jv
[20:47:09] Client "XxHackerxX" connected.
[20:47:13] Jimmy: can an admin accept my song request please
[20:47:26] LuckyFank: !tutorial
[20:47:38] Dropped "Mumble no.5" from server<STEAM_0:0:57314209>
[20:48:30] Client "XxHackerxX" spawned in server <STEAM_0:0:45939042> (took 81 seconds).
[20:50:08] XxHackerxX: !kinfe
[20:50:38] Dropped "XxHackerxX" from server<STEAM_0:0:45939042>
[20:51:20] (TEAM) LuckyFank: !rtv
[20:51:26] Jimmy: !rtv
[20:51:44] Client "∂υ¢к" connected.
[20:52:02] Server is shutting down/changing levels.



[20:52:09] New map: surf_rookie
[20:52:26] Client "LuckyFank" spawned in server <STEAM_0:0:114166997> (took 18 seconds).
[20:52:27] Client "Bot270" connected.
[20:52:27] Client "Bot270" spawned in server <BOT> (took 19 seconds).
[20:52:29] Client "Bot271" connected.
[20:52:29] Client "Bot271" spawned in server <BOT> (took 21 seconds).
[20:52:52] Client "∂υ¢к" spawned in server <STEAM_0:1:92708123> (took 44 seconds).
[20:53:07] Client "Neskyis" spawned in server <STEAM_0:1:94423993> (took 59 seconds).
[20:54:57] Client "[K3M] Potalex" connected.
[20:58:57] ∂υ¢к: !rtv
[21:03:47] Dropped "LuckyFank" from server<STEAM_0:0:114166997>
[21:03:53] Dropped "∂υ¢к" from server<STEAM_0:1:92708123>
[21:06:01] Neskyis: !ои
[21:08:52] Neskyis: !menu
[21:19:17] Dropped "Neskyis" from server<STEAM_0:1:94423993>
[21:19:17] Dropped "Bot270" from server<BOT>
[21:19:17] Dropped "Bot271" from server<BOT>
[21:22:45] Server is shutting down/changing levels.



[21:22:52] New map: surf_rebel_scaz
[21:25:58] Client "Dark" connected.
[21:49:53] Client "[N-G] Leprechaun" connected.
[21:50:27] Client "[N-G] Leprechaun" spawned in server <STEAM_0:0:55126906> (took 34 seconds).
[21:50:27] Client "Bot272" connected.
[21:50:27] Client "Bot272" spawned in server <BOT> (took 1656 seconds).
[21:50:29] Client "Bot273" connected.
[21:50:29] Client "Bot273" spawned in server <BOT> (took 1658 seconds).
[22:04:46] Client "Jasmine" connected.
[22:09:00] Server is shutting down/changing levels.



[22:09:07] New map: surf_kitsune
[22:10:31] Client "Div" connected.
[22:11:10] Client "Jasmine" spawned in server <STEAM_0:0:50744538> (took 125 seconds).
[22:11:10] Client "Bot274" connected.
[22:11:10] Client "Bot274" spawned in server <BOT> (took 125 seconds).
[22:11:12] Client "Bot275" connected.
[22:11:12] Client "Bot275" spawned in server <BOT> (took 127 seconds).
[22:11:27] Client "Div" spawned in server <STEAM_0:0:60034860> (took 56 seconds).
[22:11:56] Div: !r
[22:12:25] Div: !r
[22:12:27] Div: !r
[22:12:30] Div: !r
[22:12:44] Div: !r
[22:12:47] Div: !r
[22:12:54] Div: !r
[22:13:08] Div: !r
[22:13:20] Div: !r
[22:13:31] Div: !r
[22:13:47] Div: !r
[22:13:54] Div: !r
[22:14:47] Client "Erhime" connected.
[22:15:48] Client "flowbee" connected.
[22:16:03] Client "Erhime" spawned in server <STEAM_0:1:117676977> (took 76 seconds).
[22:16:28] Client "Gaben" connected.
[22:16:58] Client "Gaben" spawned in server <STEAM_0:1:54980251> (took 30 seconds).
[22:18:11] Div: !r
[22:18:12] Div: !r
[22:18:16] Div: !r
[22:18:39] Div: !r
[22:19:40] Erhime: !r
[22:19:58] Div: !r
[22:20:06] Erhime: !r
[22:21:02] Div: !r
[22:21:18] Div: !r
[22:22:28] Client "∂υ¢к" connected.
[22:22:51] Client "∂υ¢к" spawned in server <STEAM_0:1:92708123> (took 23 seconds).
[22:23:13] ∂υ¢к: !r
[22:23:30] ∂υ¢к: !r
[22:23:31] ∂υ¢к: !r
[22:23:32] ∂υ¢к: !r
[22:23:32] ∂υ¢к: !r
[22:24:26] ∂υ¢к: !r
[22:25:00] ∂υ¢к: !r
[22:25:08] Div: !r
[22:25:14] Div: !rtv
[22:25:20] ∂υ¢к: !rtv
[22:25:31] ∂υ¢к: !r
[22:25:47] ∂υ¢к: !r
[22:27:34] Dropped "Gaben" from server<STEAM_0:1:54980251>
[22:30:05] Dropped "∂υ¢к" from server<STEAM_0:1:92708123>
[22:30:57] Dropped "Jasmine" from server<STEAM_0:0:50744538>
[22:34:23] Div: !r
[22:34:28] Div: someome !rtv
[22:34:33] Div: !rtv
[22:34:40] Div: !r
[22:34:41] Dropped "Erhime" from server<STEAM_0:1:117676977>
[22:35:10] Div: ty
[22:35:17] Server is shutting down/changing levels.



[22:35:24] New map: surf_rebel_scaz
[22:36:28] Client "Div" spawned in server <STEAM_0:0:60034860> (took 65 seconds).
[22:36:28] Client "Bot276" connected.
[22:36:28] Client "Bot276" spawned in server <BOT> (took 65 seconds).
[22:36:30] Client "Bot277" connected.
[22:36:30] Client "Bot277" spawned in server <BOT> (took 67 seconds).
[22:36:47] Div: !r
[22:36:53] Div: !r
[22:37:01] Div: !r
[22:37:07] Div: !r
[22:38:39] Div: !r
[22:40:15] Div: !rtv
[22:41:25] Div: !r
[22:42:05] Div: !r
[22:42:54] Div: !r
[22:43:18] Div: !r
[22:44:12] Div: !r
[22:44:19] Div: !r
[22:44:45] Div: !r
[22:45:09] Div: !r
[22:45:15] Div: !r
[22:45:21] Div: !r
[22:45:53] Div: !r
[22:45:59] Div: !r
[22:46:07] Div: !r
[22:46:29] Div: !r
[22:46:39] Div: !r
[22:47:06] Div: !rtc
[22:47:10] Div: !rtv
[22:47:46] Server is shutting down/changing levels.



[22:47:53] New map: surf_kitsune
[22:48:16] Client "Div" spawned in server <STEAM_0:0:60034860> (took 24 seconds).
[22:48:16] Client "Bot278" connected.
[22:48:16] Client "Bot278" spawned in server <BOT> (took 24 seconds).
[22:48:18] Client "Bot279" connected.
[22:48:18] Client "Bot279" spawned in server <BOT> (took 26 seconds).
[22:48:30] Div: !rtv
[22:53:17] Div: !rtv
[22:53:53] Server is shutting down/changing levels.



[22:54:00] New map: surf_funhouse_v1
[22:54:29] Client "Div" spawned in server <STEAM_0:0:60034860> (took 30 seconds).
[22:54:29] Client "Bot280" connected.
[22:54:29] Client "Bot280" spawned in server <BOT> (took 30 seconds).
[22:54:31] Client "Bot281" connected.
[22:54:31] Client "Bot281" spawned in server <BOT> (took 32 seconds).
[22:55:03] Div: !r
[22:56:41] Dropped "Div" from server<STEAM_0:0:60034860>
[22:56:41] Dropped "Bot280" from server<BOT>
[22:56:41] Dropped "Bot281" from server<BOT>
[23:24:36] Server is shutting down/changing levels.



[23:24:43] New map: surf_reprise_fix
[23:32:51] Client "∂υ¢к" connected.
[23:33:18] Client "∂υ¢к" spawned in server <STEAM_0:1:92708123> (took 27 seconds).
[23:33:18] Client "Bot282" connected.
[23:33:18] Client "Bot282" spawned in server <BOT> (took 516 seconds).
[23:33:20] Client "Bot283" connected.
[23:33:20] Client "Bot283" spawned in server <BOT> (took 518 seconds).
[23:33:52] ∂υ¢к: !rtv
[23:34:00] ∂υ¢к: Death to the french
[23:34:28] Server is shutting down/changing levels.



[23:34:35] New map: surf_mesa
[23:34:52] Client "∂υ¢к" spawned in server <STEAM_0:1:92708123> (took 18 seconds).
[23:34:52] Client "Bot284" connected.
[23:34:52] Client "Bot284" spawned in server <BOT> (took 18 seconds).
[23:34:54] Client "Bot285" connected.
[23:34:54] Client "Bot285" spawned in server <BOT> (took 20 seconds).
[23:37:45] ∂υ¢к: !r
[23:37:59] ∂υ¢к: !r
[23:38:13] ∂υ¢к: !r
[23:41:07] ∂υ¢к: !r
[23:44:07] ∂υ¢к: !r
[23:46:50] ∂υ¢к: !r
[23:47:25] Dropped "∂υ¢к" from server<STEAM_0:1:92708123>
[23:47:25] Dropped "Bot284" from server<BOT>
[23:47:25] Dropped "Bot285" from server<BOT>
[23:49:13] Client "Logan" connected.
[23:50:43] Client "Logan" connected.
<Logging continued in "data/ulx_logs/05-03-17.txt">
