<Logging continued from "data/ulx_logs/05-11-17.txt">
[00:10:41] Server is shutting down/changing levels.



[00:10:48] New map: surf_inspire
[00:41:23] Server is shutting down/changing levels.



[00:41:30] New map: surf_classics2
[01:12:06] Server is shutting down/changing levels.



[01:12:12] New map: surf_happyhands
[01:42:48] Server is shutting down/changing levels.



[01:42:54] New map: surf_simpsons_source
[01:49:33] Client "=(e)= Antonomous" connected.
[01:51:33] Client "=(e)= Antonomous" spawned in server <STEAM_0:0:161400071> (took 120 seconds).
[01:51:33] Client "Bot359" connected.
[01:51:33] Client "Bot359" spawned in server <BOT> (took 520 seconds).
[01:51:35] Client "Bot360" connected.
[01:51:35] Client "Bot360" spawned in server <BOT> (took 522 seconds).
[01:52:13] Dropped "=(e)= Antonomous" from server<STEAM_0:0:161400071>
[01:52:13] Dropped "Bot359" from server<BOT>
[01:52:13] Dropped "Bot360" from server<BOT>
[02:13:31] Server is shutting down/changing levels.



[02:13:37] New map: surf_dusk
[02:44:13] Server is shutting down/changing levels.



[02:44:19] New map: surf_mesa
[03:14:55] Server is shutting down/changing levels.



[03:15:01] New map: surf_aether
[03:25:54] Client "Xx-I suck-xX" connected.
[03:45:37] Server is shutting down/changing levels.



[03:45:43] New map: surf_island
[04:16:19] Server is shutting down/changing levels.



[04:16:25] New map: surf_waterworks
[04:47:01] Server is shutting down/changing levels.



[04:47:07] New map: surf_sluice_final
[04:53:17] Client "∂υ¢к" connected.
[04:54:36] Client "∂υ¢к" spawned in server <STEAM_0:1:92708123> (took 79 seconds).
[04:54:36] Client "Bot361" connected.
[04:54:36] Client "Bot361" spawned in server <BOT> (took 450 seconds).
[04:54:38] Client "Bot362" connected.
[04:54:38] Client "Bot362" spawned in server <BOT> (took 452 seconds).
[04:56:34] ∂υ¢к: !rtv
[04:56:45] ∂υ¢к: These fucking cockatoo's man
[04:57:11] Server is shutting down/changing levels.



[04:57:17] New map: surf_beginner_hell
[04:58:01] Client "∂υ¢к" spawned in server <STEAM_0:1:92708123> (took 45 seconds).
[04:58:01] Client "Bot363" connected.
[04:58:01] Client "Bot363" spawned in server <BOT> (took 45 seconds).
[04:58:03] Client "Bot364" connected.
[04:58:03] Client "Bot364" spawned in server <BOT> (took 47 seconds).
[04:59:23] Dropped "∂υ¢к" from server<STEAM_0:1:92708123>
[04:59:23] Dropped "Bot363" from server<BOT>
[04:59:23] Dropped "Bot364" from server<BOT>
[05:27:53] Server is shutting down/changing levels.



[05:27:59] New map: surf_beginner
[05:58:35] Server is shutting down/changing levels.



[05:58:42] New map: surf_island
[06:29:17] Server is shutting down/changing levels.



[06:29:23] New map: surf_placid
[06:59:59] Server is shutting down/changing levels.



[07:00:05] New map: surf_beginner
[07:30:40] Server is shutting down/changing levels.



[07:30:47] New map: surf_inspire
[08:01:22] Server is shutting down/changing levels.



[08:01:28] New map: surf_prelude_ksf
[08:32:04] Server is shutting down/changing levels.



[08:32:10] New map: surf_lighthouse
[09:02:46] Server is shutting down/changing levels.



[09:02:52] New map: surf_pox
[09:07:29] Client "{N-G} JJ" connected.
[09:11:11] Client "{N-G} JJ" spawned in server <STEAM_0:1:125393234> (took 222 seconds).
[09:11:11] Client "Bot365" connected.
[09:11:11] Client "Bot365" spawned in server <BOT> (took 500 seconds).
[09:11:13] Client "Bot366" connected.
[09:11:13] Client "Bot366" spawned in server <BOT> (took 502 seconds).
[09:14:50] {N-G} JJ: !unbox
[09:15:01] {N-G} JJ: !unbox
[09:23:14] {N-G} JJ: !rtv
[09:23:50] Server is shutting down/changing levels.



[09:23:56] New map: surf_simpsons_source
[09:26:49] Client "{N-G} JJ" spawned in server <STEAM_0:1:125393234> (took 174 seconds).
[09:26:49] Client "Bot367" connected.
[09:26:49] Client "Bot367" spawned in server <BOT> (took 174 seconds).
[09:26:51] Client "Bot368" connected.
[09:26:51] Client "Bot368" spawned in server <BOT> (took 176 seconds).
[09:32:28] Client "AndrewGem" connected.
[09:33:43] Client "AndrewGem" spawned in server <STEAM_0:0:150063951> (took 75 seconds).
[09:35:35] Dropped "AndrewGem" from server<STEAM_0:0:150063951>
[09:43:04] {N-G} JJ: !rtv
[09:43:40] Server is shutting down/changing levels.



[09:43:46] New map: surf_pox
[09:46:41] Client "{N-G} JJ" spawned in server <STEAM_0:1:125393234> (took 176 seconds).
[09:46:41] Client "Bot369" connected.
[09:46:41] Client "Bot369" spawned in server <BOT> (took 176 seconds).
[09:46:43] Client "Bot370" connected.
[09:46:43] Client "Bot370" spawned in server <BOT> (took 178 seconds).
[09:47:45] Dropped "{N-G} JJ" from server<STEAM_0:1:125393234>
[09:47:45] Dropped "Bot369" from server<BOT>
[09:47:45] Dropped "Bot370" from server<BOT>
[09:52:19] Client "StealthIdiotPL ™" connected.
[09:53:07] Client "StealthIdiotPL ™" spawned in server <STEAM_0:1:99206575> (took 48 seconds).
[09:53:07] Client "Bot371" connected.
[09:53:07] Client "Bot371" spawned in server <BOT> (took 562 seconds).
[09:53:09] Client "Bot372" connected.
[09:53:09] Client "Bot372" spawned in server <BOT> (took 564 seconds).
[09:54:20] Client "kAin csgolive.com" connected.
[09:56:34] Client "kAin csgolive.com" spawned in server <STEAM_0:0:105501943> (took 134 seconds).
[09:57:13] kAin csgolive.com: !knife
[09:57:32] Dropped "StealthIdiotPL ™" from server<STEAM_0:1:99206575>
[10:00:09] Dropped "kAin csgolive.com" from server<STEAM_0:0:105501943>
[10:00:09] Dropped "Bot371" from server<BOT>
[10:00:09] Dropped "Bot372" from server<BOT>
[10:14:23] Server is shutting down/changing levels.



[10:14:30] New map: surf_milkyway
[10:45:05] Server is shutting down/changing levels.



[10:45:12] New map: surf_dusk
[11:01:29] Client "Nut"я" connected.
[11:01:46] Client "Nut"я" spawned in server <STEAM_0:1:78849836> (took 17 seconds).
[11:01:46] Client "Bot373" connected.
[11:01:46] Client "Bot373" spawned in server <BOT> (took 995 seconds).
[11:01:48] Client "Bot374" connected.
[11:01:48] Client "Bot374" spawned in server <BOT> (took 997 seconds).
[11:03:07] Dropped "Nut"я" from server<STEAM_0:1:78849836>
[11:03:07] Dropped "Bot373" from server<BOT>
[11:03:07] Dropped "Bot374" from server<BOT>
[11:15:47] Server is shutting down/changing levels.



[11:15:54] New map: surf_milkyway
[11:46:29] Server is shutting down/changing levels.



[11:46:35] New map: surf_beginner_hell
[12:17:11] Server is shutting down/changing levels.



[12:17:17] New map: surf_waterworks
[12:47:53] Server is shutting down/changing levels.



[12:47:59] New map: surf_wood
[13:06:55] Client "Nuxel Sadew" connected.
[13:12:08] Client "Nuxel Sadew" connected.
[13:12:45] Client "Nuxel Sadew" spawned in server <STEAM_0:0:93477927> (took 37 seconds).
[13:12:45] Client "Bot375" connected.
[13:12:45] Client "Bot375" spawned in server <BOT> (took 1487 seconds).
[13:12:47] Client "Bot376" connected.
[13:12:47] Client "Bot376" spawned in server <BOT> (took 1489 seconds).
[13:16:07] Nuxel Sadew: !maps
[13:16:19] Nuxel Sadew: !rtv
[13:16:55] Server is shutting down/changing levels.



[13:17:02] New map: surf_classics
[13:17:21] Client "Nuxel Sadew" spawned in server <STEAM_0:0:93477927> (took 20 seconds).
[13:17:21] Client "Bot377" connected.
[13:17:21] Client "Bot377" spawned in server <BOT> (took 20 seconds).
[13:17:23] Client "Bot378" connected.
[13:17:23] Client "Bot378" spawned in server <BOT> (took 22 seconds).
[13:33:20] Client "nathan champ" connected.
[13:37:33] Client "Samurai Worf" connected.
[13:38:25] Client "Samurai Worf" spawned in server <STEAM_0:0:86904184> (took 52 seconds).
[13:38:42] Samurai Worf: !rtv
[13:39:38] Samurai Worf: !r
[13:39:47] Dropped "Samurai Worf" from server<STEAM_0:0:86904184>
[13:41:05] Client "nathan champ" spawned in server <STEAM_0:0:165296836> (took 465 seconds).
[13:47:11] Nuxel Sadew: 6 ples
[13:47:15] Nuxel Sadew: 6
[13:47:18] Nuxel Sadew: 6
[13:47:19] Nuxel Sadew: 6
[13:47:24] Nuxel Sadew: :D
[13:50:24] Client "Dam" connected.
[14:03:09] Server is shutting down/changing levels.



[14:03:16] New map: surf_mesa_mine
[14:03:30] Client "Nuxel Sadew" spawned in server <STEAM_0:0:93477927> (took 15 seconds).
[14:03:30] Client "Bot379" connected.
[14:03:30] Client "Bot379" spawned in server <BOT> (took 15 seconds).
[14:03:32] Client "Bot380" connected.
[14:03:32] Client "Bot380" spawned in server <BOT> (took 17 seconds).
[14:04:18] Nuxel Sadew: !maps
[14:05:21] Nuxel Sadew: !rtv
[14:06:11] Client "nathan champ" spawned in server <STEAM_0:0:165296836> (took 176 seconds).
[14:11:33] Nuxel Sadew: !rtv
[14:11:42] Nuxel Sadew:  !rtv
[14:12:54] Dropped "nathan champ" from server<STEAM_0:0:165296836>
[14:13:14] Dropped "Nuxel Sadew" from server<STEAM_0:0:93477927>
[14:13:14] Dropped "Bot379" from server<BOT>
[14:13:14] Dropped "Bot380" from server<BOT>
[14:13:30] Server is shutting down/changing levels.



[14:13:37] New map: surf_classics2
[14:16:38] Client "Cosmic" connected.
[14:17:24] Client "Cosmic" spawned in server <STEAM_0:1:168631107> (took 46 seconds).
[14:17:24] Client "Bot381" connected.
[14:17:24] Client "Bot381" spawned in server <BOT> (took 228 seconds).
[14:17:26] Client "Bot382" connected.
[14:17:26] Client "Bot382" spawned in server <BOT> (took 230 seconds).
[14:17:29] Client "[TW]eric159568" connected.
[14:17:40] Cosmic: !rtv
[14:17:58] Cosmic: !rtv
[14:18:24] Client "[TW]eric159568" spawned in server <STEAM_0:0:92961274> (took 55 seconds).
[14:18:27] Cosmic: !rtv
[14:18:42] Cosmic: !rtv
[14:18:46] Cosmic: !r
[14:21:16] Dropped "[TW]eric159568" from server<STEAM_0:0:92961274>
[14:21:52] Server is shutting down/changing levels.



[14:21:59] New map: surf_utopia_njv
[14:22:10] Client "Cosmic" spawned in server <STEAM_0:1:168631107> (took 13 seconds).
[14:22:10] Client "Bot383" connected.
[14:22:10] Client "Bot383" spawned in server <BOT> (took 13 seconds).
[14:22:12] Client "Bot384" connected.
[14:22:12] Client "Bot384" spawned in server <BOT> (took 15 seconds).
[14:30:25] Cosmic: !r
[14:31:18] Cosmic: !r
[14:32:06] Cosmic: !r
[14:32:33] Cosmic: !r
[14:36:44] Cosmic: !r
[14:40:52] Cosmic: !r
[14:42:09] Cosmic: !r
[14:42:17] Dropped "Cosmic" from server<STEAM_0:1:168631107>
[14:42:17] Dropped "Bot383" from server<BOT>
[14:42:17] Dropped "Bot384" from server<BOT>
[14:52:35] Server is shutting down/changing levels.



[14:52:41] New map: surf_waterworks
[15:21:53] Client "GlitchedSlayer" connected.
[15:23:17] Server is shutting down/changing levels.



[15:23:23] New map: surf_mesa_mine
[15:27:21] Client "GlitchedSlayer" spawned in server <STEAM_0:1:65691332> (took 239 seconds).
[15:27:21] Client "Bot385" connected.
[15:27:21] Client "Bot385" spawned in server <BOT> (took 239 seconds).
[15:27:23] Client "Bot386" connected.
[15:27:23] Client "Bot386" spawned in server <BOT> (took 241 seconds).
[15:28:24] Client "reptail" connected.
[15:32:44] Client "[N-G] Lil' Massif" connected.
[15:33:25] Dropped "GlitchedSlayer" from server<STEAM_0:1:65691332>
[15:33:59] Client "[N-G] Lil' Massif" spawned in server <STEAM_0:1:74663039> (took 75 seconds).
[15:34:20] Client "reptail" spawned in server <STEAM_0:1:147239657> (took 356 seconds).
[15:35:49] [N-G] Lil' Massif: !nominate surf_pox
[15:36:58] [N-G] Lil' Massif: !r
[15:37:17] [N-G] Lil' Massif: !r
[15:37:20] [N-G] Lil' Massif: !rtv
[15:38:09] [N-G] Lil' Massif: !r
[15:38:46] [N-G] Lil' Massif: !r
[15:39:24] [N-G] Lil' Massif: !r
[15:39:51] [N-G] Lil' Massif: !r
[15:40:56] [N-G] Lil' Massif: !r
[15:41:10] [N-G] Lil' Massif: !r
[15:41:19] [N-G] Lil' Massif: !r
[15:41:23] [N-G] Lil' Massif: !r
[15:41:31] [N-G] Lil' Massif: !r
[15:41:39] [N-G] Lil' Massif: !r
[15:42:30] [N-G] Lil' Massif: !r
[15:42:42] (TEAM) [N-G] Lil' Massif: type !rtv if you want to change the map
[15:43:03] [N-G] Lil' Massif: !r
[15:43:09] [N-G] Lil' Massif: !r
[15:46:17] [N-G] Lil' Massif: !r
[15:46:45] [N-G] Lil' Massif: !r
[15:47:08] [N-G] Lil' Massif: !r
[15:48:48] [N-G] Lil' Massif: !r
[15:49:18] [N-G] Lil' Massif: !r
[15:51:55] [N-G] Lil' Massif: !r
[15:52:19] [N-G] Lil' Massif: !r
[15:52:33] [N-G] Lil' Massif: !r
[15:52:42] Dropped "reptail" from server<STEAM_0:1:147239657>
[15:53:50] [N-G] Lil' Massif: !nominate
[15:54:12] [N-G] Lil' Massif voted for surf_lux (1/3)
[15:54:17] [N-G] Lil' Massif changed the map to surf_lux
[15:54:17] Server is shutting down/changing levels.



[15:54:24] New map: surf_lux
[15:54:44] Client "[N-G] Lil' Massif" spawned in server <STEAM_0:1:74663039> (took 21 seconds).
[15:54:44] Client "Bot387" connected.
[15:54:44] Client "Bot387" spawned in server <BOT> (took 21 seconds).
[15:54:46] Client "Bot388" connected.
[15:54:46] Client "Bot388" spawned in server <BOT> (took 23 seconds).
[15:54:58] Client "I·ᴍ Cᴇʀᴛɪғɪᴇᴅ G" connected.
[15:55:27] [N-G] Lil' Massif: !r
[15:55:37] Client "I·ᴍ Cᴇʀᴛɪғɪᴇᴅ G" spawned in server <STEAM_0:0:46548036> (took 39 seconds).
[15:55:37] [N-G] Lil' Massif: !r
[15:55:47] [N-G] Lil' Massif: bonjour mon baguette
[15:55:55] [N-G] Lil' Massif: ma*
[15:55:57] [N-G] Lil' Massif: lel
[15:56:18] [N-G] Lil' Massif: !r
[15:58:35] [N-G] Lil' Massif: !r
[15:58:47] [N-G] Lil' Massif: !r
[15:59:15] I·ᴍ Cᴇʀᴛɪғɪᴇᴅ G: ay
[15:59:23] I·ᴍ Cᴇʀᴛɪғɪᴇᴅ G: Lol
[15:59:39] I·ᴍ Cᴇʀᴛɪғɪᴇᴅ G: !+FAdmin_menu
[15:59:51] I·ᴍ Cᴇʀᴛɪғɪᴇᴅ G: hello my cup of tea
[15:59:51] [N-G] Lil' Massif: !r
[16:00:01] [N-G] Lil' Massif: <hsv> ( ͡° ͜ʖ ͡°) </hsv>
[16:00:23] I·ᴍ Cᴇʀᴛɪғɪᴇᴅ G: !rtv
[16:00:27] I·ᴍ Cᴇʀᴛɪғɪᴇᴅ G: !wr
[16:00:59] [N-G] Lil' Massif: !r
[16:01:11] [N-G] Lil' Massif: !r
[16:01:18] [N-G] Lil' Massif: !r
[16:01:49] [N-G] Lil' Massif: !r
[16:01:51] [N-G] Lil' Massif: !r
[16:01:56] [N-G] Lil' Massif: !r
[16:02:09] [N-G] Lil' Massif: !r
[16:02:51] I·ᴍ Cᴇʀᴛɪғɪᴇᴅ G: please rtv
[16:02:54] [N-G] Lil' Massif: !r
[16:02:56] [N-G] Lil' Massif: ( ͡o ͜ʖ ͡o)
[16:03:10] [N-G] Lil' Massif: beat my record and I'll rtv ;D
[16:03:42] [N-G] Lil' Massif: !r
[16:03:45] [N-G] Lil' Massif: !r
[16:03:45] I·ᴍ Cᴇʀᴛɪғɪᴇᴅ G: fuck u xD
[16:03:47] [N-G] Lil' Massif: <hsv> ( ͡° ͜ʖ ͡°) </hsv>
[16:03:49] [N-G] Lil' Massif: !r
[16:04:10] [N-G] Lil' Massif: !r
[16:04:22] [N-G] Lil' Massif: !r
[16:05:08] [N-G] Lil' Massif: !r
[16:05:24] [N-G] Lil' Massif: !r
[16:05:38] I·ᴍ Cᴇʀᴛɪғɪᴇᴅ G: impossible
[16:05:42] I·ᴍ Cᴇʀᴛɪғɪᴇᴅ G: i don't have speed
[16:05:51] [N-G] Lil' Massif: !r
[16:05:55] [N-G] Lil' Massif: watch the bot
[16:06:00] [N-G] Lil' Massif: !r
[16:06:27] [N-G] Lil' Massif: !r
[16:06:47] [N-G] Lil' Massif: !r
[16:06:50] [N-G] Lil' Massif: !r
[16:07:32] [N-G] Lil' Massif: !r
[16:07:57] [N-G] Lil' Massif: !r
[16:08:17] [N-G] Lil' Massif: !r
[16:08:27] [N-G] Lil' Massif: !r
[16:09:11] [N-G] Lil' Massif: !r
[16:09:19] [N-G] Lil' Massif: !r
[16:09:21] [N-G] Lil' Massif: !r
[16:09:36] [N-G] Lil' Massif: !r
[16:09:39] [N-G] Lil' Massif: !r
[16:09:45] [N-G] Lil' Massif: !r
[16:09:50] [N-G] Lil' Massif: !r
[16:09:54] I·ᴍ Cᴇʀᴛɪғɪᴇᴅ G: fuck this map
[16:09:56] I·ᴍ Cᴇʀᴛɪғɪᴇᴅ G: RTV PLEASE
[16:09:57] [N-G] Lil' Massif: !r
[16:09:58] [N-G] Lil' Massif: sure
[16:10:01] [N-G] Lil' Massif: !rtv
[16:10:15] I·ᴍ Cᴇʀᴛɪғɪᴇᴅ G: !rank
[16:10:33] [N-G] Lil' Massif: !r
[16:10:37] [N-G] Lil' Massif: !r
[16:10:37] Server is shutting down/changing levels.



[16:10:43] New map: surf_inspire
[16:11:11] Client "I·ᴍ Cᴇʀᴛɪғɪᴇᴅ G" spawned in server <STEAM_0:0:46548036> (took 29 seconds).
[16:11:11] Client "Bot389" connected.
[16:11:11] Client "Bot389" spawned in server <BOT> (took 29 seconds).
[16:11:13] Client "Bot390" connected.
[16:11:13] Client "Bot390" spawned in server <BOT> (took 31 seconds).
[16:11:13] Client "[N-G] Lil' Massif" spawned in server <STEAM_0:1:74663039> (took 31 seconds).
[16:11:26] [N-G] Lil' Massif: !r
[16:11:45] [N-G] Lil' Massif: !r
[16:11:47] I·ᴍ Cᴇʀᴛɪғɪᴇᴅ G: !spec
[16:11:47] [N-G] Lil' Massif: !r
[16:12:04] [N-G] Lil' Massif: !r
[16:12:37] I·ᴍ Cᴇʀᴛɪғɪᴇᴅ G: diffucult
[16:12:39] I·ᴍ Cᴇʀᴛɪғɪᴇᴅ G: !spec
[16:12:46] [N-G] Lil' Massif: !r
[16:12:48] [N-G] Lil' Massif: nah
[16:12:50] [N-G] Lil' Massif: !r
[16:12:51] [N-G] Lil' Massif: !r
[16:12:52] [N-G] Lil' Massif: !r
[16:12:53] [N-G] Lil' Massif: !r
[16:12:54] [N-G] Lil' Massif: !r
[16:13:11] [N-G] Lil' Massif: !r
[16:13:28] [N-G] Lil' Massif: !r
[16:13:39] [N-G] Lil' Massif: !r
[16:14:21] [N-G] Lil' Massif: !r
[16:14:24] [N-G] Lil' Massif: !r
[16:14:47] [N-G] Lil' Massif: !r
[16:14:51] [N-G] Lil' Massif: !r
[16:15:38] [N-G] Lil' Massif: !r
[16:15:49] [N-G] Lil' Massif: !r
[16:15:58] I·ᴍ Cᴇʀᴛɪғɪᴇᴅ G: i've finish Omnific
[16:16:04] I·ᴍ Cᴇʀᴛɪғɪᴇᴅ G: i'm first
[16:16:09] [N-G] Lil' Massif: noice
[16:16:10] [N-G] Lil' Massif: <hsv> ( ͡° ͜ʖ ͡°) </hsv>
[16:16:19] I·ᴍ Cᴇʀᴛɪғɪᴇᴅ G: on 4 hours xD
[16:16:45] [N-G] Lil' Massif: !nominate_lt_omnix_fix
[16:16:59] I·ᴍ Cᴇʀᴛɪғɪᴇᴅ G: !rtv
[16:17:16] (TEAM) [N-G] Lil' Massif: !nominate surf_lt_omnific_fix
[16:17:19] [N-G] Lil' Massif: !rtv
[16:17:24] [N-G] Lil' Massif: !r
[16:17:36] I·ᴍ Cᴇʀᴛɪғɪᴇᴅ G: big joke
[16:17:39] [N-G] Lil' Massif: ( ͡o ͜ʖ ͡o)
[16:17:40] [N-G] Lil' Massif: <hsv> ( ͡° ͜ʖ ͡°) </hsv>
[16:17:45] I·ᴍ Cᴇʀᴛɪғɪᴇᴅ G: impossible
[16:17:47] I·ᴍ Cᴇʀᴛɪғɪᴇᴅ G: map
[16:17:52] [N-G] Lil' Massif: yea
[16:17:53] [N-G] Lil' Massif: <hsv> ( ͡° ͜ʖ ͡°) </hsv>
[16:17:55] Server is shutting down/changing levels.



[16:18:02] New map: surf_lt_omnific_fix
[16:18:13] Client "I·ᴍ Cᴇʀᴛɪғɪᴇᴅ G" spawned in server <STEAM_0:0:46548036> (took 12 seconds).
[16:18:13] Client "Bot391" connected.
[16:18:13] Client "Bot391" spawned in server <BOT> (took 12 seconds).
[16:18:15] Client "Bot392" connected.
[16:18:15] Client "Bot392" spawned in server <BOT> (took 14 seconds).
[16:18:17] Client "[N-G] Lil' Massif" spawned in server <STEAM_0:1:74663039> (took 16 seconds).
[16:18:51] I·ᴍ Cᴇʀᴛɪғɪᴇᴅ G: habitually i'm blocked on pink part
[16:18:53] [N-G] Lil' Massif: !r
[16:18:56] I·ᴍ Cᴇʀᴛɪғɪᴇᴅ G: pink and blue
[16:19:03] [N-G] Lil' Massif: same
[16:19:14] [N-G] Lil' Massif: !r
[16:19:43] [N-G] Lil' Massif: Je ne connais pas
[16:19:44] [N-G] Lil' Massif: <hsv> ( ͡° ͜ʖ ͡°) </hsv>
[16:19:56] [N-G] Lil' Massif: un petit peu :P
[16:20:10] [N-G] Lil' Massif: ?
[16:20:17] [N-G] Lil' Massif: !r
[16:20:18] I·ᴍ Cᴇʀᴛɪғɪᴇᴅ G: tu aurais pas pu me le dire avant ?
[16:20:43] [N-G] Lil' Massif: maybe ;D
[16:21:15] [N-G] Lil' Massif: !r
[16:21:27] [N-G] Lil' Massif: !r
[16:22:22] [N-G] Lil' Massif: !r
[16:22:32] [N-G] Lil' Massif: !r
[16:24:27] I·ᴍ Cᴇʀᴛɪғɪᴇᴅ G: !rtv
[16:24:37] Dropped "I·ᴍ Cᴇʀᴛɪғɪᴇᴅ G" from server<STEAM_0:0:46548036>
[16:27:59] Client "Spice Merchant Waheed" connected.
[16:31:20] Client "Spice Merchant Waheed" spawned in server <STEAM_0:1:105570565> (took 201 seconds).
[16:32:28] [N-G] Lil' Massif: hi
[16:33:17] Dropped "Spice Merchant Waheed" from server<STEAM_0:1:105570565>
[16:42:07] [N-G] Lil' Massif: !r
[16:48:38] Server is shutting down/changing levels.



[16:48:45] New map: surf_happyhands
[16:49:04] Client "[N-G] Lil' Massif" spawned in server <STEAM_0:1:74663039> (took 21 seconds).
[16:49:04] Client "Bot393" connected.
[16:49:04] Client "Bot393" spawned in server <BOT> (took 21 seconds).
[16:49:06] Client "Bot394" connected.
[16:49:06] Client "Bot394" spawned in server <BOT> (took 23 seconds).
[16:53:10] Client "☮TLC☮Nykeaulat" connected.
[16:53:16] Client "☮TLC☮PizzaAngel" connected.
[16:53:54] [N-G] Lil' Massif: !r
[16:54:27] Client "☮TLC☮PizzaAngel" spawned in server <STEAM_0:1:99948986> (took 71 seconds).
[16:54:31] Client "☮TLC☮Nykeaulat" spawned in server <STEAM_0:1:167426999> (took 81 seconds).
[16:54:35] [N-G] Lil' Massif: hey
[16:56:05] [N-G] Lil' Massif: !r
[16:56:56] [N-G] Lil' Massif: !r
[17:01:12] ☮TLC☮Nykeaulat: !rtv
[17:01:24] ☮TLC☮PizzaAngel: !rtv
[17:02:00] Server is shutting down/changing levels.



[17:02:06] New map: surf_fast
[17:02:38] Client "PlasmaPlayz" connected.
[17:02:40] Client "☮TLC☮PizzaAngel" spawned in server <STEAM_0:1:99948986> (took 35 seconds).
[17:02:40] Client "Bot395" connected.
[17:02:40] Client "Bot395" spawned in server <BOT> (took 35 seconds).
[17:02:42] Client "Bot396" connected.
[17:02:42] Client "Bot396" spawned in server <BOT> (took 37 seconds).
[17:02:48] Client "☮TLC☮Nykeaulat" spawned in server <STEAM_0:1:167426999> (took 43 seconds).
[17:02:53] Client "[N-G] Lil' Massif" spawned in server <STEAM_0:1:74663039> (took 48 seconds).
[17:03:32] [N-G] Lil' Massif: !r
[17:03:41] Client "SANTTUZ" connected.
[17:03:50] Client "PlasmaPlayz" connected.
[17:04:27] Client "SANTTUZ" connected.
[17:05:18] Client "Некут" connected.
[17:07:42] Client "_-_МС_ХАВАНСКИЙ_-_" connected.
[17:08:05] Client "Некут" spawned in server <STEAM_0:0:107130707> (took 167 seconds).
[17:10:06] Client "_-_МС_ХАВАНСКИЙ_-_" spawned in server <STEAM_0:0:146629890> (took 144 seconds).
[17:10:42] ☮TLC☮Nykeaulat: !rtv
[17:12:59] Dropped "_-_МС_ХАВАНСКИЙ_-_" from server<STEAM_0:0:146629890>
[17:15:39] Client "PlasmaPlayz" spawned in server <STEAM_0:1:126748908> (took 709 seconds).
[17:16:17] ☮TLC☮PizzaAngel: !rtv
[17:19:40] Некут: rtv
[17:19:43] Некут: !rt
[17:19:44] Некут: !rtv
[17:20:06] [N-G] Lil' Massif: !rtv who
[17:21:17] Client "cristianeizanlpez14 [ALPACA]" connected.
[17:21:58] ☮TLC☮Nykeaulat: !rtv
[17:22:40] ☮TLC☮Nykeaulat: rtv
[17:22:59] ☮TLC☮PizzaAngel: meskisnape
[17:23:07] PlasmaPlayz: !rtv
[17:23:43] Server is shutting down/changing levels.



[17:23:49] New map: surf_beginner
[17:24:11] Client "[N-G] Lil' Massif" spawned in server <STEAM_0:1:74663039> (took 23 seconds).
[17:24:11] Client "Bot397" connected.
[17:24:11] Client "Bot397" spawned in server <BOT> (took 23 seconds).
[17:24:13] Client "Bot398" connected.
[17:24:13] Client "Bot398" spawned in server <BOT> (took 25 seconds).
[17:24:19] Client "☮TLC☮Nykeaulat" spawned in server <STEAM_0:1:167426999> (took 31 seconds).
[17:24:27] Client "Некут" spawned in server <STEAM_0:0:107130707> (took 39 seconds).
[17:24:29] [N-G] Lil' Massif: !r
[17:24:39] [N-G] Lil' Massif: !r
[17:24:54] [N-G] Lil' Massif: !r
[17:24:55] [N-G] Lil' Massif: !r
[17:24:55] [N-G] Lil' Massif: !r
[17:24:56] [N-G] Lil' Massif: !r
[17:25:13] [N-G] Lil' Massif: !r
[17:25:18] Client "cristianeizanlpez14 [ALPACA]" spawned in server <STEAM_0:1:180261311> (took 90 seconds).
[17:25:31] [N-G] Lil' Massif: !r
[17:25:37] Client "PlasmaPlayz" spawned in server <STEAM_0:1:126748908> (took 109 seconds).
[17:25:42] [N-G] Lil' Massif: !r
[17:26:10] [N-G] Lil' Massif: !r
[17:26:15] [N-G] Lil' Massif: !r
[17:26:43] [N-G] Lil' Massif: !r
[17:27:12] [N-G] Lil' Massif: !r
[17:27:18] Client "☮TLC☮PizzaAngel" spawned in server <STEAM_0:1:99948986> (took 210 seconds).
[17:27:21] [N-G] Lil' Massif: !r
[17:28:12] Dropped "Некут" from server<STEAM_0:0:107130707>
[17:28:43] [N-G] Lil' Massif: !r
[17:29:24] [N-G] Lil' Massif: !r
[17:29:46] [N-G] Lil' Massif: !r
[17:30:13] [N-G] Lil' Massif: !r
[17:30:52] [N-G] Lil' Massif: !r
[17:31:01] [N-G] Lil' Massif: !r
[17:31:11] [N-G] Lil' Massif: !r
[17:31:53] [N-G] Lil' Massif: !r
[17:32:15] [N-G] Lil' Massif: !r
[17:32:24] [N-G] Lil' Massif: !r
[17:32:25] Client "Shaft" connected.
[17:32:48] [N-G] Lil' Massif: !r
[17:33:10] [N-G] Lil' Massif: !r
[17:33:31] [N-G] Lil' Massif: !r
[17:33:52] [N-G] Lil' Massif: !r
[17:34:31] Client "von trapp" connected.
[17:34:39] Client "Shaft" spawned in server <STEAM_0:1:23380630> (took 134 seconds).
[17:34:44] [N-G] Lil' Massif: !r
[17:35:39] [N-G] Lil' Massif: !r
[17:35:46] [N-G] Lil' Massif: !r
[17:35:47] [N-G] Lil' Massif: !r
[17:35:50] [N-G] Lil' Massif: !r
[17:36:11] [N-G] Lil' Massif: !r
[17:36:26] Client "von trapp" spawned in server <STEAM_0:1:17750957> (took 115 seconds).
[17:36:31] [N-G] Lil' Massif: !r
[17:36:34] [N-G] Lil' Massif: !r
[17:36:55] [N-G] Lil' Massif: !r
[17:37:33] [N-G] Lil' Massif: !r
[17:37:44] Dropped "von trapp" from server<STEAM_0:1:17750957>
[17:37:48] [N-G] Lil' Massif: !r
[17:38:10] [N-G] Lil' Massif: !r
[17:38:40] [N-G] Lil' Massif: !r
[17:39:00] [N-G] Lil' Massif: !r
[17:39:21] [N-G] Lil' Massif: !r
[17:39:24] [N-G] Lil' Massif: !r
[17:39:26] [N-G] Lil' Massif: !r
[17:39:38] [N-G] Lil' Massif: !r
[17:39:47] [N-G] Lil' Massif: !r
[17:39:48] [N-G] Lil' Massif: !r
[17:40:09] [N-G] Lil' Massif: !r
[17:40:37] PlasmaPlayz: !RTV
[17:41:12] [N-G] Lil' Massif: !r
[17:41:17] [N-G] Lil' Massif: !rank
[17:42:12] [N-G] Lil' Massif: !r
[17:42:32] [N-G] Lil' Massif: !r
[17:42:42] Client "SaiyanStorm" connected.
[17:43:35] [N-G] Lil' Massif: !r
[17:43:38] Dropped "[N-G] Lil' Massif" from server<STEAM_0:1:74663039>
[17:44:00] Client "RamizQ7" connected.
[17:44:16] Client "SaiyanStorm" spawned in server <STEAM_0:0:81208858> (took 94 seconds).
[17:44:19] Dropped "Shaft" from server<STEAM_0:1:23380630>
[17:48:10] Client "RamizQ7" spawned in server <STEAM_0:1:53225883> (took 250 seconds).
[17:48:12] cristianeizanlpez14 [ALPACA]: is impossible
[17:48:17] ☮TLC☮Nykeaulat: !rtv
[17:48:47] ☮TLC☮PizzaAngel: !rtv
[17:49:02] ☮TLC☮Nykeaulat: rtvvvvvvvvvvvvvvvvvvvvvvvvvvvvvvvvvvvvvvvvvvv
[17:49:52] PlasmaPlayz: RTV
[17:50:05] ☮TLC☮Nykeaulat: rtv fdp
[17:52:19] Client "MrToffeePancake" connected.
[17:52:22] Dropped "PlasmaPlayz" from server<STEAM_0:1:126748908>
[17:52:23] Client "PlasmaPlayz" connected.
[17:52:32] Client "PlasmaPlayz" spawned in server <STEAM_0:1:126748908> (took 9 seconds).
[17:53:10] Client "FlameXD" connected.
[17:53:55] Dropped "PlasmaPlayz" from server<STEAM_0:1:126748908>
[17:54:23] Client "FlameXD" spawned in server <STEAM_0:0:114117743> (took 73 seconds).
[17:54:25] Server is shutting down/changing levels.



[17:54:32] New map: surf_funhouse_v1
[17:54:45] Client "FlameXD" spawned in server <STEAM_0:0:114117743> (took 14 seconds).
[17:54:45] Client "Bot399" connected.
[17:54:45] Client "Bot399" spawned in server <BOT> (took 14 seconds).
[17:54:47] Client "☮TLC☮PizzaAngel" spawned in server <STEAM_0:1:99948986> (took 16 seconds).
[17:54:47] Client "Bot400" connected.
[17:54:47] Client "Bot400" spawned in server <BOT> (took 16 seconds).
[17:55:00] Client "cristianeizanlpez14 [ALPACA]" spawned in server <STEAM_0:1:180261311> (took 29 seconds).
[17:55:00] Client "SaiyanStorm" spawned in server <STEAM_0:0:81208858> (took 29 seconds).
[17:55:19] Client "☮TLC☮Nykeaulat" spawned in server <STEAM_0:1:167426999> (took 48 seconds).
[17:55:36] Client "RamizQ7" spawned in server <STEAM_0:1:53225883> (took 65 seconds).
[17:56:00] ☮TLC☮PizzaAngel: !rtv
[17:56:44] Dropped "cristianeizanlpez14 [ALPACA]" from server<STEAM_0:1:180261311>
[17:57:17] Client "I·ᴍ Cᴇʀᴛɪғɪᴇᴅ G" connected.
[17:57:31] Dropped "FlameXD" from server<STEAM_0:0:114117743>
[17:57:55] Client "I·ᴍ Cᴇʀᴛɪғɪᴇᴅ G" spawned in server <STEAM_0:0:46548036> (took 38 seconds).
[17:58:55] I·ᴍ Cᴇʀᴛɪғɪᴇᴅ G: ayyy
[17:59:02] I·ᴍ Cᴇʀᴛɪғɪᴇᴅ G: good ?
[17:59:11] Dropped "RamizQ7" from server<STEAM_0:1:53225883>
[17:59:13] Dropped "SaiyanStorm" from server<STEAM_0:0:81208858>
[17:59:26] I·ᴍ Cᴇʀᴛɪғɪᴇᴅ G: !r
[18:00:10] I·ᴍ Cᴇʀᴛɪғɪᴇᴅ G: !r
[18:01:07] Client "PlasmaPlayz" connected.
[18:01:11] I·ᴍ Cᴇʀᴛɪғɪᴇᴅ G: !r
[18:01:22] Client "PlasmaPlayz" spawned in server <STEAM_0:1:126748908> (took 15 seconds).
[18:02:09] I·ᴍ Cᴇʀᴛɪғɪᴇᴅ G: !r
[18:02:22] I·ᴍ Cᴇʀᴛɪғɪᴇᴅ G: !r
[18:02:39] I·ᴍ Cᴇʀᴛɪғɪᴇᴅ G: !r
[18:03:02] I·ᴍ Cᴇʀᴛɪғɪᴇᴅ G: !r
[18:03:27] I·ᴍ Cᴇʀᴛɪғɪᴇᴅ G: !r
[18:04:20] PlasmaPlayz: !RTV
[18:05:26] I·ᴍ Cᴇʀᴛɪғɪᴇᴅ G: !rtv
[18:05:38] ☮TLC☮Nykeaulat: !rtv
[18:06:14] Server is shutting down/changing levels.



[18:06:20] New map: surf_mesa_aether
[18:06:47] Client "I·ᴍ Cᴇʀᴛɪғɪᴇᴅ G" spawned in server <STEAM_0:0:46548036> (took 28 seconds).
[18:06:47] Client "Bot401" connected.
[18:06:47] Client "Bot401" spawned in server <BOT> (took 28 seconds).
[18:06:49] Client "Bot402" connected.
[18:06:49] Client "Bot402" spawned in server <BOT> (took 30 seconds).
[18:06:56] Client "PlasmaPlayz" spawned in server <STEAM_0:1:126748908> (took 37 seconds).
[18:08:03] I·ᴍ Cᴇʀᴛɪғɪᴇᴅ G: hi plasma
[18:08:09] PlasmaPlayz: hey
[18:08:44] Client "☮TLC☮PizzaAngel" connected.
[18:08:50] Client "☮TLC☮PizzaAngel" connected.
[18:08:50] I·ᴍ Cᴇʀᴛɪғɪᴇᴅ G: spec me i show you a technic for take speed
[18:09:41] I·ᴍ Cᴇʀᴛɪғɪᴇᴅ G: !r
[18:09:55] Client "☮TLC☮Nykeaulat" spawned in server <STEAM_0:1:167426999> (took 216 seconds).
[18:10:46] Dropped "☮TLC☮Nykeaulat" from server<STEAM_0:1:167426999>
[18:11:08] Client "M7 NuzzyJr" connected.
[18:11:26] I·ᴍ Cᴇʀᴛɪғɪᴇᴅ G: !r
[18:13:24] I·ᴍ Cᴇʀᴛɪғɪᴇᴅ G: !r
[18:16:03] I·ᴍ Cᴇʀᴛɪғɪᴇᴅ G: !r
[18:16:24] I·ᴍ Cᴇʀᴛɪғɪᴇᴅ G: plasma
[18:16:25] I·ᴍ Cᴇʀᴛɪғɪᴇᴅ G: spec
[18:17:02] Client "Slowbro.'" connected.
[18:19:05] Client "Slowbro.'" spawned in server <STEAM_0:1:8916875> (took 123 seconds).
[18:19:41] Client "Blizzar" connected.
[18:20:00] Client "►Black¶Reaper◄" connected.
[18:21:49] Client "Blizzar" spawned in server <STEAM_0:0:35941911> (took 128 seconds).
[18:23:12] Client "►Black¶Reaper◄" spawned in server <STEAM_0:0:66239149> (took 192 seconds).
[18:23:57] Slowbro.': !r
[18:24:10] I·ᴍ Cᴇʀᴛɪғɪᴇᴅ G: !r
[18:24:30] Client "SANTTUZ" connected.
[18:24:57] Client "SANTTUZ" spawned in server <STEAM_0:1:117082712> (took 27 seconds).
[18:25:32] Slowbro.': 1r
[18:26:55] Client "Toasty Toast" connected.
[18:28:15] I·ᴍ Cᴇʀᴛɪғɪᴇᴅ G: !r
[18:29:26] Dropped "SANTTUZ" from server<STEAM_0:1:117082712>
[18:29:51] Slowbro.': !r
[18:31:21] Dropped "PlasmaPlayz" from server<STEAM_0:1:126748908>
[18:32:13] Slowbro.': !r
[18:34:33] Slowbro.': !j
[18:35:34] Slowbro.': !r
[18:36:01] Dropped "I·ᴍ Cᴇʀᴛɪғɪᴇᴅ G" from server<STEAM_0:0:46548036>
[18:36:51] Slowbro.': !timeleft
[18:36:57] Server is shutting down/changing levels.



[18:37:03] New map: surf_beginner
[18:37:19] Client "ГнОм" connected.
[18:37:39] Client "Blizzar" spawned in server <STEAM_0:0:35941911> (took 37 seconds).
[18:37:39] Client "Bot403" connected.
[18:37:39] Client "Bot403" spawned in server <BOT> (took 37 seconds).
[18:37:41] Client "Bot404" connected.
[18:37:41] Client "Bot404" spawned in server <BOT> (took 39 seconds).
[18:37:47] Client "Slowbro.'" spawned in server <STEAM_0:1:8916875> (took 45 seconds).
[18:38:26] Client "►Black¶Reaper◄" spawned in server <STEAM_0:0:66239149> (took 84 seconds).
[18:38:30] Client "ГнОм" spawned in server <STEAM_0:1:159016842> (took 71 seconds).
[18:40:40] Client "s.grechishnikov" connected.
[18:41:11] Client "s.grechishnikov" spawned in server <STEAM_0:0:173589691> (took 31 seconds).
[18:41:36] Slowbro.': !r
[18:42:15] Client "PlasmaPlayz" connected.
[18:43:02] Client "PlasmaPlayz" spawned in server <STEAM_0:1:126748908> (took 47 seconds).
[18:43:57] PlasmaPlayz: !rtv
[18:44:11] Dropped "s.grechishnikov" from server<STEAM_0:0:173589691>
[18:45:28] Dropped "ГнОм" from server<STEAM_0:1:159016842>
[18:45:43] Slowbro.': !rtv
[18:45:47] Blizzar: !rtv
[18:45:48] (TEAM) ►Black¶Reaper◄: !rtv
[18:46:23] Server is shutting down/changing levels.



[18:46:30] New map: surf_this_njv
[18:46:44] Client "Blizzar" spawned in server <STEAM_0:0:35941911> (took 16 seconds).
[18:46:44] Client "Bot405" connected.
[18:46:44] Client "Bot405" spawned in server <BOT> (took 16 seconds).
[18:46:45] Client "Slowbro.'" spawned in server <STEAM_0:1:8916875> (took 17 seconds).
[18:46:46] Client "Bot406" connected.
[18:46:46] Client "Bot406" spawned in server <BOT> (took 18 seconds).
[18:46:51] Client "PlasmaPlayz" spawned in server <STEAM_0:1:126748908> (took 23 seconds).
[18:47:03] Client "►Black¶Reaper◄" spawned in server <STEAM_0:0:66239149> (took 35 seconds).
[18:47:26] PlasmaPlayz: !r
[18:47:37] PlasmaPlayz: ( ͡° ͜ʖ ͡°) 
[18:47:38] PlasmaPlayz: !r
[18:47:43] Slowbro.': !r
[18:47:52] PlasmaPlayz: !r
[18:48:08] Dropped "►Black¶Reaper◄" from server<STEAM_0:0:66239149>
[18:48:11] Slowbro.': !r
[18:48:31] Client "Toasty Toast" connected.
[18:48:31] PlasmaPlayz: !r
[18:48:36] Slowbro.': !r
[18:49:13] Slowbro.': !r
[18:49:23] Blizzar: !rtv
[18:49:35] Client "Toasty Toast" spawned in server <STEAM_0:0:60241037> (took 64 seconds).
[18:49:57] Blizzar: !rtv
[18:50:01] Blizzar: !r
[18:50:18] (TEAM) Toasty Toast: !r
[18:50:28] (TEAM) Toasty Toast: !r
[18:51:04] (TEAM) Toasty Toast: !r
[18:51:48] (TEAM) Toasty Toast: !r
[18:52:15] (TEAM) Toasty Toast: !rtv
[18:52:45] PlasmaPlayz: !skip
[18:53:00] PlasmaPlayz: !skip song
[18:53:51] Slowbro.': !r
[18:55:49] Slowbro.': !r
[18:55:53] (TEAM) Toasty Toast: !r
[18:56:20] Client "LordHarambe" connected.
[18:56:20] Slowbro.': Rtv
[18:56:23] Slowbro.': !rtv
[18:56:28] PlasmaPlayz: !rtv
[18:56:31] Blizzar: !rtv
[18:56:47] Client "Bryan[NL]" connected.
[18:57:04] Server is shutting down/changing levels.



[18:57:10] New map: surf_wood
[18:57:23] Client "Blizzar" spawned in server <STEAM_0:0:35941911> (took 14 seconds).
[18:57:23] Client "Bot407" connected.
[18:57:23] Client "Bot407" spawned in server <BOT> (took 14 seconds).
[18:57:25] Client "Bot408" connected.
[18:57:25] Client "Bot408" spawned in server <BOT> (took 16 seconds).
[18:57:29] Client "PlasmaPlayz" spawned in server <STEAM_0:1:126748908> (took 20 seconds).
[18:57:37] Client "Slowbro.'" spawned in server <STEAM_0:1:8916875> (took 28 seconds).
[18:57:39] Client "Toasty Toast" spawned in server <STEAM_0:0:60241037> (took 30 seconds).
[18:57:45] Client "LordHarambe" connected.
[18:57:57] Blizzar: !rtv
[18:58:01] Blizzar: !r
[18:58:18] Blizzar: !r
[18:58:35] Client "LordHarambe" connected.
[18:59:12] Blizzar: !r
[18:59:16] Client "Bryan[NL]" spawned in server <STEAM_0:1:45597015> (took 127 seconds).
[18:59:18] (TEAM) Toasty Toast: !r
[18:59:22] Slowbro.': !r
[18:59:27] Client "LordHarambe" connected.
[18:59:40] Client "LordHarambe" spawned in server <STEAM_0:1:128057686> (took 13 seconds).
[18:59:47] Client "►Black¶Reaper◄" connected.
[19:00:03] Slowbro.': !r
[19:00:03] (TEAM) Toasty Toast: !r
[19:00:14] (TEAM) Toasty Toast: !r
[19:00:17] Blizzar: !r
[19:00:25] (TEAM) Toasty Toast: !r
[19:00:55] Client "►Black¶Reaper◄" spawned in server <STEAM_0:0:66239149> (took 68 seconds).
[19:00:59] PlasmaPlayz: !rtv
[19:01:14] PlasmaPlayz: !rtv
[19:01:26] PlasmaPlayz: !rtv
[19:01:27] PlasmaPlayz: ( ͡° ͜ʖ ͡°) 
[19:01:30] PlasmaPlayz: !rtv
[19:01:43] (TEAM) Toasty Toast: !r
[19:01:49] Slowbro.': why are these maps all so hard
[19:02:01] Client "RipTide" connected.
[19:02:06] Bryan[NL]: !rtv
[19:02:10] PlasmaPlayz: !rtv
[19:02:12] Bryan[NL]: !rtv
[19:02:15] PlasmaPlayz: !rtv
[19:02:16] Client "[N-G]XxNedSTxX" connected.
[19:02:21] Slowbro.': !rtv
[19:02:24] Blizzar: !rtv
[19:02:26] (TEAM) ►Black¶Reaper◄: !rtv
[19:02:26] (TEAM) Toasty Toast: !rtv
[19:02:37] Client "†ƇαɱþυƦ" connected.
[19:03:02] Server is shutting down/changing levels.



[19:03:08] New map: surf_ace
[19:03:18] Client "PlasmaPlayz" spawned in server <STEAM_0:1:126748908> (took 11 seconds).
[19:03:18] Client "Bot409" connected.
[19:03:18] Client "Bot409" spawned in server <BOT> (took 11 seconds).
[19:03:18] Client "LordHarambe" spawned in server <STEAM_0:1:128057686> (took 11 seconds).
[19:03:20] Client "Bot410" connected.
[19:03:20] Client "Bot410" spawned in server <BOT> (took 13 seconds).
[19:03:22] Client "RipTide" spawned in server <STEAM_0:0:139444806> (took 15 seconds).
[19:03:23] Client "Blizzar" spawned in server <STEAM_0:0:35941911> (took 16 seconds).
[19:03:25] Client "Slowbro.'" spawned in server <STEAM_0:1:8916875> (took 18 seconds).
[19:03:32] PlasmaPlayz: this map is hard
[19:03:36] Client "Toasty Toast" spawned in server <STEAM_0:0:60241037> (took 29 seconds).
[19:03:37] Client "►Black¶Reaper◄" spawned in server <STEAM_0:0:66239149> (took 30 seconds).
[19:03:44] RipTide: 1r
[19:03:47] RipTide: !r
[19:03:47] Client "Bryan[NL]" spawned in server <STEAM_0:1:45597015> (took 40 seconds).
[19:03:52] Client "[N-G]XxNedSTxX" spawned in server <STEAM_0:0:139239512> (took 45 seconds).
[19:03:58] Client "UrNansFukBuddy" connected.
[19:04:19] RipTide: !r
[19:05:16] RipTide: !r
[19:05:40] Client "UrNansFukBuddy" spawned in server <STEAM_0:1:157633856> (took 102 seconds).
[19:06:03] [N-G]XxNedSTxX: !r
[19:06:07] RipTide: !r
[19:06:29] PlasmaPlayz: !r
[19:06:35] Dropped "[N-G]XxNedSTxX" from server<STEAM_0:0:139239512>
[19:07:18] PlasmaPlayz: !r
[19:07:19] RipTide: !r
[19:07:34] PlasmaPlayz: ( ͡° ͜ʖ ͡°) 
[19:07:35] LordHarambe: !JB
[19:07:36] PlasmaPlayz: !r
[19:07:40] Client "[NL] Y@no" connected.
[19:07:42] LordHarambe: !JB
[19:07:44] Bryan[NL]: 1jb
[19:07:50] PlasmaPlayz: !r
[19:08:16] RipTide: 1f
[19:08:22] RipTide: !r
[19:08:30] Client "[NL] Y@no" spawned in server <STEAM_0:1:10509244> (took 50 seconds).
[19:08:41] [NL] Y@no: !jw
[19:08:47] PlasmaPlayz: ( ͡° ͜ʖ ͡°) 
[19:08:51] Dropped "UrNansFukBuddy" from server<STEAM_0:1:157633856>
[19:08:52] PlasmaPlayz: !rtv
[19:09:07] PlasmaPlayz: ( ͡° ͜ʖ ͡°) 
[19:09:07] PlasmaPlayz: ( ͡° ͜ʖ ͡°) 
[19:09:09] PlasmaPlayz: !rtv
[19:09:12] PlasmaPlayz: !r
[19:09:12] RipTide: !stopmusic
[19:09:19] (TEAM) RipTide: !music
[19:09:28] PlasmaPlayz: !r
[19:09:37] Bryan[NL]: !rtv
[19:09:40] Dropped "RipTide" from server<STEAM_0:0:139444806>
[19:09:42] PlasmaPlayz: !r
[19:09:44] [NL] Y@no: !rtv
[19:09:53] Slowbro.': !r
[19:09:59] PlasmaPlayz: !r
[19:10:23] PlasmaPlayz: !r
[19:11:00] PlasmaPlayz: !r
[19:11:19] PlasmaPlayz: !r
[19:11:26] PlasmaPlayz: !r
[19:11:39] PlasmaPlayz: !r
[19:11:55] PlasmaPlayz: !r
[19:12:02] PlasmaPlayz: !r
[19:12:21] Slowbro.': !r
[19:12:30] PlasmaPlayz: !r
[19:12:52] PlasmaPlayz: !r
[19:13:21] PlasmaPlayz: ( ͡° ͜ʖ ͡°) 
[19:13:22] PlasmaPlayz: !r
[19:13:51] PlasmaPlayz: !r
[19:13:57] Bryan[NL]: 1jb
[19:14:37] PlasmaPlayz: !r
[19:14:49] Bryan[NL]: 1jb
[19:14:49] PlasmaPlayz: ( ͡° ͜ʖ ͡°) 
[19:14:51] PlasmaPlayz: !r
[19:14:57] Client "sallytrige" connected.
[19:15:04] PlasmaPlayz: !r
[19:15:28] PlasmaPlayz: !r
[19:15:49] PlasmaPlayz: !r
[19:16:01] PlasmaPlayz: !r#
[19:16:03] PlasmaPlayz: !
[19:16:05] PlasmaPlayz: !
[19:16:09] PlasmaPlayz: !r
[19:16:29] PlasmaPlayz: !r
[19:16:35] Client "sallytrige" spawned in server <STEAM_0:0:193804502> (took 98 seconds).
[19:16:52] PlasmaPlayz: !r
[19:17:14] PlasmaPlayz: !r
[19:17:27] PlasmaPlayz: !r
[19:17:42] PlasmaPlayz: !r
[19:18:02] PlasmaPlayz: ( ͡° ͜ʖ ͡°) 
[19:18:04] PlasmaPlayz: !r
[19:18:24] PlasmaPlayz: !r
[19:18:37] PlasmaPlayz: !r
[19:18:53] PlasmaPlayz: !r
[19:18:53] Client "MiltonTheMAN" connected.
[19:19:06] PlasmaPlayz: !r
[19:19:29] PlasmaPlayz: !r
[19:19:54] PlasmaPlayz: !r
[19:20:16] PlasmaPlayz: !r
[19:20:49] PlasmaPlayz: !r
[19:21:10] PlasmaPlayz: !r
[19:21:22] PlasmaPlayz: !r
[19:21:33] PlasmaPlayz: !r
[19:21:38] PlasmaPlayz: !rtv
[19:21:41] PlasmaPlayz: rtv
[19:21:59] PlasmaPlayz: rtv
[19:22:19] PlasmaPlayz: !r
[19:22:36] PlasmaPlayz: !r
[19:22:49] PlasmaPlayz: !r
[19:23:14] Client "MiltonTheMAN" spawned in server <STEAM_0:0:114855685> (took 261 seconds).
[19:23:16] PlasmaPlayz: !r
[19:23:24] PlasmaPlayz: !r
[19:23:26] Slowbro.': !rtv
[19:23:33] (TEAM) Toasty Toast: !rtv
[19:23:33] Blizzar: !rtv
[19:24:00] PlasmaPlayz: !r
[19:24:23] PlasmaPlayz: !r
[19:24:28] Bryan[NL]: 1jb
[19:24:44] Dropped "sallytrige" from server<STEAM_0:0:193804502>
[19:24:48] Client "Vazik_mk" connected.
[19:25:20] Server is shutting down/changing levels.



[19:25:27] New map: surf_rookie
[19:25:37] Client "PlasmaPlayz" spawned in server <STEAM_0:1:126748908> (took 11 seconds).
[19:25:37] Client "Bot411" connected.
[19:25:37] Client "Bot411" spawned in server <BOT> (took 11 seconds).
[19:25:39] Client "Bot412" connected.
[19:25:39] Client "Bot412" spawned in server <BOT> (took 13 seconds).
[19:25:42] Client "LordHarambe" spawned in server <STEAM_0:1:128057686> (took 16 seconds).
[19:25:44] Client "Blizzar" spawned in server <STEAM_0:0:35941911> (took 18 seconds).
[19:25:47] Client "Slowbro.'" spawned in server <STEAM_0:1:8916875> (took 21 seconds).
[19:25:48] Client "[NL] Y@no" spawned in server <STEAM_0:1:10509244> (took 22 seconds).
[19:26:03] Client "Bryan[NL]" spawned in server <STEAM_0:1:45597015> (took 37 seconds).
[19:26:41] Client "►Black¶Reaper◄" spawned in server <STEAM_0:0:66239149> (took 75 seconds).
[19:27:25] Client "MiltonTheMAN" spawned in server <STEAM_0:0:114855685> (took 119 seconds).
[19:27:43] Client "Vazik_mk" connected.
[19:29:18] Client "verner" connected.
[19:29:29] Client "Vazik_mk" connected.
[19:29:44] Client "verner" spawned in server <STEAM_0:1:122423658> (took 26 seconds).
[19:30:17] Bryan[NL]: 1jb
[19:32:19] (TEAM) MiltonTheMAN: !rules
[19:32:55] (TEAM) MiltonTheMAN: !rules
[19:33:09] Slowbro.': garry
[19:33:15] Bryan[NL]: xd
[19:33:17] LordHarambe: :Kappa:
[19:33:21] LordHarambe: Sheit
[19:33:29] (TEAM) ►Black¶Reaper◄: gaben
[19:33:34] PlasmaPlayz: amen
[19:33:40] Blizzar: OverRustle
[19:33:40] LordHarambe: garrygaben
[19:33:44] Bryan[NL]: D kappa
[19:33:53] Slowbro.': <avatar>
[19:34:05] Blizzar: <avatar=STEAM_0:0:35941911>
[19:34:12] LordHarambe: <avatar>
[19:34:27] Bryan[NL]: gaben
[19:34:29] Blizzar: garry
[19:34:30] PlasmaPlayz: ( ͡° ͜ʖ ͡°) 
[19:34:54] LordHarambe: garrygarrygarrygarrygarrygarrygarrygarrygarrygarrygarrygarrygarrygarrygarrygarrygarry
[19:35:02] (TEAM) MiltonTheMAN: elmo
[19:35:22] LordHarambe: DONT SKIP
[19:35:25] Slowbro.': dont
[19:35:29] Bryan[NL]: ikr its my song 
[19:35:30] Bryan[NL]: FFS
[19:35:30] MiltonTheMAN: HOW DA FAQ
[19:35:31] [NL] Y@no: !rtv
[19:35:33] Bryan[NL]: COST ME POINTS
[19:35:36] LordHarambe: IT FKN IS
[19:35:37] Bryan[NL]: FKING BITCH YANa
[19:35:42] (TEAM) ►Black¶Reaper◄: !rtv
[19:35:53] Bryan[NL]: i qued it again
[19:35:53] Bryan[NL]: nice
[19:36:08] LordHarambe: FCK YEA
[19:36:09] (TEAM) MiltonTheMAN: HELP ME WTF IS DIS
[19:36:25] Bryan[NL]: what is wha
[19:36:38] MiltonTheMAN: this f***** levell
[19:37:50] Bryan[NL]: ;/ i cant queue shooting stars again
[19:37:50] Bryan[NL]: ffs.
[19:37:56] LordHarambe: NOO 
[19:37:59] (TEAM) MiltonTheMAN: DIS IS FUQIN IMPOSSIBLE
[19:38:02] Bryan[NL]: type !jb
[19:38:02] LordHarambe: garrygarrygarrygarrygarrygarrygarry
[19:38:03] Bryan[NL]: go B
[19:38:05] (TEAM) MiltonTheMAN: !skip
[19:38:06] Bryan[NL]: and que it
[19:38:10] MiltonTheMAN: !skip
[19:39:07] LordHarambe: Then just locally listen to it, also fine
[19:39:11] (TEAM) MiltonTheMAN: DIS IS SHIT
[19:39:19] (TEAM) LordHarambe: YOU ARE SHIT
[19:39:22] LordHarambe: JK BRO
[19:39:25] Bryan[NL]: 1jb
[19:39:47] (TEAM) MiltonTheMAN: FUCK THIS SHIT IMMOUT
[19:39:56] LordHarambe: GB"
[19:39:58] Bryan[NL]: lol nub ;)
[19:40:05] Bryan[NL]: gaben
[19:40:14] LordHarambe: Bryan jij bent nl he
[19:40:17] Client "Toasty Toast" connected.
[19:40:18] Bryan[NL]: misschien?
[19:40:25] LordHarambe: Dan niet he haha
[19:40:26] (TEAM) MiltonTheMAN: faq yau
[19:40:29] Bryan[NL]: ow oke
[19:40:32] [NL] Y@no: XD
[19:40:37] Bryan[NL]: yano is een nazi
[19:40:39] LordHarambe: WHAHA
[19:40:41] MiltonTheMAN: uhm
[19:40:41] [NL] Y@no: yup
[19:40:44] LordHarambe: xD
[19:40:44] [NL] Y@no: heil hitler
[19:40:58] Bryan[NL]: gaben heil gaben..
[19:41:15] LordHarambe: HEIL GABEN
[19:41:21] LordHarambe: gabengabengabengabengabengabengabengaben
[19:41:21] Slowbro.': <hsv>Lel</hsv>
[19:41:22] Bryan[NL]: HEIL
[19:41:22] Client "Toasty Toast" spawned in server <STEAM_0:0:60241037> (took 65 seconds).
[19:41:27] Dropped "MiltonTheMAN" from server<STEAM_0:0:114855685>
[19:41:39] Bryan[NL]: OverRustle rlly nigga
[19:41:45] LordHarambe: WHAHA
[19:41:49] Dropped "verner" from server<STEAM_0:1:122423658>
[19:43:49] Bryan[NL]: 1jb
[19:45:40] Bryan[NL]: HAHAHA
[19:45:47] Bryan[NL]: garry
[19:45:49] LordHarambe: WHAHAHAHA
[19:46:02] LordHarambe: <icon 64,64>icon16/user.png</icon>
[19:47:04] Bryan[NL]: Xd ROFL
[19:47:19] LordHarambe: Dit past perfect vij wat we nu doen whaha
[19:47:25] Bryan[NL]: xD
[19:47:28] Bryan[NL]: #gmod taunts
[19:47:29] LordHarambe: xD
[19:47:59] Bryan[NL]: 1jb
[19:48:14] Bryan[NL]: GHWAT
[19:48:16] Bryan[NL]: SKIP
[19:48:17] Bryan[NL]: TRIGGERED
[19:48:20] LordHarambe: DONT
[19:48:23] LordHarambe: FKN
[19:48:25] LordHarambe: SKIP
[19:48:31] LordHarambe: THIS HEAVENLY SONG DAMNIT
[19:48:33] Slowbro.': do you hear something?
[19:48:40] LordHarambe: Fk yea
[19:48:42] Slowbro.': the jb is buggin i think
[19:48:48] Slowbro.': i dont hear music
[19:49:08] Bryan[NL]: type !jb
[19:49:53] Slowbro.': aaaaah
[19:49:55] LordHarambe: Bryan welke stage ben je?
[19:50:00] Bryan[NL]: naast joiu..
[19:50:03] Bryan[NL]: rood.
[19:50:08] LordHarambe: Oh oke lol
[19:50:22] LordHarambe: Whaha hoe doe je dat nu weer xD
[19:50:26] Slowbro.': how does white work?
[19:50:40] Bryan[NL]: LMFAO BEL AIR
[19:50:41] Bryan[NL]: 10/10
[19:50:49] LordHarambe: BEST THING 
[19:50:59] Slowbro.': i dont get enough speed to get around this wall
[19:51:03] LordHarambe: But not yet 10/10 tho
[19:51:04] Bryan[NL]: me2...
[19:51:19] (TEAM) LordHarambe: Me neither
[19:51:41] Bryan[NL]: IM TO FAT
[19:51:42] Bryan[NL]: FFS
[19:51:45] LordHarambe: WHAHA
[19:51:52] Bryan[NL]: MFG
[19:51:53] Bryan[NL]: OMFG
[19:51:53] Bryan[NL]: OMFG
[19:51:59] Bryan[NL]: I CAN QUE SHOOTING START OVER 50 SEC
[19:52:12] Bryan[NL]: thx gaben
[19:52:17] Slowbro.': ive qued it
[19:52:26] Bryan[NL]: k xD
[19:52:27] LordHarambe: FK YEA
[19:52:32] Slowbro.': we need it
[19:52:39] Slowbro.': to rock this shit
[19:52:46] LordHarambe: After this, guess whats coming
[19:52:48] Bryan[NL]: skip IT 
[19:52:53] Bryan[NL]: LETS DO SHOOTING STARS
[19:52:56] LordHarambe: WHAHA
[19:53:28] Client "pernilla.ihse" connected.
[19:53:50] Bryan[NL]: BRYAN POWER
[19:53:51] Bryan[NL]: HACK YHE
[19:54:01] LordHarambe: FCK JEAH
[19:54:09] LordHarambe: AAAA-EEEe-OOOO-IIII-UUUU
[19:54:12] Bryan[NL]: txD
[19:54:12] Client "pernilla.ihse" spawned in server <STEAM_0:1:188234364> (took 44 seconds).
[19:55:10] (TEAM) LordHarambe: DONT
[19:55:13] LordHarambe: SKIP
[19:55:18] Bryan[NL]: JUST DO IT
[19:55:18] LordHarambe: Ok skip
[19:55:20] Bryan[NL]: AAA III UU UAA OOO
[19:55:21] Bryan[NL]: Xd
[19:55:26] LordHarambe: xD
[19:55:40] LordHarambe: REESES PUFFS
[19:55:50] PlasmaPlayz: NO
[19:55:56] LordHarambe: EAT EM UP
[19:55:58] PlasmaPlayz: EXTEND
[19:56:03] Server is shutting down/changing levels.



[19:56:09] New map: surf_advanced
[19:56:20] Client "LordHarambe" spawned in server <STEAM_0:1:128057686> (took 12 seconds).
[19:56:20] Client "Bot413" connected.
[19:56:20] Client "Bot413" spawned in server <BOT> (took 12 seconds).
[19:56:21] Client "pernilla.ihse" spawned in server <STEAM_0:1:188234364> (took 13 seconds).
[19:56:22] Client "Bot414" connected.
[19:56:22] Client "Bot414" spawned in server <BOT> (took 14 seconds).
[19:56:22] Client "Blizzar" spawned in server <STEAM_0:0:35941911> (took 14 seconds).
[19:56:24] Client "[NL] Y@no" spawned in server <STEAM_0:1:10509244> (took 16 seconds).
[19:56:27] Client "PlasmaPlayz" spawned in server <STEAM_0:1:126748908> (took 19 seconds).
[19:56:28] Client "Bryan[NL]" spawned in server <STEAM_0:1:45597015> (took 20 seconds).
[19:56:32] Client "Toasty Toast" spawned in server <STEAM_0:0:60241037> (took 24 seconds).
[19:56:35] Client "Slowbro.'" spawned in server <STEAM_0:1:8916875> (took 27 seconds).
[19:56:41] Client "►Black¶Reaper◄" spawned in server <STEAM_0:0:66239149> (took 33 seconds).
[19:56:52] Bryan[NL]: !rtv
[19:56:56] PlasmaPlayz: are you fucking serious
[19:56:59] Bryan[NL]: xD ez
[19:57:15] Slowbro.': whats this
[19:57:17] Bryan[NL]: xD
[19:57:19] Bryan[NL]: !JB
[19:57:24] [NL] Y@no: !rtv
[19:57:24] Bryan[NL]: SKIP IT
[19:57:25] Bryan[NL]: MY EARS
[19:57:33] PlasmaPlayz: what idiot chose this map and song
[19:57:49] PlasmaPlayz: ( ͡° ͜ʖ ͡°) 
[19:57:50] ►Black¶Reaper◄: sick map
[19:57:51] Bryan[NL]: xD..
[19:57:53] ►Black¶Reaper◄: kappa
[19:57:54] PlasmaPlayz: !rtv
[19:58:01] LordHarambe: !rtv
[19:58:07] (TEAM) Toasty Toast: <avatar>
[19:58:15] (TEAM) LordHarambe: garrygarrygarrygarrygarrygarrygarrygarrygarry
[19:58:29] Bryan[NL]: GUYS SKIP IT
[19:58:32] Bryan[NL]: SHOOTING STARS SOON
[19:58:32] Bryan[NL]: ;O
[19:58:38] PlasmaPlayz: !rtv
[19:59:00] Client "Kruste" connected.
[19:59:11] (TEAM) ►Black¶Reaper◄: !rtv
[19:59:16] (TEAM) ►Black¶Reaper◄: !rtv
[19:59:30] PlasmaPlayz: !rtv
[19:59:41] Client "Kruste" spawned in server <STEAM_0:0:62087309> (took 41 seconds).
[20:00:09] (TEAM) Toasty Toast: !rtv
[20:00:13] (TEAM) Toasty Toast: !rtv
[20:00:19] Dropped "pernilla.ihse" from server<STEAM_0:1:188234364>
[20:00:58] PlasmaPlayz: !rtv
[20:01:04] Bryan[NL]: RTv
[20:01:06] Bryan[NL]: 1Rtv
[20:01:07] Bryan[NL]: !RTV
[20:01:08] Bryan[NL]: jeez
[20:01:09] [NL] Y@no: !rtv
[20:01:10] Bryan[NL]: !rtv
[20:01:10] Kruste: !rtv
[20:01:11] PlasmaPlayz: !rtv
[20:01:14] [NL] Y@no: !rtv
[20:01:19] Bryan[NL]: type !rtv
[20:01:26] Bryan[NL]: OMFG GENIUS
[20:01:32] LordHarambe: F YEAH
[20:01:47] Bryan[NL]: HEK YHEA
[20:02:10] PlasmaPlayz: ( ͡° ͜ʖ ͡°) 
[20:02:13] PlasmaPlayz: rtv
[20:02:17] Bryan[NL]: RTV PLZ
[20:02:24] LordHarambe: !rtv
[20:02:26] PlasmaPlayz: rtv you donkeys
[20:02:29] (TEAM) Toasty Toast: !rtv
[20:02:31] LordHarambe: DONKEY
[20:02:39] Bryan[NL]: 7? xD
[20:02:40] Bryan[NL]: cuz yolo
[20:02:46] PlasmaPlayz: 4
[20:03:05] Server is shutting down/changing levels.



[20:03:11] New map: surf_rebel_scaz
[20:03:23] Client "LordHarambe" spawned in server <STEAM_0:1:128057686> (took 13 seconds).
[20:03:23] Client "PlasmaPlayz" spawned in server <STEAM_0:1:126748908> (took 13 seconds).
[20:03:23] Client "Bot415" connected.
[20:03:23] Client "Bot415" spawned in server <BOT> (took 13 seconds).
[20:03:25] Client "Bot416" connected.
[20:03:25] Client "Bot416" spawned in server <BOT> (took 15 seconds).
[20:03:35] Client "[NL] Y@no" spawned in server <STEAM_0:1:10509244> (took 25 seconds).
[20:03:47] Client "Blizzar" spawned in server <STEAM_0:0:35941911> (took 37 seconds).
[20:03:47] Client "Slowbro.'" spawned in server <STEAM_0:1:8916875> (took 37 seconds).
[20:03:52] Client "Bryan[NL]" spawned in server <STEAM_0:1:45597015> (took 42 seconds).
[20:03:52] Client "Toasty Toast" spawned in server <STEAM_0:0:60241037> (took 42 seconds).
[20:04:00] Client "►Black¶Reaper◄" spawned in server <STEAM_0:0:66239149> (took 50 seconds).
[20:04:03] Bryan[NL]: !rtv
[20:04:10] Bryan[NL]: OMFG
[20:04:11] Bryan[NL]: OMFG
[20:04:15] Bryan[NL]: SHOOTING STARTS AFTER THIS ONE
[20:04:28] Client "Kruste" spawned in server <STEAM_0:0:62087309> (took 78 seconds).
[20:05:15] Client "ImmortalPr1nce" connected.
[20:05:16] Dropped "Kruste" from server<STEAM_0:0:62087309>
[20:05:24] Bryan[NL]: LOl this ez af
[20:06:38] Client "ImmortalPr1nce" spawned in server <STEAM_0:0:38021653> (took 83 seconds).
[20:06:49] (TEAM) Toasty Toast: !r
[20:07:08] LordHarambe: FUCK YEA
[20:07:08] [NL] Y@no: GERTJE
[20:07:20] (TEAM) Toasty Toast: YEE
[20:07:40] LordHarambe: YOU DONT JUST FKN SKIP THIS SONG YOU BASTARD
[20:09:09] Bryan[NL]: SPEC ME FOR SKILZ Xd
[20:09:14] Bryan[NL]: garry
[20:09:19] LordHarambe: OKI DOKI XD
[20:09:30] Bryan[NL]: W8
[20:09:31] Bryan[NL]: bind
[20:09:32] Bryan[NL]: sec
[20:09:35] LordHarambe: ZIEKE SKILLS
[20:10:00] Bryan[NL]: fk
[20:10:00] Bryan[NL]: xD
[20:10:02] Bryan[NL]: skillz 100%
[20:10:03] Bryan[NL]: shh
[20:10:04] LordHarambe: xDD
[20:10:04] Bryan[NL]: xD
[20:10:10] LordHarambe: Fk ziek hoor xD
[20:10:11] Bryan[NL]: w8 wat
[20:10:12] Bryan[NL]: zag je dat?
[20:10:13] Bryan[NL]: ??
[20:10:18] LordHarambe: Nee
[20:10:25] LordHarambe: Stopte net met speccen haha
[20:11:28] Blizzar: !kb
[20:12:03] LordHarambe: FFFUUUUUCCCCKKKKK
[20:13:22] (TEAM) [NL] Y@no: wtf is dit voor turkse music
[20:13:38] [NL] Y@no: allhu akbar remix is nog beter
[20:13:56] Dropped "ImmortalPr1nce" from server<STEAM_0:0:38021653>
[20:14:35] Client "Kruste" connected.
[20:14:46] Client "Kruste" spawned in server <STEAM_0:0:62087309> (took 11 seconds).
[20:18:20] Slowbro.': !r
[20:18:41] Bryan[NL]: 1jb
[20:19:27] Client "Paradox" connected.
[20:19:43] Client "Paradox" spawned in server <STEAM_0:0:79525589> (took 16 seconds).
[20:20:32] Client "Pereija" connected.
[20:20:42] Paradox: !r
[20:20:44] Paradox: !r
[20:20:52] Paradox: !r
[20:20:54] Paradox: !r
[20:21:00] Paradox: !r
[20:21:02] Paradox: !r
[20:21:11] Paradox: !r
[20:21:12] Client "Ayase Kurosaki" connected.
[20:21:18] Paradox: !r
[20:21:26] Paradox: !r
[20:21:34] Slowbro.': /dance
[20:21:46] Paradox: !r
[20:21:55] Client "Bucky" connected.
[20:22:00] Paradox: !r
[20:22:03] Paradox: !r
[20:22:08] Client "Flazze" connected.
[20:22:40] Paradox: !r
[20:22:47] Paradox: !r
[20:22:51] Client "Pereija" spawned in server <STEAM_0:1:114388955> (took 139 seconds).
[20:22:54] Paradox: !r
[20:23:23] Blizzar: !tutorial
[20:23:44] Client "j_crakers" connected.
[20:24:20] Paradox: !r
[20:24:44] Paradox: !r
[20:25:08] Paradox: !r
[20:25:27] Client "j_crakers" spawned in server <STEAM_0:1:80577651> (took 103 seconds).
[20:25:32] PlasmaPlayz: !rtv
[20:25:36] Paradox: !r
[20:25:49] Paradox: !r
[20:25:54] Paradox: !r
[20:26:06] Paradox: !r
[20:26:08] Client "Ayase Kurosaki" spawned in server <STEAM_0:1:170288325> (took 296 seconds).
[20:26:15] Paradox: !r
[20:26:21] Paradox: !r
[20:26:45] (csay from Paradox) Server seems abit dead eh? 
[20:26:56] (csay from Paradox) Lets have some fun
[20:27:25] Dropped "Ayase Kurosaki" from server<STEAM_0:1:170288325>
[20:27:28] (csay from Paradox) Say a joke and first one to make me laugh gets a random knife
[20:27:41] Client "Flazze" spawned in server <STEAM_0:0:176464254> (took 333 seconds).
[20:27:51] Paradox: !r
[20:27:55] Paradox: !r
[20:28:10] Paradox: !r
[20:28:12] Dropped "Slowbro.'" from server<STEAM_0:1:8916875>
[20:28:17] Paradox: !r
[20:28:25] Paradox: !r
[20:28:26] Client "Dokkran" connected.
[20:28:35] (csay from Paradox) rip
[20:28:44] Paradox: !r
[20:29:01] Paradox: !r
[20:29:14] (TEAM) Toasty Toast: °jb
[20:29:17] Dropped "j_crakers" from server<STEAM_0:1:80577651>
[20:29:24] Paradox: f7
[20:29:35] Client "Dokkran" spawned in server <STEAM_0:0:43188817> (took 69 seconds).
[20:29:36] Dropped "Dokkran" from server<STEAM_0:0:43188817>
[20:29:43] (TEAM) Flazze: what was the song that was just  playing
[20:30:19] Dropped "Paradox" from server<STEAM_0:0:79525589>
[20:30:25] LordHarambe: Bye duds
[20:30:28] Dropped "LordHarambe" from server<STEAM_0:1:128057686>
[20:30:29] [NL] Y@no: BYE HOND
[20:30:32] Bryan[NL]: xD
[20:30:32] Flazze: Sah
[20:31:36] Client "Bucky" spawned in server <STEAM_0:1:48923111> (took 581 seconds).
[20:31:44] Dropped "PlasmaPlayz" from server<STEAM_0:1:126748908>
[20:31:56] Bryan[NL]: what
[20:32:20] Bryan[NL]: this map is to ez :/
[20:32:28] [NL] Y@no: XD
[20:32:42] Bucky: ggggooood to be back to surf
[20:32:52] Client "PlasmaPlayz" connected.
[20:32:56] Bucky: its been a while
[20:33:04] Bucky: !r
[20:33:23] Dropped "Flazze" from server<STEAM_0:0:176464254>
[20:33:33] Client "GOK WAN BAE" connected.
[20:33:41] Client "PlasmaPlayz" spawned in server <STEAM_0:1:126748908> (took 49 seconds).
[20:33:47] Bucky: !rtv
[20:33:48] Server is shutting down/changing levels.



[20:33:54] New map: surf_classics
[20:34:09] Client "Bucky" spawned in server <STEAM_0:1:48923111> (took 16 seconds).
[20:34:09] Client "Bot417" connected.
[20:34:09] Client "Bot417" spawned in server <BOT> (took 16 seconds).
[20:34:12] Client "Bot418" connected.
[20:34:12] Client "Bot418" spawned in server <BOT> (took 19 seconds).
[20:34:16] Client "[NL] Y@no" spawned in server <STEAM_0:1:10509244> (took 23 seconds).
[20:34:23] Client "Blizzar" spawned in server <STEAM_0:0:35941911> (took 30 seconds).
[20:34:25] Client "Bryan[NL]" spawned in server <STEAM_0:1:45597015> (took 32 seconds).
[20:34:32] Client "Pereija" spawned in server <STEAM_0:1:114388955> (took 39 seconds).
[20:34:36] Client "Kruste" spawned in server <STEAM_0:0:62087309> (took 43 seconds).
[20:34:36] Client "Toasty Toast" spawned in server <STEAM_0:0:60241037> (took 43 seconds).
[20:34:40] Client "►Black¶Reaper◄" spawned in server <STEAM_0:0:66239149> (took 47 seconds).
[20:34:41] Client "GOK WAN BAE" spawned in server <STEAM_0:1:148312680> (took 48 seconds).
[20:34:42] Client "PlasmaPlayz" spawned in server <STEAM_0:1:126748908> (took 49 seconds).
[20:34:44] Bryan[NL]: LOVE THIS MAP
[20:37:22] Bryan[NL]: wow
[20:37:26] Bryan[NL]: i h8 this part its buggy af.
[20:37:37] Bucky: wtf is this map
[20:37:41] Bucky: !rtv
[20:37:42] Bryan[NL]: aids
[20:37:43] Bucky: !rtv
[20:37:44] GOK WAN BAE: UIOP[HOW DO I TURN THE MUSIC OFF
[20:38:01] Bryan[NL]: .!jb
[20:38:06] Client "Jamesypig2006" connected.
[20:38:13] Bucky: settings>audio>game vol
[20:39:29] Client "Razgrizfox" connected.
[20:39:32] Client "Jamesypig2006" spawned in server <STEAM_0:1:98041180> (took 86 seconds).
[20:39:45] Client "oliQQ" connected.
[20:40:36] Bucky: !rtv
[20:40:37] Client "Razgrizfox" spawned in server <STEAM_0:0:7341976> (took 68 seconds).
[20:40:42] Bryan[NL]: DONT rtv :/
[20:40:52] Bucky: this map is shit
[20:40:58] Bryan[NL]: u2 ;)
[20:40:59] (TEAM) Bryan[NL]: jk
[20:41:02] Client "oliQQ" spawned in server <STEAM_0:1:183458094> (took 77 seconds).
[20:41:03] Bucky: ?
[20:41:09] Bucky: wow
[20:41:30] Bucky: how long u played on the server
[20:41:38] Bryan[NL]: not long
[20:41:45] Bryan[NL]: but i played many hours on other servers why?
[20:41:50] Bucky: u a noob of surf?
[20:42:04] Bryan[NL]: rofl no..
[20:42:05] Bucky: just wondering
[20:42:09] Bryan[NL]: ow he
[20:42:11] Bryan[NL]: IM next to u
[20:42:22] Bucky: oh hi
[20:43:30] Bryan[NL]: wait wut
[20:43:48] Bucky: i nned utopia
[20:44:03] Bucky: !rtv
[20:44:08] Bucky: plz rtv
[20:44:17] Pereija: !rtv
[20:44:18] Jamesypig2006: !tutorial
[20:44:23] Dropped "GOK WAN BAE" from server<STEAM_0:1:148312680>
[20:44:25] (TEAM) ►Black¶Reaper◄: !rtv
[20:45:01] Client "SgtKingZz" connected.
[20:45:30] Bryan[NL]: how ?
[20:45:31] Dropped "Blizzar" from server<STEAM_0:0:35941911>
[20:45:31] Client "Blizzar" connected.
[20:45:36] Bucky: watch
[20:45:40] Client "Blizzar" spawned in server <STEAM_0:0:35941911> (took 9 seconds).
[20:45:49] Bryan[NL]: ahh i see
[20:45:51] Client "LeeN" connected.
[20:46:18] Bucky: rtv
[20:46:41] Bucky: plz
[20:46:44] Pereija: i like my nipples
[20:46:57] PlasmaPlayz: ( ͡° ͜ʖ ͡°) 
[20:46:59] Bryan[NL]: wth ;o
[20:47:12] Bucky: omg plz
[20:47:38] Client "SgtKingZz" spawned in server <STEAM_0:1:199444080> (took 157 seconds).
[20:47:48] Bryan[NL]: WAHT
[20:47:50] Bryan[NL]: the water?
[20:47:51] Bucky: "!rtv"
[20:47:58] Dropped "Razgrizfox" from server<STEAM_0:0:7341976>
[20:47:58] Bucky: plz
[20:48:01] Bucky: !rtv
[20:48:30] Bucky: plz
[20:48:34] Bryan[NL]: ..
[20:48:40] Bryan[NL]: !no
[20:48:44] Client "Apu Theke" connected.
[20:48:47] Bryan[NL]: "!no"
[20:49:01] Bucky: go fuk ur self u little shit
[20:49:08] Kruste: chill
[20:49:12] Bryan[NL]: mad bro..
[20:49:14] PlasmaPlayz: woah
[20:49:24] Client "Apu Theke" spawned in server <STEAM_0:1:196354609> (took 40 seconds).
[20:49:37] Bucky: i was koking but ok
[20:49:43] Client "LeeN" spawned in server <STEAM_0:0:149412788> (took 232 seconds).
[20:49:44] Dropped "Apu Theke" from server<STEAM_0:1:196354609>
[20:49:48] Bucky: !rtv
[20:49:55] Bucky: can we rtv though
[20:49:56] Client "-_-" connected.
[20:50:02] PlasmaPlayz: no
[20:50:05] Bucky: y?
[20:50:13] Bucky: this is a really bad map
[20:50:19] PlasmaPlayz: but its easy
[20:50:23] Kruste: yep
[20:50:26] Bryan[NL]: xD this part isnt..
[20:50:29] PlasmaPlayz: what level are you on?
[20:50:36] Bryan[NL]: ehh..
[20:50:37] Bucky: idk
[20:50:50] Bryan[NL]: the gravity one..
[20:50:53] Bucky: i want to play utopia
[20:51:04] Bucky: thats a good map
[20:51:11] Dropped "Pereija" from server<STEAM_0:1:114388955>
[20:51:21] Bryan[NL]: krust
[20:51:23] Bucky: and its not a fucking stage map
[20:51:31] Kruste: ye?
[20:51:34] Bryan[NL]: u have been to the gravity one?
[20:51:38] Dropped "SgtKingZz" from server<STEAM_0:1:199444080>
[20:51:42] Kruste: dunno
[20:51:45] Bucky: just rtv
[20:51:49] Bryan[NL]: !rtv
[20:51:51] Kruste: what does it look like?
[20:51:56] Bryan[NL]: gravity shit
[20:52:07] Bucky: utopia?
[20:52:11] Bryan[NL]: u will bhop on the roof.
[20:52:19] Bryan[NL]: gravity changes..
[20:52:33] Kruste: nevermind have to go ^^
[20:52:38] Dropped "Kruste" from server<STEAM_0:0:62087309>
[20:52:44] Bryan[NL]: xD
[20:52:49] Bucky: wow
[20:53:02] Bucky: rtv
[20:53:07] Dropped "LeeN" from server<STEAM_0:0:149412788>
[20:53:10] Bucky: rtv
[20:53:25] Bucky: i want to beat my pb
[20:53:28] Bucky: plz
[20:53:45] Client "Daddy Josh" connected.
[20:53:49] Dropped "oliQQ" from server<STEAM_0:1:183458094>
[20:53:55] Dropped "Jamesypig2006" from server<STEAM_0:1:98041180>
[20:54:27] Bryan[NL]: OMFG
[20:54:29] Bryan[NL]: MADE IT
[20:54:32] Bryan[NL]: BUT WTH IS THIS..
[20:54:34] Bryan[NL]: i dont wanna fk up
[20:54:46] Bucky: alright listen here u fat shit rtv 
[20:54:47] Bryan[NL]: YES MADEI T
[20:54:48] Bryan[NL]: YESSS
[20:54:49] Bryan[NL]: YESSS
[20:54:58] Bryan[NL]: stfu bucky.. i already rtv..
[20:55:01] Bryan[NL]: dumb piece of
[20:55:02] Bryan[NL]: xD jk
[20:55:16] Bryan[NL]: LOl bucky spc me
[20:55:17] Bucky: ur all adopted fuckers just rtv
[20:55:18] Bryan[NL]: wth is this xD
[20:55:22] [NL] Y@no: no
[20:55:32] Client "Daddy Josh" spawned in server <STEAM_0:1:89897249> (took 107 seconds).
[20:55:38] Bryan[NL]: dafuq xD
[20:56:00] Bucky: Y@no ur adopted ur guardians dont even love u
[20:56:01] Bryan[NL]: srsly :/
[20:56:02] Bryan[NL]: Xd
[20:56:02] Dropped "Bucky" from server<STEAM_0:1:48923111>
[20:56:11] PlasmaPlayz: lol
[20:56:28] [NL] Y@no: they do that your gauurdians dotn love you dont mean that mine dont love my
[20:56:32] Bryan[NL]: CALM DOWn moitherfker he is my friend.
[20:56:46] Bryan[NL]: his english is perfect tho
[20:56:50] [NL] Y@no: no
[20:56:53] Bryan[NL]: ROlf
[20:57:07] Bryan[NL]: omfg made it
[20:57:10] Bryan[NL]: WTH
[20:57:13] Bryan[NL]: IM ON DRUGS WTF
[20:57:20] Bryan[NL]: spec
[20:57:51] Dropped "Daddy Josh" from server<STEAM_0:1:89897249>
[20:58:20] Bryan[NL]: omfg i made the map
[20:58:21] Bryan[NL]: OMFG
[20:58:22] Bryan[NL]: OMFG
[20:58:23] Bryan[NL]: SKILLZ
[20:58:26] Bryan[NL]: FK U ALL 
[20:58:27] Bryan[NL]: JK <3
[20:59:28] Client "MrJZebra" connected.
[21:00:54] Blizzar: jb
[21:03:55] Dropped "Blizzar" from server<STEAM_0:0:35941911>
[21:04:08] (TEAM) Toasty Toast: 6!
[21:08:55] Dropped "[NL] Y@no" from server<STEAM_0:1:10509244>
[21:09:04] Client "[NL] Y@no" connected.
[21:09:17] Client "[NL] Y@no" spawned in server <STEAM_0:1:10509244> (took 13 seconds).
[21:10:12] (TEAM) ►Black¶Reaper◄: !rtv
[21:10:21] (TEAM) Toasty Toast: !rtv
[21:12:49] Client "KJelles The Camel" connected.
[21:13:25] Client "KJelles The Camel" spawned in server <STEAM_0:0:50269528> (took 36 seconds).
[21:13:44] KJelles The Camel: Hey peeps
[21:13:47] Bryan[NL]: hai
[21:13:47] KJelles The Camel: !r
[21:13:51] PlasmaPlayz: hey
[21:14:22] KJelles The Camel: !r
[21:14:30] Bryan[NL]: im almsot at the end 
[21:14:31] Bryan[NL]: i think ...
[21:14:33] KJelles The Camel: ehh
[21:14:34] KJelles The Camel: !spec
[21:14:43] KJelles The Camel: yh kinda
[21:14:46] KJelles The Camel: 6 more i think
[21:14:49] KJelles The Camel: !spec
[21:14:54] KJelles The Camel: !r
[21:15:01] Bryan[NL]: ..
[21:15:04] Bryan[NL]: nice
[21:15:21] PlasmaPlayz: FUCK
[21:15:23] PlasmaPlayz: ME
[21:15:31] (TEAM) Toasty Toast: 32 stages map ._.
[21:16:28] PlasmaPlayz: ive been doing the same fucking bit for 30 fucking mins
[21:16:35] KJelles The Camel: !r
[21:16:36] (TEAM) ►Black¶Reaper◄: jeah same
[21:18:55] Dropped "[NL] Y@no" from server<STEAM_0:1:10509244>
[21:19:06] Client "[NL] Y@no" connected.
[21:19:14] Client "[NL] Y@no" spawned in server <STEAM_0:1:10509244> (took 8 seconds).
[21:19:30] Bryan[NL]: 6 PLZ
[21:19:31] Bryan[NL]: NOO
[21:19:32] Bryan[NL]: DONT PLZZ
[21:19:33] Bryan[NL]: PLZ
[21:19:35] Bryan[NL]: ;(
[21:19:46] Bryan[NL]: thx <3
[21:20:00] [NL] Y@no: XD
[21:20:28] PlasmaPlayz: 15 mins? i will need more time than thet to complete this fuckin level
[21:20:49] Dropped "►Black¶Reaper◄" from server<STEAM_0:0:66239149>
[21:20:53] Dropped "Toasty Toast" from server<STEAM_0:0:60241037>
[21:21:04] Client "Thrat" connected.
[21:21:06] [NL] Y@no: i am a allhu akbar (
[21:21:09] Bryan[NL]: xD
[21:21:12] KJelles The Camel: same tbh fam
[21:21:14] KJelles The Camel: Indeed. ( ͡° ͜ʖ ͡°)
[21:21:17] [NL] Y@no: yeah man
[21:22:16] Client "Thrat" spawned in server <STEAM_0:1:104593442> (took 72 seconds).
[21:24:18] PlasmaPlayz: i will rape those useless ramps
[21:24:30] Bryan[NL]: fK
[21:24:39] Bryan[NL]: i cant make it
[21:25:13] Dropped "Thrat" from server<STEAM_0:1:104593442>
[21:25:22] [NL] Y@no: go watch a try not to allhu akbar fap
[21:25:35] PlasmaPlayz: ?
[21:25:43] [NL] Y@no: go watch a try not to fap
[21:25:48] Bryan[NL]: .,.
[21:25:58] PlasmaPlayz: tried one but failed :(
[21:26:01] [NL] Y@no: XD
[21:28:04] Bryan[NL]: 1jb
[21:28:04] Client "p i c k l e  ♥ n o a" connected.
[21:28:26] KJelles The Camel: !r
[21:29:12] PlasmaPlayz: FUCK ME IN THE ANUS
[21:29:18] Bryan[NL]: k
[21:29:25] PlasmaPlayz: ( ͡° ͜ʖ ͡°) 
[21:29:45] Bryan[NL]: some1 help me ;-;
[21:30:00] KJelles The Camel: !spec
[21:30:14] Bryan[NL]: :/
[21:30:16] KJelles The Camel: your sensitivity?
[21:30:25] Bryan[NL]: ehh
[21:30:26] Bryan[NL]: idk
[21:30:29] Client "steve" connected.
[21:30:29] KJelles The Camel: looks so high
[21:30:33] Bryan[NL]: xD
[21:30:47] Bryan[NL]: i suck xD
[21:30:49] Client "p i c k l e  ♥ n o a" spawned in server <STEAM_0:1:126440019> (took 165 seconds).
[21:31:17] Bryan[NL]: ow i see
[21:31:21] Client "steve" spawned in server <STEAM_0:0:155570425> (took 52 seconds).
[21:31:21] Bryan[NL]: :/ rofl
[21:31:23] KJelles The Camel: you need to maintain your speed
[21:31:28] Bryan[NL]: how xD.
[21:31:32] KJelles The Camel: lower your sens
[21:31:33] PlasmaPlayz: help meh plez
[21:31:40] KJelles The Camel: you lose alot by just moving around
[21:31:54] KJelles The Camel: !r
[21:31:57] KJelles The Camel: bhop
[21:31:59] KJelles The Camel: on top of them
[21:32:03] Bryan[NL]: k
[21:32:07] KJelles The Camel: dont try and surf them PlasmaPlayz
[21:32:15] PlasmaPlayz: ahhhh
[21:32:18] KJelles The Camel: ^^
[21:32:23] PlasmaPlayz: thanks man
[21:33:55] Dropped "[NL] Y@no" from server<STEAM_0:1:10509244>
[21:34:00] Client "[NL] Y@no" connected.
[21:34:13] Client "[NL] Y@no" spawned in server <STEAM_0:1:10509244> (took 13 seconds).
[21:35:01] PlasmaPlayz: 6
[21:35:06] [NL] Y@no: 6
[21:35:36] Dropped "steve" from server<STEAM_0:0:155570425>
[21:37:54] [NL] Y@no: xd
[21:39:21] [NL] Y@no: XD
[21:40:15] Dropped "p i c k l e  ♥ n o a" from server<STEAM_0:1:126440019>
[21:40:19] PlasmaPlayz: fuck off
[21:40:24] Client "noa" connected.
[21:40:26] PlasmaPlayz: 1 inch away
[21:44:00] [NL] Y@no: XD
[21:44:09] PlasmaPlayz: ?
[21:44:22] PlasmaPlayz: how do you skiip song?
[21:44:42] [NL] Y@no: do !jb
[21:49:01] [NL] Y@no: JOIN US FOR A BITE!!!!!!!!!!!
[21:49:50] [NL] Y@no: no dont skip
[21:50:33] PlasmaPlayz: 6
[21:51:54] [NL] Y@no: is there a shop ?
[21:52:03] [NL] Y@no: !shop
[21:52:04] PlasmaPlayz: get fucking in
[21:52:12] PlasmaPlayz: i fiannly did the level]
[21:52:23] Bryan[NL]: im at the last lvl
[21:53:55] Dropped "KJelles The Camel" from server<STEAM_0:0:50269528>
[21:54:17] [NL] Y@no:  my coak is auwie auwie
[21:55:08] [NL] Y@no: XD
[22:00:52] Client "XxTheProxX15" connected.
[22:01:23] Client "Cosmic" connected.
[22:02:05] Client "Cosmic" spawned in server <STEAM_0:1:168631107> (took 42 seconds).
[22:02:10] Client "XxTheProxX15" spawned in server <STEAM_0:1:94146882> (took 78 seconds).
[22:03:41] XxTheProxX15: !r
[22:04:10] Dropped "[NL] Y@no" from server<STEAM_0:1:10509244>
[22:04:49] Bryan[NL]: omfg
[22:04:56] Bryan[NL]: im at the last part of the map.
[22:06:02] Bryan[NL]: 6 plz
[22:06:02] Bryan[NL]: plz
[22:06:11] PlasmaPlayz: YOU KNOW THE DRILL
[22:06:14] Bryan[NL]: 6
[22:06:20] Bryan[NL]: thx
[22:06:26] Bryan[NL]: IM AT THE LAST PARTY just dont xD
[22:06:28] Bryan[NL]: PART*
[22:06:38] Client "TomThomson" connected.
[22:06:45] Client "Fleight" connected.
[22:07:35] Dropped "XxTheProxX15" from server<STEAM_0:1:94146882>
[22:08:19] Client "Fleight" spawned in server <STEAM_0:0:82803438> (took 94 seconds).
[22:09:03] Bryan[NL]: NOO
[22:10:31] Client "TomThomson" spawned in server <STEAM_0:0:61604809> (took 233 seconds).
[22:11:08] TomThomson: hi ^^
[22:11:37] Fleight: Hello
[22:14:29] Bryan[NL]: rpofl
[22:20:49] Cosmic: !r
[22:21:32] PlasmaPlayz: YOU KNOW THE DRILL
[22:21:33] Bryan[NL]: 6
[22:21:34] Bryan[NL]: 6
[22:22:29] Client "XxTheProxX15" connected.
[22:22:55] Client "XxTheProxX15" spawned in server <STEAM_0:1:94146882> (took 26 seconds).
[22:23:34] XxTheProxX15: !r
[22:23:39] XxTheProxX15: !r
[22:23:45] XxTheProxX15: !r
[22:23:48] Dropped "Fleight" from server<STEAM_0:0:82803438>
[22:24:00] PlasmaPlayz: evening
[22:24:17] TomThomson: Hi ^^
[22:24:20] Bryan[NL]: HI
[22:24:20] XxTheProxX15: rtv
[22:24:22] XxTheProxX15: !rtv
[22:24:24] Bryan[NL]: NO DONT RTV
[22:24:25] Bryan[NL]: DONT
[22:24:37] XxTheProxX15: It's a shite map
[22:24:42] Bryan[NL]: ur shit
[22:24:53] TomThomson: :D
[22:25:07] XxTheProxX15: couldnt have said a better insult at all???
[22:26:23] Bryan[NL]: wow im at the last part ;o
[22:26:25] Bryan[NL]: jeez its hard af
[22:26:47] XxTheProxX15: it's gonna fucking be
[22:26:53] XxTheProxX15: It's the last part for a reason
[22:27:11] Dropped "Cosmic" from server<STEAM_0:1:168631107>
[22:27:12] Bryan[NL]: im already doing the last part for half and our
[22:27:14] TomThomson: I like this map cause it is good for beginners like me
[22:27:26] Bryan[NL]: rofl tom its not at the end.
[22:27:39] TomThomson: Didnt said so :P
[22:28:50] XxTheProxX15: !r
[22:28:56] Bryan[NL]: spec me for last party
[22:28:58] Bryan[NL]: party*
[22:29:01] Bryan[NL]: part*
[22:29:04] Bryan[NL]: jeezxD
[22:29:25] TomThomson: Do I get reseted then?
[22:29:31] Bryan[NL]: yup..
[22:29:33] XxTheProxX15: !r
[22:29:34] XxTheProxX15: !r
[22:29:39] TomThomson: ;(
[22:29:59] Client "Mkgaming+" connected.
[22:30:11] Client "Mkgaming+" connected.
[22:30:54] Bryan[NL]: FK
[22:30:56] Bryan[NL]: this is so hard
[22:31:26] TomThomson: All the players passing me with full speed like: What a noob :D
[22:32:13] Bryan[NL]: FK ;-;
[22:34:02] Bryan[NL]: spec me
[22:34:04] Bryan[NL]: ;0
[22:34:10] TomThomson: Who
[22:34:13] TomThomson: everybody?
[22:34:23] PlasmaPlayz: ( ͡° ͜ʖ ͡°) 
[22:34:26] Bryan[NL]: if u wanna see the end spec me *
[22:34:33] (TEAM) TomThomson: !spec
[22:34:42] Bryan[NL]: fk wai
[22:34:51] Bryan[NL]: twait what..
[22:34:56] Bryan[NL]: i got tpped back srsly..
[22:35:01] TomThomson: xD
[22:35:06] PlasmaPlayz: what?
[22:35:11] (TEAM) TomThomson: I could never do that
[22:35:42] Bryan[NL]: ;-;
[22:35:43] Bryan[NL]: triggered
[22:36:12] Bryan[NL]: ..
[22:36:21] TomThomson: Alright I will head off ^^ cya
[22:36:27] Bryan[NL]: k cya
[22:36:43] Dropped "TomThomson" from server<STEAM_0:0:61604809>
[22:37:04] Bryan[NL]: 6
[22:37:06] XxTheProxX15: 2
[22:37:08] XxTheProxX15: Please
[22:37:11] Bryan[NL]: 6..
[22:37:12] XxTheProxX15: Fuck off
[22:37:14] XxTheProxX15: not again
[22:37:15] Bryan[NL]: nahh thx
[22:37:21] XxTheProxX15: literilly 10 hours on this shit
[22:37:24] Bryan[NL]: leave >:d
[22:37:40] PlasmaPlayz: *2 hours
[22:37:48] XxTheProxX15: That's what your mom said to em when I penetrated her ass so hard it sent her toAfric
[22:37:51] Bryan[NL]: xD
[22:37:55] PlasmaPlayz: XD
[22:38:00] Bryan[NL]: mad kiddo?
[22:38:08] PlasmaPlayz: i think so
[22:38:18] XxTheProxX15: Anyone would be if they saw you
[22:38:31] Bryan[NL]: u cant even see me boii
[22:38:32] Bryan[NL]: im to fast
[22:38:44] PlasmaPlayz: jokes on you coz im a mirror
[22:38:45] XxTheProxX15: Your birth certificate was an appology from the Condom Factory bitch
[22:38:59] PlasmaPlayz: lol
[22:39:11] Bryan[NL]: OMFG almost made it
[22:39:34] XxTheProxX15: So did your mum's Cum last night
[22:39:44] PlasmaPlayz: maybe
[22:39:50] PlasmaPlayz: i wouldnt know
[22:42:31] Dropped "XxTheProxX15" from server<STEAM_0:1:94146882>
[22:47:24] Bryan[NL]: FKING HELL
[22:49:29] PlasmaPlayz: how could someone do this in 7 mins?
[22:49:34] Bryan[NL]: H4X Xd
[22:50:07] Bryan[NL]: omfg i can see the end!!!
[22:50:08] Bryan[NL]: OMFG
[22:52:49] Client "penis violador" connected.
[22:55:13] Client "penis violador" spawned in server <STEAM_0:0:57105085> (took 144 seconds).
[22:55:16] Bryan[NL]: OMFG
[22:55:20] Bryan[NL]: I TOUCHED IT
[22:55:21] Bryan[NL]: NOO ;-;
[22:58:33] Bryan[NL]: FKing hell
[22:59:54] Bryan[NL]: Fk ;0-;
[23:00:03] Bryan[NL]: ;-;*
[23:00:17] Client "Kotetsu" connected.
[23:01:21] Bryan[NL]: spec me for end part
[23:01:37] Client "Kotetsu" spawned in server <STEAM_0:1:95205024> (took 80 seconds).
[23:03:51] Bryan[NL]: dude..
[23:03:55] Bryan[NL]: i can see the credits and stuf
[23:03:58] Bryan[NL]: almost there ;)
[23:04:53] Bryan[NL]: YES
[23:04:54] Bryan[NL]: YES
[23:04:55] Bryan[NL]: YERS
[23:04:56] Bryan[NL]: I DID
[23:04:56] Bryan[NL]: IT
[23:04:57] Bryan[NL]: YESS
[23:04:58] Bryan[NL]: MADE IT
[23:05:02] Bryan[NL]: yuss
[23:05:02] Bryan[NL]: !!!
[23:05:15] Bryan[NL]: #MADE IT !!!
[23:06:05] Bryan[NL]: ROFL plasma
[23:06:09] Bryan[NL]: ur not even close to the end
[23:06:11] Bryan[NL]: just saying xD..
[23:06:18] Bryan[NL]: so gl buddy
[23:06:55] PlasmaPlayz: how many stages?
[23:07:44] PlasmaPlayz: efwe
[23:07:45] PlasmaPlayz: ( ͡° ͜ʖ ͡°) 
[23:07:46] PlasmaPlayz: ewfe4fgyw
[23:07:47] PlasmaPlayz: ( ͡° ͜ʖ ͡°) 
[23:07:48] PlasmaPlayz: ewqhvjwqe
[23:07:49] PlasmaPlayz: ( ͡° ͜ʖ ͡°) 
[23:07:50] PlasmaPlayz: guyewewfu9ef
[23:07:50] Bryan[NL]: ehh
[23:07:58] Bryan[NL]: arround 20 to go?
[23:08:03] Bryan[NL]: like super big stages
[23:08:16] Bryan[NL]: but im going ofline
[23:08:19] Bryan[NL]: gl plasma
[23:08:26] PlasmaPlayz: thnx
[23:08:33] Dropped "Bryan[NL]" from server<STEAM_0:1:45597015>
[23:08:53] Client "N-G | Zombiez ツ" connected.
[23:12:20] Dropped "Kotetsu" from server<STEAM_0:1:95205024>
[23:18:50] Client "Virtual" connected.
[23:20:04] Client "maso" connected.
[23:22:04] Client "Virtual" spawned in server <STEAM_0:0:135051720> (took 194 seconds).
[23:23:48] Client "maso" spawned in server <STEAM_0:1:482948> (took 224 seconds).
[23:24:10] Server is shutting down/changing levels.



[23:24:17] New map: surf_classics2
[23:24:31] Client "PlasmaPlayz" spawned in server <STEAM_0:1:126748908> (took 15 seconds).
[23:24:31] Client "Bot419" connected.
[23:24:31] Client "Bot419" spawned in server <BOT> (took 15 seconds).
[23:24:33] Client "Bot420" connected.
[23:24:33] Client "Bot420" spawned in server <BOT> (took 17 seconds).
[23:24:49] Client "Virtual" spawned in server <STEAM_0:0:135051720> (took 33 seconds).
[23:24:53] Client "penis violador" spawned in server <STEAM_0:0:57105085> (took 37 seconds).
[23:24:56] Client "maso" spawned in server <STEAM_0:1:482948> (took 40 seconds).
[23:25:23] maso: !r
[23:25:43] maso: !r
[23:25:47] maso: rtv
[23:25:50] maso: !rtv
[23:26:03] Virtual: restart
[23:26:08] Virtual: !restart
[23:26:12] maso: !r
[23:30:38] Dropped "PlasmaPlayz" from server<STEAM_0:1:126748908>
[23:30:42] Client "☾ Mz Wretched ☽" connected.
[23:32:11] Client "Zeku" connected.
[23:32:42] Client "☾ Mz Wretched ☽" spawned in server <STEAM_0:1:54263012> (took 120 seconds).
[23:32:50] Client "Zeku" spawned in server <STEAM_0:1:48542650> (took 39 seconds).
[23:36:00] Dropped "☾ Mz Wretched ☽" from server<STEAM_0:1:54263012>
[23:42:21] maso: !r
[23:42:47] Dropped "Virtual" from server<STEAM_0:0:135051720>
[23:44:06] maso: !r
[23:44:17] maso: !r
[23:44:56] Dropped "penis violador" from server<STEAM_0:0:57105085>
[23:44:56] Client "penis violador" connected.
[23:44:57] Client "penis violador" connected.
[23:46:28] maso: !r
[23:46:42] Dropped "maso" from server<STEAM_0:1:482948>
[23:49:00] Zeku: !rtv
[23:49:36] Server is shutting down/changing levels.



[23:49:42] New map: surf_wood
[23:49:51] Client "Zeku" spawned in server <STEAM_0:1:48542650> (took 10 seconds).
[23:49:51] Client "Bot421" connected.
[23:49:51] Client "Bot421" spawned in server <BOT> (took 10 seconds).
[23:49:53] Client "Bot422" connected.
[23:49:53] Client "Bot422" spawned in server <BOT> (took 12 seconds).
[23:53:30] Zeku: !rtv
[23:53:47] Zeku: !rtv
[23:55:12] Zeku: !rtv
[23:55:48] Server is shutting down/changing levels.



[23:55:54] New map: surf_utopia_njv
[23:56:02] Client "Zeku" spawned in server <STEAM_0:1:48542650> (took 9 seconds).
[23:56:02] Client "Bot423" connected.
[23:56:02] Client "Bot423" spawned in server <BOT> (took 9 seconds).
[23:56:04] Client "Bot424" connected.
[23:56:04] Client "Bot424" spawned in server <BOT> (took 11 seconds).
<Logging continued in "data/ulx_logs/05-13-17.txt">
