<Logging continued from "data/ulx_logs/06-20-17.txt">
[00:05:49] Server is shutting down/changing levels.



[00:05:55] New map: surf_forbidden_ways_ksf
[00:10:31] Client "jony2chainz { Chainz }" connected.
[00:11:03] Client "jony2chainz { Chainz }" spawned in server <STEAM_0:1:148411446> (took 32 seconds).
[00:11:03] Client "Bot43" connected.
[00:11:03] Client "Bot43" spawned in server <BOT> (took 309 seconds).
[00:11:05] Client "Bot44" connected.
[00:11:05] Client "Bot44" spawned in server <BOT> (took 311 seconds).
[00:11:47] jony2chainz { Chainz }: !rtv
[00:12:23] Server is shutting down/changing levels.



[00:12:30] New map: surf_prelude_ksf
[00:12:40] Client "jony2chainz { Chainz }" spawned in server <STEAM_0:1:148411446> (took 11 seconds).
[00:12:40] Client "Bot45" connected.
[00:12:40] Client "Bot45" spawned in server <BOT> (took 11 seconds).
[00:12:42] Client "Bot46" connected.
[00:12:42] Client "Bot46" spawned in server <BOT> (took 13 seconds).
[00:13:15] Client "Гермес" connected.
[00:14:43] Client "☭ SemiSun | Trading" connected.
[00:16:03] Client "☭ SemiSun | Trading" spawned in server <STEAM_0:0:200896443> (took 80 seconds).
[00:19:05] Client "SlimCatBaby" connected.
[00:19:30] Client "SlimCatBaby" spawned in server <STEAM_0:1:38957854> (took 25 seconds).
[00:20:23] ☭ SemiSun | Trading: !knife
[00:25:16] Dropped "jony2chainz { Chainz }" from server<STEAM_0:1:148411446>
[00:27:38] Dropped "☭ SemiSun | Trading" from server<STEAM_0:0:200896443>
[00:29:30] SlimCatBaby: !rtv
[00:30:06] Server is shutting down/changing levels.



[00:30:13] New map: surf_mesa_aether
[00:31:05] Client "SlimCatBaby" spawned in server <STEAM_0:1:38957854> (took 53 seconds).
[00:31:05] Client "Bot47" connected.
[00:31:05] Client "Bot47" spawned in server <BOT> (took 53 seconds).
[00:31:07] Client "Bot48" connected.
[00:31:07] Client "Bot48" spawned in server <BOT> (took 55 seconds).
[00:48:34] SlimCatBaby: !rtv
[00:49:04] Client "WirSKeD" connected.
[00:49:10] Server is shutting down/changing levels.



[00:49:17] New map: surf_island
[00:50:09] Client "SlimCatBaby" spawned in server <STEAM_0:1:38957854> (took 53 seconds).
[00:50:09] Client "Bot49" connected.
[00:50:09] Client "Bot49" spawned in server <BOT> (took 53 seconds).
[00:50:11] Client "Bot50" connected.
[00:50:11] Client "Bot50" spawned in server <BOT> (took 55 seconds).
[00:52:30] Client "WirSKeD" spawned in server <STEAM_0:1:53310427> (took 194 seconds).
[00:53:35] Client "Bud Mog Fung Bungler" connected.
[00:56:21] WirSKeD: !r
[00:58:19] Client "iCookies" connected.
[00:59:49] Client "Bud Mog Fung Bungler" spawned in server <STEAM_0:1:59569868> (took 374 seconds).
[01:09:17] Dropped "SlimCatBaby" from server<STEAM_0:1:38957854>
[01:10:07] WirSKeD: !r
[01:10:17] WirSKeD: !r
[01:10:45] Client "Berisha23" connected.
[01:11:43] WirSKeD: !r
[01:12:45] WirSKeD: !rtv
[01:13:27] Client "Asian Brother 2" connected.
[01:13:29] Client "Asain Brother 1" connected.
[01:13:34] Client "Asian Brother 2" connected.
[01:14:17] Dropped "Bud Mog Fung Bungler" from server<STEAM_0:1:59569868>
[01:14:50] Client "Jet | Hellcase.com" connected.
[01:14:54] Server is shutting down/changing levels.



[01:15:01] New map: surf_classics2
[01:15:55] Client "Asian Brother 2" connected.
[01:16:56] Client "Asain Brother 1" spawned in server <STEAM_0:0:92902198> (took 116 seconds).
[01:16:56] Client "Bot51" connected.
[01:16:56] Client "Bot51" spawned in server <BOT> (took 116 seconds).
[01:16:58] Client "Bot52" connected.
[01:16:58] Client "Bot52" spawned in server <BOT> (took 118 seconds).
[01:17:23] Client "Jet | Hellcase.com" connected.
[01:17:46] Client "Berisha23" spawned in server <STEAM_0:0:153636892> (took 166 seconds).
[01:18:17] Asain Brother 1: !r
[01:19:15] Dropped "Asain Brother 1" from server<STEAM_0:0:92902198>
[01:19:31] Client "Jet | Hellcase.com" spawned in server <STEAM_0:1:80231952> (took 128 seconds).
[01:21:25] Jet | Hellcase.com: !kill
[01:27:13] Dropped "Berisha23" from server<STEAM_0:0:153636892>
[01:30:02] Dropped "Jet | Hellcase.com" from server<STEAM_0:1:80231952>
[01:30:02] Dropped "Bot51" from server<BOT>
[01:30:02] Dropped "Bot52" from server<BOT>
[01:30:46] Client "Jet | Hellcase.com" connected.
[01:30:58] Client "Jet | Hellcase.com" spawned in server <STEAM_0:1:80231952> (took 12 seconds).
[01:30:58] Client "Bot53" connected.
[01:30:58] Client "Bot53" spawned in server <BOT> (took 958 seconds).
[01:31:00] Client "Bot54" connected.
[01:31:00] Client "Bot54" spawned in server <BOT> (took 960 seconds).
[01:40:02] Dropped "Jet | Hellcase.com" from server<STEAM_0:1:80231952>
[01:40:02] Dropped "Bot53" from server<BOT>
[01:40:02] Dropped "Bot54" from server<BOT>
[01:45:38] Server is shutting down/changing levels.



[01:45:44] New map: surf_this_njv
[02:16:20] Server is shutting down/changing levels.



[02:16:26] New map: surf_lux
[02:19:18] Client "TheGaminGod✌" connected.
[02:20:14] Client "TheGaminGod✌" spawned in server <STEAM_0:0:139352216> (took 56 seconds).
[02:20:14] Client "Bot55" connected.
[02:20:14] Client "Bot55" spawned in server <BOT> (took 229 seconds).
[02:20:16] Client "Bot56" connected.
[02:20:16] Client "Bot56" spawned in server <BOT> (took 231 seconds).
[02:21:13] TheGaminGod✌: !rtv
[02:22:05] TheGaminGod✌: !rtv
[02:22:41] Server is shutting down/changing levels.



[02:22:48] New map: surf_kitsune2
[02:23:15] Client "TheGaminGod✌" spawned in server <STEAM_0:0:139352216> (took 28 seconds).
[02:23:15] Client "Bot57" connected.
[02:23:15] Client "Bot57" spawned in server <BOT> (took 28 seconds).
[02:23:17] Client "Bot58" connected.
[02:23:17] Client "Bot58" spawned in server <BOT> (took 30 seconds).
[02:25:47] TheGaminGod✌: !r
[02:26:13] TheGaminGod✌: !r
[02:26:44] Client "Jet | Hellcase.com" connected.
[02:26:47] Dropped "TheGaminGod✌" from server<STEAM_0:0:139352216>
[02:30:39] Dropped "Bot57" from server<BOT>
[02:30:39] Dropped "Bot58" from server<BOT>
[02:30:42] Client "Jet | Hellcase.com" connected.
[02:31:32] Client "Jet | Hellcase.com" spawned in server <STEAM_0:1:80231952> (took 50 seconds).
[02:31:32] Client "Bot59" connected.
[02:31:32] Client "Bot59" spawned in server <BOT> (took 525 seconds).
[02:31:34] Client "Bot60" connected.
[02:31:34] Client "Bot60" spawned in server <BOT> (took 527 seconds).
[02:33:43] Jet | Hellcase.com: !unbox
[02:37:11] Jet | Hellcase.com: !unbox
[02:37:25] Jet | Hellcase.com: !unbox
[02:37:51] Jet | Hellcase.com: !knife
[02:47:48] Dropped "Jet | Hellcase.com" from server<STEAM_0:1:80231952>
[02:47:48] Dropped "Bot59" from server<BOT>
[02:47:48] Dropped "Bot60" from server<BOT>
[02:51:52] Client "[Rainbow] TYscarYT" connected.
[02:53:24] Server is shutting down/changing levels.



[02:53:31] New map: surf_airflow
[02:54:34] Client "[Rainbow] TYscarYT" spawned in server <STEAM_0:1:76047863> (took 64 seconds).
[02:54:34] Client "Bot61" connected.
[02:54:34] Client "Bot61" spawned in server <BOT> (took 64 seconds).
[02:54:36] Client "Bot62" connected.
[02:54:36] Client "Bot62" spawned in server <BOT> (took 66 seconds).
[02:54:41] Client "zapps" connected.
[02:55:17] [Rainbow] TYscarYT: !rtv
[02:55:20] Client "zapps" spawned in server <STEAM_0:0:139463083> (took 39 seconds).
[02:55:24] [Rainbow] TYscarYT: AYyyy
[02:55:46] [Rainbow] TYscarYT: i cant see the surf part... i need to rtv
[02:55:49] [Rainbow] TYscarYT: !rtv
[02:56:07] [Rainbow] TYscarYT: !rtv
[02:56:12] zapps: !rtv
[02:56:14] [Rainbow] TYscarYT: We have to wait 2 mins until rtv ;(
[02:56:54] [Rainbow] TYscarYT: SO CONFUSING!!
[02:57:11] [Rainbow] TYscarYT: I KNOW WHAT TO DO I THINK!!
[02:57:15] [Rainbow] TYscarYT: look at the pillar
[02:57:28] [Rainbow] TYscarYT: !rtv
[02:57:30] [Rainbow] TYscarYT: !rtv
[02:57:33] [Rainbow] TYscarYT: !rtv
[02:57:37] [Rainbow] TYscarYT: !rtv
[02:57:38] [Rainbow] TYscarYT: !rtv
[02:57:39] [Rainbow] TYscarYT: !rtv
[02:57:39] [Rainbow] TYscarYT: !rtv
[02:58:06] [Rainbow] TYscarYT: nope
[02:58:11] [Rainbow] TYscarYT: !r
[02:58:24] [Rainbow] TYscarYT: !rtv
[02:58:37] [Rainbow] TYscarYT: Yes but my voice is a bit squeeky
[02:59:00] (TEAM) [Rainbow] TYscarYT: !rtv
[02:59:02] [Rainbow] TYscarYT: YES!
[02:59:07] zapps: !rtv
[02:59:39] [Rainbow] TYscarYT: Thats so hard XD
[02:59:43] Server is shutting down/changing levels.



[02:59:49] New map: surf_utopia_njv
[03:00:06] Client "zapps" spawned in server <STEAM_0:0:139463083> (took 18 seconds).
[03:00:06] Client "Bot63" connected.
[03:00:06] Client "Bot63" spawned in server <BOT> (took 18 seconds).
[03:00:08] Client "Bot64" connected.
[03:00:08] Client "Bot64" spawned in server <BOT> (took 20 seconds).
[03:00:35] Client "[Rainbow] TYscarYT" spawned in server <STEAM_0:1:76047863> (took 47 seconds).
[03:00:39] Client "SapoTheGreat" connected.
[03:01:18] [Rainbow] TYscarYT: oops
[03:02:03] [Rainbow] TYscarYT: I just did XD
[03:02:29] Client "Bellyjenkins" connected.
[03:02:58] [Rainbow] TYscarYT: BALLSACK!!
[03:03:07] [Rainbow] TYscarYT: XD
[03:03:40] zapps: !knifes
[03:04:30] [Rainbow] TYscarYT: rip
[03:06:00] [Rainbow] TYscarYT: Thats because ur talking XD
[03:06:10] [Rainbow] TYscarYT: But u die and talk
[03:06:23] [Rainbow] TYscarYT: nope
[03:06:33] [Rainbow] TYscarYT: skioll
[03:08:32] [Rainbow] TYscarYT: wdqa odfpisa rrugfnb9[pasdbouirnhao; ridrebairhbae g
[03:08:58] [Rainbow] TYscarYT: Wee
[03:09:49] [Rainbow] TYscarYT: rip
[03:09:54] [Rainbow] TYscarYT: !rtv
[03:09:59] [Rainbow] TYscarYT: GG
[03:10:02] zapps: !rtv
[03:10:20] [Rainbow] TYscarYT: what?
[03:10:34] [Rainbow] TYscarYT: Type it
[03:10:38] Server is shutting down/changing levels.



[03:10:45] New map: surf_mesa_aether
[03:13:29] Client "zapps" connected.
[03:13:43] Client "[Rainbow] TYscarYT" spawned in server <STEAM_0:1:76047863> (took 179 seconds).
[03:13:43] Client "Bot65" connected.
[03:13:43] Client "Bot65" spawned in server <BOT> (took 179 seconds).
[03:13:45] Client "Bot66" connected.
[03:13:45] Client "Bot66" spawned in server <BOT> (took 181 seconds).
[03:14:32] Client "zapps" connected.
[03:16:10] Dropped "[Rainbow] TYscarYT" from server<STEAM_0:1:76047863>
[03:17:34] Client "zapps" connected.
[03:41:23] Server is shutting down/changing levels.



[03:41:29] New map: surf_kitsune
[03:42:33] Client "Naric12" connected.
[03:44:35] Client "Naric12" spawned in server <STEAM_0:0:56627636> (took 122 seconds).
[03:44:35] Client "Bot67" connected.
[03:44:35] Client "Bot67" spawned in server <BOT> (took 187 seconds).
[03:44:37] Client "Bot68" connected.
[03:44:37] Client "Bot68" spawned in server <BOT> (took 189 seconds).
[03:49:30] Naric12: !TUTORIAL
[03:56:34] Dropped "Naric12" from server<STEAM_0:0:56627636>
[04:06:25] Dropped "Bot67" from server<BOT>
[04:06:25] Dropped "Bot68" from server<BOT>
[04:12:06] Server is shutting down/changing levels.



[04:12:13] New map: surf_milkyway
[04:19:20] Client "noahlemaster" connected.
[04:42:49] Server is shutting down/changing levels.



[04:42:56] New map: surf_classics
[05:13:32] Server is shutting down/changing levels.



[05:13:38] New map: surf_beginner
[05:44:14] Server is shutting down/changing levels.



[05:44:20] New map: surf_rookie
[05:56:13] Client "TerrorOfTrebor" connected.
[05:59:35] Client "TerrorOfTrebor" spawned in server <STEAM_0:0:82030165> (took 202 seconds).
[05:59:35] Client "Bot69" connected.
[05:59:35] Client "Bot69" spawned in server <BOT> (took 916 seconds).
[05:59:37] Client "Bot70" connected.
[05:59:37] Client "Bot70" spawned in server <BOT> (took 918 seconds).
[06:00:30] Client "Z A E L U X" connected.
[06:01:04] Client "Z A E L U X" spawned in server <STEAM_0:1:28390275> (took 34 seconds).
[06:02:12] Client "THE king of SNIPER" connected.
[06:02:48] Client "THE king of SNIPER" spawned in server <STEAM_0:1:112066995> (took 36 seconds).
[06:03:03] THE king of SNIPER: !unreal
[06:03:15] THE king of SNIPER: !unreal
[06:03:19] THE king of SNIPER: !knife
[06:05:13] TerrorOfTrebor: /mode
[06:05:21] Dropped "THE king of SNIPER" from server<STEAM_0:1:112066995>
[06:09:20] Z A E L U X: !r
[06:10:06] TerrorOfTrebor: !usp
[06:10:13] TerrorOfTrebor: !glock
[06:11:11] TerrorOfTrebor: !unbox
[06:14:57] Server is shutting down/changing levels.



[06:15:04] New map: surf_ace
[06:15:20] Client "Z A E L U X" spawned in server <STEAM_0:1:28390275> (took 17 seconds).
[06:15:20] Client "Bot71" connected.
[06:15:20] Client "Bot71" spawned in server <BOT> (took 17 seconds).
[06:15:22] Client "Bot72" connected.
[06:15:22] Client "Bot72" spawned in server <BOT> (took 19 seconds).
[06:16:06] Client "TerrorOfTrebor" spawned in server <STEAM_0:0:82030165> (took 63 seconds).
[06:16:36] Z A E L U X: !r
[06:17:14] Z A E L U X: !r
[06:17:43] Z A E L U X: !r
[06:17:56] Z A E L U X: !r
[06:18:35] Z A E L U X: !r
[06:18:48] Z A E L U X: !r
[06:19:24] Z A E L U X: !r
[06:19:31] Z A E L U X: !r
[06:20:21] Z A E L U X: !r
[06:20:26] Z A E L U X: !r
[06:20:52] Z A E L U X: !r
[06:21:17] Z A E L U X: !r
[06:21:51] Z A E L U X: !r
[06:22:08] Z A E L U X: !r
[06:22:55] Z A E L U X: !r
[06:23:14] Z A E L U X: !r
[06:23:19] TerrorOfTrebor: !tutorial
[06:24:22] Z A E L U X: !r
[06:24:30] Z A E L U X: !r
[06:24:49] Z A E L U X: !r
[06:25:41] Z A E L U X: !r
[06:25:49] Z A E L U X: !r
[06:25:51] Client "YavuzAllen CASERANDOM.COM" connected.
[06:25:54] Client "fanboy_blackpink" connected.
[06:26:09] Z A E L U X: !r
[06:26:20] Z A E L U X: !r
[06:26:45] Z A E L U X: !r
[06:26:54] Z A E L U X: !r
[06:27:35] Z A E L U X: !r
[06:28:42] TerrorOfTrebor: !mode
[06:28:59] Z A E L U X: !r
[06:29:28] TerrorOfTrebor: !unreal
[06:29:47] TerrorOfTrebor: !mode
[06:30:15] TerrorOfTrebor: !mode
[06:30:18] Client "fanboy_blackpink" spawned in server <STEAM_0:1:150529767> (took 264 seconds).
[06:30:44] Z A E L U X: !rtv
[06:30:57] TerrorOfTrebor: !rtv
[06:31:33] Server is shutting down/changing levels.



[06:31:40] New map: surf_aether
[06:32:06] Client "Z A E L U X" spawned in server <STEAM_0:1:28390275> (took 27 seconds).
[06:32:06] Client "Bot73" connected.
[06:32:06] Client "Bot73" spawned in server <BOT> (took 27 seconds).
[06:32:08] Client "Bot74" connected.
[06:32:08] Client "Bot74" spawned in server <BOT> (took 29 seconds).
[06:32:15] Client "V1K1NG5_A5SA5A1N_" connected.
[06:33:12] Client "TerrorOfTrebor" spawned in server <STEAM_0:0:82030165> (took 93 seconds).
[06:34:20] Client "YavuzAllen CASERANDOM.COM" connected.
[06:34:24] Client "YavuzAllen CASERANDOM.COM" connected.
[06:36:36] Client "fanboy_blackpink" spawned in server <STEAM_0:1:150529767> (took 297 seconds).
[06:37:23] Client "Kutsil" connected.
[06:39:54] Dropped "fanboy_blackpink" from server<STEAM_0:1:150529767>
[06:39:54] Client "Kutsil" spawned in server <STEAM_0:1:58269973> (took 151 seconds).
[06:42:08] Client "YavuzAllen CASERANDOM.COM" spawned in server <STEAM_0:1:88656739> (took 464 seconds).
[06:43:51] Client "fanboy_blackpink" connected.
[06:43:55] Dropped "TerrorOfTrebor" from server<STEAM_0:0:82030165>
[06:44:49] Client "fanboy_blackpink" spawned in server <STEAM_0:1:150529767> (took 58 seconds).
[06:54:44] Z A E L U X: !r
[06:54:47] Kutsil: !tutorial
[06:55:45] Z A E L U X: !r
[06:56:40] Dropped "YavuzAllen CASERANDOM.COM" from server<STEAM_0:1:88656739>
[06:56:56] Kutsil: !rtv
[06:57:59] fanboy_blackpink: nevmap
[06:58:02] Z A E L U X: !rtv
[06:58:25] Kutsil: !unbox
[06:58:38] Server is shutting down/changing levels.



[06:58:45] New map: surf_utopia_njv
[06:58:56] Client "Z A E L U X" spawned in server <STEAM_0:1:28390275> (took 12 seconds).
[06:58:56] Client "Bot75" connected.
[06:58:56] Client "Bot75" spawned in server <BOT> (took 12 seconds).
[06:58:58] Client "Bot76" connected.
[06:58:58] Client "Bot76" spawned in server <BOT> (took 14 seconds).
[06:59:31] Client "fanboy_blackpink" connected.
[06:59:58] Z A E L U X: !r
[07:01:13] Client "Kutsil" spawned in server <STEAM_0:1:58269973> (took 149 seconds).
[07:02:09] Z A E L U X: !r
[07:02:18] Client "fanboy_blackpink" connected.
[07:07:59] Client "Nothing" connected.
[07:09:04] Dropped "Z A E L U X" from server<STEAM_0:1:28390275>
[07:11:14] Client "SUPER SUCC DELUCC" connected.
[07:13:48] Client "SUPER SUCC DELUCC" spawned in server <STEAM_0:0:77323667> (took 154 seconds).
[07:14:09] Dropped "Kutsil" from server<STEAM_0:1:58269973>
[07:17:58] Dropped "SUPER SUCC DELUCC" from server<STEAM_0:0:77323667>
[07:17:58] Dropped "Bot75" from server<BOT>
[07:17:58] Dropped "Bot76" from server<BOT>
[07:29:21] Server is shutting down/changing levels.



[07:29:28] New map: surf_funhouse_v1
[08:00:03] Server is shutting down/changing levels.



[08:00:10] New map: surf_inspire
[08:12:40] Client "TheGaminGod✌" connected.
[08:12:56] Client "Kill me plz" connected.
[08:13:18] Client "Kill me plz" spawned in server <STEAM_0:1:111703561> (took 22 seconds).
[08:13:18] Client "Bot77" connected.
[08:13:18] Client "Bot77" spawned in server <BOT> (took 789 seconds).
[08:13:20] Client "Bot78" connected.
[08:13:20] Client "Bot78" spawned in server <BOT> (took 791 seconds).
[08:13:57] Client "TheGaminGod✌" spawned in server <STEAM_0:0:139352216> (took 77 seconds).
[08:16:22] TheGaminGod✌: !unbox
[08:19:13] TheGaminGod✌: !unbo
[08:19:15] TheGaminGod✌: !ungox
[08:19:17] TheGaminGod✌: !unbox'
[08:19:21] TheGaminGod✌: !unbox
[08:19:29] TheGaminGod✌: !unbox
[08:19:55] TheGaminGod✌: !unbox
[08:22:06] TheGaminGod✌: !rtv
[08:22:17] (TEAM) Kill me plz: !unbox
[08:22:58] Kill me plz: !unbox
[08:23:46] TheGaminGod✌: !rtv
[08:23:51] TheGaminGod✌: !r
[08:25:06] Dropped "Kill me plz" from server<STEAM_0:1:111703561>
[08:25:15] TheGaminGod✌: t('^'t) FUCK YOU t('^'t)
[08:25:42] Server is shutting down/changing levels.



[08:25:48] New map: surf_pox
[08:26:16] Client "TheGaminGod✌" spawned in server <STEAM_0:0:139352216> (took 29 seconds).
[08:26:16] Client "Bot79" connected.
[08:26:16] Client "Bot79" spawned in server <BOT> (took 29 seconds).
[08:26:18] Client "Bot80" connected.
[08:26:18] Client "Bot80" spawned in server <BOT> (took 31 seconds).
[08:27:04] TheGaminGod✌: !rtv
[08:27:48] Dropped "TheGaminGod✌" from server<STEAM_0:0:139352216>
[08:27:48] Dropped "Bot79" from server<BOT>
[08:27:48] Dropped "Bot80" from server<BOT>
[08:30:18] Client "Cz is not Ez" connected.
[08:31:51] Client "Cz is not Ez" spawned in server <STEAM_0:0:75195688> (took 93 seconds).
[08:31:51] Client "Bot81" connected.
[08:31:51] Client "Bot81" spawned in server <BOT> (took 364 seconds).
[08:31:53] Client "Bot82" connected.
[08:31:53] Client "Bot82" spawned in server <BOT> (took 366 seconds).
[08:32:45] Client "☭ SemiSun | Trading" connected.
[08:32:51] Dropped "Cz is not Ez" from server<STEAM_0:0:75195688>
[08:33:28] Client "☭ SemiSun | Trading" spawned in server <STEAM_0:0:200896443> (took 43 seconds).
[08:36:32] ☭ SemiSun | Trading: !knife
[08:40:55] ☭ SemiSun | Trading: !rtv
[08:41:31] Server is shutting down/changing levels.



[08:41:38] New map: surf_fast
[08:43:31] Client "☭ SemiSun | Trading" spawned in server <STEAM_0:0:200896443> (took 114 seconds).
[08:43:31] Client "Bot83" connected.
[08:43:31] Client "Bot83" spawned in server <BOT> (took 114 seconds).
[08:43:33] Client "Bot84" connected.
[08:43:33] Client "Bot84" spawned in server <BOT> (took 116 seconds).
[08:49:49] ☭ SemiSun | Trading: !rtv
[08:50:25] Server is shutting down/changing levels.



[08:50:32] New map: surf_pox
[08:50:45] Client "☭ SemiSun | Trading" spawned in server <STEAM_0:0:200896443> (took 14 seconds).
[08:50:45] Client "Bot85" connected.
[08:50:45] Client "Bot85" spawned in server <BOT> (took 14 seconds).
[08:50:47] Client "Bot86" connected.
[08:50:47] Client "Bot86" spawned in server <BOT> (took 16 seconds).
[08:56:50] ☭ SemiSun | Trading: !rtv
[08:57:26] Server is shutting down/changing levels.



[08:57:32] New map: surf_wood
[08:57:53] Client "☭ SemiSun | Trading" spawned in server <STEAM_0:0:200896443> (took 22 seconds).
[08:57:53] Client "Bot87" connected.
[08:57:53] Client "Bot87" spawned in server <BOT> (took 22 seconds).
[08:57:55] Client "Bot88" connected.
[08:57:55] Client "Bot88" spawned in server <BOT> (took 24 seconds).
[09:02:58] Dropped "☭ SemiSun | Trading" from server<STEAM_0:0:200896443>
[09:02:58] Dropped "Bot87" from server<BOT>
[09:02:58] Dropped "Bot88" from server<BOT>
[09:07:42] Client "BearLance" connected.
[09:08:11] Client "jjcaudill11" connected.
[09:09:26] Client "BearLance" spawned in server <STEAM_0:0:118732885> (took 104 seconds).
[09:09:26] Client "Bot89" connected.
[09:09:26] Client "Bot89" spawned in server <BOT> (took 715 seconds).
[09:09:28] Client "Bot90" connected.
[09:09:28] Client "Bot90" spawned in server <BOT> (took 717 seconds).
[09:09:40] Client "jjcaudill11" connected.
[09:10:25] BearLance: !r
[09:10:51] Client "OlDeck" connected.
[09:11:04] Dropped "BearLance" from server<STEAM_0:0:118732885>
[09:11:07] Client "OlDeck" spawned in server <STEAM_0:0:34728749> (took 16 seconds).
[09:12:07] Client "jjcaudill11" spawned in server <STEAM_0:1:197163588> (took 147 seconds).
[09:18:17] Dropped "OlDeck" from server<STEAM_0:0:34728749>
[09:21:23] Dropped "jjcaudill11" from server<STEAM_0:1:197163588>
[09:21:23] Dropped "Bot89" from server<BOT>
[09:21:23] Dropped "Bot90" from server<BOT>
[09:25:18] Client "KUBA XD" connected.
[09:28:08] Server is shutting down/changing levels.



[09:28:15] New map: surf_ing
[09:43:30] Client "Maruxgg2" connected.
[09:58:51] Server is shutting down/changing levels.



[09:58:57] New map: surf_funhouse_v1
[10:06:20] Client "[<<МОНОЛИТ>>] mr.DOGE" connected.
[10:09:12] Client "[<<МОНОЛИТ>>] mr.DOGE" spawned in server <STEAM_0:0:156540085> (took 172 seconds).
[10:09:12] Client "Bot91" connected.
[10:09:12] Client "Bot91" spawned in server <BOT> (took 616 seconds).
[10:09:14] Client "Bot92" connected.
[10:09:14] Client "Bot92" spawned in server <BOT> (took 618 seconds).
[10:10:18] [<<МОНОЛИТ>>] mr.DOGE: !rtv
[10:10:54] Server is shutting down/changing levels.



[10:11:01] New map: surf_happyhands
[10:12:14] Client "[<<МОНОЛИТ>>] mr.DOGE" spawned in server <STEAM_0:0:156540085> (took 74 seconds).
[10:12:14] Client "Bot93" connected.
[10:12:14] Client "Bot93" spawned in server <BOT> (took 74 seconds).
[10:12:16] Client "Bot94" connected.
[10:12:16] Client "Bot94" spawned in server <BOT> (took 76 seconds).
[10:14:43] [<<МОНОЛИТ>>] mr.DOGE: !unbox
[10:17:43] [<<МОНОЛИТ>>] mr.DOGE: !лтшау
[10:17:46] [<<МОНОЛИТ>>] mr.DOGE: !knife
[10:17:51] [<<МОНОЛИТ>>] mr.DOGE: !knive
[10:17:56] [<<МОНОЛИТ>>] mr.DOGE: !knive
[10:18:00] [<<МОНОЛИТ>>] mr.DOGE: !knive
[10:23:01] [<<МОНОЛИТ>>] mr.DOGE: !кем
[10:23:04] [<<МОНОЛИТ>>] mr.DOGE: !кем
[10:23:08] [<<МОНОЛИТ>>] mr.DOGE: !rtv
[10:23:44] Server is shutting down/changing levels.



[10:23:51] New map: surf_mesa_aether
[10:25:36] Client "[<<МОНОЛИТ>>] mr.DOGE" spawned in server <STEAM_0:0:156540085> (took 106 seconds).
[10:25:37] Client "Bot95" connected.
[10:25:37] Client "Bot95" spawned in server <BOT> (took 107 seconds).
[10:25:39] Client "Bot96" connected.
[10:25:39] Client "Bot96" spawned in server <BOT> (took 109 seconds).
[10:37:38] Dropped "[<<МОНОЛИТ>>] mr.DOGE" from server<STEAM_0:0:156540085>
[10:37:38] Dropped "Bot95" from server<BOT>
[10:37:38] Dropped "Bot96" from server<BOT>
[10:54:28] Server is shutting down/changing levels.



[10:54:34] New map: surf_sundown_njv
[11:25:10] Server is shutting down/changing levels.



[11:25:16] New map: surf_graphia
[11:55:52] Server is shutting down/changing levels.



[11:55:59] New map: surf_aether
[12:26:34] Server is shutting down/changing levels.



[12:26:41] New map: surf_island
[12:57:17] Server is shutting down/changing levels.



[12:57:23] New map: surf_sundown_njv
[13:27:59] Server is shutting down/changing levels.



[13:28:05] New map: surf_aether
[13:56:49] Client "CumSock" connected.
[13:57:03] Client "dennyc hahah" connected.
[13:57:36] Client "CumSock" connected.
[13:58:42] Server is shutting down/changing levels.



[13:58:48] New map: surf_sundown_njv
[13:59:19] Client "dennyc hahah" spawned in server <STEAM_0:0:120441063> (took 32 seconds).
[13:59:19] Client "Bot97" connected.
[13:59:19] Client "Bot97" spawned in server <BOT> (took 32 seconds).
[13:59:21] Client "Bot98" connected.
[13:59:21] Client "Bot98" spawned in server <BOT> (took 34 seconds).
[14:00:08] (TEAM) dennyc hahah: how can i mute the music?
[14:00:28] Client "CumSock" spawned in server <STEAM_0:0:75492282> (took 101 seconds).
[14:03:07] (TEAM) CumSock:  knife
[14:03:16] (TEAM) dennyc hahah: how can i
[14:03:17] (TEAM) CumSock: /knife
[14:03:20] (TEAM) dennyc hahah: kit the music?
[14:05:35] Dropped "CumSock" from server<STEAM_0:0:75492282>
[14:08:36] Dropped "dennyc hahah" from server<STEAM_0:0:120441063>
[14:08:36] Dropped "Bot97" from server<BOT>
[14:08:36] Dropped "Bot98" from server<BOT>
[14:17:34] Client "Boets0712" connected.
[14:19:34] Client "Boets0712" spawned in server <STEAM_0:0:171858054> (took 120 seconds).
[14:19:34] Client "Bot99" connected.
[14:19:34] Client "Bot99" spawned in server <BOT> (took 1247 seconds).
[14:19:36] Client "Bot100" connected.
[14:19:36] Client "Bot100" spawned in server <BOT> (took 1249 seconds).
[14:27:49] Dropped "Boets0712" from server<STEAM_0:0:171858054>
[14:27:49] Dropped "Bot99" from server<BOT>
[14:27:49] Dropped "Bot100" from server<BOT>
[14:29:24] Server is shutting down/changing levels.



[14:29:31] New map: surf_happyhands
[15:00:07] Server is shutting down/changing levels.



[15:00:14] New map: surf_fast
[15:19:12] Client "meme boi" connected.
[15:20:54] Client "meme boi" spawned in server <STEAM_0:1:68603527> (took 102 seconds).
[15:20:54] Client "Bot101" connected.
[15:20:54] Client "Bot101" spawned in server <BOT> (took 1241 seconds).
[15:20:56] Client "Bot102" connected.
[15:20:56] Client "Bot102" spawned in server <BOT> (took 1243 seconds).
[15:23:44] meme boi: !unbox
[15:24:37] Dropped "meme boi" from server<STEAM_0:1:68603527>
[15:24:37] Dropped "Bot101" from server<BOT>
[15:24:37] Dropped "Bot102" from server<BOT>
[15:30:50] Server is shutting down/changing levels.



[15:30:56] New map: surf_beginner
[16:01:20] Client "surfnoob" connected.
[16:01:32] Server is shutting down/changing levels.



[16:01:39] New map: surf_dusk
[16:03:30] Client "surfnoob" spawned in server <STEAM_0:1:150312654> (took 112 seconds).
[16:03:30] Client "Bot103" connected.
[16:03:30] Client "Bot103" spawned in server <BOT> (took 112 seconds).
[16:03:32] Client "Bot104" connected.
[16:03:32] Client "Bot104" spawned in server <BOT> (took 114 seconds).
[16:05:29] surfnoob: !nominate
[16:06:34] surfnoob: !rtv
[16:06:59] surfnoob: !rtv
[16:07:35] Server is shutting down/changing levels.



[16:07:42] New map: surf_rebel_scaz
[16:08:12] Client "surfnoob" spawned in server <STEAM_0:1:150312654> (took 31 seconds).
[16:08:12] Client "Bot105" connected.
[16:08:12] Client "Bot105" spawned in server <BOT> (took 31 seconds).
[16:08:14] Client "Bot106" connected.
[16:08:14] Client "Bot106" spawned in server <BOT> (took 33 seconds).
[16:13:09] Dropped "surfnoob" from server<STEAM_0:1:150312654>
[16:13:09] Dropped "Bot105" from server<BOT>
[16:13:09] Dropped "Bot106" from server<BOT>
[16:20:41] Client "surfnoob" connected.
[16:21:16] Client "surfnoob" spawned in server <STEAM_0:1:150312654> (took 35 seconds).
[16:21:16] Client "Bot107" connected.
[16:21:16] Client "Bot107" spawned in server <BOT> (took 815 seconds).
[16:21:18] Client "Bot108" connected.
[16:21:18] Client "Bot108" spawned in server <BOT> (took 817 seconds).
[16:27:34] Client "TheBlueDragon155" connected.
[16:30:06] Client "TheBlueDragon155" spawned in server <STEAM_0:1:189930435> (took 152 seconds).
[16:34:46] (TEAM) TheBlueDragon155: !shop
[16:43:00] (TEAM) TheBlueDragon155: !knifes
[16:43:19] Client "0kyle0Hall0" connected.
[16:45:01] Client "0kyle0Hall0" spawned in server <STEAM_0:0:205104437> (took 102 seconds).
[16:45:15] (TEAM) TheBlueDragon155: !store
[16:45:22] (TEAM) TheBlueDragon155: !shop
[16:46:06] (TEAM) TheBlueDragon155: unbox
[16:46:11] (TEAM) TheBlueDragon155: !unbox
[16:46:36] surfnoob: !unbox
[16:47:16] (TEAM) TheBlueDragon155: !shop
[16:50:17] Client "[BBM]LogiBear :^" connected.
[16:51:15] (TEAM) TheBlueDragon155: !steam
[16:51:23] Dropped "0kyle0Hall0" from server<STEAM_0:0:205104437>
[16:51:52] Client "[BBM]LogiBear :^" spawned in server <STEAM_0:1:104010830> (took 95 seconds).
[16:54:14] [BBM]LogiBear :^: ehh
[16:54:17] [BBM]LogiBear :^: server reset?
[16:54:45] [BBM]LogiBear :^: knifes got removed?
[16:55:19] surfnoob: no you have to type !knives or !unbox
[16:57:23] (TEAM) TheBlueDragon155: !steam
[16:57:42] Dropped "TheBlueDragon155" from server<STEAM_0:1:189930435>
[16:57:57] Client "TheBlueDragon155" connected.
[16:59:20] Client "TheBlueDragon155" spawned in server <STEAM_0:1:189930435> (took 83 seconds).
[17:00:01] (TEAM) TheBlueDragon155: !steam
[17:00:10] Client "travisjordan2007" connected.
[17:00:21] Client "Autan" connected.
[17:00:42] [BBM]LogiBear :^: !unbox
[17:01:28] [BBM]LogiBear :^: !unbox
[17:01:49] Dropped "surfnoob" from server<STEAM_0:1:150312654>
[17:02:20] [BBM]LogiBear :^: !unbox
[17:02:37] (TEAM) TheBlueDragon155: !shop
[17:02:56] (TEAM) TheBlueDragon155: !unbox
[17:02:59] [BBM]LogiBear :^: !unbox
[17:04:24] [BBM]LogiBear :^: !unbox
[17:04:33] [BBM]LogiBear :^: !steam
[17:04:40] (TEAM) TheBlueDragon155: !shop
[17:08:20] [BBM]LogiBear :^: !steam
[17:09:20] Server is shutting down/changing levels.



[17:09:27] New map: surf_funhouse_v1
[17:10:18] Client "[BBM]LogiBear :^" spawned in server <STEAM_0:1:104010830> (took 52 seconds).
[17:10:18] Client "Bot109" connected.
[17:10:18] Client "Bot109" spawned in server <BOT> (took 52 seconds).
[17:10:20] Client "Bot110" connected.
[17:10:20] Client "Bot110" spawned in server <BOT> (took 54 seconds).
[17:10:55] Client "TheBlueDragon155" spawned in server <STEAM_0:1:189930435> (took 89 seconds).
[17:13:08] [BBM]LogiBear :^: lul
[17:14:17] Dropped "TheBlueDragon155" from server<STEAM_0:1:189930435>
[17:16:17] [BBM]LogiBear :^: !knifes
[17:16:28] Client "s.grechishnikov" connected.
[17:17:06] Client "s.grechishnikov" spawned in server <STEAM_0:0:173589691> (took 38 seconds).
[17:17:36] Dropped "s.grechishnikov" from server<STEAM_0:0:173589691>
[17:17:36] Dropped "[BBM]LogiBear :^" from server<STEAM_0:1:104010830>
[17:17:36] Dropped "Bot109" from server<BOT>
[17:17:36] Dropped "Bot110" from server<BOT>
[17:21:41] Client "TrumpCare" connected.
[17:22:49] Client "TrumpCare" spawned in server <STEAM_0:0:41876325> (took 68 seconds).
[17:22:49] Client "Bot111" connected.
[17:22:49] Client "Bot111" spawned in server <BOT> (took 803 seconds).
[17:22:51] Client "Bot112" connected.
[17:22:51] Client "Bot112" spawned in server <BOT> (took 805 seconds).
[17:24:47] Client "[UNDERTALE]Chara-Nastya" connected.
[17:26:43] Client "wiewiurek" connected.
[17:28:50] Dropped "TrumpCare" from server<STEAM_0:0:41876325>
[17:29:15] Client "wiewiurek" spawned in server <STEAM_0:1:218681080> (took 152 seconds).
[17:33:43] Dropped "wiewiurek" from server<STEAM_0:1:218681080>
[17:33:43] Dropped "Bot111" from server<BOT>
[17:33:43] Dropped "Bot112" from server<BOT>
[17:40:03] Server is shutting down/changing levels.



[17:40:10] New map: surf_forbidden_ways_ksf
[17:41:38] Client "traj" connected.
[17:42:18] Client "traj" spawned in server <STEAM_0:1:92213643> (took 40 seconds).
[17:42:18] Client "Bot113" connected.
[17:42:18] Client "Bot113" spawned in server <BOT> (took 129 seconds).
[17:42:20] Client "Bot114" connected.
[17:42:20] Client "Bot114" spawned in server <BOT> (took 131 seconds).
[17:48:03] traj: !r
[17:51:55] traj: ( ͡ᵔ ͜ʖ ͡ᵔ )
[17:54:19] traj: !r
[17:56:00] traj: !r
[17:59:25] Client "Nicolas Cage ELITEDROP.RU" connected.
[18:00:09] Client "Nicolas Cage ELITEDROP.RU" spawned in server <STEAM_0:0:146163909> (took 44 seconds).
[18:03:07] Client "Lemonparty" connected.
[18:03:52] Client "Lemonparty" spawned in server <STEAM_0:1:119038174> (took 45 seconds).
[18:08:02] Dropped "Nicolas Cage ELITEDROP.RU" from server<STEAM_0:0:146163909>
[18:09:01] Dropped "Lemonparty" from server<STEAM_0:1:119038174>
[18:10:46] Server is shutting down/changing levels.



[18:10:52] New map: surf_sundown_njv
[18:11:06] Client "traj" spawned in server <STEAM_0:1:92213643> (took 15 seconds).
[18:11:06] Client "Bot115" connected.
[18:11:06] Client "Bot115" spawned in server <BOT> (took 15 seconds).
[18:11:08] Client "Bot116" connected.
[18:11:08] Client "Bot116" spawned in server <BOT> (took 17 seconds).
[18:13:50] Client "linex4422" connected.
[18:14:16] traj: SKRRRYT
[18:16:22] Client "linex4422" spawned in server <STEAM_0:0:70224268> (took 152 seconds).
[18:16:28] traj: !menu
[18:20:22] Dropped "linex4422" from server<STEAM_0:0:70224268>
[18:21:18] traj: !menu
[18:22:20] Client "CiTrus_" connected.
[18:26:38] Client "CiTrus_" connected.
[18:27:53] traj: !rtv
[18:28:21] Client "CiTrus_" spawned in server <STEAM_0:1:29814613> (took 103 seconds).
[18:28:29] Server is shutting down/changing levels.



[18:28:36] New map: surf_mesa
[18:29:35] Client "traj" spawned in server <STEAM_0:1:92213643> (took 60 seconds).
[18:29:35] Client "Bot117" connected.
[18:29:35] Client "Bot117" spawned in server <BOT> (took 60 seconds).
[18:29:37] Client "Bot118" connected.
[18:29:37] Client "Bot118" spawned in server <BOT> (took 62 seconds).
[18:30:05] Client "DerSuper11" connected.
[18:31:12] Client "CiTrus_" spawned in server <STEAM_0:1:29814613> (took 157 seconds).
[18:31:34] traj: Hi?
[18:31:49] CiTrus_: hUH
[18:32:11] traj: !r
[18:32:17] CiTrus_: Dude
[18:32:21] traj: ( ͡° ͜ʖ ͡°)
[18:32:23] CiTrus_: ( ͡° ͜ʖ ͡°)
[18:32:43] Client "Vapez" connected.
[18:32:50] traj: ew my ping
[18:32:50] CiTrus_: Mate
[18:33:10] CiTrus_: Wanna play terraria
[18:33:19] traj: soon
[18:33:36] CiTrus_: I sat thru that entire sequnece of dowloads just to say taht
[18:34:03] traj: you could of discord'd me or commented on my profile OverRustle
[18:34:10] CiTrus_: And dear god GMOd surfing is so different than CSGO or TF2
[18:34:13] Client "Vapez" spawned in server <STEAM_0:1:161818061> (took 90 seconds).
[18:34:14] traj: yeah 
[18:34:15] CiTrus_: lol
[18:34:18] traj: im shit at both
[18:34:25] traj: !r
[18:34:48] CiTrus_: I can surf reallly well in CSGO/TF2
[18:34:55] traj: ( ͡° ͜ʖ ͡°)
[18:35:04] CiTrus_: FUCK
[18:35:20] traj: NAH
[18:35:22] traj: the lag 
[18:35:41] traj: !r
[18:35:47] traj: !r
[18:35:55] CiTrus_: This map is designed for CSGO
[18:36:00] CiTrus_: I can tell ;-;
[18:36:16] CiTrus_: !KNIVES
[18:36:19] CiTrus_: !KNIVES
[18:36:30] CiTrus_: How do you get kives
[18:36:41] traj:  !unbox or join the steam group
[18:36:45] CiTrus_: !unbox
[18:37:10] CiTrus_: thanks 
[18:37:13] CiTrus_: I did join
[18:37:18] CiTrus_: Cuz i LIKE SURFING
[18:37:20] traj: do !steam again kek
[18:37:21] Vapez: !unbox
[18:37:26] CiTrus_: !Steam
[18:37:30] CiTrus_: !steam
[18:37:32] traj: !r
[18:37:56] Vapez: !unbox
[18:38:21] CiTrus_: I͇ͫ ̄͒t̳y͛̒̔ͮp̞ͨ́e͌ ̕l̻͍̳̂ik͆͒e̪ͤ̚ t͉̽͆ͯhͩi̫̣ș̐̓
[18:38:23] traj: ( ͡° ͜ʖ ͡°)
[18:38:28] Vapez: !unbox
[18:38:33] traj: !r
[18:39:01] CiTrus_: Stupid glovesless model
[18:39:06] traj: !r
[18:39:08] CiTrus_: Fuckin' triggering me to hell
[18:39:10] traj: lmao
[18:39:30] CiTrus_: !unbox
[18:39:34] Vapez: how do u kill your self console wont work
[18:39:40] traj:  put !r
[18:39:43] traj: to restart 
[18:39:45] Vapez: !r
[18:39:47] traj: start of map
[18:40:03] CiTrus_: !r
[18:40:14] Vapez: yea ik but how do u kill yourself to get your knife to show up
[18:40:15] CiTrus_: !r
[18:40:20] CiTrus_: !r
[18:40:23] CiTrus_: .!r
[18:40:26] Vapez: !r
[18:40:27] traj: did you equip in !knives
[18:40:37] CiTrus_: !r
[18:40:40] Vapez: yea
[18:40:49] traj: scroll?
[18:40:59] Vapez: nope wont work
[18:41:03] Client "jony2chainz { Chainz }" connected.
[18:41:11] CiTrus_: press f10 then type kill
[18:41:22] Vapez: nope i tryed that
[18:41:27] CiTrus_: Damn
[18:41:34] CiTrus_: Try doing retry in console
[18:41:39] Dropped "Vapez" from server<STEAM_0:1:161818061>
[18:41:42] Client "jony2chainz { Chainz }" spawned in server <STEAM_0:1:148411446> (took 39 seconds).
[18:41:42] Client "Vapez" connected.
[18:41:44] traj: meme'd
[18:41:54] Client "Vapez" spawned in server <STEAM_0:1:161818061> (took 12 seconds).
[18:42:17] CiTrus_: !shop
[18:42:28] jony2chainz { Chainz }: !rtv
[18:42:34] jony2chainz { Chainz }: type !rtv
[18:43:15] Vapez: no
[18:43:19] jony2chainz { Chainz }: DO
[18:43:21] jony2chainz { Chainz }: IT
[18:43:37] jony2chainz { Chainz }: if u dont rtv ur gay
[18:43:44] Vapez: dont care
[18:43:50] traj: Dont care mate
[18:43:52] jony2chainz { Chainz }: my dude
[18:44:00] jony2chainz { Chainz }: my kid*
[18:44:00] Client "Nicolas Cage ELITEDROP.RU" connected.
[18:44:06] jony2chainz { Chainz }: u said mate
[18:44:10] jony2chainz { Chainz }: ur 9
[18:44:13] traj: That took a lot of thought didn't it
[18:44:15] CiTrus_: Fuckin' 100 ping
[18:44:29] jony2chainz { Chainz }: 110
[18:44:31] jony2chainz { Chainz }: XD
[18:44:35] jony2chainz { Chainz }: nibba u talking?
[18:44:43] Client "ДиПсИ" connected.
[18:44:46] CiTrus_: What's my player model?
[18:44:56] jony2chainz { Chainz }: a white dude
[18:44:57] Vapez: press f1 and select surfers to join
[18:45:02] Vapez: well
[18:45:09] Vapez: didnt mean to do that
[18:45:13] Dropped "CiTrus_" from server<STEAM_0:1:29814613>
[18:45:13] Vapez: !rules
[18:45:14] Client "CiTrus_" connected.
[18:45:16] jony2chainz { Chainz }: haha
[18:45:27] Client "CiTrus_" spawned in server <STEAM_0:1:29814613> (took 13 seconds).
[18:45:31] jony2chainz { Chainz }: we got an 11 year old savage in here
[18:45:37] traj: ?
[18:45:45] jony2chainz { Chainz }: ur ping?
[18:45:47] CiTrus_: Now?
[18:45:48] jony2chainz { Chainz }: HAHA
[18:45:54] CiTrus_: What's my model?
[18:45:57] jony2chainz { Chainz }: still a white dude
[18:46:01] CiTrus_: dammit!
[18:46:09] CiTrus_: !shop
[18:46:09] jony2chainz { Chainz }: what is it anyways
[18:46:13] traj: f4 CiTrus_
[18:46:17] traj: there we go
[18:46:18] CiTrus_: OK there we go xD
[18:46:23] jony2chainz { Chainz }: o its a lttle girl
[18:46:37] CiTrus_: Yes I am a pedo
[18:46:40] CiTrus_: I fap to lolis
[18:46:43] traj: ( ͡° ͜ʖ ͡°)
[18:46:44] CiTrus_: ( ͡° ͜ʖ ͡°)
[18:46:49] jony2chainz { Chainz }: nice
[18:46:52] (TEAM) CiTrus_: xDDDD
[18:46:55] CiTrus_: xDDDDDDD
[18:46:56] jony2chainz { Chainz }: dude is everyone here 2
[18:47:06] Vapez: i think they are
[18:47:19] jony2chainz { Chainz }: u to buddy
[18:47:28] Vapez: fuck up u stupid cunt 
[18:47:47] jony2chainz { Chainz }: awe can u only curse when mommys not home
[18:47:50] CiTrus_: Shitty map
[18:47:58] jony2chainz { Chainz }: DO !RTV
[18:48:01] CiTrus_: !rtv
[18:48:04] traj: ( ͡° ͜ʖ ͡°)
[18:48:07] jony2chainz { Chainz }: AND plus ur a shitty surfer
[18:48:09] jony2chainz { Chainz }: XD
[18:48:21] CiTrus_: Right back atcha
[18:48:32] jony2chainz { Chainz }: dude ur a starterXD
[18:48:35] Client "TrumpTin" connected.
[18:48:36] jony2chainz { Chainz }: nibba u gay
[18:48:46] CiTrus_: CSGO's Havok physics engine is legit MADE for surfing
[18:48:51] Client "ДиПсИ" spawned in server <STEAM_0:1:148849885> (took 248 seconds).
[18:48:55] jony2chainz { Chainz }: this dude talking smack and he didnt even look at his lable 
[18:49:09] Client "TrumpTin" connected.
[18:49:10] traj: He has only been on this server for like 5 mins L./
[18:49:12] traj: :/
[18:49:13] CiTrus_: CYKA BLAT
[18:49:17] Vapez: who
[18:49:20] jony2chainz { Chainz }: lmao 
[18:49:26] Client "TrumpTin" connected.
[18:49:39] CiTrus_: I like surfing tho
[18:49:44] Vapez: traj whats yoour time played
[18:49:47] jony2chainz { Chainz }: uhh ur pretty trash
[18:49:58] traj: 10 hours LMAO but I come to have fun and talk with people
[18:50:10] Vapez: mines 1 day 13 hours
[18:50:20] CiTrus_: 5 seconds
[18:50:28] traj: jony2chainz { Chainz } hmu with that pfp link 
[18:50:32] traj: !r
[18:50:39] jony2chainz { Chainz }: pfp?
[18:50:40] traj: profile*
[18:50:50] jony2chainz { Chainz }: wdym
[18:50:54] traj: im used to putting pfp, for profile picture
[18:50:55] Vapez: /r 
[18:50:57] traj: so i can add
[18:51:00] traj: !r
[18:51:14] traj: nvm
[18:51:17] Client "dǝǝW ƃuᴉʞ" connected.
[18:51:17] traj: I can tab it
[18:51:20] jony2chainz { Chainz }: haha
[18:51:26] CiTrus_: Wanna play terraria now 
[18:51:36] jony2chainz { Chainz }: lmao u looked at my profile
[18:51:37] jony2chainz { Chainz }: XD
[18:51:37] Client "dǝǝW ƃuᴉʞ" spawned in server <STEAM_0:0:168132318> (took 20 seconds).
[18:51:40] jony2chainz { Chainz }: skrub
[18:51:45] traj: cykas
[18:51:48] CiTrus_: I'm pretty pissed
[18:52:00] traj: y
[18:52:16] Vapez: !tutorial
[18:52:19] CiTrus_: I unboxed a field tseted AKOBEN ffs
[18:52:25] CiTrus_: For MP7
[18:52:44] Dropped "dǝǝW ƃuᴉʞ" from server<STEAM_0:0:168132318>
[18:52:53] jony2chainz { Chainz }: TYPE !rtv
[18:53:04] Dropped "CiTrus_" from server<STEAM_0:1:29814613>
[18:53:10] Client "CiTrus_" connected.
[18:53:12] jony2chainz { Chainz }: haha
[18:53:24] Client "CiTrus_" spawned in server <STEAM_0:1:29814613> (took 14 seconds).
[18:53:27] Vapez: !r
[18:53:30] Vapez: !kill
[18:53:37] Vapez: !knife
[18:53:49] CiTrus_: hat was my reason for leaving?
[18:53:54] CiTrus_: What*
[18:54:08] jony2chainz { Chainz }: bad ping 
[18:54:16] CiTrus_: No in my thing
[18:54:19] jony2chainz { Chainz }: u ust left
[18:54:23] jony2chainz { Chainz }: just
[18:54:25] CiTrus_: Shite
[18:54:27] CiTrus_: I didn't work
[18:54:35] jony2chainz { Chainz }: do !rtv
[18:54:44] CiTrus_: I typed "disconnect (cyka blat)" in console
[18:55:02] jony2chainz { Chainz }: ok
[18:55:26] Vapez: !steam
[18:55:27] jony2chainz { Chainz }: dude
[18:55:32] traj: yall mind
[18:55:34] CiTrus_: TRAJ YOU MOTHER FUCKER
[18:55:35] jony2chainz { Chainz }: type !rtv
[18:55:44] CiTrus_: DO YOU WANT TO PLAY TERRARIA OR NOT 
[18:55:52] traj: not yet CiTrus_
[18:55:58] CiTrus_: OK
[18:56:08] CiTrus_: CUZ I FUCKIN TOOK 2 MINUTES TO DOWNLOAD THE SHIT
[18:56:23] CiTrus_: AND I'M PISSED CUZ I COULD'VE MADE RAMEN IN THAT TIME
[18:56:42] CiTrus_: !shop
[18:56:54] Dropped "Vapez" from server<STEAM_0:1:161818061>
[18:57:11] traj: Hm
[18:57:13] traj: !flips
[18:57:13] traj: !r
[18:57:16] jony2chainz { Chainz }: hey traj
[18:57:20] traj: ?
[18:57:23] jony2chainz { Chainz }: do !rtv
[18:57:25] traj: ( ͡° ͜ʖ ͡°)
[18:57:29] CiTrus_: !rtv
[18:57:33] CiTrus_: ( ͡° ͜ʖ ͡°)
[18:57:35] jony2chainz { Chainz }: !rtv
[18:58:07] jony2chainz { Chainz }: im specing u hehe
[18:58:13] jony2chainz { Chainz }: lol trash
[18:58:15] jony2chainz { Chainz }: XD
[18:58:20] traj: And this is why I wont !rtv
[18:58:32] jony2chainz { Chainz }: what cause ur trash at the lvl/
[18:58:33] jony2chainz { Chainz }: ?
[18:58:37] jony2chainz { Chainz }: haha
[18:58:44] traj to CiTrus_: this guy is gonna get banned trust me
[18:58:58] CiTrus_ to traj: wot?
[18:59:05] jony2chainz { Chainz }: dude 
[18:59:06] traj to CiTrus_: just wait and see :3
[18:59:10] jony2chainz { Chainz }: this nibba afk
[18:59:12] Server is shutting down/changing levels.



[18:59:19] New map: surf_pox
[18:59:32] Client "jony2chainz { Chainz }" spawned in server <STEAM_0:1:148411446> (took 14 seconds).
[18:59:32] Client "Bot119" connected.
[18:59:32] Client "Bot119" spawned in server <BOT> (took 14 seconds).
[18:59:32] Client "traj" spawned in server <STEAM_0:1:92213643> (took 14 seconds).
[18:59:34] Client "Bot120" connected.
[18:59:34] Client "Bot120" spawned in server <BOT> (took 16 seconds).
[18:59:35] Client "[FX] Cosmic" connected.
[18:59:42] jony2chainz { Chainz }: awww
[18:59:45] jony2chainz { Chainz }: bois
[18:59:49] Client "CiTrus_" spawned in server <STEAM_0:1:29814613> (took 31 seconds).
[18:59:53] jony2chainz { Chainz }: we chose a bad map bois 
[19:00:13] Client "ДиПсИ" spawned in server <STEAM_0:1:148849885> (took 55 seconds).
[19:00:25] Client "[FX] Cosmic" spawned in server <STEAM_0:1:168631107> (took 50 seconds).
[19:00:25] CiTrus_: I͇ͫ ̄͒t̳y͛̒̔ͮp̞ͨ́e͌ ̕l̻͍̳̂ik͆͒e̪ͤ̚ t͉̽͆ͯhͩi̫̣ș̐̓
[19:00:50] traj: cosmic <3
[19:01:01] [FX] Cosmic: traj <3
[19:01:09] CiTrus_: ( ͡° ͜ʖ ͡°)
[19:01:48] jony2chainz { Chainz }: this map 
[19:01:49] jony2chainz { Chainz }: is 
[19:01:52] [FX] Cosmic: ez
[19:01:52] jony2chainz { Chainz }: interesting?
[19:02:19] jony2chainz { Chainz }: lmao
[19:02:23] jony2chainz { Chainz }: ezz>
[19:02:24] jony2chainz { Chainz }: ?
[19:02:29] jony2chainz { Chainz }: the bot time is 22
[19:02:36] jony2chainz { Chainz }: and urs is 40 XD
[19:02:41] traj: But you havent even beat it?
[19:02:43] [FX] Cosmic: still
[19:02:45] traj: I havent but still
[19:02:46] jony2chainz { Chainz }: XD
[19:02:48] jony2chainz { Chainz }: nah b
[19:02:49] CiTrus_: Fuck
[19:02:59] jony2chainz { Chainz }: this map is not wrth my effort
[19:03:06] traj: Oh thats what it is OverRustle
[19:03:07] [FX] Cosmic: wow
[19:03:16] jony2chainz { Chainz }: yea
[19:03:20] jony2chainz { Chainz }: this map is trash
[19:03:23] traj: :thinking: ok?
[19:03:25] jony2chainz { Chainz }: im g at utopia tho
[19:03:29] traj: Why vote for it then 
[19:03:29] CiTrus_: So many damn holes
[19:03:35] jony2chainz { Chainz }: dude
[19:03:41] jony2chainz { Chainz }: idk the name of the maps XD
[19:03:49] traj: OverRustle
[19:04:14] traj: !r
[19:04:23] CiTrus_: !shop
[19:04:42] CiTrus_: !unbox
[19:04:42] jony2chainz { Chainz }: !rtv
[19:04:51] jony2chainz { Chainz }: rtv bois
[19:04:55] traj: ( ͡° ͜ʖ ͡°)
[19:05:08] jony2chainz { Chainz }: nice copy and paste skills
[19:05:19] traj: Thank you <3
[19:05:24] [FX] Cosmic: ok do it without copy paste......
[19:05:34] traj: ^ OverRustle
[19:05:42] jony2chainz { Chainz }: modded key boards can
[19:05:45] jony2chainz { Chainz }: well
[19:05:49] jony2chainz { Chainz }: u need a set up
[19:05:54] traj: smh excuses
[19:06:04] jony2chainz { Chainz }: smh copy and paste
[19:06:19] [FX] Cosmic: hmmmmm
[19:06:22] [FX] Cosmic: gaben
[19:06:28] traj to [FX] Cosmic: I remember when I was 12 like this guy
[19:06:33] jony2chainz { Chainz }: cringe*
[19:06:39] traj: <avatar=STEAM_0:1:92213643>
[19:06:48] jony2chainz { Chainz }: more cringe*
[19:06:54] jony2chainz { Chainz }: rtv bois
[19:06:54] [FX] Cosmic: hmmmm
[19:07:16] [FX] Cosmic: hmmm?, is there a "boss" here?
[19:07:22] traj: <avatar=STEAM_0:1:148411446>
[19:07:36] jony2chainz { Chainz }: lmao dude u stalker
[19:07:38] [FX] Cosmic: where you find these?
[19:07:38] jony2chainz { Chainz }: skrub
[19:07:45] CiTrus_: I͇ͫ ̄͒t̳y͛̒̔ͮp̞ͨ́e͌ ̕l̻͍̳̂ik͆͒e̪ͤ̚ t͉̽͆ͯhͩi̫̣ș̐̓
[19:07:45] traj: Cosmic its jony2chainz { Chainz }'s pfp
[19:07:48] traj: !r
[19:07:49] traj: !flips
[19:07:50] traj: !r
[19:07:53] jony2chainz { Chainz }: yea
[19:07:55] CiTrus_: !unbox
[19:07:57] [FX] Cosmic: ahhhh
[19:08:01] jony2chainz { Chainz }: it matches w my name :D
[19:08:07] [FX] Cosmic: i don't check profiles ok?
[19:08:16] jony2chainz { Chainz }: other games
[19:08:20] jony2chainz { Chainz }: but u know who doed
[19:08:23] jony2chainz { Chainz }: does
[19:08:29] jony2chainz { Chainz }: traj
[19:08:29] traj: No I dont
[19:08:30] jony2chainz { Chainz }: XD
[19:08:32] traj: Yes I do
[19:08:46] [FX] Cosmic: no? yes? im confused...
[19:08:49] traj: ok?
[19:08:53] [FX] Cosmic: ok?
[19:08:54] CiTrus_: dAMN 
[19:08:56] traj: ( ͡° ͜ʖ ͡°)
[19:08:59] CiTrus_: 100K ponits
[19:09:00] jony2chainz { Chainz }: hes like 9 dude chill
[19:09:18] jony2chainz { Chainz }: 2,000,000
[19:09:19] CiTrus_: !unbox
[19:09:19] jony2chainz { Chainz }: XD
[19:09:49] [FX] Cosmic: !r
[19:09:50] [FX] Cosmic: !r
[19:09:50] [FX] Cosmic: !r
[19:09:55] [FX] Cosmic: !r
[19:10:03] [FX] Cosmic: !r
[19:10:06] [FX] Cosmic: !r
[19:10:08] [FX] Cosmic: !r
[19:10:11] [FX] Cosmic: !r
[19:10:25] traj: !rules
[19:10:42] CiTrus_: !shop
[19:10:48] CiTrus_: !unbox
[19:11:43] traj: ok brb
[19:12:25] [FX] Cosmic: !r
[19:12:27] traj: ( ͡ᵔ ͜ʖ ͡ᵔ )
[19:12:28] CiTrus_: ( ͡° ͜ʖ ͡°)
[19:12:53] CiTrus_: Hey Guys I learned an amazing protip
[19:13:01] Client "Panda291" connected.
[19:13:01] traj: mm
[19:13:01] CiTrus_: Press f to actually see
[19:13:06] [FX] Cosmic: be low on the ramp?
[19:13:15] [FX] Cosmic: hmmm
[19:13:25] [FX] Cosmic: aint working...... mb it willl,
[19:13:34] [FX] Cosmic: !r
[19:13:46] CiTrus_: WTF is this map
[19:13:52] jony2chainz { Chainz }: DO !RTV
[19:13:54] jony2chainz { Chainz }: idiot
[19:13:57] CiTrus_: !rtv
[19:14:07] traj: ( ͡° ͜ʖ ͡°)
[19:14:12] CiTrus_: ( ͡° ͜ʖ ͡°)
[19:14:19] Dropped "ДиПсИ" from server<STEAM_0:1:148849885>
[19:14:22] CiTrus_: !shop
[19:14:23] jony2chainz { Chainz }: lmao bot tele spawns
[19:14:34] jony2chainz { Chainz }: thats why it has 22
[19:14:41] CiTrus_: !unbox
[19:14:53] CiTrus_: !shop
[19:15:03] [FX] Cosmic: well thats how the pro's do it...
[19:15:17] CiTrus_: !shop
[19:15:18] traj: ( ͡° ͜ʖ ͡°)
[19:15:22] CiTrus_: !unbox
[19:15:24] jony2chainz { Chainz }: for some maps
[19:15:30] jony2chainz { Chainz }: but how it tele spawn XD
[19:16:03] [FX] Cosmic: !r
[19:17:18] traj: gg cosmic man
[19:17:25] [FX] Cosmic: gg
[19:18:33] jony2chainz { Chainz }: LMAO
[19:18:35] jony2chainz { Chainz }: traj
[19:18:44] jony2chainz { Chainz }: "God of surf"
[19:18:52] traj: Its a joke me and some people have
[19:18:56] traj: dont be annoying plz
[19:19:06] jony2chainz { Chainz }: nibba u gay at surf
[19:19:26] CiTrus_: !unbox
[19:19:47] traj to [FX] Cosmic: yep i sent that to ned
[19:19:49] [FX] Cosmic: u know it says in the rules of surf 'Have respect for other players (including staff)'?
[19:19:55] traj: Ok Yes like I said its a joke
[19:20:06] traj: you mind if I define a joke?
[19:20:14] jony2chainz { Chainz }: lmao what staff?
[19:20:21] jony2chainz { Chainz }: this server is dead
[19:20:25] jony2chainz { Chainz }: whos going to kick me
[19:20:27] [FX] Cosmic: staff team...
[19:20:28] traj: jokedʒəʊk/Submitnoun1.a thing that someone says to cause amusement or laughter, especially a story with a funny punchline.
[19:20:40] CiTrus_: fuck
[19:20:51] traj: having fun CiTrus_? :3
[19:20:57] CiTrus_: No
[19:21:03] jony2chainz { Chainz }: llmao
[19:21:04] CiTrus_: I got a rust coat gut
[19:21:07] jony2chainz { Chainz }: not on this gay map
[19:21:16] jony2chainz { Chainz }: haha
[19:21:19] CiTrus_: And this map sux ass
[19:21:19] traj: I have flip rust CiTrus_
[19:21:33] CiTrus_: Gut is worse -_-
[19:21:40] CiTrus_: I have fade flip but shit
[19:22:03] jony2chainz { Chainz }: gamma butterfly ;-;
[19:22:04] CiTrus_: SUCK MY ASS YOU SHIT MAP
[19:22:08] [FX] Cosmic: !r
[19:22:12] traj: Calm
[19:22:19] [FX] Cosmic: plz calm....
[19:22:22] CiTrus_: Le sure
[19:22:27] CiTrus_: !unbox
[19:22:29] jony2chainz { Chainz }: lmao if u rtv XD
[19:22:56] [FX] Cosmic: !r
[19:23:23] jony2chainz { Chainz }: lmao gay
[19:23:34] jony2chainz { Chainz }: i legit walked the whole map XD
[19:23:53] [FX] Cosmic: and you said this map isn't worth you'r time???
[19:23:55] CiTrus_: What the hell
[19:24:01] traj: Yeah whats up with that
[19:24:26] [FX] Cosmic: !r
[19:24:27] jony2chainz { Chainz }: its not
[19:24:34] jony2chainz { Chainz }: yall wouldent rtv tho
[19:24:43] traj: Ah yes it's my fault, sorry I forgot
[19:24:50] CiTrus_: !shop
[19:24:53] CiTrus_: !unbox
[19:25:11] [FX] Cosmic: uyou wondered what 'staff is?
[19:25:30] jony2chainz { Chainz }: what?
[19:25:53] jony2chainz { Chainz }: /r
[19:26:24] Client "FX |   XxNedSTxX" connected.
[19:26:37] [FX] Cosmic: !r
[19:27:33] [FX] Cosmic: my ping though..
[19:27:34] jony2chainz { Chainz }: /r
[19:27:50] [FX] Cosmic: called sweden
[19:27:58] jony2chainz { Chainz }: not even that bad
[19:28:11] traj: ( ͡° ͜ʖ ͡°)
[19:28:14] [FX] Cosmic: i've had 990 ping so....
[19:28:20] traj: I feel you cosmic
[19:28:29] [FX] Cosmic: <3
[19:28:30] Client "FX |   XxNedSTxX" spawned in server <STEAM_0:0:139239512> (took 126 seconds).
[19:28:32] CiTrus_: !unbox
[19:29:00] [FX] Cosmic: sup ned
[19:29:05] traj: OverRustle
[19:29:11] [FX] Cosmic: gaben
[19:29:13] traj: ( ͡ᵔ ͜ʖ ͡ᵔ )
[19:29:17] [FX] Cosmic: hi
[19:29:33] jony2chainz { Chainz }: YALL SUCK
[19:29:34] [FX] Cosmic: gud
[19:29:37] traj: Im good hbu ned
[19:29:39] jony2chainz { Chainz }: and wana to a t3 stage XD
[19:29:40] Client "Hatsune Miku" connected.
[19:29:40] [FX] Cosmic: hmmm
[19:29:52] jony2chainz { Chainz }: yee
[19:29:55] Server is shutting down/changing levels.



[19:30:02] New map: surf_utopia_njv
[19:30:23] Client "jony2chainz { Chainz }" spawned in server <STEAM_0:1:148411446> (took 22 seconds).
[19:30:23] Client "Bot121" connected.
[19:30:23] Client "Bot121" spawned in server <BOT> (took 22 seconds).
[19:30:25] Client "Bot122" connected.
[19:30:25] Client "Bot122" spawned in server <BOT> (took 24 seconds).
[19:30:30] Client "[FX] Cosmic" spawned in server <STEAM_0:1:168631107> (took 29 seconds).
[19:30:56] Client "traj" spawned in server <STEAM_0:1:92213643> (took 55 seconds).
[19:31:04] Client "Hatsune Miku" spawned in server <STEAM_0:0:106956507> (took 63 seconds).
[19:31:08] Client "FX |   XxNedSTxX" spawned in server <STEAM_0:0:139239512> (took 67 seconds).
[19:31:14] traj: ( ͡ᵔ ͜ʖ ͡ᵔ )
[19:31:23] Client "Jibbit" connected.
[19:31:32] Client "CiTrus_" spawned in server <STEAM_0:1:29814613> (took 91 seconds).
[19:31:40] Hatsune Miku: !shop
[19:31:48] CiTrus_: YESSSS
[19:31:54] traj: ( ͡° ͜ʖ ͡°)
[19:32:03] traj: One day ill beat a map
[19:32:06] Client "Jibbit" spawned in server <STEAM_0:0:125632632> (took 43 seconds).
[19:32:37] [FX] Cosmic: my voice on the jb have to lower it almost can't hear ned...
[19:32:45] traj: lmao me too
[19:32:49] Client "yungshaddy" connected.
[19:32:53] [FX] Cosmic: yup
[19:32:58] traj: I do
[19:32:58] Jibbit: english skills over 9000
[19:33:00] [FX] Cosmic: ?
[19:33:18] [FX] Cosmic: !r
[19:33:46] Dropped "Hatsune Miku" from server<STEAM_0:0:106956507>
[19:33:54] Client "yungshaddy" spawned in server <STEAM_0:0:61285412> (took 65 seconds).
[19:34:10] traj: Oh no
[19:34:16] [FX] Cosmic: kill me plz
[19:34:19] [FX] Cosmic: !r
[19:34:20] [FX] Cosmic: !r
[19:34:27] [FX] Cosmic: jesus
[19:34:32] traj: Against the rules ned xdx OverRustle
[19:34:32] [FX] Cosmic: wtf bruh
[19:35:07] traj: ( ͡° ͜ʖ ͡°)
[19:35:11] [FX] Cosmic: xD
[19:35:27] traj: sᴉdǝq
[19:35:29] [FX] Cosmic: bruh
[19:35:30] CiTrus_: !unbox
[19:35:34] traj: ( ͡ᵔ ͜ʖ ͡ᵔ )
[19:35:40] [FX] Cosmic: MADAMADA
[19:35:48] jony2chainz { Chainz }: dude
[19:35:54] jony2chainz { Chainz }: we finnaly got an ad
[19:36:34] Dropped "yungshaddy" from server<STEAM_0:0:61285412>
[19:37:14] [FX] Cosmic: for?
[19:37:15] traj: yes i am
[19:37:17] Client "ДиПсИ" connected.
[19:37:19] traj: ( ͡ᵔ ͜ʖ ͡ᵔ )
[19:37:22] [FX] Cosmic: well.... yes
[19:37:26] FX |   XxNedSTxX banned jony2chainz { Chainz } for 1 week (Rasicm, Being rude to player...)
[19:37:26] Dropped "jony2chainz { Chainz }" from server<STEAM_0:1:148411446>
[19:37:27] [FX] Cosmic: oh god
[19:37:28] traj: OOF
[19:37:34] traj: ty ned
[19:37:34] [FX] Cosmic: OHHHHHHHHHHHHHHHHHHHHHHHHHHHHHHHHHHHHHHHHHHHHHH
[19:37:40] [FX] Cosmic: MOM GET THE CAMERA
[19:37:41] traj: told you CiTrus_
[19:37:47] [FX] Cosmic: rip that guy
[19:37:52] traj: Not in peace
[19:37:55] traj: just R
[19:38:04] Client "ДиПсИ" spawned in server <STEAM_0:1:148849885> (took 47 seconds).
[19:38:07] traj: I said to citrus in pms that he will prolly get the fat ban
[19:38:09] Client "FX Sam best Bhopper" connected.
[19:38:10] traj: f
[19:38:13] [FX] Cosmic: f
[19:38:16] CiTrus_: ( ͡° ͜ʖ ͡°)
[19:38:16] [FX] Cosmic: n
[19:38:21] traj: f
[19:38:22] traj: x
[19:38:24] traj: gaming
[19:38:26] [FX] Cosmic: ffff
[19:38:28] [FX] Cosmic: f
[19:38:29] [FX] Cosmic: x
[19:38:29] FX |   XxNedSTxX froze traj
[19:38:29] FX |   XxNedSTxX: !freeze traj
[19:38:31] [FX] Cosmic: g
[19:38:31] traj: OI NAH
[19:38:32] [FX] Cosmic: a
[19:38:34] [FX] Cosmic: m
[19:38:35] [FX] Cosmic: i
[19:38:37] [FX] Cosmic: n
[19:38:38] [FX] Cosmic: f
[19:38:42] [FX] Cosmic: g*
[19:38:47] (TEAM) traj: OverRustle
[19:38:50] traj: Dont stop it
[19:38:53] traj: OverRustle
[19:38:55] FX |   XxNedSTxX: !unfree traj
[19:39:01] CiTrus_: !unbox
[19:39:12] traj: Ok thats good
[19:39:12] [FX] Cosmic: BRUH
[19:39:15] traj: Me gusta
[19:39:18] traj: I wont tell
[19:39:20] traj: lmao
[19:39:22] traj: !r
[19:39:24] [FX] Cosmic: me niether
[19:39:25] traj: I just !r
[19:39:32] traj: ( ͡° ͜ʖ ͡°)
[19:40:02] [FX] Cosmic: lol
[19:40:05] [FX] Cosmic: rip
[19:40:43] traj: He need some milk
[19:40:46] traj: ( ͡° ͜ʖ ͡°)
[19:40:59] traj: Milk indeed
[19:41:14] [FX] Cosmic: 20:31:12 - [Snail] jony2chainz { Chainz }: lmao what staff
[19:41:19] traj: OOF
[19:41:21] traj: ( ͡ᵔ ͜ʖ ͡ᵔ )
[19:41:52] [FX] Cosmic: +
[19:41:54] [FX] Cosmic: ?*
[19:41:55] traj: yes iam
[19:42:02] traj: My body is ready
[19:42:08] [FX] Cosmic: ahhhh yes
[19:42:13] FX |   XxNedSTxX kicked [FX] Cosmic (What staff?)
[19:42:13] Dropped "[FX] Cosmic" from server<STEAM_0:1:168631107>
[19:42:16] traj: Oh
[19:42:18] traj: OOF
[19:42:20] Client "sotnikovstas" connected.
[19:42:23] Client "[FX] Cosmic" connected.
[19:42:26] traj: he just got meme'd
[19:42:35] Client "[FX] Cosmic" spawned in server <STEAM_0:1:168631107> (took 12 seconds).
[19:42:36] traj: ( ͡° ͜ʖ ͡°)
[19:42:43] [FX] Cosmic: eksdee
[19:43:02] [FX] Cosmic: echdee
[19:43:08] Dropped "FX |   XxNedSTxX" from server<STEAM_0:0:139239512>
[19:43:10] traj: Cant talk rn ;-;
[19:43:12] traj: Ok 
[19:45:07] CiTrus_: !unbox
[19:45:34] CiTrus_: !unbox
[19:47:03] CiTrus_: !unbox
[19:50:52] traj: Ok im gonna go moderate some TTT for a bit bye
[19:51:08] Dropped "traj" from server<STEAM_0:1:92213643>
[19:51:26] Dropped "ДиПсИ" from server<STEAM_0:1:148849885>
[19:52:04] Dropped "CiTrus_" from server<STEAM_0:1:29814613>
[19:52:16] Dropped "[FX] Cosmic" from server<STEAM_0:1:168631107>
[19:55:02] Dropped "Jibbit" from server<STEAM_0:0:125632632>
[19:55:02] Dropped "Bot121" from server<BOT>
[19:55:02] Dropped "Bot122" from server<BOT>
[19:55:06] Client "Tommee Catia!" connected.
[19:56:16] Client "sidboble" connected.
[19:56:49] Client "Tommee Catia!" spawned in server <STEAM_0:1:55906782> (took 103 seconds).
[19:56:49] Client "Bot123" connected.
[19:56:49] Client "Bot123" spawned in server <BOT> (took 1608 seconds).
[19:56:51] Client "Bot124" connected.
[19:56:51] Client "Bot124" spawned in server <BOT> (took 1610 seconds).
[20:00:38] Server is shutting down/changing levels.



[20:00:45] New map: surf_rookie
[20:01:19] Client "Tommee Catia!" spawned in server <STEAM_0:1:55906782> (took 35 seconds).
[20:01:19] Client "Bot125" connected.
[20:01:19] Client "Bot125" spawned in server <BOT> (took 35 seconds).
[20:01:21] Client "Bot126" connected.
[20:01:21] Client "Bot126" spawned in server <BOT> (took 37 seconds).
[20:02:26] Client "sotnikovstas" connected.
[20:09:09] Client "MiniRegent" connected.
[20:09:23] Client "Adelos Gaming" connected.
[20:09:26] Client "FractionYTB Hellcase.com" connected.
[20:10:09] Client "MiniRegent" spawned in server <STEAM_0:0:85452796> (took 60 seconds).
[20:10:09] Client "Adelos Gaming" spawned in server <STEAM_0:1:84846048> (took 46 seconds).
[20:10:28] Client "yungshaddy" connected.
[20:10:44] Client "FractionYTB Hellcase.com" connected.
[20:13:17] Client "FractionYTB Hellcase.com" spawned in server <STEAM_0:0:173977596> (took 153 seconds).
[20:17:19] Dropped "FractionYTB Hellcase.com" from server<STEAM_0:0:173977596>
[20:23:18] Dropped "MiniRegent" from server<STEAM_0:0:85452796>
[20:23:58] Dropped "Adelos Gaming" from server<STEAM_0:1:84846048>
[20:30:45] Dropped "Tommee Catia!" from server<STEAM_0:1:55906782>
[20:30:45] Dropped "Bot125" from server<BOT>
[20:30:45] Dropped "Bot126" from server<BOT>
[20:31:21] Server is shutting down/changing levels.



[20:31:28] New map: surf_airflow
[21:02:04] Server is shutting down/changing levels.



[21:02:11] New map: surf_classics2
[21:26:44] Client "Luckyralph" connected.
[21:28:43] Client "Luckyralph" spawned in server <STEAM_0:1:49150329> (took 119 seconds).
[21:28:43] Client "Bot127" connected.
[21:28:43] Client "Bot127" spawned in server <BOT> (took 1593 seconds).
[21:28:45] Client "Bot128" connected.
[21:28:45] Client "Bot128" spawned in server <BOT> (took 1595 seconds).
[21:29:41] Luckyralph: !r
[21:30:11] Dropped "Luckyralph" from server<STEAM_0:1:49150329>
[21:30:11] Dropped "Bot127" from server<BOT>
[21:30:11] Dropped "Bot128" from server<BOT>
[21:32:48] Server is shutting down/changing levels.



[21:32:54] New map: surf_lux
[21:40:32] Client "Bartezkom" connected.
[21:41:31] Client "Bartezkom" spawned in server <STEAM_0:0:89322207> (took 59 seconds).
[21:41:31] Client "Bot129" connected.
[21:41:31] Client "Bot129" spawned in server <BOT> (took 518 seconds).
[21:41:33] Client "Bot130" connected.
[21:41:33] Client "Bot130" spawned in server <BOT> (took 520 seconds).
[21:46:25] Bartezkom: !unbox
[21:48:47] Bartezkom: !tutorial
[21:58:03] Bartezkom: !unbox
[22:02:28] Dropped "Bartezkom" from server<STEAM_0:0:89322207>
[22:02:28] Dropped "Bot129" from server<BOT>
[22:02:28] Dropped "Bot130" from server<BOT>
[22:03:30] Server is shutting down/changing levels.



[22:03:36] New map: surf_milkyway
[22:34:12] Server is shutting down/changing levels.



[22:34:19] New map: surf_kitsune2
[22:49:09] Client "bonnieboy141" connected.
[22:53:52] Client "bonnieboy141" spawned in server <STEAM_0:0:147236465> (took 283 seconds).
[22:53:52] Client "Bot131" connected.
[22:53:52] Client "Bot131" spawned in server <BOT> (took 1174 seconds).
[22:53:54] Client "Bot132" connected.
[22:53:54] Client "Bot132" spawned in server <BOT> (took 1176 seconds).
[22:55:53] Dropped "bonnieboy141" from server<STEAM_0:0:147236465>
[22:55:53] Dropped "Bot131" from server<BOT>
[22:55:53] Dropped "Bot132" from server<BOT>
[23:01:36] Client "Crungy spingus" connected.
[23:02:51] Client "Crungy spingus" spawned in server <STEAM_0:1:157597290> (took 75 seconds).
[23:02:51] Client "Bot133" connected.
[23:02:51] Client "Bot133" spawned in server <BOT> (took 1713 seconds).
[23:02:53] Client "Bot134" connected.
[23:02:53] Client "Bot134" spawned in server <BOT> (took 1715 seconds).
[23:04:39] Dropped "Crungy spingus" from server<STEAM_0:1:157597290>
[23:04:39] Dropped "Bot133" from server<BOT>
[23:04:39] Dropped "Bot134" from server<BOT>
[23:04:56] Server is shutting down/changing levels.



[23:05:03] New map: surf_waterworks
[23:33:18] Client "hotcoco04" connected.
[23:35:38] Server is shutting down/changing levels.



[23:35:45] New map: surf_placid
<Logging continued in "data/ulx_logs/06-22-17.txt">
