<Logging continued from "data/ulx_logs/06-27-17.txt">
[00:01:01] Client "[GER]Kluempix" connected.
[00:09:45] Client "s1ke. Zub_sero" connected.
[00:10:29] Client "s1ke. Zub_sero" spawned in server <STEAM_0:0:30648292> (took 44 seconds).
[00:10:36] Client "Flying Panda" connected.
[00:11:30] Client "Flying Panda" spawned in server <STEAM_0:1:67477586> (took 54 seconds).
[00:13:03] Dropped "s1ke. Zub_sero" from server<STEAM_0:0:30648292>
[00:15:26] Flying Panda: !r
[00:16:52] Server is shutting down/changing levels.



[00:16:59] New map: surf_island
[00:18:36] Client "Flying Panda" spawned in server <STEAM_0:1:67477586> (took 98 seconds).
[00:18:36] Client "Bot341" connected.
[00:18:36] Client "Bot341" spawned in server <BOT> (took 98 seconds).
[00:18:38] Client "Bot342" connected.
[00:18:38] Client "Bot342" spawned in server <BOT> (took 100 seconds).
[00:22:53] Flying Panda: !r
[00:29:49] Flying Panda: !r
[00:31:42] Flying Panda: !r
[00:42:59] Client "✪ ZSK CSOFFER.ME" connected.
[00:47:35] Server is shutting down/changing levels.



[00:47:43] New map: surf_classics2
[00:47:56] Client "Flying Panda" spawned in server <STEAM_0:1:67477586> (took 14 seconds).
[00:47:56] Client "Bot343" connected.
[00:47:56] Client "Bot343" spawned in server <BOT> (took 14 seconds).
[00:47:58] Client "Bot344" connected.
[00:47:58] Client "Bot344" spawned in server <BOT> (took 16 seconds).
[00:50:04] Flying Panda: !r
[01:01:14] Client "V-VACATION" connected.
[01:02:09] Client "V-VACATION" spawned in server <STEAM_0:0:209512341> (took 55 seconds).
[01:03:03] Dropped "V-VACATION" from server<STEAM_0:0:209512341>
[01:09:26] Client "Turd" connected.
[01:14:43] Client "Dwayne "The Glock" Johnson" connected.
[01:17:36] Client "Dwayne "The Glock" Johnson" spawned in server <STEAM_0:1:55189203> (took 173 seconds).
[01:18:19] Server is shutting down/changing levels.



[01:18:26] New map: surf_ing
[01:18:56] Client "Flying Panda" spawned in server <STEAM_0:1:67477586> (took 31 seconds).
[01:18:56] Client "Bot345" connected.
[01:18:56] Client "Bot345" spawned in server <BOT> (took 31 seconds).
[01:18:58] Client "Bot346" connected.
[01:18:58] Client "Bot346" spawned in server <BOT> (took 33 seconds).
[01:19:30] Client "Dwayne "The Glock" Johnson" spawned in server <STEAM_0:1:55189203> (took 65 seconds).
[01:23:35] Dwayne "The Glock" Johnson: !help
[01:23:36] Flying Panda: !r
[01:24:50] Dwayne "The Glock" Johnson: !glock
[01:24:54] Dwayne "The Glock" Johnson: !usp
[01:24:56] Client "Barack Obama⁷" connected.
[01:24:57] Dwayne "The Glock" Johnson: !knife
[01:25:26] Dwayne "The Glock" Johnson: !unbox
[01:27:27] Dropped "Flying Panda" from server<STEAM_0:1:67477586>
[01:28:33] Dwayne "The Glock" Johnson: !steam
[01:28:38] Dwayne "The Glock" Johnson: !steam
[01:28:45] Dwayne "The Glock" Johnson: !steam
[01:29:52] Dwayne "The Glock" Johnson: !unbox
[01:30:40] Dwayne "The Glock" Johnson: !unbox
[01:31:54] Dwayne "The Glock" Johnson: !unbox
[01:34:10] Dwayne "The Glock" Johnson: !unbox
[01:37:01] Dwayne "The Glock" Johnson: !knife
[01:44:48] Dwayne "The Glock" Johnson: !unbox
[01:48:45] Dwayne "The Glock" Johnson: !unbox
[01:48:56] Dwayne "The Glock" Johnson: !unbox
[01:49:43] Dwayne "The Glock" Johnson: !unbox
[01:52:53] Dwayne "The Glock" Johnson: !unbox
[02:00:24] Dwayne "The Glock" Johnson: !unbox
[02:01:11] Client "Sup. Fronfron" connected.
[02:01:32] Dwayne "The Glock" Johnson: !unbox
[02:01:53] Client "Sup. Fronfron" spawned in server <STEAM_0:1:84416465> (took 42 seconds).
[02:03:15] Dropped "Sup. Fronfron" from server<STEAM_0:1:84416465>
[02:03:20] Client "Sup. Fronfron" connected.
[02:03:32] Client "Sup. Fronfron" spawned in server <STEAM_0:1:84416465> (took 12 seconds).
[02:03:48] Dwayne "The Glock" Johnson: want a knife?
[02:04:34] Server is shutting down/changing levels.



[02:04:41] New map: surf_prelude_ksf
[02:04:55] Client "Sup. Fronfron" spawned in server <STEAM_0:1:84416465> (took 16 seconds).
[02:04:55] Client "Bot347" connected.
[02:04:55] Client "Bot347" spawned in server <BOT> (took 16 seconds).
[02:04:57] Client "Bot348" connected.
[02:04:57] Client "Bot348" spawned in server <BOT> (took 18 seconds).
[02:05:45] Client "Dwayne "The Glock" Johnson" spawned in server <STEAM_0:1:55189203> (took 66 seconds).
[02:08:10] Dwayne "The Glock" Johnson: !unbox
[02:11:08] Dwayne "The Glock" Johnson: !unbox
[02:11:15] Dropped "Sup. Fronfron" from server<STEAM_0:1:84416465>
[02:14:41] Dwayne "The Glock" Johnson: !unbox
[02:14:55] Dwayne "The Glock" Johnson: !unbox
[02:22:05] Dwayne "The Glock" Johnson: !unbox
[02:25:33] Dwayne "The Glock" Johnson: !coinflip
[02:25:37] Dwayne "The Glock" Johnson: !coin
[02:29:33] Dwayne "The Glock" Johnson: !unbox
[02:31:20] Dwayne "The Glock" Johnson: !unbox
[02:38:33] Dwayne "The Glock" Johnson: !unbox
[02:42:44] Dwayne "The Glock" Johnson: !unbox
[02:50:48] Server is shutting down/changing levels.



[02:50:55] New map: surf_kitsune
[02:52:16] Client "Dwayne "The Glock" Johnson" spawned in server <STEAM_0:1:55189203> (took 83 seconds).
[02:52:16] Client "Bot349" connected.
[02:52:16] Client "Bot349" spawned in server <BOT> (took 83 seconds).
[02:52:18] Client "Bot350" connected.
[02:52:18] Client "Bot350" spawned in server <BOT> (took 85 seconds).
[03:12:45] Dwayne "The Glock" Johnson: !unbox
[03:14:30] Dwayne "The Glock" Johnson: !unbox
[03:24:55] Client "Wanker" connected.
[03:28:04] Client "Wanker" spawned in server <STEAM_0:0:1562302> (took 189 seconds).
[03:29:03] Wanker: !r
[03:29:22] Wanker: !r
[03:30:10] Wanker: !r
[03:30:55] Wanker: !r
[03:31:11] Wanker: !r
[03:33:19] Wanker: !r
[03:33:30] Wanker: !r
[03:33:47] Wanker: !r
[03:34:20] Wanker: !r
[03:34:30] Wanker: !r
[03:34:43] Wanker: !r
[03:35:52] Wanker: !r
[03:36:04] Dwayne "The Glock" Johnson: !unbox
[03:36:09] Wanker: !r
[03:36:13] Wanker: !r
[03:36:23] Wanker: !r
[03:36:59] Wanker: !r
[03:37:02] Server is shutting down/changing levels.



[03:37:09] New map: surf_lux
[03:38:25] Client "Wanker" spawned in server <STEAM_0:0:1562302> (took 77 seconds).
[03:38:25] Client "Bot351" connected.
[03:38:25] Client "Bot351" spawned in server <BOT> (took 77 seconds).
[03:38:27] Client "Bot352" connected.
[03:38:27] Client "Bot352" spawned in server <BOT> (took 79 seconds).
[03:38:40] Client "Dwayne "The Glock" Johnson" spawned in server <STEAM_0:1:55189203> (took 92 seconds).
[03:39:00] Wanker: !r
[03:44:05] Dwayne "The Glock" Johnson: !unbox
[03:44:09] Client "conrad1hansen" connected.
[03:45:11] Client "StINkY ShOrTz" connected.
[03:46:08] Client "StINkY ShOrTz" spawned in server <STEAM_0:0:54872551> (took 57 seconds).
[03:48:01] Dropped "StINkY ShOrTz" from server<STEAM_0:0:54872551>
[03:48:53] Dwayne "The Glock" Johnson: active?
[03:48:59] Wanker: way
[03:49:05] Dwayne "The Glock" Johnson: how ong you ben surfing?
[03:49:16] Wanker: On this server or in general?
[03:49:19] Dwayne "The Glock" Johnson: in general
[03:49:27] Wanker: hmm
[03:49:31] Wanker: about 4 years
[03:49:36] Wanker: not intensive
[03:49:44] Dwayne "The Glock" Johnson: ah i started yesterday haha
[03:49:46] Wanker: just a passing interest for when no friends are online
[03:49:50] Wanker: oh, you want help?
[03:49:51] Wanker: !r
[03:50:12] Dwayne "The Glock" Johnson: i think i just need practive at this point haha
[03:50:19] Dwayne "The Glock" Johnson: and a bigger mousepad
[03:50:34] Wanker: turn up sensitivity. Never be afraid to try something new or different
[03:50:43] Wanker: The only way to get better is to change what you're doin
[03:51:38] Dwayne "The Glock" Johnson: !unbox
[03:53:47] Dwayne "The Glock" Johnson: i keep losing speed trying to land this jump
[03:54:01] Wanker: here lemme see
[03:54:04] Wanker: !spec Dwayne
[03:54:08] Wanker: go
[03:54:31] Dwayne "The Glock" Johnson: hold on
[03:55:25] Wanker: !surf
[03:55:55] Wanker: !spec
[03:58:25] Wanker: !r
[03:59:04] Dwayne "The Glock" Johnson: !unbox
[03:59:37] Wanker: !r
[04:00:19] Dropped "Wanker" from server<STEAM_0:0:1562302>
[04:07:45] Server is shutting down/changing levels.



[04:07:52] New map: surf_beginner_hell
[04:10:37] Client "Dwayne "The Glock" Johnson" spawned in server <STEAM_0:1:55189203> (took 166 seconds).
[04:10:37] Client "Bot353" connected.
[04:10:37] Client "Bot353" spawned in server <BOT> (took 166 seconds).
[04:10:39] Client "Bot354" connected.
[04:10:39] Client "Bot354" spawned in server <BOT> (took 168 seconds).
[04:11:21] Client "Pepsi-Man #deadmeme" connected.
[04:12:16] Client "Pepsi-Man #deadmeme" spawned in server <STEAM_0:1:160224799> (took 55 seconds).
[04:12:19] Dwayne "The Glock" Johnson: help me
[04:22:53] Dropped "Pepsi-Man #deadmeme" from server<STEAM_0:1:160224799>
[04:27:10] Client "Pepsi-Man #deadmeme" connected.
[04:27:28] Client "Fabanana Splitt" connected.
[04:27:39] Client "Pepsi-Man #deadmeme" spawned in server <STEAM_0:1:160224799> (took 29 seconds).
[04:28:27] Dropped "Dwayne "The Glock" Johnson" from server<STEAM_0:1:55189203>
[04:29:09] Client "Hatsune" connected.
[04:30:13] Client "Fabanana Splitt" spawned in server <STEAM_0:0:68910851> (took 165 seconds).
[04:31:10] Dropped "Fabanana Splitt" from server<STEAM_0:0:68910851>
[04:31:46] Client "Hatsune" spawned in server <STEAM_0:1:33901711> (took 157 seconds).
[04:32:53] Dropped "Pepsi-Man #deadmeme" from server<STEAM_0:1:160224799>
[04:38:29] Server is shutting down/changing levels.



[04:38:36] New map: surf_stonework3
[04:39:13] Client "Hatsune" spawned in server <STEAM_0:1:33901711> (took 38 seconds).
[04:39:13] Client "Bot355" connected.
[04:39:13] Client "Bot355" spawned in server <BOT> (took 38 seconds).
[04:39:15] Client "Bot356" connected.
[04:39:15] Client "Bot356" spawned in server <BOT> (took 40 seconds).
[04:46:59] Dropped "Hatsune" from server<STEAM_0:1:33901711>
[04:46:59] Dropped "Bot355" from server<BOT>
[04:46:59] Dropped "Bot356" from server<BOT>
[05:09:12] Server is shutting down/changing levels.



[05:09:19] New map: surf_beginner_hell
[05:39:55] Server is shutting down/changing levels.



[05:40:01] New map: surf_lighthouse
[06:10:37] Server is shutting down/changing levels.



[06:10:44] New map: surf_prelude_ksf
[06:41:19] Server is shutting down/changing levels.



[06:41:26] New map: surf_sundown_njv
[07:12:02] Server is shutting down/changing levels.



[07:12:09] New map: surf_milkyway
[07:29:06] Client "Dwayne "The Glock" Johnson" connected.
[07:31:09] Client "Dwayne "The Glock" Johnson" spawned in server <STEAM_0:1:55189203> (took 123 seconds).
[07:31:09] Client "Bot357" connected.
[07:31:09] Client "Bot357" spawned in server <BOT> (took 1142 seconds).
[07:31:11] Client "Bot358" connected.
[07:31:11] Client "Bot358" spawned in server <BOT> (took 1144 seconds).
[07:35:05] Dwayne "The Glock" Johnson: !rtv
[07:35:41] Server is shutting down/changing levels.



[07:35:48] New map: surf_pox
[07:36:26] Client "Dwayne "The Glock" Johnson" spawned in server <STEAM_0:1:55189203> (took 39 seconds).
[07:36:26] Client "Bot359" connected.
[07:36:26] Client "Bot359" spawned in server <BOT> (took 39 seconds).
[07:36:28] Client "Bot360" connected.
[07:36:28] Client "Bot360" spawned in server <BOT> (took 41 seconds).
[07:44:57] Dwayne "The Glock" Johnson: !rtv
[07:45:11] Dwayne "The Glock" Johnson: !unbox
[07:45:33] Server is shutting down/changing levels.



[07:45:40] New map: surf_prelude_ksf
[07:45:57] Client "Dwayne "The Glock" Johnson" spawned in server <STEAM_0:1:55189203> (took 18 seconds).
[07:45:57] Client "Bot361" connected.
[07:45:57] Client "Bot361" spawned in server <BOT> (took 18 seconds).
[07:45:59] Client "Bot362" connected.
[07:45:59] Client "Bot362" spawned in server <BOT> (took 20 seconds).
[07:53:19] Dwayne "The Glock" Johnson: !unbox
[07:54:16] Dwayne "The Glock" Johnson: !unbox
[08:08:34] Client "ГРИБНОЙ" connected.
[08:08:40] Client "ГРИБНОЙ" connected.
[08:09:35] Client "ГРИБНОЙ" spawned in server <STEAM_0:1:60631433> (took 55 seconds).
[08:10:18] Dwayne "The Glock" Johnson: !unbox
[08:10:45] ГРИБНОЙ: !кем
[08:10:47] ГРИБНОЙ: !rtv
[08:14:20] ГРИБНОЙ: rtv pls
[08:16:16] Server is shutting down/changing levels.



[08:16:23] New map: surf_graphia
[08:16:37] Client "ГРИБНОЙ" spawned in server <STEAM_0:1:60631433> (took 15 seconds).
[08:16:37] Client "Bot363" connected.
[08:16:37] Client "Bot363" spawned in server <BOT> (took 15 seconds).
[08:16:39] Client "Bot364" connected.
[08:16:39] Client "Bot364" spawned in server <BOT> (took 17 seconds).
[08:17:10] Client "Dwayne "The Glock" Johnson" spawned in server <STEAM_0:1:55189203> (took 48 seconds).
[08:17:34] Dwayne "The Glock" Johnson: !unbox
[08:18:21] Client "djawesome" connected.
[08:18:39] Dwayne "The Glock" Johnson: !unbox
[08:18:40] Client "djawesome" connected.
[08:19:08] Client "djawesome" connected.
[08:20:59] Dwayne "The Glock" Johnson: im stuck in a abyss
[08:21:09] Dwayne "The Glock" Johnson: !kill
[08:27:42] Client "✔ŤĒŘŘǾŘÏŠŤ✔" connected.
[08:28:21] Client "✔ŤĒŘŘǾŘÏŠŤ✔" spawned in server <STEAM_0:1:103549541> (took 39 seconds).
[08:29:36] Dropped "✔ŤĒŘŘǾŘÏŠŤ✔" from server<STEAM_0:1:103549541>
[08:32:12] Dropped "ГРИБНОЙ" from server<STEAM_0:1:60631433>
[08:44:18] Client "Ezio Auditore" connected.
[08:46:59] Server is shutting down/changing levels.



[08:47:06] New map: surf_rookie
[08:47:49] Client "Dwayne "The Glock" Johnson" spawned in server <STEAM_0:1:55189203> (took 44 seconds).
[08:47:49] Client "Bot365" connected.
[08:47:49] Client "Bot365" spawned in server <BOT> (took 44 seconds).
[08:47:51] Client "Bot366" connected.
[08:47:51] Client "Bot366" spawned in server <BOT> (took 46 seconds).
[08:58:49] Client "dmitriy1350077" connected.
[09:04:56] Client "dmitriy1350077" spawned in server <STEAM_0:0:180372849> (took 367 seconds).
[09:07:39] Client "Crimson_GD" connected.
[09:09:30] Client "Crimson_GD" spawned in server <STEAM_0:1:195573054> (took 111 seconds).
[09:12:11] Dropped "Dwayne "The Glock" Johnson" from server<STEAM_0:1:55189203>
[09:12:18] dmitriy1350077: !jp
[09:12:33] Dropped "dmitriy1350077" from server<STEAM_0:0:180372849>
[09:17:18] (TEAM) Crimson_GD: nbox
[09:17:43] Server is shutting down/changing levels.



[09:17:50] New map: surf_dusk
[09:48:26] Server is shutting down/changing levels.



[09:48:33] New map: surf_beginner
[10:00:42] Client "Levi Ackerman" connected.
[10:01:18] Client "igor200462283" connected.
[10:04:31] Client "igor200462283" spawned in server <STEAM_0:1:211723816> (took 193 seconds).
[10:04:31] Client "Bot367" connected.
[10:04:31] Client "Bot367" spawned in server <BOT> (took 959 seconds).
[10:04:33] Client "Bot368" connected.
[10:04:33] Client "Bot368" spawned in server <BOT> (took 961 seconds).
[10:05:16] Client "Levi Ackerman" spawned in server <STEAM_0:0:149762029> (took 274 seconds).
[10:13:50] Levi Ackerman: anyone know this song?
[10:14:49] Levi Ackerman: igpre ti si balkanac?
[10:14:54] Levi Ackerman: igore*
[10:15:22] Levi Ackerman: !unbox
[10:15:47] Dropped "igor200462283" from server<STEAM_0:1:211723816>
[10:15:56] Client "[FX] Cosmic" connected.
[10:16:22] Dropped "Levi Ackerman" from server<STEAM_0:0:149762029>
[10:16:42] Client "[FX] Cosmic" spawned in server <STEAM_0:1:168631107> (took 46 seconds).
[10:19:10] Server is shutting down/changing levels.



[10:19:17] New map: surf_utopia_njv
[10:19:29] Client "[FX] Cosmic" spawned in server <STEAM_0:1:168631107> (took 14 seconds).
[10:19:29] Client "Bot369" connected.
[10:19:29] Client "Bot369" spawned in server <BOT> (took 14 seconds).
[10:19:31] Client "Bot370" connected.
[10:19:31] Client "Bot370" spawned in server <BOT> (took 16 seconds).
[10:22:38] [FX] Cosmic: !r
[10:27:34] Client "spy assasin" connected.
[10:34:17] Dropped "[FX] Cosmic" from server<STEAM_0:1:168631107>
[10:34:17] Dropped "Bot369" from server<BOT>
[10:34:17] Dropped "Bot370" from server<BOT>
[10:49:53] Server is shutting down/changing levels.



[10:49:59] New map: surf_sundown_njv
[10:55:14] Client "Let`s Roll this noobs" connected.
[10:57:01] Client "Let`s Roll this noobs" spawned in server <STEAM_0:0:80710173> (took 107 seconds).
[10:57:01] Client "Bot371" connected.
[10:57:01] Client "Bot371" spawned in server <BOT> (took 423 seconds).
[10:57:01] Dropped "Let`s Roll this noobs" from server<STEAM_0:0:80710173>
[10:57:01] Dropped "Bot371" from server<BOT>
[10:57:02] Client "Bot372" connected.
[10:57:02] Client "Bot372" spawned in server <BOT> (took 424 seconds).
[10:57:03] Client "Bot373" connected.
[10:57:03] Client "Bot373" spawned in server <BOT> (took 425 seconds).
[10:57:05] Client "Let`s Roll this noobs" connected.
[10:57:17] Client "spy assasin" connected.
[10:57:20] Client "Let`s Roll this noobs" spawned in server <STEAM_0:0:80710173> (took 15 seconds).
[11:00:54] Dropped "Let`s Roll this noobs" from server<STEAM_0:0:80710173>
[11:02:00] Dropped "Bot372" from server<BOT>
[11:02:00] Dropped "Bot373" from server<BOT>
[11:20:36] Server is shutting down/changing levels.



[11:20:42] New map: surf_ing
[11:51:18] Server is shutting down/changing levels.



[11:51:25] New map: surf_dusk
[12:00:07] Client "Pionker" connected.
[12:01:39] Client "Pionker" spawned in server <STEAM_0:1:85904079> (took 92 seconds).
[12:01:39] Client "Bot374" connected.
[12:01:39] Client "Bot374" spawned in server <BOT> (took 615 seconds).
[12:01:41] Client "Bot375" connected.
[12:01:41] Client "Bot375" spawned in server <BOT> (took 617 seconds).
[12:12:39] Dropped "Pionker" from server<STEAM_0:1:85904079>
[12:12:39] Dropped "Bot374" from server<BOT>
[12:12:39] Dropped "Bot375" from server<BOT>
[12:20:06] Client "Kataclar :)" connected.
[12:20:44] Client "Kataclar :)" spawned in server <STEAM_0:1:98094884> (took 38 seconds).
[12:20:44] Client "Bot376" connected.
[12:20:44] Client "Bot376" spawned in server <BOT> (took 1760 seconds).
[12:20:46] Client "Bot377" connected.
[12:20:46] Client "Bot377" spawned in server <BOT> (took 1762 seconds).
[12:22:01] Server is shutting down/changing levels.



[12:22:08] New map: surf_sluice_final
[12:22:33] Client "Kataclar :)" spawned in server <STEAM_0:1:98094884> (took 26 seconds).
[12:22:33] Client "Bot378" connected.
[12:22:33] Client "Bot378" spawned in server <BOT> (took 26 seconds).
[12:22:35] Client "Bot379" connected.
[12:22:35] Client "Bot379" spawned in server <BOT> (took 28 seconds).
[12:23:23] Dropped "Kataclar :)" from server<STEAM_0:1:98094884>
[12:23:23] Dropped "Bot378" from server<BOT>
[12:23:23] Dropped "Bot379" from server<BOT>
[12:52:44] Server is shutting down/changing levels.



[12:52:51] New map: surf_inspire
[13:09:27] Client "{FX} JJ" connected.
[13:12:50] Client "{FX} JJ" spawned in server <STEAM_0:1:125393234> (took 203 seconds).
[13:12:50] Client "Bot380" connected.
[13:12:50] Client "Bot380" spawned in server <BOT> (took 1200 seconds).
[13:12:52] Client "Bot381" connected.
[13:12:52] Client "Bot381" spawned in server <BOT> (took 1202 seconds).
[13:14:27] {FX} JJ: !r
[13:15:42] {FX} JJ: d
[13:23:28] Server is shutting down/changing levels.



[13:23:35] New map: surf_pox
[13:26:54] Client "{FX} JJ" spawned in server <STEAM_0:1:125393234> (took 200 seconds).
[13:26:54] Client "Bot382" connected.
[13:26:54] Client "Bot382" spawned in server <BOT> (took 200 seconds).
[13:26:56] Client "Bot383" connected.
[13:26:56] Client "Bot383" spawned in server <BOT> (took 202 seconds).
[13:27:57] Client "☢ ADMIRAL ☢ BLACKSTORM ☢" connected.
[13:29:39] Client "☢ ADMIRAL ☢ BLACKSTORM ☢" spawned in server <STEAM_0:0:139514999> (took 102 seconds).
[13:31:42] ☢ ADMIRAL ☢ BLACKSTORM ☢: !rtv
[13:31:46] {FX} JJ: !rtv
[13:32:22] Server is shutting down/changing levels.



[13:32:29] New map: surf_ace
[13:33:24] Client "☢ ADMIRAL ☢ BLACKSTORM ☢" spawned in server <STEAM_0:0:139514999> (took 56 seconds).
[13:33:24] Client "Bot384" connected.
[13:33:24] Client "Bot384" spawned in server <BOT> (took 56 seconds).
[13:33:26] Client "Bot385" connected.
[13:33:26] Client "Bot385" spawned in server <BOT> (took 58 seconds).
[13:35:47] Client "{FX} JJ" spawned in server <STEAM_0:1:125393234> (took 199 seconds).
[13:39:46] Dropped "☢ ADMIRAL ☢ BLACKSTORM ☢" from server<STEAM_0:0:139514999>
[13:44:22] Client "☢ ADMIRAL ☢ BLACKSTORM ☢" connected.
[13:44:40] Client "☢ ADMIRAL ☢ BLACKSTORM ☢" spawned in server <STEAM_0:0:139514999> (took 18 seconds).
[13:45:10] ☢ ADMIRAL ☢ BLACKSTORM ☢: !rtv
[13:45:27] {FX} JJ: !r
[13:46:20] {FX} JJ: !unbox
[13:46:46] Dropped "☢ ADMIRAL ☢ BLACKSTORM ☢" from server<STEAM_0:0:139514999>
[13:46:56] {FX} JJ: !r
[13:47:49] {FX} JJ: ·٠●•۩۞۩[̲̅Ŋ̲̅σ̲̅σ̲̅Ь̲̲̅̅۰̲̅đ̲̲̅̅σ̲̅ώ̲̅ŋ̲̲̲̅̅̅]۩۞۩•●٠·
[13:48:41] {FX} JJ: !tutorial
[13:50:01] Client "TruePapaSmurf" connected.
[13:50:21] Client "TruePapaSmurf" spawned in server <STEAM_0:1:30985034> (took 20 seconds).
[13:54:09] TruePapaSmurf: How am i supposed to do this?
[13:54:21] {FX} JJ: !r
[13:54:48] TruePapaSmurf: First surf is already impossible.
[13:55:07] {FX} JJ: dont hold w
[13:56:22] TruePapaSmurf: !steam
[13:57:27] {FX} JJ: TruePapaSmurf type !tutorial
[13:58:31] TruePapaSmurf: i know how to do it but... my mouse don't controll camera anymore and i see my cursor
[13:59:48] TruePapaSmurf: How do i equip knife?
[14:00:00] {FX} JJ: type !knives and go on inventory
[14:02:14] TruePapaSmurf: All my knives look like error.
[14:02:28] {FX} JJ: i dont know why :/
[14:03:06] Server is shutting down/changing levels.



[14:03:13] New map: surf_funhouse_v1
[14:03:23] Client "TruePapaSmurf" spawned in server <STEAM_0:1:30985034> (took 11 seconds).
[14:03:23] Client "Bot386" connected.
[14:03:23] Client "Bot386" spawned in server <BOT> (took 11 seconds).
[14:03:25] Client "Bot387" connected.
[14:03:25] Client "Bot387" spawned in server <BOT> (took 13 seconds).
[14:04:09] Client "{FX} JJ" spawned in server <STEAM_0:1:125393234> (took 57 seconds).
[14:04:31] TruePapaSmurf: Wow map full of graphical artifacts
[14:05:20] Dropped "TruePapaSmurf" from server<STEAM_0:1:30985034>
[14:08:25] {FX} JJ: !r
[14:09:19] {FX} JJ: !r
[14:10:29] {FX} JJ: !r
[14:10:54] {FX} JJ: !r
[14:11:02] {FX} JJ: !rtv
[14:11:30] {FX} JJ: !r
[14:11:38] Server is shutting down/changing levels.



[14:11:45] New map: surf_lux
[14:15:11] Client "{FX} JJ" spawned in server <STEAM_0:1:125393234> (took 207 seconds).
[14:15:11] Client "Bot388" connected.
[14:15:11] Client "Bot388" spawned in server <BOT> (took 207 seconds).
[14:15:13] Client "Bot389" connected.
[14:15:13] Client "Bot389" spawned in server <BOT> (took 209 seconds).
[14:42:22] Server is shutting down/changing levels.



[14:42:29] New map: surf_prelude_ksf
[14:46:05] Client "{FX} JJ" spawned in server <STEAM_0:1:125393234> (took 217 seconds).
[14:46:06] Client "Bot390" connected.
[14:46:06] Client "Bot390" spawned in server <BOT> (took 218 seconds).
[14:46:08] Client "Bot391" connected.
[14:46:08] Client "Bot391" spawned in server <BOT> (took 220 seconds).
[14:50:06] Client "VinylScratchBro" connected.
[14:51:17] Client "VinylScratchBro" connected.
[14:53:31] Client "VinylScratchBro" spawned in server <STEAM_0:0:38629346> (took 134 seconds).
[15:00:13] {FX} JJ: !r
[15:01:29] {FX} JJ: !unbox
[15:03:52] {FX} JJ: !unbox
[15:05:36] {FX} JJ: !unbox
[15:08:15] Client "Nothing" connected.
[15:08:25] Dropped "VinylScratchBro" from server<STEAM_0:0:38629346>
[15:08:38] Client "Nothing" spawned in server <STEAM_0:1:177750444> (took 23 seconds).
[15:09:21] Nothing: !records
[15:09:54] Nothing: !r
[15:10:10] Nothing: !r
[15:11:03] Nothing: !r
[15:11:17] Nothing: !r
[15:11:30] Nothing: !b
[15:11:34] Nothing: !r
[15:11:54] Nothing: !r
[15:12:05] Nothing: !r
[15:12:09] Nothing: !r
[15:13:06] Server is shutting down/changing levels.



[15:13:13] New map: surf_lux
[15:13:45] Client "Nothing" spawned in server <STEAM_0:1:177750444> (took 33 seconds).
[15:13:45] Client "Bot392" connected.
[15:13:45] Client "Bot392" spawned in server <BOT> (took 33 seconds).
[15:13:47] Client "Bot393" connected.
[15:13:47] Client "Bot393" spawned in server <BOT> (took 35 seconds).
[15:14:07] Nothing: !
[15:14:32] Nothing: !r
[15:15:13] Nothing: !r
[15:15:42] Nothing: !r
[15:15:49] Nothing: !r
[15:15:58] Nothing: !r
[15:16:01] Nothing: !r
[15:16:08] Nothing: !r
[15:16:18] Nothing: !r
[15:16:22] Nothing: !r
[15:16:26] Client "{FX} JJ" spawned in server <STEAM_0:1:125393234> (took 194 seconds).
[15:16:31] Nothing: !r
[15:17:03] Nothing: !r
[15:17:33] Nothing: !r
[15:18:11] Nothing: !r
[15:18:49] Nothing: !r
[15:18:58] Nothing: !r
[15:19:36] Nothing: !r
[15:20:16] Nothing: !r
[15:20:35] Nothing: !r
[15:20:40] Nothing: !r
[15:20:41] Nothing: !lg
[15:21:03] Nothing: !records
[15:21:10] Nothing: !r
[15:21:13] Nothing: !r
[15:21:14] {FX} JJ: !unbox
[15:21:23] Nothing: !r
[15:22:08] Nothing: !r
[15:22:13] Nothing: !r
[15:22:32] Nothing: !r
[15:22:34] Nothing: !records
[15:22:38] Nothing: Lul
[15:23:32] Nothing: You know me?
[15:23:37] Nothing: Or just spec me?
[15:23:43] Nothing: Or you afk
[15:23:44] Nothing: xD
[15:23:47] {FX} JJ: i dont know u
[15:23:49] Nothing: !records
[15:24:02] Nothing: why you spec me. I so shit
[15:24:03] Nothing: ( ͡° ͜ʖ ͡°)
[15:24:04] Nothing: !r
[15:24:17] {FX} JJ: i cant even make this map :P
[15:24:22] Nothing: ( ͡° ͜ʖ ͡°)
[15:24:23] Nothing: !r
[15:24:25] Nothing: Try
[15:24:28] {FX} JJ: why did u ask me if i know u?
[15:24:47] Nothing: idk
[15:24:47] Nothing: ( ͡° ͜ʖ ͡°)
[15:24:54] Nothing: !r
[15:25:07] {FX} JJ: how should i know u?
[15:25:31] Nothing: !r
[15:26:27] Nothing: !r
[15:26:31] Nothing: !r
[15:26:59] Nothing: !r
[15:27:02] {FX} JJ: the only person i think of when i see your name is n0thing :P
[15:27:25] Nothing: cs go man?
[15:27:29] {FX} JJ: yea
[15:27:56] Nothing: Well, when I was thinking about nick, I don't know n0thing
[15:27:57] Nothing: ( ͡° ͜ʖ ͡°)
[15:28:19] Nothing: I'll be there in 5 minutes
[15:28:25] {FX} JJ: k
[15:30:31] {FX} JJ: !unbox
[15:32:00] {FX} JJ: !r
[15:33:07] Nothing: I back
[15:33:25] Nothing: !r
[15:33:56] Nothing: !r
[15:34:01] Nothing: !r
[15:34:26] Nothing: !r
[15:34:38] {FX} JJ: !unbox
[15:35:30] Nothing: !r
[15:36:06] Nothing: !r
[15:36:26] Nothing: !r
[15:36:31] Nothing: !r
[15:36:35] Nothing: !r
[15:36:38] Nothing: !r
[15:37:00] Nothing: !r
[15:37:46] Nothing: !r
[15:38:13] Nothing: !r
[15:38:17] Nothing: !r
[15:38:29] Nothing: !r
[15:39:04] Nothing: !r
[15:39:44] Nothing: !r
[15:40:22] {FX} JJ: !unbox
[15:40:27] Nothing: !r
[15:40:41] {FX} JJ: how do u do the last part?
[15:40:47] Nothing: ( ͡° ͜ʖ ͡°)
[15:40:48] Nothing: spec bot
[15:40:51] Nothing: !nominate
[15:41:06] {FX} JJ: bruh
[15:41:10] {FX} JJ: the bot xD
[15:41:11] Nothing: ( ͡° ͜ʖ ͡°)
[15:41:24] {FX} JJ: i dont get how he gets so fast
[15:41:35] Nothing: ( ͡° ͜ʖ ͡°)
[15:41:45] Nothing: !r
[15:41:55] {FX} JJ: !r
[15:43:00] Client "TheGamingType✌" connected.
[15:43:49] Server is shutting down/changing levels.



[15:43:56] New map: surf_ace
[15:44:25] Client "Nothing" spawned in server <STEAM_0:1:177750444> (took 30 seconds).
[15:44:25] Client "Bot394" connected.
[15:44:25] Client "Bot394" spawned in server <BOT> (took 30 seconds).
[15:44:27] Client "Bot395" connected.
[15:44:27] Client "Bot395" spawned in server <BOT> (took 32 seconds).
[15:44:41] Nothing: !r
[15:44:55] Nothing: !r
[15:45:00] Nothing: !r
[15:45:11] Nothing: !r
[15:45:24] Nothing: !r
[15:45:41] Client "TheGamingType✌" spawned in server <STEAM_0:0:139352216> (took 106 seconds).
[15:45:41] Nothing: !r
[15:45:51] Nothing: !r
[15:46:05] Nothing: !r
[15:46:55] Nothing: !r
[15:47:02] Dropped "TheGamingType✌" from server<STEAM_0:0:139352216>
[15:47:10] Nothing: !r
[15:47:28] Client "{FX} JJ" spawned in server <STEAM_0:1:125393234> (took 213 seconds).
[15:47:28] Nothing: !r
[15:47:38] Nothing: !r
[15:47:40] Nothing: !records
[15:47:49] Nothing: !r
[15:48:06] Nothing: !r
[15:48:16] Nothing: !r
[15:48:33] Nothing: !r
[15:48:38] Nothing: !r
[15:48:42] Nothing: !r
[15:48:56] Nothing: !r
[15:49:30] Nothing: !r
[15:49:41] Nothing: !r
[15:49:47] {FX} JJ: !r
[15:50:16] Nothing: !r
[15:50:32] Nothing: !r
[15:50:46] {FX} JJ: !unbox
[15:51:03] {FX} JJ: !r
[15:51:23] Nothing: !r
[15:51:38] Nothing: !r
[15:51:46] Nothing: !r
[15:52:31] Nothing: !r
[15:53:08] Nothing: !r
[15:53:11] Nothing: !r
[15:53:23] Nothing: !r
[15:53:32] Nothing: !r
[15:53:35] Nothing: !r
[15:53:45] Nothing: !r
[15:53:56] Nothing: !r
[15:54:02] Nothing: !r
[15:54:29] Nothing: !r
[15:54:33] Nothing: !r
[15:54:47] Nothing: !r
[15:55:02] Nothing: !r
[15:55:16] Nothing: wrf
[15:55:18] Nothing: wtf
[15:55:19] Nothing: !r
[15:55:21] {FX} JJ: what?
[15:55:22] Nothing: lag
[15:55:46] Nothing: !r
[15:55:58] Nothing: !r
[15:56:01] Nothing: !r
[15:56:05] Nothing: !r
[15:56:30] Nothing: !r
[15:56:44] Nothing: !r
[15:57:15] Client "klayton850" connected.
[15:57:32] Nothing: !r
[15:57:39] Nothing: !r
[15:57:47] Nothing: !r
[15:57:52] Client "klayton850" spawned in server <STEAM_0:1:100263753> (took 37 seconds).
[15:57:59] {FX} JJ: !unbox
[15:58:03] Nothing: !r
[15:58:57] Client "SlamOver" connected.
[15:59:10] Nothing: !r
[15:59:21] Client "SlamOver" spawned in server <STEAM_0:1:194960052> (took 24 seconds).
[15:59:25] Nothing: !r
[15:59:31] Nothing: !r
[15:59:50] Client "corrinams11" connected.
[15:59:52] Nothing: !r
[16:00:03] Nothing: !r
[16:00:14] SlamOver: !r
[16:00:29] Nothing: !r
[16:00:35] Nothing: !r
[16:00:35] SlamOver: !r
[16:00:46] SlamOver: !r
[16:00:58] Nothing: !r
[16:01:03] Client "corrinams11" spawned in server <STEAM_0:0:147854317> (took 73 seconds).
[16:01:10] Nothing: !r
[16:01:12] SlamOver: !r
[16:01:15] Nothing: !r
[16:01:29] Nothing: !r
[16:01:38] SlamOver: !r
[16:01:48] Nothing: !r
[16:02:01] Nothing: !r
[16:02:06] Nothing: !r
[16:02:22] Nothing: !r
[16:02:45] Nothing: !r
[16:03:10] {FX} JJ: i cant do this stage
[16:03:17] Dropped "corrinams11" from server<STEAM_0:0:147854317>
[16:03:26] SlamOver: !r
[16:03:37] Nothing: which/
[16:03:37] Nothing: ?
[16:03:47] {FX} JJ: dont know wich it is :P
[16:03:57] Nothing: ( ͡° ͜ʖ ͡°)
[16:03:59] {FX} JJ: !unbox
[16:04:39] SlamOver: !r
[16:05:07] SlamOver: !r
[16:05:30] SlamOver: !r
[16:05:52] SlamOver: !r
[16:06:08] {FX} JJ: its the stage before the last stage
[16:06:17] {FX} JJ: !unbox
[16:06:18] klayton850: I cant do this
[16:06:35] {FX} JJ: !unbox
[16:08:50] SlamOver: !r
[16:09:19] SlamOver: !r
[16:09:21] {FX} JJ: !unbox
[16:09:40] SlamOver: !
[16:09:41] SlamOver: !r
[16:09:52] SlamOver: !r
[16:09:52] Client "ovenwills" connected.
[16:10:18] SlamOver: !r
[16:10:24] SlamOver: !r
[16:10:35] SlamOver: !r
[16:10:46] SlamOver: !r
[16:10:55] Client "ovenwills" spawned in server <STEAM_0:1:57406558> (took 63 seconds).
[16:10:57] SlamOver: !r
[16:11:07] Nothing: !records
[16:11:43] ovenwills: !ои
[16:12:12] Nothing: Bye
[16:12:13] SlamOver: !r
[16:12:26] Nothing: Good luck
[16:12:29] SlamOver: thanks
[16:12:29] Dropped "Nothing" from server<STEAM_0:1:177750444>
[16:12:36] SlamOver: lol advanced
[16:12:50] SlamOver: !r
[16:12:55] SlamOver: !r
[16:13:20] SlamOver: !r
[16:13:45] SlamOver: !r
[16:13:50] SlamOver: !r
[16:13:56] Dropped "{FX} JJ" from server<STEAM_0:1:125393234>
[16:14:02] Client "{FX} JJ" connected.
[16:14:14] SlamOver: !r
[16:14:32] SlamOver: !r
[16:14:32] Server is shutting down/changing levels.



[16:14:40] New map: surf_classics2
[16:14:54] Client "SlamOver" spawned in server <STEAM_0:1:194960052> (took 15 seconds).
[16:14:54] Client "Bot396" connected.
[16:14:54] Client "Bot396" spawned in server <BOT> (took 15 seconds).
[16:14:56] Client "Bot397" connected.
[16:14:56] Client "Bot397" spawned in server <BOT> (took 17 seconds).
[16:15:04] Client "klayton850" spawned in server <STEAM_0:1:100263753> (took 25 seconds).
[16:15:15] Client "ovenwills" spawned in server <STEAM_0:1:57406558> (took 36 seconds).
[16:15:16] Client "{FX} JJ" connected.
[16:15:36] Client "{FX} JJ" connected.
[16:16:25] SlamOver: what stupid kid designed this map
[16:16:32] Client "{FX} JJ" connected.
[16:18:03] SlamOver: !r
[16:18:27] SlamOver: !r
[16:18:59] SlamOver: even donald trump could build a better fucking map
[16:19:37] Client "xuterion" connected.
[16:21:33] Client "xuterion" spawned in server <STEAM_0:1:149220558> (took 116 seconds).
[16:22:29] SlamOver: end my suffering
[16:22:33] Client "Enderdrago5 Gaming" connected.
[16:23:06] Dropped "SlamOver" from server<STEAM_0:1:194960052>
[16:23:48] Client "Enderdrago5 Gaming" spawned in server <STEAM_0:1:117261681> (took 75 seconds).
[16:24:40] Enderdrago5 Gaming: !r
[16:25:06] Enderdrago5 Gaming: !r
[16:25:31] Client "Wafsz" connected.
[16:26:03] Enderdrago5 Gaming: !knifes
[16:26:07] Enderdrago5 Gaming: !r
[16:26:10] Enderdrago5 Gaming: !knifes
[16:26:18] Dropped "ovenwills" from server<STEAM_0:1:57406558>
[16:26:52] Enderdrago5 Gaming: !unbox
[16:26:58] Dropped "xuterion" from server<STEAM_0:1:149220558>
[16:26:58] Client "xuterion" connected.
[16:27:04] Client "Wafsz" spawned in server <STEAM_0:0:215486875> (took 93 seconds).
[16:27:07] Client "xuterion" spawned in server <STEAM_0:1:149220558> (took 9 seconds).
[16:27:35] Dropped "xuterion" from server<STEAM_0:1:149220558>
[16:30:16] Dropped "Wafsz" from server<STEAM_0:0:215486875>
[16:31:55] Client "NoTTi" connected.
[16:32:59] Dropped "klayton850" from server<STEAM_0:1:100263753>
[16:33:00] Client "Bubbie" connected.
[16:34:04] Client "Bubbie" spawned in server <STEAM_0:1:91263764> (took 64 seconds).
[16:34:33] Client "NoTTi" spawned in server <STEAM_0:1:220931985> (took 158 seconds).
[16:34:59] Client "cutie" connected.
[16:35:29] Dropped "Bubbie" from server<STEAM_0:1:91263764>
[16:35:30] Client "Bubbie" connected.
[16:35:49] Dropped "NoTTi" from server<STEAM_0:1:220931985>
[16:35:51] (TEAM) Enderdrago5 Gaming: !R
[16:35:54] Client "Bubbie" spawned in server <STEAM_0:1:91263764> (took 24 seconds).
[16:36:09] Enderdrago5 Gaming: !R
[16:36:23] Enderdrago5 Gaming: !r
[16:36:53] Dropped "Bubbie" from server<STEAM_0:1:91263764>
[16:36:58] Client "Bubbie" connected.
[16:37:17] Client "Bubbie" spawned in server <STEAM_0:1:91263764> (took 19 seconds).
[16:37:20] Client "cutie" spawned in server <STEAM_0:0:95579473> (took 141 seconds).
[16:37:20] Client "null" connected.
[16:37:36] Client "MY DUCK IS BIG" connected.
[16:37:45] Client "DJ_Temi4" connected.
[16:38:20] Bubbie: !unbox
[16:38:29] Dropped "cutie" from server<STEAM_0:0:95579473>
[16:38:53] Dropped "Bubbie" from server<STEAM_0:1:91263764>
[16:39:07] Client "DJ_Temi4" spawned in server <STEAM_0:1:156881233> (took 82 seconds).
[16:39:13] Client "null" spawned in server <STEAM_0:0:193117597> (took 113 seconds).
[16:39:24] Client "MY DUCK IS BIG" spawned in server <STEAM_0:0:41718239> (took 108 seconds).
[16:39:46] null: !unbox
[16:42:06] null: !unbox
[16:43:23] Dropped "null" from server<STEAM_0:0:193117597>
[16:43:23] Client "null" connected.
[16:43:57] Client "null" spawned in server <STEAM_0:0:193117597> (took 34 seconds).
[16:45:16] Server is shutting down/changing levels.



[16:45:24] New map: surf_airflow
[16:45:36] Client "Enderdrago5 Gaming" spawned in server <STEAM_0:1:117261681> (took 14 seconds).
[16:45:36] Client "Bot398" connected.
[16:45:36] Client "Bot398" spawned in server <BOT> (took 14 seconds).
[16:45:38] Client "Bot399" connected.
[16:45:38] Client "Bot399" spawned in server <BOT> (took 16 seconds).
[16:46:01] Client "DJ_Temi4" spawned in server <STEAM_0:1:156881233> (took 39 seconds).
[16:46:02] Client "MY DUCK IS BIG" spawned in server <STEAM_0:0:41718239> (took 40 seconds).
[16:46:20] Client "null" spawned in server <STEAM_0:0:193117597> (took 58 seconds).
[16:46:27] DJ_Temi4: !rtv
[16:46:28] Enderdrago5 Gaming: !knifes
[16:46:32] Enderdrago5 Gaming: !unbox
[16:46:57] Enderdrago5 Gaming: !knifes
[16:47:53] MY DUCK IS BIG: rtv
[16:48:01] Enderdrago5 Gaming: !rtv
[16:48:11] MY DUCK IS BIG: !rtv
[16:48:49] Enderdrago5 Gaming: !knifes
[16:48:52] MY DUCK IS BIG: !unbox
[16:48:52] Enderdrago5 Gaming: !unbox
[16:49:27] DJ_Temi4: !rtv
[16:49:37] DJ_Temi4: Собалезную
[16:49:42] DJ_Temi4: !rtv
[16:49:56] DJ_Temi4: !rtv
[16:50:03] Dropped "null" from server<STEAM_0:0:193117597>
[16:50:24] Enderdrago5 Gaming: !unbox
[16:50:24] DJ_Temi4: !rtv
[16:50:31] DJ_Temi4: rtv please
[16:50:39] Enderdrago5 Gaming: !rtv
[16:50:54] Enderdrago5 Gaming: !unbox
[16:51:15] Server is shutting down/changing levels.



[16:51:22] New map: surf_kitsune
[16:51:34] Client "Enderdrago5 Gaming" spawned in server <STEAM_0:1:117261681> (took 13 seconds).
[16:51:34] Client "Bot400" connected.
[16:51:34] Client "Bot400" spawned in server <BOT> (took 13 seconds).
[16:51:35] Client "DJ_Temi4" spawned in server <STEAM_0:1:156881233> (took 14 seconds).
[16:51:36] Client "Bot401" connected.
[16:51:36] Client "Bot401" spawned in server <BOT> (took 15 seconds).
[16:52:41] Enderdrago5 Gaming: !r
[16:52:43] Client "null" connected.
[16:52:43] Client "MY DUCK IS BIG" spawned in server <STEAM_0:0:41718239> (took 82 seconds).
[16:54:58] Client "null" spawned in server <STEAM_0:0:193117597> (took 135 seconds).
[16:56:02] Dropped "Enderdrago5 Gaming" from server<STEAM_0:1:117261681>
[16:57:54] null: !unbox
[16:57:59] Client "{FX} JJ" connected.
[16:58:36] Client "[USA-E1] Your Teddy" connected.
[16:59:04] Client "{FX} JJ" connected.
[17:00:32] MY DUCK IS BIG: !unbox
[17:04:31] Client "RomarioTS son" connected.
[17:04:38] Client "{FX} JJ" connected.
[17:05:17] Client "[USA-E1] Your Teddy" spawned in server <STEAM_0:0:98254546> (took 401 seconds).
[17:05:18] MY DUCK IS BIG: !unbox
[17:05:50] [USA-E1] Your Teddy: !steam
[17:06:15] Client "RomarioTS son" spawned in server <STEAM_0:0:28119152> (took 104 seconds).
[17:06:50] Client "klayton850" connected.
[17:07:09] [USA-E1] Your Teddy: !tutorial
[17:07:44] MY DUCK IS BIG: !UNBOX
[17:08:01] Client "klayton850" spawned in server <STEAM_0:1:100263753> (took 71 seconds).
[17:08:42] MY DUCK IS BIG: !UNBOX
[17:09:00] DJ_Temi4: 4
[17:09:07] Dropped "DJ_Temi4" from server<STEAM_0:1:156881233>
[17:09:43] MY DUCK IS BIG: !unbox
[17:10:16] Dropped "[USA-E1] Your Teddy" from server<STEAM_0:0:98254546>
[17:12:40] Client "Gillous Le Sel hellcase.com" connected.
[17:12:48] MY DUCK IS BIG: !unbox
[17:13:11] Dropped "RomarioTS son" from server<STEAM_0:0:28119152>
[17:15:48] Client "Gillous Le Sel hellcase.com" spawned in server <STEAM_0:0:83851717> (took 188 seconds).
[17:17:53] Dropped "Gillous Le Sel hellcase.com" from server<STEAM_0:0:83851717>
[17:18:24] Client "GianD31" connected.
[17:18:33] Client "MettiX" connected.
[17:18:55] MY DUCK IS BIG: !unbox
[17:19:10] Client "BoyGames_96" connected.
[17:19:52] Client "MettiX" spawned in server <STEAM_0:1:148698518> (took 79 seconds).
[17:20:29] MY DUCK IS BIG: !unbox
[17:21:35] Client "BoyGames_96" spawned in server <STEAM_0:1:67619269> (took 145 seconds).
[17:21:39] Client "KubsonDit" connected.
[17:22:52] Client "KubsonDit" spawned in server <STEAM_0:0:125457586> (took 73 seconds).
[17:23:43] Client "GianD31" spawned in server <STEAM_0:0:74018917> (took 319 seconds).
[17:24:04] Client "Sandwich Man" connected.
[17:24:35] Client "Frog" connected.
[17:24:52] Client "Sandwich Man" spawned in server <STEAM_0:1:80048695> (took 48 seconds).
[17:25:36] MY DUCK IS BIG: !JB
[17:25:48] MettiX: ( ͡° ͜ʖ ͡°)
[17:25:49] Sandwich Man: !end
[17:25:52] MettiX: e ye ye yeye eee ye ye yeye
[17:25:53] null: SKIP BIEBER!
[17:26:01] MettiX: cicciogaemer is realy pro
[17:26:10] Sandwich Man: !practice
[17:26:17] Sandwich Man: !end
[17:26:45] Sandwich Man: !practice
[17:26:50] Sandwich Man: !normal
[17:27:23] Client "Frog" spawned in server <STEAM_0:1:128621104> (took 168 seconds).
[17:27:57] GianD31: !restart
[17:28:27] Dropped "KubsonDit" from server<STEAM_0:0:125457586>
[17:28:41] MY DUCK IS BIG: !UNBOX
[17:28:44] null: !unbox
[17:29:22] Dropped "klayton850" from server<STEAM_0:1:100263753>
[17:30:49] Frog: !tutorial
[17:31:11] GianD31: !restart
[17:31:37] GianD31: !restart
[17:32:07] null: !money
[17:32:10] null: !mo
[17:32:14] null: !move
[17:33:14] Dropped "BoyGames_96" from server<STEAM_0:1:67619269>
[17:34:00] MY DUCK IS BIG: !unbox
[17:35:06] Dropped "Sandwich Man" from server<STEAM_0:1:80048695>
[17:35:11] MY DUCK IS BIG: !unbox
[17:36:22] Dropped "MettiX" from server<STEAM_0:1:148698518>
[17:37:06] Dropped "GianD31" from server<STEAM_0:0:74018917>
[17:37:29] Server is shutting down/changing levels.



[17:37:36] New map: surf_sundown_njv
[17:37:36] Client "Bℓitzᴸᶦᵍʰᵗ♥" connected.
[17:39:10] Client "MY DUCK IS BIG" spawned in server <STEAM_0:0:41718239> (took 95 seconds).
[17:39:10] Client "Bot402" connected.
[17:39:10] Client "Bot402" spawned in server <BOT> (took 95 seconds).
[17:39:12] Client "Bot403" connected.
[17:39:12] Client "Bot403" spawned in server <BOT> (took 97 seconds).
[17:40:10] Client "null" spawned in server <STEAM_0:0:193117597> (took 155 seconds).
[17:40:13] Client "Bℓitzᴸᶦᵍʰᵗ♥" spawned in server <STEAM_0:1:149522854> (took 157 seconds).
[17:41:30] Client "{FX} JJ" connected.
[17:42:14] Client "{FX} JJ" spawned in server <STEAM_0:1:125393234> (took 44 seconds).
[17:44:35] {FX} JJ: how big is your duck?
[17:45:00] MY DUCK IS BIG: !unbox
[17:45:08] null: how to be vip and don't donate >:)
[17:45:20] {FX} JJ: win a giveaway
[17:45:37] {FX} JJ: dont even know if there are giveaways for surf lmao
[17:45:51] null: where is giveaways＆
[17:46:12] {FX} JJ: dont think there are giveaways for the surf server :P
[17:46:15] Client "kurtis" connected.
[17:46:34] null: you buy vip?
[17:46:39] {FX} JJ: yea
[17:47:03] {FX} JJ: !unbox
[17:47:26] Client "kurtis" spawned in server <STEAM_0:0:102583717> (took 71 seconds).
[17:48:22] MY DUCK IS BIG: !unbox
[17:49:23] {FX} JJ: am i the only one who cant make this map?
[17:49:47] null: yes
[17:51:12] Client "trick_117" connected.
[17:51:37] Client "Derpy_YT" connected.
[17:51:50] Client "trick_117" spawned in server <STEAM_0:1:216774872> (took 38 seconds).
[17:52:12] Dropped "trick_117" from server<STEAM_0:1:216774872>
[17:52:45] MY DUCK IS BIG: !unbox
[17:52:55] Dropped "Bℓitzᴸᶦᵍʰᵗ♥" from server<STEAM_0:1:149522854>
[17:53:25] Client "trick_117" connected.
[17:54:00] Client "trick_117" spawned in server <STEAM_0:1:216774872> (took 35 seconds).
[17:54:29] Client "Pokeyone1965" connected.
[17:55:09] trick_117: !UNBOX
[17:55:26] {FX} JJ: !r
[17:55:27] Client "Pokeyone1965" spawned in server <STEAM_0:1:42362369> (took 58 seconds).
[17:55:49] Client "Fusion" connected.
[17:57:53] (TEAM) MY DUCK IS BIG: !rtv
[17:58:00] Pokeyone1965: !rtv
[17:58:00] {FX} JJ: !rtv
[17:58:01] Client "Fusion" spawned in server <STEAM_0:1:56270426> (took 132 seconds).
[17:58:10] null: rtv
[17:58:16] null: !rtv
[17:58:41] trick_117: !KNIVES
[17:58:49] trick_117: !KNI
[17:58:55] Client "S-W-A-G" connected.
[17:59:04] kurtis: !rtv
[17:59:11] Client "Bot205" connected.
[17:59:40] Server is shutting down/changing levels.



[17:59:46] New map: surf_utopia_njv
[18:00:06] Client "trick_117" spawned in server <STEAM_0:1:216774872> (took 21 seconds).
[18:00:06] Client "Bot404" connected.
[18:00:06] Client "Bot404" spawned in server <BOT> (took 21 seconds).
[18:00:08] Client "Bot405" connected.
[18:00:08] Client "Bot405" spawned in server <BOT> (took 23 seconds).
[18:00:11] Client "null" spawned in server <STEAM_0:0:193117597> (took 26 seconds).
[18:00:15] Client "Bot205" spawned in server <STEAM_0:1:95702188> (took 30 seconds).
[18:00:17] Client "{FX} JJ" spawned in server <STEAM_0:1:125393234> (took 32 seconds).
[18:00:30] Client "MY DUCK IS BIG" spawned in server <STEAM_0:0:41718239> (took 45 seconds).
[18:00:33] Client "Pokeyone1965" spawned in server <STEAM_0:1:42362369> (took 48 seconds).
[18:00:36] Client "S-W-A-G" spawned in server <STEAM_0:1:186219212> (took 51 seconds).
[18:01:57] null: andrey epta ti tut
[18:02:24] Client "[RTKM] PodZ_Wolf" connected.
[18:03:07] Dropped "null" from server<STEAM_0:0:193117597>
[18:03:24] MY DUCK IS BIG: !unbox
[18:05:19] MY DUCK IS BIG: !unbox
[18:06:41] trick_117: !unbox
[18:07:18] MY DUCK IS BIG: !unbox
[18:07:23] Dropped "Pokeyone1965" from server<STEAM_0:1:42362369>
[18:09:29] MY DUCK IS BIG: !unbox
[18:09:53] Client "DerSuper11" connected.
[18:11:27] MY DUCK IS BIG: !unbox
[18:11:56] {FX} JJ: !unbox
[18:14:12] MY DUCK IS BIG: !unbox
[18:18:11] {FX} JJ: !unbox
[18:18:25] MY DUCK IS BIG: !unbox
[18:20:39] Client "null" connected.
[18:20:50] Dropped "trick_117" from server<STEAM_0:1:216774872>
[18:21:08] {FX} JJ: xD
[18:21:22] Client "null" spawned in server <STEAM_0:0:193117597> (took 43 seconds).
[18:22:18] null: !unbox
[18:22:35] null: OPENCASES
[18:22:40] MY DUCK IS BIG: !unbox
[18:22:41] null: .!unbox
[18:22:47] null: and open point cases
[18:22:50] null: >:)
[18:22:53] null: !unbox
[18:22:53] {FX} JJ: why?
[18:22:57] Bot205: !unbox
[18:23:00] null: 400k points
[18:23:04] null: !unbox
[18:23:11] {FX} JJ: what do u mean?
[18:23:21] MY DUCK IS BIG: !unbox
[18:23:24] (TEAM) null: jb
[18:23:29] null: !unbox
[18:26:16] MY DUCK IS BIG: !unbox
[18:27:00] Client "StikyDLAS" connected.
[18:27:11] null: !unbox
[18:27:22] {FX} JJ: i actually made it :P
[18:27:42] Client "StikyDLAS" spawned in server <STEAM_0:0:170581814> (took 42 seconds).
[18:28:04] Dropped "Bot205" from server<STEAM_0:1:95702188>
[18:28:43] (TEAM) MY DUCK IS BIG: !unbox
[18:28:58] (TEAM) null: !unbox
[18:30:05] MY DUCK IS BIG: !unbox
[18:30:23] Server is shutting down/changing levels.



[18:30:29] New map: surf_lux
[18:31:19] Client "StikyDLAS" spawned in server <STEAM_0:0:170581814> (took 51 seconds).
[18:31:19] Client "Bot406" connected.
[18:31:19] Client "Bot406" spawned in server <BOT> (took 51 seconds).
[18:31:21] Client "Bot407" connected.
[18:31:21] Client "Bot407" spawned in server <BOT> (took 53 seconds).
[18:31:25] Client "null" spawned in server <STEAM_0:0:193117597> (took 57 seconds).
[18:31:50] Client "MY DUCK IS BIG" spawned in server <STEAM_0:0:41718239> (took 82 seconds).
[18:32:04] Client "S-W-A-G" spawned in server <STEAM_0:1:186219212> (took 96 seconds).
[18:32:17] Client "MiniClawW" connected.
[18:32:29] MY DUCK IS BIG: !unbox
[18:32:42] null: !unbox
[18:32:42] Client "{FX} JJ" spawned in server <STEAM_0:1:125393234> (took 134 seconds).
[18:34:02] null: !pay
[18:34:32] Client "MiniClawW" spawned in server <STEAM_0:0:200762028> (took 135 seconds).
[18:34:48] null: !shop
[18:34:57] Client "GeceninKılıcıYasuo|Talha" connected.
[18:34:59] (TEAM) null: !unbox
[18:35:02] MY DUCK IS BIG: !UNBOX
[18:35:07] MiniClawW: !rtv
[18:35:12] null: !unbox
[18:35:37] MY DUCK IS BIG: !KNIVE
[18:35:56] null: !unbox
[18:36:32] MiniClawW: !rtv
[18:37:21] null: !knife
[18:37:24] null: !knife
[18:37:27] null: !knife
[18:37:27] MiniClawW: this is hard please !rtv
[18:37:29] MY DUCK IS BIG: !unbox
[18:38:11] MiniClawW: please
[18:38:22] null: !open
[18:38:42] Dropped "MiniClawW" from server<STEAM_0:0:200762028>
[18:39:13] MY DUCK IS BIG: !unbox
[18:39:20] null: !unbox
[18:40:24] null: !unbox
[18:40:30] Dropped "{FX} JJ" from server<STEAM_0:1:125393234>
[18:40:34] Client "{FX} JJ" connected.
[18:40:52] MY DUCK IS BIG: !unbox
[18:41:03] Client "{FX} JJ" spawned in server <STEAM_0:1:125393234> (took 29 seconds).
[18:41:29] Dropped "StikyDLAS" from server<STEAM_0:0:170581814>
[18:41:29] Client "StikyDLAS" connected.
[18:41:37] Client "StikyDLAS" spawned in server <STEAM_0:0:170581814> (took 8 seconds).
[18:41:40] null: !unbox
[18:42:02] MY DUCK IS BIG: !unbox
[18:42:08] Client "klayton850" connected.
[18:42:25] Dropped "null" from server<STEAM_0:0:193117597>
[18:42:30] Client "null" connected.
[18:42:53] Client "null" spawned in server <STEAM_0:0:193117597> (took 23 seconds).
[18:43:03] {FX} JJ: !unbox
[18:43:14] Client "klayton850" spawned in server <STEAM_0:1:100263753> (took 66 seconds).
[18:43:27] {FX} JJ: !unbox
[18:44:16] MY DUCK IS BIG: !unbox
[18:44:40] {FX} JJ: !unbox
[18:45:01] null: !unbox
[18:46:14] null: !unbox
[18:46:27] MY DUCK IS BIG: !unbox
[18:46:32] (TEAM) null: !unbox
[18:47:42] {FX} JJ: !unbox
[18:48:00] Dropped "S-W-A-G" from server<STEAM_0:1:186219212>
[18:48:19] {FX} JJ: !r
[18:48:28] Dropped "null" from server<STEAM_0:0:193117597>
[18:48:30] Dropped "MY DUCK IS BIG" from server<STEAM_0:0:41718239>
[18:49:04] {FX} JJ: !r
[18:49:15] {FX} JJ: !unbox
[18:50:15] {FX} JJ: !unbox
[18:50:36] Client "Dwayne "The Glock" Johnson" connected.
[18:51:28] Client "Dwayne "The Glock" Johnson" spawned in server <STEAM_0:1:55189203> (took 52 seconds).
[18:52:09] Dwayne "The Glock" Johnson: !jd
[18:53:28] Dwayne "The Glock" Johnson: Hey
[18:56:41] Client "Helios1 -" connected.
[18:56:51] Dropped "klayton850" from server<STEAM_0:1:100263753>
[18:57:45] Client "Helios1 -" spawned in server <STEAM_0:0:135083570> (took 64 seconds).
[18:57:47] Dwayne "The Glock" Johnson: nice
[19:00:27] {FX} JJ: !r
[19:00:30] Dropped "StikyDLAS" from server<STEAM_0:0:170581814>
[19:01:06] Server is shutting down/changing levels.



[19:01:13] New map: surf_forbidden_ways_ksf
[19:01:34] Client "Dwayne "The Glock" Johnson" spawned in server <STEAM_0:1:55189203> (took 23 seconds).
[19:01:34] Client "Bot408" connected.
[19:01:34] Client "Bot408" spawned in server <BOT> (took 23 seconds).
[19:01:36] Client "Bot409" connected.
[19:01:36] Client "Bot409" spawned in server <BOT> (took 25 seconds).
[19:01:54] Client "Helios1 -" spawned in server <STEAM_0:0:135083570> (took 43 seconds).
[19:03:23] Client "{FX} JJ" spawned in server <STEAM_0:1:125393234> (took 132 seconds).
[19:04:15] Client "Fibbit" connected.
[19:04:21] Client "EllisPlus" connected.
[19:05:36] Client "EllisPlus" spawned in server <STEAM_0:0:54165163> (took 75 seconds).
[19:05:52] Client "Fibbit" spawned in server <STEAM_0:1:164363776> (took 97 seconds).
[19:06:02] Dwayne "The Glock" Johnson: !unbox
[19:06:17] Helios1 -: greetings earthlings
[19:06:29] {FX} JJ: Hi
[19:06:38] Dwayne "The Glock" Johnson: Ayy
[19:06:40] Dwayne "The Glock" Johnson: !unbox
[19:07:08] Helios1 -: is it just me or are the walls purple
[19:07:18] Dwayne "The Glock" Johnson: You need source most likely
[19:07:26] Helios1 -: whats that
[19:07:29] Dwayne "The Glock" Johnson: You can download the models if you just search "gmod textures fi
[19:07:32] Dwayne "The Glock" Johnson: fix*
[19:07:36] Helios1 -: mk
[19:07:41] Dwayne "The Glock" Johnson: youll just need to download it and put it in your addons folder
[19:08:11] Fibbit: !steam
[19:09:34] Dwayne "The Glock" Johnson: fuuuuck i finally made it through the portal and died upon exit
[19:09:35] EllisPlus: how do i check my rank now
[19:09:42] EllisPlus: this server has changed so much
[19:09:43] Dwayne "The Glock" Johnson: rank?
[19:09:48] Dwayne "The Glock" Johnson: youre starter
[19:09:51] {FX} JJ: what ranl?
[19:09:53] EllisPlus: they removed ranks?
[19:09:55] {FX} JJ: rank*
[19:09:58] {FX} JJ: no
[19:09:58] Dwayne "The Glock" Johnson: !unbox
[19:10:01] EllisPlus: i have 21hrs lol
[19:10:06] {FX} JJ: they changed them
[19:10:09] Dwayne "The Glock" Johnson: !unbox
[19:10:13] EllisPlus: wow
[19:10:15] {FX} JJ: now u have to finish maps :P
[19:10:24] EllisPlus: well all my progress is goneee
[19:10:31] EllisPlus: at least i still have my pickaxe
[19:10:33] {FX} JJ: it was the same for me
[19:10:36] {FX} JJ: xD
[19:10:45] EllisPlus: whats the kill commad in console to spawn it in again?
[19:10:55] {FX} JJ: just type !r
[19:11:00] EllisPlus: !r
[19:11:00] Dwayne "The Glock" Johnson: !r
[19:11:05] Client "woody" connected.
[19:11:07] EllisPlus: cheers
[19:12:02] Client "woody" spawned in server <STEAM_0:0:156661765> (took 57 seconds).
[19:12:16] Client "狰冥" connected.
[19:13:06] Client "᠌" connected.
[19:13:19] Helios1 -: !spec
[19:14:04] Dwayne "The Glock" Johnson: !unbox
[19:14:07] Helios1 -: why dont you guys surf on csgo
[19:14:15] Dwayne "The Glock" Johnson: Dont own it
[19:14:15] Helios1 -: !R
[19:14:17] Dwayne "The Glock" Johnson: !unbox
[19:14:17] (TEAM) Helios1 -: !r
[19:14:25] EllisPlus: i prefer it on here idk why
[19:14:30] Helios1 -: its on sale
[19:14:33] Dwayne "The Glock" Johnson: !unbox
[19:14:33] Helios1 -: you should get it
[19:14:36] Helios1 -: way better
[19:14:37] Client "᠌" spawned in server <STEAM_0:0:64764232> (took 91 seconds).
[19:14:40] {FX} JJ: why dont u surf on csgo?
[19:14:45] Helios1 -: though im not used to this kind of surfing so
[19:14:51] Helios1 -: i just got the game today
[19:14:54] Dwayne "The Glock" Johnson: moneys the problem
[19:14:54] Helios1 -: checking it out
[19:15:20] EllisPlus: idk the good servers on cs
[19:15:21] (TEAM) Helios1 -: lots of 5 year olds.
[19:15:22] ᠌: /wr
[19:15:25] Client "狰冥" spawned in server <STEAM_0:1:209371329> (took 189 seconds).
[19:15:29] Helios1 -: mestro
[19:15:39] Helios1 -: most populated servers.
[19:15:43] Helios1 -: !spawn
[19:15:53] Helios1 -: how do i unspec?
[19:15:57] {FX} JJ: f2
[19:15:58] Helios1 -: !R
[19:16:03] Helios1 -: ty
[19:17:17] ᠌: /b
[19:17:33] ᠌: !r
[19:17:35] ᠌: /ranks
[19:17:39] ᠌: /top
[19:17:43] Dropped "woody" from server<STEAM_0:0:156661765>
[19:17:55] Dwayne "The Glock" Johnson: !unbox
[19:18:49] ᠌: /top
[19:19:05] ᠌: !r
[19:19:43] ᠌: !r
[19:20:02] Dropped "狰冥" from server<STEAM_0:1:209371329>
[19:20:22] ᠌: !r
[19:21:13] Dropped "Fibbit" from server<STEAM_0:1:164363776>
[19:21:54] Helios1 -: do i have to restart server or game for the css file to work?
[19:22:02] ᠌: /p
[19:22:03] ᠌: /bend
[19:22:05] ᠌: /n
[19:22:10] Dwayne "The Glock" Johnson: game
[19:22:12] ᠌: /styles
[19:22:16] ᠌: /unreal
[19:22:18] ᠌: /lg
[19:22:20] Helios1 -: ok cya
[19:22:22] Dropped "Helios1 -" from server<STEAM_0:0:135083570>
[19:22:26] ᠌: /sonic
[19:22:34] Dropped "᠌" from server<STEAM_0:0:64764232>
[19:24:40] Client "Helios1 -" connected.
[19:25:02] EllisPlus: !steam
[19:25:05] Client "Helios1 -" spawned in server <STEAM_0:0:135083570> (took 25 seconds).
[19:26:09] Dwayne "The Glock" Johnson: !r
[19:26:24] EllisPlus: so how do we unbox knives?
[19:26:33] {FX} JJ: do !unbox
[19:26:40] Helios1 -: !unbox
[19:27:03] EllisPlus: !unbox
[19:27:32] EllisPlus: wow theyre expensive
[19:27:44] Dwayne "The Glock" Johnson: not really
[19:27:47] Dwayne "The Glock" Johnson: open te credits case
[19:27:52] Dwayne "The Glock" Johnson: its very profitable
[19:27:55] Dwayne "The Glock" Johnson: !unbox
[19:27:58] EllisPlus: okokokok
[19:28:04] EllisPlus: !unbox
[19:29:50] EllisPlus: wow that is broken how much money you can make lmao
[19:29:56] {FX} JJ: ik
[19:30:07] EllisPlus: well ima spam the shit outta that brb
[19:30:09] Dwayne "The Glock" Johnson: yeah i opened a rare knife case my first day
[19:30:14] EllisPlus: !unbox
[19:30:17] Dwayne "The Glock" Johnson: but it wont let me equip it
[19:30:20] Helios1 -: !shop
[19:30:21] {FX} JJ: same
[19:30:33] Helios1 -: !unbox
[19:30:39] Dwayne "The Glock" Johnson: !unbox
[19:30:53] EllisPlus: !unbox
[19:31:09] Helios1 -: how to get points?
[19:31:18] Dwayne "The Glock" Johnson: !unbox
[19:31:49] Server is shutting down/changing levels.



[19:31:56] New map: surf_utopia_njv
[19:32:13] Client "Helios1 -" spawned in server <STEAM_0:0:135083570> (took 18 seconds).
[19:32:13] Client "Bot410" connected.
[19:32:13] Client "Bot410" spawned in server <BOT> (took 18 seconds).
[19:32:15] Client "Bot411" connected.
[19:32:15] Client "Bot411" spawned in server <BOT> (took 20 seconds).
[19:32:19] Client "EllisPlus" spawned in server <STEAM_0:0:54165163> (took 24 seconds).
[19:32:28] Client "{FX} JJ" spawned in server <STEAM_0:1:125393234> (took 33 seconds).
[19:33:03] Client "Dwayne "The Glock" Johnson" spawned in server <STEAM_0:1:55189203> (took 68 seconds).
[19:33:13] EllisPlus: !unbox
[19:33:32] Helios1 -: !unbox
[19:34:49] Dwayne "The Glock" Johnson: !unbox
[19:35:17] {FX} JJ: !unbox
[19:37:54] EllisPlus: !unbox
[19:39:30] Dwayne "The Glock" Johnson: !unbox
[19:40:30] Dwayne "The Glock" Johnson: !r
[19:40:35] Helios1 -: !points
[19:41:56] Dropped "EllisPlus" from server<STEAM_0:0:54165163>
[19:42:03] Client "EllisPlus" connected.
[19:42:25] Client "EllisPlus" spawned in server <STEAM_0:0:54165163> (took 22 seconds).
[19:42:47] EllisPlus: i got kicked for afk lol
[19:42:53] EllisPlus: !unbox
[19:45:54] Helios1 -: !unbox
[19:46:31] Client "ZepT1x csgoloto.com" connected.
[19:46:56] Dropped "{FX} JJ" from server<STEAM_0:1:125393234>
[19:47:18] Client "traj" connected.
[19:47:31] Dwayne "The Glock" Johnson: !unbox
[19:47:35] Helios1 -: !spec
[19:47:56] Client "traj" spawned in server <STEAM_0:1:92213643> (took 38 seconds).
[19:48:47] traj: ( ͡° ͜ʖ ͡°)
[19:48:58] Dwayne "The Glock" Johnson: !unbox
[19:49:30] Helios1 -: nice shove
[19:49:32] Dropped "Helios1 -" from server<STEAM_0:0:135083570>
[19:49:33] traj: wat
[19:50:07] EllisPlus: !unbox
[19:52:01] traj: fuc
[19:52:15] EllisPlus: !unbox
[19:52:38] EllisPlus: i just unboxed 6 knives and none of them are in my inventory
[19:52:45] Client "ZepT1x csgoloto.com" spawned in server <STEAM_0:0:166864973> (took 374 seconds).
[19:52:46] traj: type !knives
[19:52:52] EllisPlus: i have dude
[19:52:57] traj: second tab?
[19:52:57] EllisPlus: !unbox
[19:53:00] Dwayne "The Glock" Johnson: go to the other tab then go bak
[19:53:02] traj: reconnect if so, i guess
[19:53:03] Dwayne "The Glock" Johnson: it fixes it
[19:53:10] EllisPlus: ive tried it all
[19:53:12] Dwayne "The Glock" Johnson: just click anything else and go back to your inventor
[19:53:18] (TEAM) EllisPlus: i have lol
[19:53:18] traj: well make a forum post
[19:53:23] EllisPlus: gonna reconnect brb
[19:53:30] Dwayne "The Glock" Johnson: idk man i often dont see my knives then just have to click knives then inventory
[19:53:42] EllisPlus: !unbox
[19:53:55] Dropped "EllisPlus" from server<STEAM_0:0:54165163>
[19:54:03] Client "EllisPlus" connected.
[19:54:20] Client "EllisPlus" spawned in server <STEAM_0:0:54165163> (took 17 seconds).
[19:56:09] traj: ( ͡ᵔ ͜ʖ ͡ᵔ )
[19:56:16] Dropped "ZepT1x csgoloto.com" from server<STEAM_0:0:166864973>
[19:57:11] Client "ZepT1x csgoloto.com" connected.
[19:58:05] Client "{FX} JJ" connected.
[19:58:09] Client "ZepT1x csgoloto.com" spawned in server <STEAM_0:0:166864973> (took 58 seconds).
[19:58:43] Client "{FX} JJ" spawned in server <STEAM_0:1:125393234> (took 38 seconds).
[19:58:45] Dwayne "The Glock" Johnson: fucking invisible wall stopped my highest speed yet
[19:58:59] traj: ( ͡° ͜ʖ ͡°)
[19:59:10] Client "xuterion" connected.
[19:59:33] Client "xuterion" spawned in server <STEAM_0:1:149220558> (took 23 seconds).
[20:00:11] traj: ( ͡° ͜ʖ ͡°)
[20:00:38] Dropped "ZepT1x csgoloto.com" from server<STEAM_0:0:166864973>
[20:00:42] {FX} JJ: Hi
[20:00:45] traj: hoi
[20:00:58] traj: ( ͡° ͜ʖ ͡°)
[20:01:20] Client "_ItsNixe" connected.
[20:02:04] traj: ( ͡° ͜ʖ ͡°)
[20:02:32] Server is shutting down/changing levels.



[20:02:39] New map: surf_lux
[20:02:54] Client "Dwayne "The Glock" Johnson" spawned in server <STEAM_0:1:55189203> (took 16 seconds).
[20:02:54] Client "Bot412" connected.
[20:02:54] Client "Bot412" spawned in server <BOT> (took 16 seconds).
[20:02:56] Client "Bot413" connected.
[20:02:56] Client "Bot413" spawned in server <BOT> (took 18 seconds).
[20:03:04] Client "xuterion" spawned in server <STEAM_0:1:149220558> (took 26 seconds).
[20:03:07] Client "traj" spawned in server <STEAM_0:1:92213643> (took 29 seconds).
[20:03:23] Client "EllisPlus" spawned in server <STEAM_0:0:54165163> (took 45 seconds).
[20:04:16] Client "_ItsNixe" spawned in server <STEAM_0:1:191813240> (took 98 seconds).
[20:04:58] traj: !r
[20:05:00] Client "{FX} JJ" spawned in server <STEAM_0:1:125393234> (took 142 seconds).
[20:05:28] traj: !r
[20:05:44] traj: !r
[20:06:18] Client "optical_reflex38" connected.
[20:06:31] {FX} JJ: !unbox
[20:06:56] traj: haha yes i love lag
[20:07:05] traj: !r
[20:07:20] {FX} JJ: !unbox
[20:07:54] Client "optical_reflex38" spawned in server <STEAM_0:0:189298042> (took 96 seconds).
[20:08:00] traj: !r
[20:09:20] {FX} JJ: !unbox
[20:09:42] (TEAM) optical_reflex38: !steam
[20:09:51] Dropped "xuterion" from server<STEAM_0:1:149220558>
[20:10:44] Dropped "EllisPlus" from server<STEAM_0:0:54165163>
[20:11:29] {FX} JJ: !unbox
[20:12:08] (TEAM) _ItsNixe: !rtv
[20:12:41] {FX} JJ: !unbox
[20:12:43] (TEAM) _ItsNixe: !shop
[20:12:56] {FX} JJ: how do u equip rare knives?
[20:13:05] Dwayne "The Glock" Johnson: cant'
[20:13:19] traj: arne they like normal ones?
[20:13:25] traj: arent*
[20:13:25] {FX} JJ: no
[20:13:26] Dwayne "The Glock" Johnson: they dont work rn
[20:13:30] traj: hm
[20:13:42] {FX} JJ: !unbox
[20:13:45] traj: do they work on dr?
[20:13:51] {FX} JJ: yea
[20:13:54] traj: Cos i had a rare crate and opened it there
[20:13:54] {FX} JJ: !unbox
[20:13:59] traj: rip that means i lost my knife
[20:14:07] {FX} JJ: no it works on dr
[20:14:09] traj: i got kicked mid open ._.
[20:14:12] {FX} JJ: !unbox
[20:14:21] traj: case gone and no knife
[20:14:39] traj: but then i won vip here so i got over it OverRustle
[20:15:32] optical_reflex38: where do i get the normal knifes after joining the steam group 
[20:15:41] traj:  !knives
[20:15:55] optical_reflex38: ok thanks
[20:15:57] traj: ( ͡° ͜ʖ ͡°)
[20:16:06] traj: !rtv
[20:16:13] traj voted for surf_kitsune (1/3)
[20:16:13] traj: !votemap 19
[20:16:15] traj: ( ͡° ͜ʖ ͡°)
[20:16:44] {FX} JJ: !unbox
[20:16:47] Dwayne "The Glock" Johnson: !rtv
[20:16:50] traj: ( ͡° ͜ʖ ͡°)
[20:17:29] Dropped "Dwayne "The Glock" Johnson" from server<STEAM_0:1:55189203>
[20:17:37] optical_reflex38: it says im only allowe to unbox them where do i unbox them sorry
[20:18:37] optical_reflex38: !tutorial
[20:19:24] Dropped "{FX} JJ" from server<STEAM_0:1:125393234>
[20:19:38] Dropped "_ItsNixe" from server<STEAM_0:1:191813240>
[20:20:00] Server is shutting down/changing levels.



[20:20:07] New map: surf_rookie
[20:20:14] Client "optical_reflex38" connected.
[20:20:42] Client "traj" spawned in server <STEAM_0:1:92213643> (took 37 seconds).
[20:20:42] Client "Bot414" connected.
[20:20:42] Client "Bot414" spawned in server <BOT> (took 37 seconds).
[20:20:44] Client "Bot415" connected.
[20:20:44] Client "Bot415" spawned in server <BOT> (took 39 seconds).
[20:22:32] Client "optical_reflex38" spawned in server <STEAM_0:0:189298042> (took 138 seconds).
[20:25:08] optical_reflex38: !tutorial
[20:25:39] Client "Lambda" connected.
[20:26:59] Client "Hello!" connected.
[20:27:01] (TEAM) optical_reflex38: !unbox
[20:27:01] Client "VirToZe-Game44" connected.
[20:28:16] Client "☢ ADMIRAL ☢ BLACKSTORM ☢" connected.
[20:28:51] Client "Hello!" connected.
[20:28:59] optical_reflex38: could you help teach me how to surf? sorry for asking
[20:29:06] traj: im not very good
[20:29:13] traj: Id recommend typing !tutorial
[20:29:28] Client "☢ ADMIRAL ☢ BLACKSTORM ☢" spawned in server <STEAM_0:0:139514999> (took 72 seconds).
[20:29:28] optical_reflex38: oh ok thanks
[20:29:31] traj: quite a useful video
[20:29:56] Client "ADMIRAL Bluestorm" connected.
[20:30:32] traj: !rtv
[20:30:42] Client "Lambda" spawned in server <STEAM_0:0:168454104> (took 303 seconds).
[20:30:57] Dropped "traj" from server<STEAM_0:1:92213643>
[20:31:00] optical_reflex38: !tutorial
[20:31:26] Client "Hello!" spawned in server <STEAM_0:0:121294768> (took 155 seconds).
[20:32:01] Hello!: !knife
[20:32:25] Client "ADMIRAL Bluestorm" spawned in server <STEAM_0:0:102186946> (took 149 seconds).
[20:33:45] Client "DIGIMON LINKZ" connected.
[20:33:46] Hello!: !steam
[20:33:52] ☢ ADMIRAL ☢ BLACKSTORM ☢: !rtv
[20:36:20] Hello!: !R
[20:36:39] Client "DIGIMON LINKZ" spawned in server <STEAM_0:1:82419817> (took 174 seconds).
[20:36:56] optical_reflex38: im starting to get the hang of it lol thanks for the info
[20:37:12] (TEAM) Hello!: !unbox
[20:39:13] Hello!: !unbox
[20:41:26] Hello!: !r
[20:43:51] Hello!: !tutorial
[20:45:34] Dropped "optical_reflex38" from server<STEAM_0:0:189298042>
[20:46:56] Hello!: !tutorial
[20:48:51] Hello!: !unbox
[20:49:18] Client "VirToZe-Game44" connected.
[20:50:20] Lambda: 7
[20:50:33] Lambda: whoops
[20:50:43] Server is shutting down/changing levels.



[20:50:50] New map: surf_kitsune2
[20:51:28] Client "☢ ADMIRAL ☢ BLACKSTORM ☢" spawned in server <STEAM_0:0:139514999> (took 39 seconds).
[20:51:28] Client "Bot416" connected.
[20:51:28] Client "Bot416" spawned in server <BOT> (took 39 seconds).
[20:51:30] Client "Bot417" connected.
[20:51:30] Client "Bot417" spawned in server <BOT> (took 41 seconds).
[20:52:19] Client "ADMIRAL Bluestorm" spawned in server <STEAM_0:0:102186946> (took 90 seconds).
[20:52:46] Client "DIGIMON LINKZ" spawned in server <STEAM_0:1:82419817> (took 117 seconds).
[20:53:15] Client "VirToZe-Game44" spawned in server <STEAM_0:1:189114795> (took 146 seconds).
[20:55:21] Client "Jibbit" connected.
[20:55:51] Client "Jibbit" spawned in server <STEAM_0:0:125632632> (took 30 seconds).
[20:55:54] Dropped "VirToZe-Game44" from server<STEAM_0:1:189114795>
[20:57:50] Jibbit: !knife
[21:06:18] Client "TaniusPlayz" connected.
[21:06:33] ☢ ADMIRAL ☢ BLACKSTORM ☢: !rtv
[21:06:42] Dropped "Jibbit" from server<STEAM_0:0:125632632>
[21:10:14] Client "tim_floater" connected.
[21:11:05] Dropped "DIGIMON LINKZ" from server<STEAM_0:1:82419817>
[21:11:31] Client "tim_floater" spawned in server <STEAM_0:1:99172681> (took 77 seconds).
[21:11:34] Client "loic89113" connected.
[21:12:29] ☢ ADMIRAL ☢ BLACKSTORM ☢: Bluestorm bitte rtv
[21:13:14] ☢ ADMIRAL ☢ BLACKSTORM ☢: Wo bist du, Bluestorm?
[21:13:19] ADMIRAL Bluestorm: !rtv
[21:13:55] Server is shutting down/changing levels.



[21:14:02] New map: surf_advanced
[21:14:32] Client "tim_floater" spawned in server <STEAM_0:1:99172681> (took 31 seconds).
[21:14:32] Client "Bot418" connected.
[21:14:32] Client "Bot418" spawned in server <BOT> (took 31 seconds).
[21:14:34] Client "Bot419" connected.
[21:14:34] Client "Bot419" spawned in server <BOT> (took 33 seconds).
[21:14:42] Client "ADMIRAL Bluestorm" spawned in server <STEAM_0:0:102186946> (took 41 seconds).
[21:14:53] Client "☢ ADMIRAL ☢ BLACKSTORM ☢" spawned in server <STEAM_0:0:139514999> (took 52 seconds).
[21:14:54] tim_floater: This map is too hard trust me
[21:15:04] tim_floater: !rtbv
[21:15:07] tim_floater: !rtv
[21:16:18] tim_floater: The trick is that you have to jump on the edge and over the wall
[21:17:26] ☢ ADMIRAL ☢ BLACKSTORM ☢: !rtv
[21:17:45] Client "OlDeck" connected.
[21:18:14] ☢ ADMIRAL ☢ BLACKSTORM ☢: !rtv
[21:18:16] Client "OlDeck" spawned in server <STEAM_0:0:34728749> (took 31 seconds).
[21:18:40] ☢ ADMIRAL ☢ BLACKSTORM ☢: !unbox
[21:21:03] ADMIRAL Bluestorm: !rtv
[21:21:06] tim_floater: nvm This map is really not that hard it's just that i'm not used to my mouse sensitivity
[21:21:12] Client "null" connected.
[21:21:21] tim_floater: !rtv
[21:21:23] Client "MY DUCK IS BIG" connected.
[21:21:24] ☢ ADMIRAL ☢ BLACKSTORM ☢: 1Rtv
[21:21:33] ☢ ADMIRAL ☢ BLACKSTORM ☢: !rtv
[21:22:09] Server is shutting down/changing levels.



[21:22:17] New map: surf_utopia_njv
[21:22:26] Client "ADMIRAL Bluestorm" spawned in server <STEAM_0:0:102186946> (took 11 seconds).
[21:22:26] Client "Bot420" connected.
[21:22:26] Client "Bot420" spawned in server <BOT> (took 11 seconds).
[21:22:28] Client "Bot421" connected.
[21:22:28] Client "Bot421" spawned in server <BOT> (took 13 seconds).
[21:22:30] Client "tim_floater" spawned in server <STEAM_0:1:99172681> (took 15 seconds).
[21:22:30] Client "OlDeck" spawned in server <STEAM_0:0:34728749> (took 15 seconds).
[21:22:34] Client "☢ ADMIRAL ☢ BLACKSTORM ☢" spawned in server <STEAM_0:0:139514999> (took 19 seconds).
[21:22:45] Client "null" spawned in server <STEAM_0:0:193117597> (took 30 seconds).
[21:23:36] Client "MY DUCK IS BIG" spawned in server <STEAM_0:0:41718239> (took 81 seconds).
[21:24:21] null: !unbox
[21:24:43] MY DUCK IS BIG: !unbox
[21:30:28] null: I AM PATRICK!
[21:31:16] Client "KidKeevzy" connected.
[21:31:18] MY DUCK IS BIG: !unbox
[21:32:08] Client "KidKeevzy" spawned in server <STEAM_0:0:150950096> (took 52 seconds).
[21:32:33] MY DUCK IS BIG: !unbox
[21:33:06] Dropped "OlDeck" from server<STEAM_0:0:34728749>
[21:35:06] Dropped "tim_floater" from server<STEAM_0:1:99172681>
[21:38:46] MY DUCK IS BIG: !unbox
[21:39:00] MY DUCK IS BIG:  !jb
[21:39:34] MY DUCK IS BIG: !unbox
[21:40:31] ☢ ADMIRAL ☢ BLACKSTORM ☢: What? XD
[21:41:02] ADMIRAL Bluestorm: XD
[21:41:09] ☢ ADMIRAL ☢ BLACKSTORM ☢: XDXDXDXD
[21:43:00] MY DUCK IS BIG: !sp
[21:43:06] MY DUCK IS BIG: !sc
[21:44:02] MY DUCK IS BIG: !exit
[21:44:11] Dropped "MY DUCK IS BIG" from server<STEAM_0:0:41718239>
[21:44:14] Client "MY DUCK IS BIG" connected.
[21:45:08] Client "MY DUCK IS BIG" spawned in server <STEAM_0:0:41718239> (took 54 seconds).
[21:45:10] null: !restart
[21:45:18] Dropped "null" from server<STEAM_0:0:193117597>
[21:45:21] Client "null" connected.
[21:45:43] Client "null" spawned in server <STEAM_0:0:193117597> (took 22 seconds).
[21:47:38] ☢ ADMIRAL ☢ BLACKSTORM ☢: Jop gute nacht
[21:47:47] Dropped "ADMIRAL Bluestorm" from server<STEAM_0:0:102186946>
[21:48:43] Dropped "☢ ADMIRAL ☢ BLACKSTORM ☢" from server<STEAM_0:0:139514999>
[21:49:04] Client "RaCc0oN" connected.
[21:49:22] Dropped "null" from server<STEAM_0:0:193117597>
[21:49:56] Dropped "MY DUCK IS BIG" from server<STEAM_0:0:41718239>
[21:52:53] Server is shutting down/changing levels.



[21:53:00] New map: surf_happyhands
[21:53:22] Client "KidKeevzy" spawned in server <STEAM_0:0:150950096> (took 23 seconds).
[21:53:22] Client "Bot422" connected.
[21:53:22] Client "Bot422" spawned in server <BOT> (took 23 seconds).
[21:53:24] Client "Bot423" connected.
[21:53:24] Client "Bot423" spawned in server <BOT> (took 25 seconds).
[21:56:11] Dropped "KidKeevzy" from server<STEAM_0:0:150950096>
[21:56:11] Dropped "Bot422" from server<BOT>
[21:56:11] Dropped "Bot423" from server<BOT>
[22:02:17] Client "Srinoxy" connected.
[22:04:06] Client "Srinoxy" spawned in server <STEAM_0:0:166175021> (took 109 seconds).
[22:04:06] Client "Bot424" connected.
[22:04:06] Client "Bot424" spawned in server <BOT> (took 667 seconds).
[22:04:08] Client "Bot425" connected.
[22:04:08] Client "Bot425" spawned in server <BOT> (took 669 seconds).
[22:05:01] Dropped "Srinoxy" from server<STEAM_0:0:166175021>
[22:05:01] Dropped "Bot424" from server<BOT>
[22:05:01] Dropped "Bot425" from server<BOT>
[22:06:19] Client "Ticktocker" connected.
[22:07:05] Client "Ticktocker" spawned in server <STEAM_0:1:63630976> (took 46 seconds).
[22:07:05] Client "Bot426" connected.
[22:07:05] Client "Bot426" spawned in server <BOT> (took 846 seconds).
[22:07:07] Client "Bot427" connected.
[22:07:07] Client "Bot427" spawned in server <BOT> (took 848 seconds).
[22:10:18] Dropped "Ticktocker" from server<STEAM_0:1:63630976>
[22:10:18] Dropped "Bot426" from server<BOT>
[22:10:18] Dropped "Bot427" from server<BOT>
[22:12:05] Client "TheRealNuggetMan" connected.
[22:14:42] Client "TheRealNuggetMan" spawned in server <STEAM_0:1:109532253> (took 157 seconds).
[22:14:42] Client "Bot428" connected.
[22:14:42] Client "Bot428" spawned in server <BOT> (took 1303 seconds).
[22:14:44] Client "Bot429" connected.
[22:14:44] Client "Bot429" spawned in server <BOT> (took 1305 seconds).
[22:17:00] Client "StoopidKnight" connected.
[22:21:56] Dropped "TheRealNuggetMan" from server<STEAM_0:1:109532253>
[22:21:56] Dropped "Bot428" from server<BOT>
[22:21:56] Dropped "Bot429" from server<BOT>
[22:23:36] Server is shutting down/changing levels.



[22:23:43] New map: surf_stonework3
[22:54:19] Server is shutting down/changing levels.



[22:54:25] New map: surf_utopia_njv
[23:06:22] Client "Dwayne "The Glock" Johnson" connected.
[23:07:27] Client "Dwayne "The Glock" Johnson" spawned in server <STEAM_0:1:55189203> (took 65 seconds).
[23:07:27] Client "Bot430" connected.
[23:07:27] Client "Bot430" spawned in server <BOT> (took 783 seconds).
[23:07:29] Client "Bot431" connected.
[23:07:29] Client "Bot431" spawned in server <BOT> (took 785 seconds).
[23:09:14] Dwayne "The Glock" Johnson: !unbox
[23:10:11] Dwayne "The Glock" Johnson: !unbox
[23:12:20] Dwayne "The Glock" Johnson: !unbox
[23:20:13] Dwayne "The Glock" Johnson: !unbox
[23:25:01] Server is shutting down/changing levels.



[23:25:08] New map: surf_lighthouse
[23:25:48] Client "Dwayne "The Glock" Johnson" spawned in server <STEAM_0:1:55189203> (took 41 seconds).
[23:25:48] Client "Bot432" connected.
[23:25:48] Client "Bot432" spawned in server <BOT> (took 41 seconds).
[23:25:50] Client "Bot433" connected.
[23:25:50] Client "Bot433" spawned in server <BOT> (took 43 seconds).
[23:26:13] Client "SalltY" connected.
[23:26:19] Dwayne "The Glock" Johnson: !unbox
[23:28:11] Dwayne "The Glock" Johnson: !unbox
[23:28:21] Client "SalltY" spawned in server <STEAM_0:1:72114623> (took 128 seconds).
[23:30:52] Dropped "SalltY" from server<STEAM_0:1:72114623>
[23:50:57] Dropped "Dwayne "The Glock" Johnson" from server<STEAM_0:1:55189203>
[23:50:57] Dropped "Bot432" from server<BOT>
[23:50:57] Dropped "Bot433" from server<BOT>
[23:55:45] Server is shutting down/changing levels.



[23:55:52] New map: surf_rookie
<Logging continued in "data/ulx_logs/06-29-17.txt">
