<Logging continued from "data/ulx_logs/06-19-17.txt">
[00:01:43] Dropped "Potathoe" from server<STEAM_0:0:182081256>
[00:03:45] Client "◥◣ ✘》DOGE《✘◢◤" connected.
[00:07:50] iCookies: !steam
[00:10:18] Ruupertti: !r
[00:12:53] Dropped "Ruupertti" from server<STEAM_0:0:144832007>
[00:15:52] (TEAM) iCookies: !knifes
[00:15:58] iCookies: !unbox
[00:21:12] Dropped "iCookies" from server<STEAM_0:1:101169130>
[00:21:12] Dropped "Bot302" from server<BOT>
[00:21:12] Dropped "Bot303" from server<BOT>
[00:21:36] Server is shutting down/changing levels.



[00:21:43] New map: surf_mesa_aether
[00:21:59] Client "Kmbool_Sensai" connected.
[00:25:02] Client "Kmbool_Sensai" spawned in server <STEAM_0:0:59633063> (took 183 seconds).
[00:25:02] Client "Bot304" connected.
[00:25:02] Client "Bot304" spawned in server <BOT> (took 200 seconds).
[00:25:04] Client "Bot305" connected.
[00:25:04] Client "Bot305" spawned in server <BOT> (took 202 seconds).
[00:30:09] Kmbool_Sensai: !tutorial
[00:30:55] Client "UralEkstaasi" connected.
[00:31:15] Client "dcannata654" connected.
[00:38:31] Dropped "Kmbool_Sensai" from server<STEAM_0:0:59633063>
[00:38:39] Dropped "Bot304" from server<BOT>
[00:38:39] Dropped "Bot305" from server<BOT>
[00:50:50] Client "Virtual" connected.
[00:52:19] Server is shutting down/changing levels.



[00:52:26] New map: surf_happyhands
[00:54:41] Client "Jet" connected.
[00:57:51] Client "Jet" spawned in server <STEAM_0:1:80231952> (took 190 seconds).
[00:57:51] Client "Bot306" connected.
[00:57:51] Client "Bot306" spawned in server <BOT> (took 326 seconds).
[00:57:53] Client "Bot307" connected.
[00:57:53] Client "Bot307" spawned in server <BOT> (took 328 seconds).
[01:02:31] Jet: !unbox
[01:03:12] Client "ｊｅｆｆ" connected.
[01:04:35] Jet: !unbox
[01:09:42] Client "SapoTheGreat" connected.
[01:10:45] Client "ｊｅｆｆ" spawned in server <STEAM_0:1:114484309> (took 453 seconds).
[01:10:48] Jet: !unbox
[01:11:49] Client "SapoTheGreat" spawned in server <STEAM_0:0:103783381> (took 127 seconds).
[01:15:09] ｊｅｆｆ: !knifes
[01:15:55] Dropped "SapoTheGreat" from server<STEAM_0:0:103783381>
[01:17:49] (TEAM) Jet: !unbox
[01:18:03] ｊｅｆｆ: !unbux
[01:19:54] Client "TheGamingType" connected.
[01:20:54] Client "TheGamingType" spawned in server <STEAM_0:0:139352216> (took 60 seconds).
[01:21:36] Jet: !unbox
[01:21:42] TheGamingType:  !rtv
[01:21:54] TheGamingType: !rtv
[01:22:02] Client "JHandsome15" connected.
[01:22:14] Dropped "ｊｅｆｆ" from server<STEAM_0:1:114484309>
[01:22:15] Jet: !rtv
[01:22:17] TheGamingType: t('^'t) FUCK YOU t('^'t)
[01:22:21] TheGamingType: t('^'t) FUCK YOU t('^'t)
[01:22:51] Server is shutting down/changing levels.



[01:22:57] New map: surf_ing
[01:23:11] Client "TheGamingType" spawned in server <STEAM_0:0:139352216> (took 15 seconds).
[01:23:11] Client "Bot308" connected.
[01:23:11] Client "Bot308" spawned in server <BOT> (took 15 seconds).
[01:23:13] Client "Bot309" connected.
[01:23:13] Client "Bot309" spawned in server <BOT> (took 17 seconds).
[01:24:00] Client "Jet" spawned in server <STEAM_0:1:80231952> (took 64 seconds).
[01:25:58] Jet: !knife
[01:26:37] TheGamingType: !rtv
[01:28:07] TheGamingType: !r
[01:29:37] Dropped "TheGamingType" from server<STEAM_0:0:139352216>
[01:36:02] Dropped "Jet" from server<STEAM_0:1:80231952>
[01:36:02] Dropped "Bot308" from server<BOT>
[01:36:02] Dropped "Bot309" from server<BOT>
[01:46:39] Client "Bangman" connected.
[01:46:44] Client "pAurice" connected.
[01:47:23] Client "Bangman" spawned in server <STEAM_0:1:29121980> (took 44 seconds).
[01:47:23] Client "Bot310" connected.
[01:47:23] Client "Bot310" spawned in server <BOT> (took 1467 seconds).
[01:47:25] Client "Bot311" connected.
[01:47:25] Client "Bot311" spawned in server <BOT> (took 1469 seconds).
[01:47:26] Client "pAurice" spawned in server <STEAM_0:0:31693289> (took 42 seconds).
[01:47:41] Bangman: !r
[01:47:49] pAurice: !r
[01:48:10] pAurice: !rank
[01:48:38] Bangman: !r
[01:48:42] Bangman: !r
[01:49:04] pAurice: !r
[01:49:04] Bangman: !r
[01:49:25] Client "TacoCow1200" connected.
[01:49:34] Bangman: !r
[01:49:37] Bangman: !r
[01:49:44] Bangman: !r
[01:49:49] pAurice: !r
[01:50:02] Bangman: !r
[01:50:05] Bangman: !wr
[01:50:09] pAurice: !wr
[01:50:15] pAurice: !rtv
[01:50:15] Bangman: !r
[01:50:18] pAurice: !r
[01:50:37] pAurice: !r
[01:51:02] Client "TacoCow1200" connected.
[01:51:15] pAurice: !r
[01:52:02] Client "TacoCow1200" spawned in server <STEAM_0:0:194806705> (took 60 seconds).
[01:52:07] Bangman: !rtv
[01:52:43] Server is shutting down/changing levels.



[01:52:49] New map: surf_mesa_mine
[01:53:14] Client "Bangman" spawned in server <STEAM_0:1:29121980> (took 26 seconds).
[01:53:14] Client "Bot312" connected.
[01:53:14] Client "Bot312" spawned in server <BOT> (took 26 seconds).
[01:53:16] Client "Bot313" connected.
[01:53:16] Client "Bot313" spawned in server <BOT> (took 28 seconds).
[01:53:21] Client "pAurice" spawned in server <STEAM_0:0:31693289> (took 33 seconds).
[01:53:49] Bangman: !r
[01:53:49] pAurice: !wr
[01:53:52] Bangman: !wr
[01:54:14] Bangman: !r
[01:54:15] Bangman: !r
[01:54:32] pAurice: !r
[01:54:35] pAurice: !r
[01:54:37] Client "TacoCow1200" connected.
[01:54:46] Bangman: !r
[01:55:21] Bangman: !r
[01:55:32] pAurice: !r
[01:55:34] Bangman: !r
[01:55:44] pAurice: !r
[01:55:45] Bangman: !r
[01:55:59] Bangman: !r
[01:56:10] pAurice: !r
[01:56:32] Bangman: !r
[01:56:46] Bangman: !r
[01:57:01] pAurice: !r
[01:57:58] Bangman: /spec
[01:58:10] pAurice: !r
[01:58:13] Dropped "pAurice" from server<STEAM_0:0:31693289>
[01:58:48] Bangman: !r
[01:58:52] Dropped "Bangman" from server<STEAM_0:1:29121980>
[01:58:52] Dropped "Bot312" from server<BOT>
[01:58:52] Dropped "Bot313" from server<BOT>
[02:11:28] Client "†† LEVLA ††" connected.
[02:13:12] Client "TheRealAstro" connected.
[02:14:30] Client "†† LEVLA ††" spawned in server <STEAM_0:1:68652876> (took 182 seconds).
[02:14:30] Client "Bot314" connected.
[02:14:30] Client "Bot314" spawned in server <BOT> (took 1302 seconds).
[02:14:32] Client "Bot315" connected.
[02:14:32] Client "Bot315" spawned in server <BOT> (took 1304 seconds).
[02:21:18] Client "megagoldminer" connected.
[02:23:26] Server is shutting down/changing levels.



[02:23:32] New map: surf_mesa
[02:23:46] Client "†† LEVLA ††" spawned in server <STEAM_0:1:68652876> (took 15 seconds).
[02:23:46] Client "Bot316" connected.
[02:23:46] Client "Bot316" spawned in server <BOT> (took 15 seconds).
[02:23:48] Client "Bot317" connected.
[02:23:48] Client "Bot317" spawned in server <BOT> (took 17 seconds).
[02:27:40] Client "megagoldminer" spawned in server <STEAM_0:1:118079462> (took 249 seconds).
[02:29:08] Dropped "†† LEVLA ††" from server<STEAM_0:1:68652876>
[02:33:15] Dropped "megagoldminer" from server<STEAM_0:1:118079462>
[02:33:15] Dropped "Bot316" from server<BOT>
[02:33:15] Dropped "Bot317" from server<BOT>
[02:44:59] Client "Mineing64" connected.
[02:47:35] Client "Mineing64" spawned in server <STEAM_0:1:107882739> (took 156 seconds).
[02:47:35] Client "Bot318" connected.
[02:47:35] Client "Bot318" spawned in server <BOT> (took 1444 seconds).
[02:47:37] Client "Bot319" connected.
[02:47:37] Client "Bot319" spawned in server <BOT> (took 1446 seconds).
[02:54:08] Server is shutting down/changing levels.



[02:54:15] New map: surf_graphia
[03:10:13] Client "✪ S1paCE csgowitch.com" connected.
[03:11:59] Client "✪ S1paCE csgowitch.com" spawned in server <STEAM_0:0:138968496> (took 106 seconds).
[03:11:59] Client "Bot320" connected.
[03:11:59] Client "Bot320" spawned in server <BOT> (took 1065 seconds).
[03:12:01] Client "Bot321" connected.
[03:12:01] Client "Bot321" spawned in server <BOT> (took 1067 seconds).
[03:13:12] ✪ S1paCE csgowitch.com: !JB
[03:13:22] Client "GNRAL GAMER ™ الاصلي" connected.
[03:13:23] Client "♛"tiger" connected.
[03:14:19] Dropped "✪ S1paCE csgowitch.com" from server<STEAM_0:0:138968496>
[03:14:19] Dropped "Bot320" from server<BOT>
[03:14:19] Dropped "Bot321" from server<BOT>
[03:14:19] Client "✪ S1paCE csgowitch.com" connected.
[03:14:27] Client "✪ S1paCE csgowitch.com" spawned in server <STEAM_0:0:138968496> (took 8 seconds).
[03:14:27] Client "Bot322" connected.
[03:14:27] Client "Bot322" spawned in server <BOT> (took 1213 seconds).
[03:14:29] Client "Bot323" connected.
[03:14:29] Client "Bot323" spawned in server <BOT> (took 1215 seconds).
[03:14:34] Client "GNRAL GAMER ™ الاصلي" connected.
[03:15:56] Dropped "✪ S1paCE csgowitch.com" from server<STEAM_0:0:138968496>
[03:15:56] Dropped "Bot322" from server<BOT>
[03:15:56] Dropped "Bot323" from server<BOT>
[03:24:51] Server is shutting down/changing levels.



[03:24:58] New map: surf_kitsune
[03:55:33] Server is shutting down/changing levels.



[03:55:40] New map: surf_milkyway
[04:20:45] Client "TheGamingType✌" connected.
[04:21:49] Client "TheGamingType✌" spawned in server <STEAM_0:0:139352216> (took 64 seconds).
[04:21:49] Client "Bot324" connected.
[04:21:49] Client "Bot324" spawned in server <BOT> (took 1571 seconds).
[04:21:51] Client "Bot325" connected.
[04:21:51] Client "Bot325" spawned in server <BOT> (took 1573 seconds).
[04:23:55] TheGamingType✌: !rtv
[04:24:31] Server is shutting down/changing levels.



[04:24:38] New map: surf_rebel_scaz
[04:25:38] Client "TheGamingType✌" spawned in server <STEAM_0:0:139352216> (took 62 seconds).
[04:25:38] Client "Bot326" connected.
[04:25:38] Client "Bot326" spawned in server <BOT> (took 62 seconds).
[04:25:40] Client "Bot327" connected.
[04:25:40] Client "Bot327" spawned in server <BOT> (took 64 seconds).
[04:34:01] TheGamingType✌: !r
[04:39:09] TheGamingType✌: !r
[04:42:38] Dropped "TheGamingType✌" from server<STEAM_0:0:139352216>
[04:42:38] Dropped "Bot326" from server<BOT>
[04:42:38] Dropped "Bot327" from server<BOT>
[04:55:14] Server is shutting down/changing levels.



[04:55:20] New map: surf_advanced
[05:25:56] Server is shutting down/changing levels.



[05:26:02] New map: surf_lighthouse
[05:56:38] Server is shutting down/changing levels.



[05:56:44] New map: surf_advanced
[06:27:20] Server is shutting down/changing levels.



[06:27:27] New map: surf_kitsune2
[06:58:02] Server is shutting down/changing levels.



[06:58:09] New map: surf_forbidden_ways_ksf
[07:28:44] Server is shutting down/changing levels.



[07:28:51] New map: surf_kitsune2
[07:59:27] Server is shutting down/changing levels.



[07:59:33] New map: surf_beginner
[08:30:09] Server is shutting down/changing levels.



[08:30:15] New map: surf_fast
[08:48:32] Client "Ocean Man" connected.
[09:00:51] Server is shutting down/changing levels.



[09:00:58] New map: surf_kitsune
[09:16:32] Client "Sir.Crow" connected.
[09:20:04] Client "Sir.Crow" spawned in server <STEAM_0:1:56606687> (took 212 seconds).
[09:20:04] Client "Bot328" connected.
[09:20:04] Client "Bot328" spawned in server <BOT> (took 1148 seconds).
[09:20:06] Client "Bot329" connected.
[09:20:06] Client "Bot329" spawned in server <BOT> (took 1150 seconds).
[09:22:09] Sir.Crow: !unbox
[09:23:49] Sir.Crow: wow
[09:24:26] Sir.Crow: !steam
[09:24:49] Sir.Crow: what happened to nugget gaming
[09:26:11] Sir.Crow: !knife
[09:26:23] Sir.Crow: !unbox
[09:27:49] Dropped "Sir.Crow" from server<STEAM_0:1:56606687>
[09:27:49] Dropped "Bot328" from server<BOT>
[09:27:49] Dropped "Bot329" from server<BOT>
[09:31:34] Server is shutting down/changing levels.



[09:31:41] New map: surf_sluice_final
[10:02:17] Server is shutting down/changing levels.



[10:02:23] New map: surf_waterworks
[10:29:18] Client "OlDeck" connected.
[10:29:54] Client "OlDeck" spawned in server <STEAM_0:0:34728749> (took 36 seconds).
[10:29:54] Client "Bot330" connected.
[10:29:54] Client "Bot330" spawned in server <BOT> (took 1652 seconds).
[10:29:56] Client "Bot331" connected.
[10:29:56] Client "Bot331" spawned in server <BOT> (took 1654 seconds).
[10:32:59] Server is shutting down/changing levels.



[10:33:06] New map: surf_happyhands
[10:33:20] Client "OlDeck" spawned in server <STEAM_0:0:34728749> (took 16 seconds).
[10:33:20] Client "Bot332" connected.
[10:33:20] Client "Bot332" spawned in server <BOT> (took 16 seconds).
[10:33:22] Client "Bot333" connected.
[10:33:22] Client "Bot333" spawned in server <BOT> (took 18 seconds).
[10:34:13] Dropped "OlDeck" from server<STEAM_0:0:34728749>
[10:34:13] Dropped "Bot332" from server<BOT>
[10:34:13] Dropped "Bot333" from server<BOT>
[10:47:12] Client "ovenwills" connected.
[10:48:54] Client "ovenwills" spawned in server <STEAM_0:1:57406558> (took 102 seconds).
[10:48:54] Client "Bot334" connected.
[10:48:54] Client "Bot334" spawned in server <BOT> (took 950 seconds).
[10:48:56] Client "Bot335" connected.
[10:48:56] Client "Bot335" spawned in server <BOT> (took 952 seconds).
[10:57:26] Dropped "ovenwills" from server<STEAM_0:1:57406558>
[10:57:26] Dropped "Bot334" from server<BOT>
[10:57:26] Dropped "Bot335" from server<BOT>
[11:03:42] Server is shutting down/changing levels.



[11:03:48] New map: surf_lux
[11:32:37] Client "SteveTheAlcoholicDragonFutureRP" connected.
[11:33:49] Client "SteveTheAlcoholicDragonFutureRP" spawned in server <STEAM_0:1:53152877> (took 72 seconds).
[11:33:49] Client "Bot336" connected.
[11:33:49] Client "Bot336" spawned in server <BOT> (took 1802 seconds).
[11:33:51] Client "Bot337" connected.
[11:33:51] Client "Bot337" spawned in server <BOT> (took 1804 seconds).
[11:34:24] Server is shutting down/changing levels.



[11:34:31] New map: surf_mesa
[12:05:06] Server is shutting down/changing levels.



[12:05:13] New map: surf_mesa_aether
[12:35:49] Server is shutting down/changing levels.



[12:35:55] New map: surf_milkyway
[13:05:23] Client "Glyvox" connected.
[13:06:03] Client "Glyvox" spawned in server <STEAM_0:0:56549339> (took 40 seconds).
[13:06:03] Client "Bot338" connected.
[13:06:03] Client "Bot338" spawned in server <BOT> (took 1809 seconds).
[13:06:05] Client "Bot339" connected.
[13:06:05] Client "Bot339" spawned in server <BOT> (took 1811 seconds).
[13:06:21] Glyvox: !rtv
[13:06:31] Server is shutting down/changing levels.



[13:06:38] New map: surf_aether
[13:07:06] Client "Glyvox" connected.
[13:07:27] Client "Glyvox" spawned in server <STEAM_0:0:56549339> (took 21 seconds).
[13:07:27] Client "Bot340" connected.
[13:07:27] Client "Bot340" spawned in server <BOT> (took 50 seconds).
[13:07:29] Client "Bot341" connected.
[13:07:29] Client "Bot341" spawned in server <BOT> (took 52 seconds).
[13:08:13] Glyvox: 1jb
[13:08:51] Dropped "Glyvox" from server<STEAM_0:0:56549339>
[13:08:51] Dropped "Bot340" from server<BOT>
[13:08:51] Dropped "Bot341" from server<BOT>
[13:10:15] Client "Nicolas Cage ELITEDROP.RU" connected.
[13:37:14] Server is shutting down/changing levels.



[13:37:20] New map: surf_advanced
[13:57:46] Client "[FX] Cosmic" connected.
[13:58:12] Client "[FX] Cosmic" spawned in server <STEAM_0:1:168631107> (took 26 seconds).
[13:58:12] Client "Bot342" connected.
[13:58:12] Client "Bot342" spawned in server <BOT> (took 1253 seconds).
[13:58:14] Client "Bot343" connected.
[13:58:14] Client "Bot343" spawned in server <BOT> (took 1255 seconds).
[14:00:15] Client "Famedparsley" connected.
[14:00:59] [FX] Cosmic: !rtv
[14:01:35] Server is shutting down/changing levels.



[14:01:42] New map: surf_fast
[14:01:57] Client "[FX] Cosmic" spawned in server <STEAM_0:1:168631107> (took 16 seconds).
[14:01:57] Client "Bot344" connected.
[14:01:57] Client "Bot344" spawned in server <BOT> (took 16 seconds).
[14:01:58] Client "Famedparsley" connected.
[14:01:59] Client "Bot345" connected.
[14:01:59] Client "Bot345" spawned in server <BOT> (took 18 seconds).
[14:02:30] Client "Famedparsley" spawned in server <STEAM_0:0:137987838> (took 32 seconds).
[14:04:15] [FX] Cosmic: !r
[14:06:48] Client "[AG]NOVATHEGAMER" connected.
[14:08:10] Client "[AG]NOVATHEGAMER" spawned in server <STEAM_0:1:184371967> (took 82 seconds).
[14:09:28] Dropped "[AG]NOVATHEGAMER" from server<STEAM_0:1:184371967>
[14:24:51] Client "Коробочка" connected.
[14:26:42] Dropped "Famedparsley" from server<STEAM_0:0:137987838>
[14:26:59] Client "Коробочка" spawned in server <STEAM_0:1:120282784> (took 128 seconds).
[14:31:08] Dropped "[FX] Cosmic" from server<STEAM_0:1:168631107>
[14:32:18] Server is shutting down/changing levels.



[14:32:25] New map: surf_beginner_hell
[14:32:48] Client "Коробочка" connected.
[14:32:52] Client "Mr. 1-5" connected.
[14:33:13] Client "Коробочка" spawned in server <STEAM_0:1:120282784> (took 25 seconds).
[14:33:13] Client "Bot346" connected.
[14:33:13] Client "Bot346" spawned in server <BOT> (took 49 seconds).
[14:33:15] Client "Bot347" connected.
[14:33:15] Client "Bot347" spawned in server <BOT> (took 51 seconds).
[14:34:46] Dropped "Коробочка" from server<STEAM_0:1:120282784>
[14:35:26] Client "Mr. 1-5" spawned in server <STEAM_0:1:100240174> (took 154 seconds).
[14:37:57] Dropped "Mr. 1-5" from server<STEAM_0:1:100240174>
[14:37:57] Dropped "Bot346" from server<BOT>
[14:37:57] Dropped "Bot347" from server<BOT>
[15:00:32] Client "☭ SemiSun | Trading" connected.
[15:02:17] Client "☭ SemiSun | Trading" spawned in server <STEAM_0:0:200896443> (took 105 seconds).
[15:02:17] Client "Bot348" connected.
[15:02:17] Client "Bot348" spawned in server <BOT> (took 1793 seconds).
[15:02:19] Client "Bot349" connected.
[15:02:19] Client "Bot349" spawned in server <BOT> (took 1795 seconds).
[15:03:01] Server is shutting down/changing levels.



[15:03:08] New map: surf_airflow
[15:03:32] Client "☭ SemiSun | Trading" spawned in server <STEAM_0:0:200896443> (took 25 seconds).
[15:03:32] Client "Bot350" connected.
[15:03:32] Client "Bot350" spawned in server <BOT> (took 25 seconds).
[15:03:34] Client "Bot351" connected.
[15:03:34] Client "Bot351" spawned in server <BOT> (took 27 seconds).
[15:04:57] ☭ SemiSun | Trading: !rtv
[15:06:47] Dropped "☭ SemiSun | Trading" from server<STEAM_0:0:200896443>
[15:06:47] Dropped "Bot350" from server<BOT>
[15:06:47] Dropped "Bot351" from server<BOT>
[15:33:44] Server is shutting down/changing levels.



[15:33:51] New map: surf_kitsune
[15:39:01] Client "[FX] Cosmic" connected.
[15:39:36] Client "[FX] Cosmic" spawned in server <STEAM_0:1:168631107> (took 35 seconds).
[15:39:36] Client "Bot352" connected.
[15:39:36] Client "Bot352" spawned in server <BOT> (took 346 seconds).
[15:39:38] Client "Bot353" connected.
[15:39:38] Client "Bot353" spawned in server <BOT> (took 348 seconds).
[15:40:12] Client "✪ shams" connected.
[15:42:12] Client "[F-X] Lil' Massif" connected.
[15:42:59] [FX] Cosmic: !r
[15:43:09] Client "[F-X] Lil' Massif" spawned in server <STEAM_0:1:74663039> (took 57 seconds).
[15:43:16] Client "✪ shams" spawned in server <STEAM_0:1:109660234> (took 184 seconds).
[15:43:29] [F-X] Lil' Massif: G'day
[15:43:46] [FX] Cosmic: hello
[15:43:46] [F-X] Lil' Massif: !r
[15:44:09] [FX] Cosmic: !unbox
[15:44:09] [F-X] Lil' Massif: !r
[15:44:11] ✪ shams: !KNIFE
[15:44:36] [F-X] Lil' Massif: !r
[15:44:45] [FX] Cosmic: just have to unbox, i forgot i have 5 rows of 16 cases (point
[15:44:47] [FX] Cosmic: )
[15:44:50] ✪ shams: !unbox
[15:44:52] [F-X] Lil' Massif: !r
[15:44:54] [F-X] Lil' Massif: lel
[15:44:57] [F-X] Lil' Massif: !unbox
[15:45:05] [FX] Cosmic: !unbox
[15:45:21] [F-X] Lil' Massif: lel, I just noticed I have about 50 cases left un unbox
[15:45:31] [F-X] Lil' Massif: I though I had unboxed them all
[15:45:36] [F-X] Lil' Massif: thought*
[15:45:37] [FX] Cosmic: lul
[15:45:39] [F-X] Lil' Massif: !unbox
[15:45:44] [FX] Cosmic: !unbox
[15:46:01] [F-X] Lil' Massif: !r
[15:46:30] [F-X] Lil' Massif: !r
[15:46:32] [F-X] Lil' Massif: !r
[15:46:44] [F-X] Lil' Massif: !r
[15:46:51] [F-X] Lil' Massif: !r
[15:47:01] [F-X] Lil' Massif: !r
[15:47:08] [F-X] Lil' Massif: !r
[15:47:12] [F-X] Lil' Massif: !r
[15:47:15] [F-X] Lil' Massif: !r
[15:47:21] [F-X] Lil' Massif: !r
[15:47:26] [F-X] Lil' Massif: !r
[15:47:41] [F-X] Lil' Massif: !r
[15:47:51] [F-X] Lil' Massif: !r
[15:47:58] [F-X] Lil' Massif: !r
[15:48:05] [F-X] Lil' Massif: !r
[15:48:08] [F-X] Lil' Massif: !r
[15:48:11] [F-X] Lil' Massif: !r
[15:48:14] [F-X] Lil' Massif: !r
[15:48:35] [F-X] Lil' Massif: !r
[15:49:05] [F-X] Lil' Massif: !r
[15:49:14] [F-X] Lil' Massif: !r
[15:49:55] [F-X] Lil' Massif: !r
[15:50:09] [F-X] Lil' Massif: !r
[15:50:20] [F-X] Lil' Massif: !r
[15:50:46] [F-X] Lil' Massif: !r
[15:50:54] [F-X] Lil' Massif: !r
[15:51:26] [F-X] Lil' Massif: !r
[15:51:26] [FX] Cosmic: !r
[15:51:30] [FX] Cosmic: !unbox
[15:51:43] [F-X] Lil' Massif: !r
[15:51:47] [F-X] Lil' Massif: !unbox
[15:52:28] [F-X] Lil' Massif: !r
[15:52:32] [F-X] Lil' Massif: !r
[15:53:25] [F-X] Lil' Massif: !r
[15:53:33] [F-X] Lil' Massif: !r
[15:53:50] ✪ shams: !knivfesd
[15:54:03] [F-X] Lil' Massif: !r
[15:54:11] [F-X] Lil' Massif: !r
[15:54:27] [F-X] Lil' Massif: !r
[15:54:30] [F-X] Lil' Massif: !r
[15:54:34] [F-X] Lil' Massif: !r
[15:54:58] [F-X] Lil' Massif: !r
[15:55:14] [F-X] Lil' Massif: !r
[15:55:22] [F-X] Lil' Massif: !r
[15:55:27] [F-X] Lil' Massif: !r
[15:55:29] [F-X] Lil' Massif: !r
[15:55:41] [F-X] Lil' Massif: !r
[15:55:53] [F-X] Lil' Massif: !r
[15:56:12] [F-X] Lil' Massif: !r
[15:56:35] [F-X] Lil' Massif: !r
[15:57:06] [F-X] Lil' Massif: !r
[15:57:20] [F-X] Lil' Massif: !r
[15:57:26] [F-X] Lil' Massif: !r
[15:57:42] [FX] Cosmic: !unbox
[15:57:57] [F-X] Lil' Massif: !r
[15:58:05] [F-X] Lil' Massif: !r
[15:58:16] [F-X] Lil' Massif: !r
[15:58:47] Dropped "✪ shams" from server<STEAM_0:1:109660234>
[15:59:11] [F-X] Lil' Massif: !r
[15:59:23] [F-X] Lil' Massif: !r
[15:59:28] [F-X] Lil' Massif: !r
[16:00:05] [F-X] Lil' Massif: !r
[16:00:09] [F-X] Lil' Massif: !r
[16:00:28] [F-X] Lil' Massif: !r
[16:00:38] [FX] Cosmic: !unbox
[16:00:58] [F-X] Lil' Massif: !r
[16:01:05] [F-X] Lil' Massif: !r
[16:01:14] [FX] Cosmic: oops! on accident i sold 1 case xD
[16:01:18] [FX] Cosmic: !r
[16:01:22] [F-X] Lil' Massif: lel ;D
[16:01:23] [F-X] Lil' Massif: !r
[16:01:31] [F-X] Lil' Massif: !r
[16:01:41] [F-X] Lil' Massif: !r
[16:01:55] [F-X] Lil' Massif: !r
[16:02:08] [FX] Cosmic: !r
[16:02:18] [F-X] Lil' Massif: !r
[16:02:53] [F-X] Lil' Massif: !r
[16:03:07] [F-X] Lil' Massif: !r
[16:03:32] Client "KJelles The Camel" connected.
[16:03:38] [F-X] Lil' Massif: !r
[16:03:45] [FX] Cosmic: !r
[16:04:02] [FX] Cosmic: !r
[16:04:03] Client "KJelles The Camel" spawned in server <STEAM_0:0:50269528> (took 31 seconds).
[16:04:10] [F-X] Lil' Massif: ayyy camel guy
[16:04:12] [F-X] Lil' Massif: !r
[16:04:13] KJelles The Camel: herro
[16:04:17] [F-X] Lil' Massif: !r
[16:04:18] [FX] Cosmic: HERRO!!!!!!
[16:04:19] KJelles The Camel: Indeed. ( ͡° ͜ʖ ͡°)
[16:04:22] [F-X] Lil' Massif: !r
[16:04:23] [FX] Cosmic: xd
[16:04:26] [F-X] Lil' Massif: ( ͡o ͜ʖ ͡o)
[16:04:27] Server is shutting down/changing levels.



[16:04:33] New map: surf_rebel_scaz
[16:04:45] Client "KJelles The Camel" spawned in server <STEAM_0:0:50269528> (took 13 seconds).
[16:04:45] Client "Bot354" connected.
[16:04:45] Client "Bot354" spawned in server <BOT> (took 13 seconds).
[16:04:47] Client "Bot355" connected.
[16:04:47] Client "Bot355" spawned in server <BOT> (took 15 seconds).
[16:05:05] Client "[F-X] Lil' Massif" spawned in server <STEAM_0:1:74663039> (took 33 seconds).
[16:05:06] Client "[FX] Cosmic" spawned in server <STEAM_0:1:168631107> (took 34 seconds).
[16:05:37] KJelles The Camel: !r
[16:05:38] KJelles The Camel: Indeed. ( ͡° ͜ʖ ͡°)
[16:05:50] [F-X] Lil' Massif: <hsv> ( ͡° ͜ʖ ͡°) </hsv>
[16:06:02] [FX] Cosmic: ( ͡° ͜ʖ ͡°)
[16:06:03] Client "TheFlorinator" connected.
[16:06:26] [F-X] Lil' Massif: !r
[16:06:33] [F-X] Lil' Massif: !r
[16:06:53] KJelles The Camel: dude
[16:06:54] KJelles The Camel: omg
[16:06:57] KJelles The Camel: im so triggered
[16:07:01] (TEAM) [F-X] Lil' Massif: do you know what time falconzz is usually online?
[16:07:06] KJelles The Camel: no
[16:07:07] KJelles The Camel: but
[16:07:12] [FX] Cosmic: !r
[16:07:13] KJelles The Camel: TAB still says Nugget Mix Gaming
[16:07:21] [F-X] Lil' Massif: yup
[16:07:22] [FX] Cosmic: oh.
[16:07:26] KJelles The Camel: maybe it needs a server restart
[16:07:28] KJelles The Camel: gimme a sec
[16:07:34] [FX] Cosmic: ZOMBIEZ OR JR U GOTTA COME NOPW
[16:07:38] [FX] Cosmic: NOW*
[16:07:39] KJelles The Camel: JR not
[16:07:40] KJelles The Camel: lmao
[16:07:51] [F-X] Lil' Massif: !r
[16:08:11] KJelles The Camel: errr i forgot the login LOL
[16:08:24] [F-X] Lil' Massif: !r
[16:08:32] [F-X] Lil' Massif: !r
[16:08:32] Client "TheFlorinator" spawned in server <STEAM_0:0:153559606> (took 149 seconds).
[16:09:19] [F-X] Lil' Massif: !r
[16:09:30] [F-X] Lil' Massif: !r
[16:09:31] KJelles The Camel: Aight
[16:09:39] KJelles The Camel: server restart bois
[16:09:45] [F-X] Lil' Massif: ( ͡o ͜ʖ ͡o)
[16:09:46] KJelles The Camel: hopefully it will fix
[16:09:49] [F-X] Lil' Massif: !r



[16:10:37] New map: surf_mesa
[16:10:38] Client "[F-X] Lil' Massif" connected.
[16:10:38] Client "KJelles The Camel" connected.
[16:10:51] Client "KJelles The Camel" spawned in server <STEAM_0:0:50269528> (took 13 seconds).
[16:10:51] Client "Bot01" connected.
[16:10:51] Client "Bot01" spawned in server <BOT> (took 40 seconds).
[16:10:53] Client "Bot02" connected.
[16:10:53] Client "Bot02" spawned in server <BOT> (took 42 seconds).
[16:10:58] Client "[FX] Cosmic" spawned in server <STEAM_0:1:168631107> (took 21 seconds).
[16:11:09] KJelles The Camel: Nope, zombiez just did not change it yet
[16:11:09] Client "[F-X] Lil' Massif" spawned in server <STEAM_0:1:74663039> (took 31 seconds).
[16:11:11] KJelles The Camel: omg
[16:11:11] [FX] Cosmic: hmmm
[16:11:24] [F-X] Lil' Massif: lel
[16:11:28] [F-X] Lil' Massif: GJ
[16:11:38] [F-X] Lil' Massif: !r
[16:11:47] KJelles The Camel: fucking i got no access to files
[16:11:52] [F-X] Lil' Massif: rip
[16:12:00] [F-X] Lil' Massif: !r
[16:12:18] [F-X] Lil' Massif: wait, where do you view/equip knives?
[16:12:24] KJelles The Camel:  !Knives
[16:12:26] [FX] Cosmic:  !knives
[16:12:35] (TEAM) [F-X] Lil' Massif: oki
[16:13:48] [F-X] Lil' Massif: !r
[16:14:05] KJelles The Camel: Indeed. ( ͡° ͜ʖ ͡°)
[16:14:11] [F-X] Lil' Massif: !r
[16:14:26] [F-X] Lil' Massif: I always get between 58-59...
[16:14:35] [FX] Cosmic: gj
[16:14:43] [F-X] Lil' Massif: !r
[16:14:48] [F-X] Lil' Massif: !rtv
[16:14:51] [F-X] Lil' Massif: !rtv
[16:15:11] [F-X] Lil' Massif: also, the "Voting is not possible in this period" is broken
[16:15:12] [FX] Cosmic: well rip me
[16:15:20] [FX] Cosmic: ye
[16:15:25] [FX] Cosmic: SEND HELP
[16:15:26] KJelles The Camel: !rtv
[16:15:26] [FX] Cosmic: PLZ
[16:15:27] [F-X] Lil' Massif: !r
[16:15:29] KJelles The Camel: how is it?
[16:15:43] [F-X] Lil' Massif: type !rtv and see for yourself, kjelles
[16:15:47] [FX] Cosmic: everything
[16:15:47] KJelles The Camel: !rtv
[16:15:51] [F-X] Lil' Massif: How did you get there cosmic>!
[16:15:57] KJelles The Camel: 17:26:12 - [Notification] Voting is not possible in this period (Please wait 11 seconds
[16:15:58] [F-X] Lil' Massif: lel, too late
[16:16:00] KJelles The Camel: it worked
[16:16:04] KJelles The Camel: 11 secs later
[16:16:06] KJelles The Camel: i could rtv
[16:16:15] [F-X] Lil' Massif: It always says 1 sec when I do it
[16:16:27] KJelles The Camel: !rules
[16:16:35] [FX] Cosmic: ok?
[16:16:39] [FX] Cosmic: hmm
[16:16:50] [F-X] Lil' Massif: !r
[16:17:13] [F-X] Lil' Massif: !rtv
[16:17:28] [F-X] Lil' Massif: !r
[16:17:30] [F-X] Lil' Massif: !r
[16:17:34] [F-X] Lil' Massif: !r
[16:17:37] [F-X] Lil' Massif: !r
[16:17:48] KJelles The Camel: Indeed. ( ͡° ͜ʖ ͡°)
[16:17:49] Server is shutting down/changing levels.



[16:17:55] New map: surf_lux
[16:18:05] Client "KJelles The Camel" spawned in server <STEAM_0:0:50269528> (took 11 seconds).
[16:18:05] Client "Bot03" connected.
[16:18:05] Client "Bot03" spawned in server <BOT> (took 11 seconds).
[16:18:07] Client "[FX] Cosmic" spawned in server <STEAM_0:1:168631107> (took 13 seconds).
[16:18:07] Client "Bot04" connected.
[16:18:07] Client "Bot04" spawned in server <BOT> (took 13 seconds).
[16:18:09] Client "[F-X] Lil' Massif" spawned in server <STEAM_0:1:74663039> (took 15 seconds).
[16:18:25] [F-X] Lil' Massif: !r
[16:18:26] [FX] Cosmic: !rtv
[16:18:38] KJelles The Camel: !r
[16:18:40] [F-X] Lil' Massif: !r
[16:18:51] [F-X] Lil' Massif: !r
[16:19:01] [F-X] Lil' Massif: !r
[16:19:16] [FX] Cosmic: hehe
[16:19:21] Dropped "KJelles The Camel" from server<STEAM_0:0:50269528>
[16:19:27] [F-X] Lil' Massif: !r
[16:19:34] [F-X] Lil' Massif: !r
[16:19:54] [F-X] Lil' Massif: !r
[16:20:43] [F-X] Lil' Massif: !r
[16:20:50] [F-X] Lil' Massif: !r
[16:20:57] [F-X] Lil' Massif: !r
[16:21:08] [F-X] Lil' Massif: !r
[16:21:10] [FX] Cosmic: !r
[16:21:15] [F-X] Lil' Massif: !r
[16:21:27] [F-X] Lil' Massif: !r
[16:21:38] [FX] Cosmic: !r
[16:21:51] [F-X] Lil' Massif: !r
[16:22:00] [FX] Cosmic: !r
[16:22:02] [F-X] Lil' Massif: !r
[16:22:03] [F-X] Lil' Massif: !r
[16:22:10] [F-X] Lil' Massif: !r
[16:22:18] [F-X] Lil' Massif: !r
[16:22:28] [F-X] Lil' Massif: !r
[16:22:30] [FX] Cosmic: !r
[16:22:43] [F-X] Lil' Massif: !r
[16:22:47] [F-X] Lil' Massif: !r
[16:22:58] [F-X] Lil' Massif: !r
[16:23:17] [F-X] Lil' Massif: !r
[16:23:37] [F-X] Lil' Massif: !r
[16:24:08] [F-X] Lil' Massif: !r
[16:24:12] [F-X] Lil' Massif: !r
[16:24:19] [F-X] Lil' Massif: !r
[16:24:36] [F-X] Lil' Massif: !r
[16:24:59] [F-X] Lil' Massif: !r
[16:25:01] [FX] Cosmic: !r
[16:25:10] [F-X] Lil' Massif: !r
[16:25:35] [F-X] Lil' Massif: !r
[16:25:55] [F-X] Lil' Massif: !r
[16:26:01] [F-X] Lil' Massif: !r
[16:26:01] [FX] Cosmic: !r
[16:26:05] [F-X] Lil' Massif: !r
[16:26:29] [F-X] Lil' Massif: !r
[16:26:35] [F-X] Lil' Massif: !r
[16:26:38] [F-X] Lil' Massif: !r
[16:26:46] [F-X] Lil' Massif: !r
[16:26:53] [F-X] Lil' Massif: !r
[16:27:00] [F-X] Lil' Massif: !r
[16:27:08] [F-X] Lil' Massif: !r
[16:27:14] [F-X] Lil' Massif: !r
[16:27:16] [F-X] Lil' Massif: !r
[16:27:32] [FX] Cosmic: !r
[16:27:39] [F-X] Lil' Massif: !r
[16:27:46] [F-X] Lil' Massif: !r
[16:27:48] [F-X] Lil' Massif: !r
[16:27:59] [FX] Cosmic: !r
[16:27:59] [F-X] Lil' Massif: !r
[16:28:09] [F-X] Lil' Massif: !unbox
[16:29:39] [F-X] Lil' Massif: are you ever going to apply for staff?
[16:29:51] [FX] Cosmic: mb
[16:29:55] [F-X] Lil' Massif: !r
[16:29:55] [FX] Cosmic: idk
[16:29:57] Client "Virtual" connected.
[16:30:07] [F-X] Lil' Massif: !r
[16:30:10] [F-X] Lil' Massif: !r
[16:30:18] [F-X] Lil' Massif: !r
[16:30:43] [F-X] Lil' Massif: !r
[16:30:46] [F-X] Lil' Massif: !r
[16:30:57] [FX] Cosmic: !r
[16:30:59] [F-X] Lil' Massif: !r
[16:31:02] [F-X] Lil' Massif: !r
[16:31:26] Client "Virtual" spawned in server <STEAM_0:0:135051720> (took 89 seconds).
[16:31:36] [F-X] Lil' Massif: !r
[16:31:47] [F-X] Lil' Massif: !r
[16:31:50] [F-X] Lil' Massif: !r
[16:31:57] [F-X] Lil' Massif: !r
[16:32:05] [F-X] Lil' Massif: !r
[16:32:34] [FX] Cosmic: !r
[16:32:45] [F-X] Lil' Massif: !r
[16:32:53] [F-X] Lil' Massif: !r
[16:32:54] [FX] Cosmic: !r
[16:32:59] [F-X] Lil' Massif: !r
[16:33:02] [F-X] Lil' Massif: !r
[16:33:06] Client "m3k | Farmskins.com" connected.
[16:33:10] [F-X] Lil' Massif: !r
[16:33:20] Client "☭ SemiSun | Trading" connected.
[16:33:21] [F-X] Lil' Massif: !r
[16:33:30] [F-X] Lil' Massif: !r
[16:33:37] [F-X] Lil' Massif: !r
[16:33:44] [F-X] Lil' Massif: !r
[16:33:49] [F-X] Lil' Massif: !r
[16:34:03] Client "☭ SemiSun | Trading" spawned in server <STEAM_0:0:200896443> (took 43 seconds).
[16:34:26] [F-X] Lil' Massif: !r
[16:34:36] [F-X] Lil' Massif: !r
[16:34:39] [F-X] Lil' Massif: !r
[16:34:40] [F-X] Lil' Massif: !r
[16:35:05] Client "m3k | Farmskins.com" spawned in server <STEAM_0:0:193317211> (took 119 seconds).
[16:35:07] [F-X] Lil' Massif: !r
[16:35:11] [F-X] Lil' Massif: !r
[16:35:13] Dropped "☭ SemiSun | Trading" from server<STEAM_0:0:200896443>
[16:35:16] [F-X] Lil' Massif: !r
[16:35:24] [F-X] Lil' Massif: !r
[16:35:35] [F-X] Lil' Massif: !r
[16:35:58] [F-X] Lil' Massif: !r
[16:36:10] Dropped "m3k | Farmskins.com" from server<STEAM_0:0:193317211>
[16:36:13] [F-X] Lil' Massif: !r
[16:36:19] [F-X] Lil' Massif: !r
[16:36:26] [F-X] Lil' Massif: !r
[16:37:08] [F-X] Lil' Massif: !r
[16:37:12] [FX] Cosmic: brb gotta eat.
[16:37:13] [F-X] Lil' Massif: !r
[16:37:16] [F-X] Lil' Massif: oki doki
[16:37:18] [F-X] Lil' Massif: !r
[16:37:24] [F-X] Lil' Massif: !r
[16:37:28] [F-X] Lil' Massif: !time
[16:38:20] [F-X] Lil' Massif: !menu
[16:39:43] Client "люди привет я вла" connected.
[16:40:30] [F-X] Lil' Massif: !menu
[16:40:51] Client "Nitramaniak" connected.
[16:41:35] [F-X] Lil' Massif: !r
[16:42:56] Dropped "[FX] Cosmic" from server<STEAM_0:1:168631107>
[16:43:13] [F-X] Lil' Massif: !r
[16:43:14] Client "люди привет я вла" spawned in server <STEAM_0:1:85951084> (took 211 seconds).
[16:43:17] [F-X] Lil' Massif: !r
[16:43:37] [F-X] Lil' Massif: !r
[16:44:09] [F-X] Lil' Massif: !r
[16:44:20] [F-X] Lil' Massif: !r
[16:44:21] Client "Falconzz" connected.
[16:44:28] [F-X] Lil' Massif: !r
[16:44:32] [F-X] Lil' Massif: !r
[16:44:42] [F-X] Lil' Massif: !r
[16:44:49] [F-X] Lil' Massif: !r
[16:44:57] Client "Falconzz" spawned in server <STEAM_0:1:148610897> (took 36 seconds).
[16:45:05] [F-X] Lil' Massif: ayyyy falconzz!
[16:45:08] [F-X] Lil' Massif: long time no see
[16:45:09] Falconzz: ayyyyyy
[16:45:13] Dropped "люди привет я вла" from server<STEAM_0:1:85951084>
[16:45:15] Falconzz: ye ikr
[16:45:28] [F-X] Lil' Massif: I'm glad you're back ;D
[16:45:37] Falconzz: thx
[16:45:44] [F-X] Lil' Massif: !r
[16:46:42] [F-X] Lil' Massif: !r
[16:46:52] [F-X] Lil' Massif: !r
[16:46:55] [F-X] Lil' Massif: !r
[16:46:58] [F-X] Lil' Massif: !rank
[16:47:04] Falconzz: !r
[16:47:20] [F-X] Lil' Massif: !r
[16:47:26] Falconzz: what is thbis mmmmaaaapppp
[16:47:30] [F-X] Lil' Massif: !r
[16:47:31] [F-X] Lil' Massif: lel
[16:47:36] [F-X] Lil' Massif: it's confusing
[16:47:36] Virtual: Cancer.
[16:47:42] [F-X] Lil' Massif: ( ͡o ͜ʖ ͡o)
[16:47:44] [F-X] Lil' Massif: !r
[16:47:45] [F-X] Lil' Massif: <hsv> ( ͡° ͜ʖ ͡°) </hsv>
[16:47:55] [F-X] Lil' Massif: !r
[16:48:04] [F-X] Lil' Massif: 4 is fun
[16:48:32] Server is shutting down/changing levels.



[16:48:38] New map: surf_ing
[16:49:07] Client "Falconzz" spawned in server <STEAM_0:1:148610897> (took 30 seconds).
[16:49:08] Client "Bot05" connected.
[16:49:08] Client "Bot05" spawned in server <BOT> (took 31 seconds).
[16:49:10] Client "Bot06" connected.
[16:49:10] Client "Bot06" spawned in server <BOT> (took 33 seconds).
[16:49:15] Client "[F-X] Lil' Massif" spawned in server <STEAM_0:1:74663039> (took 38 seconds).
[16:49:33] [F-X] Lil' Massif: !r
[16:49:35] Client "Virtual" spawned in server <STEAM_0:0:135051720> (took 58 seconds).
[16:49:55] [F-X] Lil' Massif: !r
[16:50:21] [F-X] Lil' Massif: !r
[16:51:14] [F-X] Lil' Massif: !r
[16:51:27] [F-X] Lil' Massif: !r
[16:51:33] [F-X] Lil' Massif: !r
[16:51:53] [F-X] Lil' Massif: !r
[16:51:59] [F-X] Lil' Massif: !r
[16:52:07] [F-X] Lil' Massif: !r
[16:52:16] [F-X] Lil' Massif: !r
[16:52:23] [F-X] Lil' Massif: !r
[16:52:26] [F-X] Lil' Massif: !unbox
[16:52:36] Virtual: !knifes
[16:52:46] Virtual: !knifes
[16:53:18] [F-X] Lil' Massif: !r
[16:53:42] [F-X] Lil' Massif: !r
[16:54:07] [F-X] Lil' Massif: !r
[16:54:14] [F-X] Lil' Massif: !r
[16:54:59] Client "[FX] Cosmic" connected.
[16:55:07] [F-X] Lil' Massif: !r
[16:55:15] [F-X] Lil' Massif: !r
[16:55:31] Client "[FX] Cosmic" spawned in server <STEAM_0:1:168631107> (took 32 seconds).
[16:55:36] [F-X] Lil' Massif: !r
[16:55:40] Client "[<<МОНОЛИТ>>] mr.DOGE" connected.
[16:55:42] [F-X] Lil' Massif: welcome back cosmic
[16:55:46] [FX] Cosmic: Thanks
[16:56:03] [F-X] Lil' Massif: !r
[16:56:20] [F-X] Lil' Massif: !r
[16:56:51] [F-X] Lil' Massif: !r
[16:56:53] Client "[<<МОНОЛИТ>>] mr.DOGE" spawned in server <STEAM_0:0:156540085> (took 73 seconds).
[16:57:02] [F-X] Lil' Massif: !r
[16:58:28] [F-X] Lil' Massif: !r
[16:58:38] Dropped "Falconzz" from server<STEAM_0:1:148610897>
[16:58:44] [F-X] Lil' Massif: !r
[16:58:57] [<<МОНОЛИТ>>] mr.DOGE: !лтшау
[16:59:01] [<<МОНОЛИТ>>] mr.DOGE: !knife
[16:59:14] [F-X] Lil' Massif: !r
[16:59:26] [F-X] Lil' Massif: !r
[16:59:31] [F-X] Lil' Massif: !r
[17:00:01] [<<МОНОЛИТ>>] mr.DOGE: !лтшау
[17:00:04] [<<МОНОЛИТ>>] mr.DOGE: !knife
[17:00:25] [F-X] Lil' Massif: !r
[17:01:13] [F-X] Lil' Massif: !r
[17:01:17] [<<МОНОЛИТ>>] mr.DOGE: !кем
[17:01:18] [F-X] Lil' Massif: !r
[17:01:30] [F-X] Lil' Massif: !r
[17:01:49] [<<МОНОЛИТ>>] mr.DOGE: !rv
[17:01:51] [F-X] Lil' Massif: !r
[17:02:12] [F-X] Lil' Massif: !r
[17:02:56] [<<МОНОЛИТ>>] mr.DOGE: !unbox
[17:04:10] [F-X] Lil' Massif: !r
[17:04:34] [F-X] Lil' Massif: !r
[17:04:52] [F-X] Lil' Massif: !r
[17:05:13] [F-X] Lil' Massif: !r
[17:05:40] [<<МОНОЛИТ>>] mr.DOGE: !steam
[17:05:41] [F-X] Lil' Massif: !r
[17:05:45] [F-X] Lil' Massif: !r
[17:05:56] [F-X] Lil' Massif: !r
[17:06:19] Client "Falconzz" connected.
[17:06:31] Client "Falconzz" spawned in server <STEAM_0:1:148610897> (took 12 seconds).
[17:06:34] (TEAM) [<<МОНОЛИТ>>] mr.DOGE: !steam
[17:06:34] [F-X] Lil' Massif: !r
[17:06:48] Falconzz: sorry about that
[17:06:55] [FX] Cosmic: np
[17:06:57] [F-X] Lil' Massif: lel, no worries
[17:07:42] [F-X] Lil' Massif: !r
[17:07:45] [F-X] Lil' Massif: !r
[17:08:00] [F-X] Lil' Massif: !r
[17:08:36] [<<МОНОЛИТ>>] mr.DOGE: !knife
[17:08:36] Dropped "Falconzz" from server<STEAM_0:1:148610897>
[17:08:47] Client "Kayvaan301003" connected.
[17:08:51] [F-X] Lil' Massif: !r
[17:08:59] [F-X] Lil' Massif: ( ͡o ͜ʖ ͡o)
[17:09:03] [FX] Cosmic: ( ͡° ͜ʖ ͡°)
[17:09:13] Virtual: !unbox
[17:09:15] [F-X] Lil' Massif: <hsv> ( ͡° ͜ʖ ͡°) </hsv>
[17:09:20] [<<МОНОЛИТ>>] mr.DOGE: !unbox
[17:09:33] Client "Xophyre" connected.
[17:09:50] [FX] Cosmic: is this true?
[17:09:52] [FX] Cosmic: [Centurion] [Sr.Mod] [F-X] Lil' Massif:  ( ͡° ͜ʖ ͡°) 
[17:10:26] [F-X] Lil' Massif: what do you mean with "true"?
[17:10:36] [FX] Cosmic: true
[17:10:39] [FX] Cosmic: [Centurion] [Sr.Mod] [F-X] Lil' Massif:  ( ͡° ͜ʖ ͡°) 
[17:10:51] [F-X] Lil' Massif: yep
[17:11:31] Client "Kayvaan301003" connected.
[17:11:38] [F-X] Lil' Massif: !r
[17:11:40] [FX] Cosmic: !r
[17:11:41] Virtual: !unbox
[17:11:57] [FX] Cosmic: kill me plz
[17:12:15] Dropped "Virtual" from server<STEAM_0:0:135051720>
[17:12:17] Client "Xophyre" spawned in server <STEAM_0:1:204640098> (took 164 seconds).
[17:12:27] Client "Kayvaan301003" spawned in server <STEAM_0:0:105794901> (took 56 seconds).
[17:13:01] [F-X] Lil' Massif: !r
[17:13:20] [<<МОНОЛИТ>>] mr.DOGE: !unbox
[17:13:42] [F-X] Lil' Massif: !r
[17:13:47] [F-X] Lil' Massif: !r
[17:13:49] Dropped "Xophyre" from server<STEAM_0:1:204640098>
[17:14:16] [FX] Cosmic: ok i didn't notice the artist if this song..
[17:14:17] Dropped "Kayvaan301003" from server<STEAM_0:0:105794901>
[17:14:22] [F-X] Lil' Massif: ( ͡o ͜ʖ ͡o)
[17:14:22] [F-X] Lil' Massif: <hsv> ( ͡° ͜ʖ ͡°) </hsv>
[17:14:24] [F-X] Lil' Massif: <hsv> ( ͡° ͜ʖ ͡°) </hsv>
[17:14:24] [F-X] Lil' Massif: <hsv> ( ͡° ͜ʖ ͡°) </hsv>
[17:14:26] [F-X] Lil' Massif: <hsv> ( ͡° ͜ʖ ͡°) </hsv>
[17:14:41] [FX] Cosmic: eksdee
[17:14:49] [F-X] Lil' Massif: .ping
[17:14:54] [FX] Cosmic: pls no copyright claim.
[17:15:08] [FX] Cosmic: !ping
[17:15:11] [FX] Cosmic: rip
[17:15:13] [FX] Cosmic: .ping
[17:15:13] [F-X] Lil' Massif: !r
[17:15:16] [FX] Cosmic: [Centurion] [Sr.Mod] [F-X] Lil' Massif:  ( ͡° ͜ʖ ͡°) 
[17:15:20] [F-X] Lil' Massif: <hsv> ( ͡° ͜ʖ ͡°) </hsv>
[17:15:23] [FX] Cosmic: [Centurion] [Sr.Mod] [F-X] Lil' Massif:  ( ͡° ͜ʖ ͡°) 
[17:15:31] [F-X] Lil' Massif: <hsv> ( ͡° ͜ʖ ͡°) </hsv>
[17:15:35] [FX] Cosmic: [Centurion] [Sr.Mod] [F-X] Lil' Massif:  ( ͡° ͜ʖ ͡°) 
[17:15:51] [F-X] Lil' Massif: cosmic, spec me I'm roleplaying as kjelles
[17:15:52] [F-X] Lil' Massif: <hsv> ( ͡° ͜ʖ ͡°) </hsv>
[17:15:55] [FX] Cosmic: [Centurion] [Sr.Mod] [F-X] Lil' Massif:  ( ͡° ͜ʖ ͡°) 
[17:16:08] [<<МОНОЛИТ>>] mr.DOGE: !unbox
[17:16:22] (TEAM) [F-X] Lil' Massif: damn, using turning binds only is hard
[17:16:40] [FX] Cosmic: rip try a controller i've tryed.
[17:17:01] [F-X] Lil' Massif: !r
[17:17:07] [F-X] Lil' Massif: !r
[17:17:16] [F-X] Lil' Massif: !r
[17:17:20] [<<МОНОЛИТ>>] mr.DOGE: !unbox
[17:17:30] [F-X] Lil' Massif: !r
[17:17:51] [F-X] Lil' Massif: !r
[17:18:04] [F-X] Lil' Massif: !r
[17:18:51] [F-X] Lil' Massif: !r
[17:18:59] [<<МОНОЛИТ>>] mr.DOGE: !unbox
[17:19:15] Server is shutting down/changing levels.



[17:19:21] New map: surf_fast
[17:19:37] Client "[FX] Cosmic" spawned in server <STEAM_0:1:168631107> (took 17 seconds).
[17:19:37] Client "Bot07" connected.
[17:19:37] Client "Bot07" spawned in server <BOT> (took 17 seconds).
[17:19:39] Client "Bot08" connected.
[17:19:39] Client "Bot08" spawned in server <BOT> (took 19 seconds).
[17:19:46] Client "[F-X] Lil' Massif" spawned in server <STEAM_0:1:74663039> (took 26 seconds).
[17:20:56] [F-X] Lil' Massif: !r
[17:21:02] [F-X] Lil' Massif: !r
[17:21:12] [F-X] Lil' Massif: !r
[17:21:23] [F-X] Lil' Massif: !r
[17:21:28] Client "[<<МОНОЛИТ>>] mr.DOGE" spawned in server <STEAM_0:0:156540085> (took 128 seconds).
[17:21:37] [F-X] Lil' Massif: !r
[17:21:55] [F-X] Lil' Massif: !r
[17:22:04] [F-X] Lil' Massif: !r
[17:22:18] [F-X] Lil' Massif: !r
[17:22:27] [F-X] Lil' Massif: !r
[17:22:38] Dropped "[F-X] Lil' Massif" from server<STEAM_0:1:74663039>
[17:22:39] Client "[F-X] Lil' Massif" connected.
[17:22:47] [<<МОНОЛИТ>>] mr.DOGE: !unbox
[17:22:53] Client "[F-X] Lil' Massif" spawned in server <STEAM_0:1:74663039> (took 14 seconds).
[17:23:37] (TEAM) [<<МОНОЛИТ>>] mr.DOGE: !unbox
[17:23:55] [F-X] Lil' Massif: !r
[17:24:01] [F-X] Lil' Massif: !r
[17:24:15] [F-X] Lil' Massif: !r
[17:24:18] [F-X] Lil' Massif: !r
[17:24:31] [F-X] Lil' Massif: !r
[17:24:32] [F-X] Lil' Massif: !r
[17:24:33] [F-X] Lil' Massif: !r
[17:24:34] [F-X] Lil' Massif: !r
[17:24:36] [F-X] Lil' Massif: !r
[17:24:52] Dropped "[F-X] Lil' Massif" from server<STEAM_0:1:74663039>
[17:24:53] Client "[F-X] Lil' Massif" connected.
[17:24:59] [<<МОНОЛИТ>>] mr.DOGE: !unbox
[17:25:07] Client "[F-X] Lil' Massif" spawned in server <STEAM_0:1:74663039> (took 14 seconds).
[17:25:27] [FX] Cosmic: crashes?
[17:25:39] [<<МОНОЛИТ>>] mr.DOGE: !unbox
[17:25:53] [F-X] Lil' Massif: nope, reconnecting because the map keeps braking
[17:25:56] [<<МОНОЛИТ>>] mr.DOGE: !unbox
[17:25:59] [FX] Cosmic: rip
[17:26:39] [FX] Cosmic: brb
[17:27:03] [F-X] Lil' Massif: gtg
[17:27:05] [F-X] Lil' Massif: dinner
[17:27:08] [F-X] Lil' Massif: Cya fam
[17:27:10] Dropped "[F-X] Lil' Massif" from server<STEAM_0:1:74663039>
[17:28:00] [<<МОНОЛИТ>>] mr.DOGE: !unbox
[17:29:10] [<<МОНОЛИТ>>] mr.DOGE: !unbox
[17:29:13] Client "s.grechishnikov" connected.
[17:29:36] [<<МОНОЛИТ>>] mr.DOGE: !unbox
[17:31:08] Client "PSSSSSSSSSSHHHHHHHHHHHHH" connected.
[17:31:14] Client "s.grechishnikov" spawned in server <STEAM_0:0:173589691> (took 121 seconds).
[17:32:07] [<<МОНОЛИТ>>] mr.DOGE: !unbox
[17:33:32] Client "PSSSSSSSSSSHHHHHHHHHHHHH" spawned in server <STEAM_0:0:75572824> (took 144 seconds).
[17:34:21] Dropped "[FX] Cosmic" from server<STEAM_0:1:168631107>
[17:35:47] Dropped "s.grechishnikov" from server<STEAM_0:0:173589691>
[17:36:35] [<<МОНОЛИТ>>] mr.DOGE: !unbox
[17:40:09] [<<МОНОЛИТ>>] mr.DOGE: !unbox
[17:40:29] Dropped "PSSSSSSSSSSHHHHHHHHHHHHH" from server<STEAM_0:0:75572824>
[17:43:19] (TEAM) [<<МОНОЛИТ>>] mr.DOGE: !unbox
[17:45:24] Client "glowdusty" connected.
[17:45:29] [<<МОНОЛИТ>>] mr.DOGE: !unbox
[17:45:56] [<<МОНОЛИТ>>] mr.DOGE: !unbox
[17:47:55] Client "glowdusty" spawned in server <STEAM_0:1:127964224> (took 151 seconds).
[17:48:35] Client "r-nijmeijer" connected.
[17:48:36] (TEAM) [<<МОНОЛИТ>>] mr.DOGE: !unbox
[17:49:06] Dropped "glowdusty" from server<STEAM_0:1:127964224>
[17:49:11] [<<МОНОЛИТ>>] mr.DOGE: !unbox
[17:49:47] [<<МОНОЛИТ>>] mr.DOGE: !unbox
[17:49:57] Client "☯Sans☯" connected.
[17:49:57] Server is shutting down/changing levels.



[17:50:04] New map: surf_mesa
[17:52:53] Client "[<<МОНОЛИТ>>] mr.DOGE" spawned in server <STEAM_0:0:156540085> (took 170 seconds).
[17:52:53] Client "Bot09" connected.
[17:52:53] Client "Bot09" spawned in server <BOT> (took 170 seconds).
[17:52:55] Client "Bot10" connected.
[17:52:55] Client "Bot10" spawned in server <BOT> (took 172 seconds).
[17:54:40] [<<МОНОЛИТ>>] mr.DOGE: !knife
[17:56:59] [<<МОНОЛИТ>>] mr.DOGE: !
[17:57:12] [<<МОНОЛИТ>>] mr.DOGE: !spawn
[17:58:14] Client "☭ SemiSun | Trading" connected.
[17:58:47] Client "☭ SemiSun | Trading" spawned in server <STEAM_0:0:200896443> (took 33 seconds).
[17:59:10] Dropped "[<<МОНОЛИТ>>] mr.DOGE" from server<STEAM_0:0:156540085>
[18:02:00] Dropped "☭ SemiSun | Trading" from server<STEAM_0:0:200896443>
[18:02:00] Dropped "Bot09" from server<BOT>
[18:02:00] Dropped "Bot10" from server<BOT>
[18:02:11] Client "__JaKe__" connected.
[18:03:49] Client "__JaKe__" spawned in server <STEAM_0:1:120852896> (took 98 seconds).
[18:03:49] Client "Bot11" connected.
[18:03:49] Client "Bot11" spawned in server <BOT> (took 826 seconds).
[18:03:51] Client "Bot12" connected.
[18:03:51] Client "Bot12" spawned in server <BOT> (took 828 seconds).
[18:10:23] (TEAM) __JaKe__: !nifes
[18:10:27] (TEAM) __JaKe__: !knifes
[18:10:36] (TEAM) __JaKe__: !knife
[18:11:05] (TEAM) __JaKe__: !unbox
[18:17:02] (TEAM) __JaKe__: !steam
[18:17:26] Client "The_Devil" connected.
[18:17:27] Client "☭ SemiSun | Trading" connected.
[18:17:54] (TEAM) __JaKe__: !knife
[18:17:57] Client "☯Sans☯" connected.
[18:17:59] Client "☭ SemiSun | Trading" spawned in server <STEAM_0:0:200896443> (took 32 seconds).
[18:18:00] (TEAM) __JaKe__: !unbox
[18:18:38] (TEAM) __JaKe__: !knife
[18:18:42] Client "The_Devil" spawned in server <STEAM_0:0:111103503> (took 76 seconds).
[18:18:50] (TEAM) __JaKe__: !knife butterfly
[18:19:58] Client "☯Sans☯" spawned in server <STEAM_0:1:81248303> (took 121 seconds).
[18:20:13] (TEAM) __JaKe__: !knifes
[18:20:41] Server is shutting down/changing levels.



[18:20:48] New map: surf_milkyway
[18:21:13] Client "☭ SemiSun | Trading" spawned in server <STEAM_0:0:200896443> (took 26 seconds).
[18:21:13] Client "Bot13" connected.
[18:21:13] Client "Bot13" spawned in server <BOT> (took 26 seconds).
[18:21:15] Client "Bot14" connected.
[18:21:15] Client "Bot14" spawned in server <BOT> (took 28 seconds).
[18:22:35] Client "The_Devil" spawned in server <STEAM_0:0:111103503> (took 108 seconds).
[18:22:58] Client "__JaKe__" spawned in server <STEAM_0:1:120852896> (took 131 seconds).
[18:25:06] ☭ SemiSun | Trading: !rtv
[18:25:14] (TEAM) __JaKe__: !unbox
[18:25:16] ☭ SemiSun | Trading: !rtv
[18:27:34] __JaKe__: were we suppose to go after 1st jump
[18:27:38] ☭ SemiSun | Trading: !rtv
[18:27:41] ☭ SemiSun | Trading: Do !rtv
[18:27:52] (TEAM) __JaKe__: !rtv
[18:28:28] Server is shutting down/changing levels.



[18:28:35] New map: surf_forbidden_ways_ksf
[18:29:02] Client "☭ SemiSun | Trading" spawned in server <STEAM_0:0:200896443> (took 28 seconds).
[18:29:02] Client "Bot15" connected.
[18:29:02] Client "Bot15" spawned in server <BOT> (took 28 seconds).
[18:29:04] Client "Bot16" connected.
[18:29:04] Client "Bot16" spawned in server <BOT> (took 30 seconds).
[18:29:09] Client "The_Devil" spawned in server <STEAM_0:0:111103503> (took 35 seconds).
[18:29:29] ☭ SemiSun | Trading: i cant mover
[18:29:30] Client "__JaKe__" spawned in server <STEAM_0:1:120852896> (took 56 seconds).
[18:29:49] ☭ SemiSun | Trading: !stuck
[18:29:52] ☭ SemiSun | Trading: !die
[18:29:52] ☭ SemiSun | Trading: !
[18:29:59] ☭ SemiSun | Trading: !commands
[18:30:20] ☭ SemiSun | Trading: !restart
[18:33:59] ☭ SemiSun | Trading: jake
[18:34:01] ☭ SemiSun | Trading: how do u get knife
[18:34:03] ☭ SemiSun | Trading: and make skins?
[18:34:04] (TEAM) __JaKe__: what
[18:34:10] (TEAM) __JaKe__: do !nife
[18:34:10] ☭ SemiSun | Trading: ur squidward
[18:34:11] ☭ SemiSun | Trading: how
[18:34:13] ☭ SemiSun | Trading: it says
[18:34:16] ☭ SemiSun | Trading: i must unbox
[18:34:26] ☭ SemiSun | Trading: !knife
[18:34:30] (TEAM) __JaKe__: did u join steam group
[18:34:37] __JaKe__: y
[18:34:39] ☭ SemiSun | Trading: no
[18:34:39] ☭ SemiSun | Trading: how?
[18:34:43] The_Devil: !knife
[18:34:44] ☭ SemiSun | Trading: !knife 1
[18:34:46] (TEAM) __JaKe__: do !steam
[18:34:50] ☭ SemiSun | Trading: !steam
[18:34:56] Client "Randy Bobandy" connected.
[18:35:05] ☭ SemiSun | Trading: and skin?
[18:35:13] (TEAM) __JaKe__: buy it 
[18:35:17] ☭ SemiSun | Trading: Money?
[18:35:23] ☭ SemiSun | Trading: !unbox
[18:35:24] Client "Randy Bobandy" spawned in server <STEAM_0:0:47092525> (took 28 seconds).
[18:35:27] The_Devil: !steam
[18:35:35] (TEAM) __JaKe__: aftear you join the group it gives you enought to get 
[18:35:56] The_Devil: !steam
[18:36:00] ☭ SemiSun | Trading: where do i buy it
[18:36:03] ☭ SemiSun | Trading: !skins
[18:36:07] ☭ SemiSun | Trading: !skin
[18:36:10] ☭ SemiSun | Trading: !buy
[18:36:14] (TEAM) __JaKe__: models
[18:36:17] ☭ SemiSun | Trading: !models
[18:36:21] ☭ SemiSun | Trading: Where
[18:36:30] __JaKe__: press f4 or cntrl f4
[18:37:34] ☭ SemiSun | Trading: how do i equip it
[18:37:46] ☭ SemiSun | Trading: .!unbox
[18:37:48] ☭ SemiSun | Trading: Thanks jake
[18:37:52] (TEAM) __JaKe__: go to inventory and equip to model
[18:37:54] ☭ SemiSun | Trading: !unbox
[18:37:59] (TEAM) __JaKe__: no problem
[18:39:03] ☭ SemiSun | Trading: .!unbox
[18:39:27] The_Devil: !unbox
[18:40:38] ☭ SemiSun | Trading: how to remove the knife
[18:40:42] Client "Kruch" connected.
[18:41:05] (TEAM) __JaKe__: just so !nives
[18:41:11] ☭ SemiSun | Trading: !knife
[18:41:15] (TEAM) __JaKe__: and try to remove
[18:41:27] ☭ SemiSun | Trading: doesnt work
[18:41:30] Client "Blaze_It_420" connected.
[18:41:33] (TEAM) __JaKe__: !thirdperson
[18:41:38] Client "Kruch" spawned in server <STEAM_0:1:56524172> (took 56 seconds).
[18:41:40] (TEAM) __JaKe__: !nives
[18:41:41] Dropped "Randy Bobandy" from server<STEAM_0:0:47092525>
[18:41:50] (TEAM) __JaKe__: idk then lol
[18:42:09] ☭ SemiSun | Trading: !knife remove
[18:42:16] ☭ SemiSun | Trading: !knife sell
[18:42:27] ☭ SemiSun | Trading: Kn
[18:42:34] ☭ SemiSun | Trading: !knife holstler
[18:42:37] ☭ SemiSun | Trading: !knife
[18:43:14] Client "Blaze_It_420" spawned in server <STEAM_0:0:156175155> (took 104 seconds).
[18:43:24] (TEAM) __JaKe__: lpl
[18:43:29] Client "Chef Keso" connected.
[18:44:18] Client "Chef Keso" spawned in server <STEAM_0:1:129317938> (took 49 seconds).
[18:45:05] Chef Keso: !style
[18:45:27] Blaze_It_420: !knife
[18:45:39] The_Devil: !skin
[18:46:44] Blaze_It_420: im leaving chef
[18:47:46] Dropped "Kruch" from server<STEAM_0:1:56524172>
[18:47:59] Dropped "Blaze_It_420" from server<STEAM_0:0:156175155>
[18:48:26] Dropped "__JaKe__" from server<STEAM_0:1:120852896>
[18:48:58] ☭ SemiSun | Trading: how to drop the knife wot
[18:49:13] ☭ SemiSun | Trading: !knife
[18:49:15] Chef Keso: .!knives
[18:49:18] Chef Keso: and holster it
[18:49:30] Dropped "Chef Keso" from server<STEAM_0:1:129317938>
[18:49:56] ☭ SemiSun | Trading: still have it
[18:54:06] ☭ SemiSun | Trading: !rtv
[18:54:17] The_Devil: ttv
[18:54:26] The_Devil: !rtv
[18:55:02] Server is shutting down/changing levels.



[18:55:09] New map: surf_simpsons_source
[18:56:24] Client "☭ SemiSun | Trading" spawned in server <STEAM_0:0:200896443> (took 77 seconds).
[18:56:24] Client "Bot17" connected.
[18:56:24] Client "Bot17" spawned in server <BOT> (took 77 seconds).
[18:56:26] Client "Bot18" connected.
[18:56:26] Client "Bot18" spawned in server <BOT> (took 79 seconds).
[18:56:43] Client "The_Devil" spawned in server <STEAM_0:0:111103503> (took 96 seconds).
[18:58:38] ☭ SemiSun | Trading: !rtv
[18:58:57] Client "Lemme Smash" connected.
[18:59:00] Client "☯Sans☯" connected.
[18:59:03] Client "Cam Allen" connected.
[19:00:13] Client "Lemme Smash" spawned in server <STEAM_0:0:96323185> (took 76 seconds).
[19:00:34] Client "Cam Allen" spawned in server <STEAM_0:0:155751832> (took 91 seconds).
[19:02:28] Dropped "☭ SemiSun | Trading" from server<STEAM_0:0:200896443>
[19:03:13] Dropped "Lemme Smash" from server<STEAM_0:0:96323185>
[19:03:22] Dropped "Cam Allen" from server<STEAM_0:0:155751832>
[19:07:00] Client "VinDrosel" connected.
[19:07:46] Client "VinDrosel" spawned in server <STEAM_0:1:31489144> (took 46 seconds).
[19:09:22] Client "Гулька" connected.
[19:14:15] Dropped "VinDrosel" from server<STEAM_0:1:31489144>
[19:17:05] Dropped "The_Devil" from server<STEAM_0:0:111103503>
[19:17:05] Dropped "Bot17" from server<BOT>
[19:17:05] Dropped "Bot18" from server<BOT>
[19:25:45] Server is shutting down/changing levels.



[19:25:52] New map: surf_classics
[19:28:11] Client "trevorsammon412" connected.
[19:29:41] Client "traj [bend]" connected.
[19:30:06] Client "жгутик" connected.
[19:30:40] Client "trevorsammon412" spawned in server <STEAM_0:1:159603261> (took 149 seconds).
[19:30:40] Client "Bot19" connected.
[19:30:40] Client "Bot19" spawned in server <BOT> (took 289 seconds).
[19:30:42] Client "Bot20" connected.
[19:30:42] Client "Bot20" spawned in server <BOT> (took 291 seconds).
[19:31:12] Client "traj [bend]" spawned in server <STEAM_0:1:92213643> (took 91 seconds).
[19:31:47] traj [bend]: ( ͡° ͜ʖ ͡°)
[19:33:20] Dropped "traj [bend]" from server<STEAM_0:1:92213643>
[19:36:06] Client "☯Sans☯" connected.
[19:36:13] Client "жгутик" spawned in server <STEAM_0:1:169607975> (took 367 seconds).
[19:38:03] Client "☯Sans☯" spawned in server <STEAM_0:1:81248303> (took 117 seconds).
[19:42:43] trevorsammon412: !unbox
[19:45:16] Dropped "☯Sans☯" from server<STEAM_0:1:81248303>
[19:45:38] Client "TheBlueDragon155" connected.
[19:45:39] Client "Chef Keso" connected.
[19:46:26] Client "Chef Keso" spawned in server <STEAM_0:1:129317938> (took 47 seconds).
[19:48:43] Client "TheBlueDragon155" spawned in server <STEAM_0:1:189930435> (took 185 seconds).
[19:49:17] trevorsammon412: !unbox
[19:49:41] (TEAM) TheBlueDragon155: !help
[19:49:51] жгутик: !tutorial
[19:54:54] trevorsammon412: !unbox
[19:55:14] trevorsammon412: !unbox
[19:56:08] (TEAM) TheBlueDragon155: !unbox
[19:56:28] Dropped "Chef Keso" from server<STEAM_0:1:129317938>
[19:56:28] Server is shutting down/changing levels.



[19:56:35] New map: surf_lux
[19:56:51] Client "TheBlueDragon155" connected.
[19:57:22] Client "trevorsammon412" spawned in server <STEAM_0:1:159603261> (took 48 seconds).
[19:57:22] Client "Bot21" connected.
[19:57:22] Client "Bot21" spawned in server <BOT> (took 48 seconds).
[19:57:24] Client "Bot22" connected.
[19:57:24] Client "Bot22" spawned in server <BOT> (took 50 seconds).
[19:58:01] trevorsammon412: !unbox
[19:59:28] Client "жгутик" spawned in server <STEAM_0:1:169607975> (took 174 seconds).
[20:00:28] trevorsammon412: !points
[20:04:45] Client "THE king of SNIPER" connected.
[20:07:01] Client "THE king of SNIPER" spawned in server <STEAM_0:1:112066995> (took 136 seconds).
[20:07:29] THE king of SNIPER: !knife
[20:08:29] THE king of SNIPER: !lg
[20:08:50] THE king of SNIPER: !rtv
[20:09:58] THE king of SNIPER: pls !rtv
[20:10:19] Client "TheGaminGod✌" connected.
[20:10:26] Dropped "THE king of SNIPER" from server<STEAM_0:1:112066995>
[20:11:05] Dropped "жгутик" from server<STEAM_0:1:169607975>
[20:11:35] Dropped "trevorsammon412" from server<STEAM_0:1:159603261>
[20:12:16] Client "TheGaminGod✌" spawned in server <STEAM_0:0:139352216> (took 117 seconds).
[20:15:09] TheGaminGod✌: !rtv
[20:15:44] Client "trevorsammon412" connected.
[20:15:45] Server is shutting down/changing levels.



[20:15:52] New map: surf_mesa_mine
[20:16:24] Client "TheGaminGod✌" spawned in server <STEAM_0:0:139352216> (took 34 seconds).
[20:16:24] Client "Bot23" connected.
[20:16:24] Client "Bot23" spawned in server <BOT> (took 34 seconds).
[20:16:26] Client "Bot24" connected.
[20:16:26] Client "Bot24" spawned in server <BOT> (took 36 seconds).
[20:16:39] Client "traj [bend]" connected.
[20:18:15] Client "traj [bend]" spawned in server <STEAM_0:1:92213643> (took 96 seconds).
[20:18:22] Client "trevorsammon412" spawned in server <STEAM_0:1:159603261> (took 152 seconds).
[20:19:06] TheGaminGod✌: !r
[20:19:34] TheGaminGod✌: !rtv
[20:19:44] traj [bend]: sᴉdǝq
[20:20:34] TheGaminGod✌: !r
[20:22:45] traj [bend]: !r
[20:22:51] TheGaminGod✌: !r
[20:23:07] TheGaminGod✌: !r
[20:23:26] traj [bend]: !rtv
[20:23:32] traj [bend]: ( ͡ᵔ ͜ʖ ͡ᵔ )
[20:23:34] traj [bend]: !menu
[20:23:52] traj [bend]: !r
[20:24:32] TheGaminGod✌: !r
[20:24:40] TheGaminGod✌: !unbo
[20:24:42] TheGaminGod✌: !unbox
[20:25:18] TheGaminGod✌: !unbox
[20:25:41] TheGaminGod✌: !unbox
[20:25:45] traj [bend]: rtv pl0x
[20:26:01] TheGaminGod✌: !unbox
[20:26:33] TheGaminGod✌: !unbox
[20:26:36] traj [bend]: sᴉdǝq
[20:27:15] traj [bend]: my memes r good meme
[20:27:19] Dropped "traj [bend]" from server<STEAM_0:1:92213643>
[20:32:28] TheGaminGod✌: !unbox
[20:32:34] (TEAM) trevorsammon412: !unbox
[20:35:13] trevorsammon412: unbox
[20:35:18] trevorsammon412: !unbox
[20:35:19] TheGaminGod✌:  !unbox
[20:35:38] TheGaminGod✌: !rtv
[20:36:05] Dropped "TheGaminGod✌" from server<STEAM_0:0:139352216>
[20:38:57] trevorsammon412: how to see how many points you have
[20:40:13] Client "☯Sans☯" connected.
[20:41:12] Client "☯Sans☯" spawned in server <STEAM_0:1:81248303> (took 59 seconds).
[20:42:41] Client "Pendlar" connected.
[20:43:48] ☯Sans☯: !thirdperson
[20:43:55] ☯Sans☯: !thirdperson
[20:44:03] ☯Sans☯: k
[20:44:49] Client "Pendlar" spawned in server <STEAM_0:1:92836313> (took 128 seconds).
[20:45:32] Client "skinhub.com |CSGO500" connected.
[20:45:56] Pendlar: !music
[20:46:28] Server is shutting down/changing levels.



[20:46:35] New map: surf_ace
[20:47:01] Client "Pendlar" spawned in server <STEAM_0:1:92836313> (took 28 seconds).
[20:47:01] Client "Bot25" connected.
[20:47:01] Client "Bot25" spawned in server <BOT> (took 28 seconds).
[20:47:03] Client "Bot26" connected.
[20:47:03] Client "Bot26" spawned in server <BOT> (took 30 seconds).
[20:47:11] Client "☯Sans☯" spawned in server <STEAM_0:1:81248303> (took 38 seconds).
[20:47:23] Client "trevorsammon412" spawned in server <STEAM_0:1:159603261> (took 50 seconds).
[20:47:39] Client "skinhub.com |CSGO500" spawned in server <STEAM_0:1:56691445> (took 66 seconds).
[20:47:55] ☯Sans☯: !r
[20:48:08] skinhub.com |CSGO500: !jm
[20:50:10] Pendlar: !steam
[20:51:48] Dropped "Pendlar" from server<STEAM_0:1:92836313>
[20:51:56] Dropped "skinhub.com |CSGO500" from server<STEAM_0:1:56691445>
[20:53:12] trevorsammon412: !unbox
[20:56:19] Dropped "☯Sans☯" from server<STEAM_0:1:81248303>
[21:00:06] Client "L3onardo" connected.
[21:01:11] Client "L3onardo" spawned in server <STEAM_0:0:188459918> (took 65 seconds).
[21:01:18] trevorsammon412: !unbox
[21:01:35] Dropped "trevorsammon412" from server<STEAM_0:1:159603261>
[21:01:42] Client "trevorsammon412" connected.
[21:02:13] Client "trevorsammon412" spawned in server <STEAM_0:1:159603261> (took 31 seconds).
[21:02:43] trevorsammon412: !unbox
[21:04:23] trevorsammon412: !knifes
[21:04:32] trevorsammon412: !knifes
[21:05:09] Client "nie wiem" connected.
[21:06:01] Client "nie wiem" spawned in server <STEAM_0:1:113255196> (took 52 seconds).
[21:06:20] Dropped "L3onardo" from server<STEAM_0:0:188459918>
[21:10:11] Dropped "nie wiem" from server<STEAM_0:1:113255196>
[21:10:51] trevorsammon412: !restart
[21:11:13] trevorsammon412: !restart
[21:11:29] trevorsammon412: !restart
[21:11:36] trevorsammon412: !restart
[21:11:51] trevorsammon412: !restart
[21:12:11] trevorsammon412: !restart
[21:12:28] trevorsammon412: !restart
[21:15:05] trevorsammon412: !change map
[21:17:11] Server is shutting down/changing levels.



[21:17:17] New map: surf_milkyway
[21:18:50] Client "trevorsammon412" spawned in server <STEAM_0:1:159603261> (took 94 seconds).
[21:18:50] Client "Bot27" connected.
[21:18:50] Client "Bot27" spawned in server <BOT> (took 94 seconds).
[21:18:52] Client "Bot28" connected.
[21:18:52] Client "Bot28" spawned in server <BOT> (took 96 seconds).
[21:30:01] trevorsammon412: !knoves
[21:31:20] trevorsammon412: !change maps
[21:37:20] trevorsammon412: i get so close how to do this
[21:38:52] Client "UralEkstaasi" connected.
[21:40:07] trevorsammon412: !CHANGEmap
[21:40:16] Client "UralEkstaasi" spawned in server <STEAM_0:1:33965828> (took 84 seconds).
[21:41:03] trevorsammon412: how to do this
[21:41:46] Dropped "UralEkstaasi" from server<STEAM_0:1:33965828>
[21:42:14] Dropped "trevorsammon412" from server<STEAM_0:1:159603261>
[21:42:14] Dropped "Bot27" from server<BOT>
[21:42:14] Dropped "Bot28" from server<BOT>
[21:43:48] Client "☯Sans☯" connected.
[21:45:33] Client "☯Sans☯" spawned in server <STEAM_0:1:81248303> (took 105 seconds).
[21:45:33] Client "Bot29" connected.
[21:45:33] Client "Bot29" spawned in server <BOT> (took 1697 seconds).
[21:45:35] Client "Bot30" connected.
[21:45:35] Client "Bot30" spawned in server <BOT> (took 1699 seconds).
[21:47:54] Server is shutting down/changing levels.



[21:48:01] New map: surf_beginner
[21:48:30] Client "☯Sans☯" spawned in server <STEAM_0:1:81248303> (took 31 seconds).
[21:48:30] Client "Bot31" connected.
[21:48:30] Client "Bot31" spawned in server <BOT> (took 31 seconds).
[21:48:32] Client "Bot32" connected.
[21:48:32] Client "Bot32" spawned in server <BOT> (took 33 seconds).
[21:50:48] ☯Sans☯: !r
[21:52:37] ☯Sans☯: !r
[21:52:58] ☯Sans☯: !r
[21:55:14] ☯Sans☯: !r
[21:56:56] ☯Sans☯: !r
[21:59:19] ☯Sans☯: !r
[22:02:29] ☯Sans☯: !r
[22:02:52] ☯Sans☯: !r
[22:03:13] Client "SapoTheGreat" connected.
[22:03:18] ☯Sans☯: !r
[22:04:13] Client "SapoTheGreat" spawned in server <STEAM_0:0:103783381> (took 60 seconds).
[22:04:24] ☯Sans☯: !r
[22:05:13] ☯Sans☯: !r
[22:06:17] ☯Sans☯: !r
[22:06:31] ☯Sans☯: !r
[22:07:16] ☯Sans☯: !r
[22:07:31] ☯Sans☯: !r
[22:08:31] ☯Sans☯: !r
[22:09:21] Dropped "SapoTheGreat" from server<STEAM_0:0:103783381>
[22:12:18] ☯Sans☯: !rtv
[22:12:54] Server is shutting down/changing levels.



[22:13:01] New map: surf_utopia_njv
[22:13:32] Client "☯Sans☯" spawned in server <STEAM_0:1:81248303> (took 32 seconds).
[22:13:32] Client "Bot33" connected.
[22:13:32] Client "Bot33" spawned in server <BOT> (took 32 seconds).
[22:13:34] Client "Bot34" connected.
[22:13:34] Client "Bot34" spawned in server <BOT> (took 34 seconds).
[22:15:50] Client "Nicken Chugget" connected.
[22:16:03] Client "Potathoe" connected.
[22:16:21] Client "Nicken Chugget" spawned in server <STEAM_0:1:64504832> (took 31 seconds).
[22:16:59] Client "Archipegasus" connected.
[22:17:12] Client "Potathoe" spawned in server <STEAM_0:0:182081256> (took 69 seconds).
[22:17:14] Dropped "☯Sans☯" from server<STEAM_0:1:81248303>
[22:18:04] Client "Archipegasus" spawned in server <STEAM_0:0:78636832> (took 65 seconds).
[22:18:08] Potathoe: !shop
[22:18:37] Potathoe: !shop
[22:21:10] Nicken Chugget: !tutorial
[22:28:47] Potathoe: !r
[22:29:22] Client "D4RKN8" connected.
[22:29:38] Client "OlDeck" connected.
[22:30:02] Client "OlDeck" spawned in server <STEAM_0:0:34728749> (took 24 seconds).
[22:30:22] Client "D4RKN8" spawned in server <STEAM_0:0:54185529> (took 60 seconds).
[22:31:42] Client "RealxLegend" connected.
[22:34:21] Client "RealxLegend" spawned in server <STEAM_0:1:92336888> (took 159 seconds).
[22:36:18] Dropped "OlDeck" from server<STEAM_0:0:34728749>
[22:37:10] Client "Dale Thomas [SLG:T]" connected.
[22:38:20] Nicken Chugget: !unbox
[22:38:30] Nicken Chugget: !shop
[22:38:38] Nicken Chugget: !unbox
[22:39:24] Dropped "RealxLegend" from server<STEAM_0:1:92336888>
[22:39:34] Client "Soulsteve" connected.
[22:40:39] Nicken Chugget: !shop
[22:40:44] Nicken Chugget: !unbox
[22:41:03] Dropped "D4RKN8" from server<STEAM_0:0:54185529>
[22:41:11] Potathoe: !unbox
[22:41:22] (TEAM) Archipegasus: !unbox
[22:43:03] Nicken Chugget: !shop
[22:43:21] Nicken Chugget: !shop
[22:43:29] Archipegasus: !shop
[22:43:37] Server is shutting down/changing levels.



[22:43:44] New map: surf_aether
[22:44:01] Client "Nicken Chugget" spawned in server <STEAM_0:1:64504832> (took 18 seconds).
[22:44:01] Client "Bot35" connected.
[22:44:01] Client "Bot35" spawned in server <BOT> (took 18 seconds).
[22:44:03] Client "Bot36" connected.
[22:44:03] Client "Bot36" spawned in server <BOT> (took 20 seconds).
[22:44:18] Client "Archipegasus" spawned in server <STEAM_0:0:78636832> (took 35 seconds).
[22:44:21] Nicken Chugget: !
[22:44:32] (TEAM) Archipegasus: !shop
[22:44:41] Client "Potathoe" spawned in server <STEAM_0:0:182081256> (took 58 seconds).
[22:45:16] Nicken Chugget: !unbox
[22:47:50] Nicken Chugget: !shop
[22:49:11] Nicken Chugget: !rtv
[22:49:16] Nicken Chugget: !!rtv
[22:49:18] Archipegasus: rtv
[22:49:23] (TEAM) Archipegasus: !rtv
[22:50:00] Server is shutting down/changing levels.



[22:50:07] New map: surf_airflow
[22:50:23] Client "Nicken Chugget" spawned in server <STEAM_0:1:64504832> (took 18 seconds).
[22:50:23] Client "Bot37" connected.
[22:50:23] Client "Bot37" spawned in server <BOT> (took 18 seconds).
[22:50:25] Client "Bot38" connected.
[22:50:25] Client "Bot38" spawned in server <BOT> (took 20 seconds).
[22:50:34] Client "Archipegasus" spawned in server <STEAM_0:0:78636832> (took 29 seconds).
[22:51:03] Client "Potathoe" spawned in server <STEAM_0:0:182081256> (took 58 seconds).
[22:51:38] Nicken Chugget: !unbox
[22:51:48] (TEAM) Archipegasus: !rtv
[22:52:59] Nicken Chugget: !rtv
[22:53:00] (TEAM) Archipegasus: skip
[22:53:05] (TEAM) Archipegasus: !skip
[22:53:12] Archipegasus: yes it is
[22:54:28] Nicken Chugget: !rtv
[22:54:31] Nicken Chugget: !rtv
[22:54:37] Nicken Chugget: !rtv
[22:56:42] Client "EeveeGamer1" connected.
[22:57:25] Nicken Chugget: !rtv
[22:57:29] Potathoe: !rtc
[22:57:43] Potathoe: !rtv
[22:58:01] Client "EeveeGamer1" spawned in server <STEAM_0:0:194728083> (took 79 seconds).
[22:58:19] Server is shutting down/changing levels.



[22:58:26] New map: surf_funhouse_v1
[22:58:38] Client "Archipegasus" spawned in server <STEAM_0:0:78636832> (took 13 seconds).
[22:58:38] Client "Bot39" connected.
[22:58:38] Client "Bot39" spawned in server <BOT> (took 13 seconds).
[22:58:40] Client "Bot40" connected.
[22:58:40] Client "Bot40" spawned in server <BOT> (took 15 seconds).
[22:58:42] Client "Nicken Chugget" spawned in server <STEAM_0:1:64504832> (took 17 seconds).
[22:59:00] Client "Potathoe" spawned in server <STEAM_0:0:182081256> (took 35 seconds).
[22:59:47] Potathoe: !r
[22:59:59] Potathoe: !r
[23:00:04] Client "EeveeGamer1" spawned in server <STEAM_0:0:194728083> (took 99 seconds).
[23:01:12] Nicken Chugget: !rtv
[23:01:50] Dropped "EeveeGamer1" from server<STEAM_0:0:194728083>
[23:02:17] Nicken Chugget: !rtv
[23:02:28] Nicken Chugget: !rtv
[23:02:40] Nicken Chugget: !rtv
[23:03:38] Nicken Chugget: !rtv
[23:03:46] Potathoe: !rtv
[23:03:50] (TEAM) Archipegasus: !rtv
[23:04:23] Server is shutting down/changing levels.



[23:04:29] New map: surf_lux
[23:04:44] Client "Nicken Chugget" spawned in server <STEAM_0:1:64504832> (took 16 seconds).
[23:04:44] Client "Bot41" connected.
[23:04:44] Client "Bot41" spawned in server <BOT> (took 16 seconds).
[23:04:46] Client "Bot42" connected.
[23:04:46] Client "Bot42" spawned in server <BOT> (took 18 seconds).
[23:04:57] Client "Archipegasus" spawned in server <STEAM_0:0:78636832> (took 29 seconds).
[23:05:04] Client "Potathoe" spawned in server <STEAM_0:0:182081256> (took 36 seconds).
[23:10:07] Client "Turtle" connected.
[23:10:42] Client "D4RKN8" connected.
[23:11:15] Client "D4RKN8" spawned in server <STEAM_0:0:54185529> (took 33 seconds).
[23:11:28] Client "Turtle" spawned in server <STEAM_0:0:85662105> (took 81 seconds).
[23:12:28] Client "Ido ⚡" connected.
[23:13:01] Client "Ido ⚡" connected.
[23:14:18] Potathoe: !shop
[23:14:47] Client "Ido ⚡" spawned in server <STEAM_0:1:90133349> (took 106 seconds).
[23:16:15] Dropped "D4RKN8" from server<STEAM_0:0:54185529>
[23:16:21] Potathoe: !shop
[23:17:20] Potathoe: !shop
[23:17:36] Potathoe: !shop
[23:19:23] Potathoe: !unbox
[23:20:33] (TEAM) Archipegasus: !shop
[23:20:36] Client "Jin Hyun" connected.
[23:20:40] Potathoe: !shop
[23:21:01] Client "Jin Hyun" spawned in server <STEAM_0:1:90897916> (took 25 seconds).
[23:21:12] Dropped "Turtle" from server<STEAM_0:0:85662105>
[23:21:15] Dropped "Ido ⚡" from server<STEAM_0:1:90133349>
[23:22:20] Potathoe: !shop
[23:22:21] Nicken Chugget: !shop
[23:23:26] Potathoe: !rtv
[23:25:08] Potathoe: !shop
[23:27:42] Dropped "Nicken Chugget" from server<STEAM_0:1:64504832>
[23:28:09] Potathoe: !tutorial
[23:28:33] Dropped "Potathoe" from server<STEAM_0:0:182081256>
[23:29:10] Dropped "Archipegasus" from server<STEAM_0:0:78636832>
[23:33:53] Dropped "Jin Hyun" from server<STEAM_0:1:90897916>
[23:33:53] Dropped "Bot41" from server<BOT>
[23:33:53] Dropped "Bot42" from server<BOT>
[23:35:05] Server is shutting down/changing levels.



[23:35:13] New map: surf_classics2
<Logging continued in "data/ulx_logs/06-21-17.txt">
