<Logging continued from "data/ulx_logs/07-05-17.txt">
[00:24:51] Server is shutting down/changing levels.



[00:25:00] New map: surf_happyhands
[00:55:35] Server is shutting down/changing levels.



[00:55:42] New map: surf_funhouse_v1
[01:26:18] Server is shutting down/changing levels.



[01:26:24] New map: surf_beginner_hell
[01:57:00] Server is shutting down/changing levels.



[01:57:07] New map: surf_lighthouse
[02:27:42] Server is shutting down/changing levels.



[02:27:49] New map: surf_island
[02:58:25] Server is shutting down/changing levels.



[02:58:32] New map: surf_prelude_ksf
[03:29:07] Server is shutting down/changing levels.



[03:29:14] New map: surf_graphia
[03:59:50] Server is shutting down/changing levels.



[03:59:56] New map: surf_advanced
[04:30:32] Server is shutting down/changing levels.



[04:30:39] New map: surf_sundown_njv
[05:01:14] Server is shutting down/changing levels.



[05:01:21] New map: surf_airflow
[05:31:57] Server is shutting down/changing levels.



[05:32:04] New map: surf_milkyway
[06:02:39] Server is shutting down/changing levels.



[06:02:46] New map: surf_inspire
[06:33:21] Server is shutting down/changing levels.



[06:33:28] New map: surf_placid
[07:04:04] Server is shutting down/changing levels.



[07:04:11] New map: surf_lux
[07:29:29] Client "Trasck" connected.
[07:30:03] Client "elitegamer092" connected.
[07:30:59] Client "Trasck" spawned in server <STEAM_0:1:213029574> (took 90 seconds).
[07:30:59] Client "Bot73" connected.
[07:30:59] Client "Bot73" spawned in server <BOT> (took 1610 seconds).
[07:31:01] Client "Bot74" connected.
[07:31:01] Client "Bot74" spawned in server <BOT> (took 1612 seconds).
[07:34:46] Server is shutting down/changing levels.



[07:34:53] New map: surf_rookie
[07:35:21] Client "Trasck" spawned in server <STEAM_0:1:213029574> (took 29 seconds).
[07:35:21] Client "Bot75" connected.
[07:35:21] Client "Bot75" spawned in server <BOT> (took 29 seconds).
[07:35:23] Client "Bot76" connected.
[07:35:23] Client "Bot76" spawned in server <BOT> (took 31 seconds).
[07:39:11] Trasck: !trd
[07:39:15] Trasck: !trd
[07:39:21] Trasck: !tdr
[07:39:26] Trasck: !rtd
[07:39:37] Client "[WOS] NeeDzPr3dAtOr" connected.
[07:40:31] Trasck: !menu
[07:41:21] Dropped "Trasck" from server<STEAM_0:1:213029574>
[07:41:43] Dropped "Bot75" from server<BOT>
[07:41:43] Dropped "Bot76" from server<BOT>
[08:05:30] Server is shutting down/changing levels.



[08:05:37] New map: surf_sundown_njv
[08:11:12] Client "Trasck" connected.
[08:12:42] Client "Trasck" spawned in server <STEAM_0:1:213029574> (took 90 seconds).
[08:12:42] Client "Bot77" connected.
[08:12:42] Client "Bot77" spawned in server <BOT> (took 427 seconds).
[08:12:44] Client "Bot78" connected.
[08:12:44] Client "Bot78" spawned in server <BOT> (took 429 seconds).
[08:15:11] Client "[WOS] NeeDzPr3dAtOr" connected.
[08:17:09] Client "[WOS] NeeDzPr3dAtOr" spawned in server <STEAM_0:1:168081137> (took 118 seconds).
[08:17:57] Client "elitegamer092" connected.
[08:19:04] [WOS] NeeDzPr3dAtOr: Svp enleve la music
[08:19:14] [WOS] NeeDzPr3dAtOr: Ou baisse le son svp
[08:20:51] Client "Nope.avi (YOLO)" connected.
[08:20:56] Client "Nope.avi (YOLO)" connected.
[08:21:45] Dropped "[WOS] NeeDzPr3dAtOr" from server<STEAM_0:1:168081137>
[08:27:10] Client "Raphaël Grialy ツ" connected.
[08:27:43] Dropped "Trasck" from server<STEAM_0:1:213029574>
[08:28:08] Client "Raphaël Grialy ツ" spawned in server <STEAM_0:0:86146295> (took 58 seconds).
[08:28:34] Client "Papi Harpy" connected.
[08:29:09] Dropped "Raphaël Grialy ツ" from server<STEAM_0:0:86146295>
[08:30:14] Client "Papi Harpy" spawned in server <STEAM_0:1:175159556> (took 100 seconds).
[08:32:01] Papi Harpy: !r
[08:36:13] Server is shutting down/changing levels.



[08:36:19] New map: surf_funhouse_v1
[08:36:49] Client "Papi Harpy" spawned in server <STEAM_0:1:175159556> (took 31 seconds).
[08:36:49] Client "Bot79" connected.
[08:36:49] Client "Bot79" spawned in server <BOT> (took 31 seconds).
[08:36:51] Client "Bot80" connected.
[08:36:51] Client "Bot80" spawned in server <BOT> (took 33 seconds).
[08:37:55] Papi Harpy: !r
[08:38:46] Papi Harpy: !r
[08:39:33] Papi Harpy: !r
[08:40:00] Papi Harpy: !r
[08:40:29] Papi Harpy: !knife
[08:40:40] Papi Harpy: !r
[08:41:36] Papi Harpy: !r
[08:42:25] Papi Harpy: !rtv
[08:42:38] Papi Harpy: !r
[08:43:01] Server is shutting down/changing levels.



[08:43:08] New map: surf_airflow
[08:43:45] Client "Papi Harpy" spawned in server <STEAM_0:1:175159556> (took 39 seconds).
[08:43:45] Client "Bot81" connected.
[08:43:45] Client "Bot81" spawned in server <BOT> (took 39 seconds).
[08:43:47] Client "Bot82" connected.
[08:43:47] Client "Bot82" spawned in server <BOT> (took 41 seconds).
[08:51:35] Papi Harpy: !r
[08:54:27] Papi Harpy: !r
[08:54:37] Papi Harpy: !r
[08:56:42] Dropped "Papi Harpy" from server<STEAM_0:1:175159556>
[08:56:42] Dropped "Bot81" from server<BOT>
[08:56:42] Dropped "Bot82" from server<BOT>
[09:07:00] Client "SuRr34L^" connected.
[09:07:28] Client "SuRr34L^" spawned in server <STEAM_0:1:88630621> (took 28 seconds).
[09:07:28] Client "Bot83" connected.
[09:07:28] Client "Bot83" spawned in server <BOT> (took 1462 seconds).
[09:07:30] Client "Bot84" connected.
[09:07:30] Client "Bot84" spawned in server <BOT> (took 1464 seconds).
[09:08:34] Client "AlexEd" connected.
[09:09:33] SuRr34L^: !rtv
[09:10:09] Server is shutting down/changing levels.



[09:10:17] New map: surf_kitsune
[09:10:31] Client "SuRr34L^" spawned in server <STEAM_0:1:88630621> (took 16 seconds).
[09:10:31] Client "Bot85" connected.
[09:10:31] Client "Bot85" spawned in server <BOT> (took 16 seconds).
[09:10:33] Client "Bot86" connected.
[09:10:33] Client "Bot86" spawned in server <BOT> (took 18 seconds).
[09:12:28] Client "AlexEd" spawned in server <STEAM_0:1:147592216> (took 133 seconds).
[09:13:19] Client "Mr.President" connected.
[09:13:45] SuRr34L^: !help
[09:15:06] Client "Mr.President" connected.
[09:17:44] (TEAM) SuRr34L^: !RS
[09:17:47] SuRr34L^: !r
[09:20:17] Dropped "AlexEd" from server<STEAM_0:1:147592216>
[09:20:31] SuRr34L^: !R
[09:20:41] SuRr34L^: !R
[09:21:23] SuRr34L^: !r
[09:22:10] SuRr34L^: !r'
[09:22:12] SuRr34L^: !r
[09:24:07] SuRr34L^: !r
[09:24:22] SuRr34L^: !r
[09:25:24] SuRr34L^: !r
[09:26:28] SuRr34L^: !r
[09:26:41] SuRr34L^: !r
[09:27:09] Client "Barylekk CSGO-SKINS.COM" connected.
[09:28:03] SuRr34L^: !r
[09:28:26] SuRr34L^: !r
[09:29:32] Dropped "SuRr34L^" from server<STEAM_0:1:88630621>
[09:29:32] Dropped "Bot85" from server<BOT>
[09:29:32] Dropped "Bot86" from server<BOT>
[09:33:14] Client "AlexEd" connected.
[09:34:53] Client "AlexEd" spawned in server <STEAM_0:1:147592216> (took 99 seconds).
[09:34:53] Client "Bot87" connected.
[09:34:53] Client "Bot87" spawned in server <BOT> (took 1478 seconds).
[09:34:55] Client "Bot88" connected.
[09:34:55] Client "Bot88" spawned in server <BOT> (took 1480 seconds).
[09:40:17] Dropped "AlexEd" from server<STEAM_0:1:147592216>
[09:40:17] Dropped "Bot87" from server<BOT>
[09:40:17] Dropped "Bot88" from server<BOT>
[09:40:53] Server is shutting down/changing levels.



[09:41:00] New map: surf_ing
[09:47:40] Client "AlexEd" connected.
[09:49:42] Client "AlexEd" spawned in server <STEAM_0:1:147592216> (took 122 seconds).
[09:49:42] Client "Bot89" connected.
[09:49:42] Client "Bot89" spawned in server <BOT> (took 523 seconds).
[09:49:44] Client "Bot90" connected.
[09:49:44] Client "Bot90" spawned in server <BOT> (took 525 seconds).
[09:54:35] Dropped "AlexEd" from server<STEAM_0:1:147592216>
[09:54:35] Dropped "Bot89" from server<BOT>
[09:54:35] Dropped "Bot90" from server<BOT>
[09:57:12] Client "JorGamer444" connected.
[09:58:13] Client "[MrUA]S.T.A.L.K.E.R" connected.
[09:58:23] Client "JorGamer444" spawned in server <STEAM_0:1:125673814> (took 71 seconds).
[09:58:23] Client "Bot91" connected.
[09:58:23] Client "Bot91" spawned in server <BOT> (took 1044 seconds).
[09:58:25] Client "Bot92" connected.
[09:58:25] Client "Bot92" spawned in server <BOT> (took 1046 seconds).
[10:00:00] Dropped "JorGamer444" from server<STEAM_0:1:125673814>
[10:00:00] Dropped "Bot91" from server<BOT>
[10:00:00] Dropped "Bot92" from server<BOT>
[10:11:36] Server is shutting down/changing levels.



[10:11:43] New map: surf_lt_omnific_fix
[10:21:31] Client "Trasck" connected.
[10:21:39] Client "elitegamer092" connected.
[10:30:26] Client "AlexEd" connected.
[10:31:43] Client "TheGamingType✌" connected.
[10:33:22] Client "AlexEd" spawned in server <STEAM_0:1:147592216> (took 176 seconds).
[10:33:22] Client "Bot93" connected.
[10:33:22] Client "Bot93" spawned in server <BOT> (took 1300 seconds).
[10:33:24] Client "Bot94" connected.
[10:33:24] Client "Bot94" spawned in server <BOT> (took 1302 seconds).
[10:34:14] Client "neiny-iwnl-" connected.
[10:36:07] Client "neiny-iwnl-" spawned in server <STEAM_0:0:58347127> (took 113 seconds).
[10:40:27] Dropped "AlexEd" from server<STEAM_0:1:147592216>
[10:42:03] neiny-iwnl-: /restart
[10:42:19] Server is shutting down/changing levels.



[10:42:27] New map: surf_classics
[10:51:42] Client "[FX]AlexCorruptor" connected.
[10:52:45] Client "[FX]AlexCorruptor" spawned in server <STEAM_0:0:77731187> (took 63 seconds).
[10:52:45] Client "Bot95" connected.
[10:52:45] Client "Bot95" spawned in server <BOT> (took 620 seconds).
[10:52:47] Client "Bot96" connected.
[10:52:47] Client "Bot96" spawned in server <BOT> (took 622 seconds).
[10:53:59] [FX]AlexCorruptor: !r
[10:54:03] Dropped "[FX]AlexCorruptor" from server<STEAM_0:0:77731187>
[10:54:03] Dropped "Bot95" from server<BOT>
[10:54:03] Dropped "Bot96" from server<BOT>
[10:54:42] Client "[FX]AlexCorruptor" connected.
[10:54:51] Client "[FX]AlexCorruptor" spawned in server <STEAM_0:0:77731187> (took 9 seconds).
[10:54:51] Client "Bot97" connected.
[10:54:51] Client "Bot97" spawned in server <BOT> (took 746 seconds).
[10:54:53] Client "Bot98" connected.
[10:54:53] Client "Bot98" spawned in server <BOT> (took 748 seconds).
[10:55:55] Client "OlDeck" connected.
[10:56:16] [FX]AlexCorruptor: !r
[10:56:25] Client "OlDeck" spawned in server <STEAM_0:0:34728749> (took 30 seconds).
[11:03:53] Dropped "OlDeck" from server<STEAM_0:0:34728749>
[11:07:04] Dropped "[FX]AlexCorruptor" from server<STEAM_0:0:77731187>
[11:07:04] Dropped "Bot97" from server<BOT>
[11:07:04] Dropped "Bot98" from server<BOT>
[11:13:03] Server is shutting down/changing levels.



[11:13:10] New map: surf_advanced
[11:31:52] Client "Şugu  Băț" connected.
[11:43:45] Server is shutting down/changing levels.



[11:43:52] New map: surf_sundown_njv
[11:46:56] Client "Xulu" connected.
[11:48:01] Client "Xulu" spawned in server <STEAM_0:0:46857044> (took 65 seconds).
[11:48:01] Client "Bot99" connected.
[11:48:01] Client "Bot99" spawned in server <BOT> (took 250 seconds).
[11:48:03] Client "Bot100" connected.
[11:48:03] Client "Bot100" spawned in server <BOT> (took 252 seconds).
[11:48:30] Xulu: !r
[11:49:03] Xulu: !r
[11:49:31] Dropped "Xulu" from server<STEAM_0:0:46857044>
[11:49:31] Dropped "Bot99" from server<BOT>
[11:49:31] Dropped "Bot100" from server<BOT>
[12:14:28] Server is shutting down/changing levels.



[12:14:35] New map: surf_mesa_aether
[12:45:11] Server is shutting down/changing levels.



[12:45:17] New map: surf_lighthouse
[13:15:53] Server is shutting down/changing levels.



[13:16:00] New map: surf_reprise_fix
[13:46:35] Server is shutting down/changing levels.



[13:46:42] New map: surf_milkyway
[14:13:28] Client "[FR] kyllian7785" connected.
[14:15:18] Client "[FR] kyllian7785" spawned in server <STEAM_0:1:109647922> (took 110 seconds).
[14:15:18] Client "Bot101" connected.
[14:15:18] Client "Bot101" spawned in server <BOT> (took 1717 seconds).
[14:15:20] Client "Bot102" connected.
[14:15:20] Client "Bot102" spawned in server <BOT> (took 1719 seconds).
[14:18:39] [FR] kyllian7785: :rtv
[14:18:41] [FR] kyllian7785: !rtv
[14:18:57] [FR] kyllian7785: !rtv
[14:19:17] Server is shutting down/changing levels.



[14:19:24] New map: surf_this_njv
[14:19:51] Client "[FR] kyllian7785" spawned in server <STEAM_0:1:109647922> (took 28 seconds).
[14:19:51] Client "Bot103" connected.
[14:19:51] Client "Bot103" spawned in server <BOT> (took 28 seconds).
[14:19:53] Client "Bot104" connected.
[14:19:53] Client "Bot104" spawned in server <BOT> (took 30 seconds).
[14:26:19] [FR] kyllian7785: !ws
[14:26:26] [FR] kyllian7785: !unbox
[14:27:55] [FR] kyllian7785: !rtv
[14:28:31] Server is shutting down/changing levels.



[14:28:37] New map: surf_sundown_njv
[14:29:38] Client "[FR] kyllian7785" spawned in server <STEAM_0:1:109647922> (took 62 seconds).
[14:29:38] Client "Bot105" connected.
[14:29:38] Client "Bot105" spawned in server <BOT> (took 62 seconds).
[14:29:40] Client "Bot106" connected.
[14:29:40] Client "Bot106" spawned in server <BOT> (took 64 seconds).
[14:34:41] Client "Salamon" connected.
[14:35:30] Client "HESO3118" connected.
[14:36:18] Client "Salamon" spawned in server <STEAM_0:0:204678024> (took 97 seconds).
[14:36:46] Client "☁SiNDiKAT☁ Дырочкин" connected.
[14:38:38] Dropped "[FR] kyllian7785" from server<STEAM_0:1:109647922>
[14:40:31] Client "HESO3118" spawned in server <STEAM_0:0:212519647> (took 301 seconds).
[14:42:29] Client "SKILT_NET4WER" connected.
[14:47:41] Salamon: !knifes
[14:47:47] HESO3118: !knivas
[14:53:48] Salamon: !knifes
[14:53:51] Salamon: !knife
[14:55:03] Salamon: !knife
[14:57:11] Dropped "Salamon" from server<STEAM_0:0:204678024>
[14:58:50] Dropped "HESO3118" from server<STEAM_0:0:212519647>
[14:58:50] Dropped "Bot105" from server<BOT>
[14:58:50] Dropped "Bot106" from server<BOT>
[14:59:14] Server is shutting down/changing levels.



[14:59:21] New map: surf_rebel_scaz
[15:29:56] Server is shutting down/changing levels.



[15:30:03] New map: surf_placid
[16:00:38] Server is shutting down/changing levels.



[16:00:45] New map: surf_advanced
[16:31:21] Server is shutting down/changing levels.



[16:31:28] New map: surf_happyhands
[16:47:08] Client "Trasck" connected.
[17:02:04] Server is shutting down/changing levels.



[17:02:11] New map: surf_funhouse_v1
[17:32:46] Server is shutting down/changing levels.



[17:32:53] New map: surf_rookie
[18:03:29] Server is shutting down/changing levels.



[18:03:36] New map: surf_kitsune
[18:03:38] Client "traj" connected.
[18:04:43] Client "traj" spawned in server <STEAM_0:1:92213643> (took 65 seconds).
[18:04:43] Client "Bot107" connected.
[18:04:43] Client "Bot107" spawned in server <BOT> (took 68 seconds).
[18:04:45] Client "Bot108" connected.
[18:04:45] Client "Bot108" spawned in server <BOT> (took 70 seconds).
[18:07:13] traj: HECKING LAG
[18:08:45] traj: !r
[18:18:08] Client "Танкист" connected.
[18:18:29] traj: !rtv
[18:19:52] Client "Танкист" spawned in server <STEAM_0:0:172495764> (took 104 seconds).
[18:20:35] Client "Tornade2003" connected.
[18:21:20] traj: asciygwqygiob9cwqsf
[18:21:21] traj: ( ͡° ͜ʖ ͡°)
[18:21:55] Танкист: !r
[18:22:32] Танкист: /r
[18:22:55] Dropped "traj" from server<STEAM_0:1:92213643>
[18:25:57] Client "gamescom306" connected.
[18:26:25] Dropped "Танкист" from server<STEAM_0:0:172495764>
[18:26:37] Client "gamescom306" spawned in server <STEAM_0:1:94796237> (took 40 seconds).
[18:26:56] Client "DJ_Temi4" connected.
[18:27:47] Client "DJ_Temi4" spawned in server <STEAM_0:1:156881233> (took 51 seconds).
[18:28:13] DJ_Temi4: eazzy map
[18:30:07] Client "ENCULUS-REMUS" connected.
[18:31:00] Dropped "DJ_Temi4" from server<STEAM_0:1:156881233>
[18:40:12] Dropped "gamescom306" from server<STEAM_0:1:94796237>
[18:40:17] Client "ENCULUS-REMUS" spawned in server <STEAM_0:1:58513796> (took 610 seconds).
[18:47:07] Client "ScOrPOniNfInItY" connected.
[18:50:07] Server is shutting down/changing levels.



[18:50:15] New map: surf_reprise_fix
[18:53:44] Client "WankulRick" connected.
[19:11:13] Client "[.!.]_Maggot-(n-f)_[.!.]" connected.
[19:20:54] Server is shutting down/changing levels.



[19:21:01] New map: surf_lux
[19:28:13] Client "Deadmau2210" connected.
[19:29:02] Client "Deadmau2210" spawned in server <STEAM_0:1:74706528> (took 49 seconds).
[19:29:02] Client "Bot109" connected.
[19:29:02] Client "Bot109" spawned in server <BOT> (took 482 seconds).
[19:29:04] Client "Bot110" connected.
[19:29:04] Client "Bot110" spawned in server <BOT> (took 484 seconds).
[19:30:33] Client "Traj" connected.
[19:31:33] Client "Traj" spawned in server <STEAM_0:1:92213643> (took 60 seconds).
[19:33:03] Traj: !RT
[19:33:05] Traj: !RTV
[19:35:03] Deadmau2210: !rtv
[19:35:39] Server is shutting down/changing levels.



[19:35:47] New map: surf_mesa_mine
[19:36:00] Client "Deadmau2210" spawned in server <STEAM_0:1:74706528> (took 15 seconds).
[19:36:00] Client "Bot111" connected.
[19:36:00] Client "Bot111" spawned in server <BOT> (took 15 seconds).
[19:36:02] Client "Bot112" connected.
[19:36:02] Client "Bot112" spawned in server <BOT> (took 17 seconds).
[19:36:10] Client "Traj" spawned in server <STEAM_0:1:92213643> (took 25 seconds).
[19:38:10] Dropped "Traj" from server<STEAM_0:1:92213643>
[19:38:13] Client "SuRr34L^" connected.
[19:38:48] Dropped "Deadmau2210" from server<STEAM_0:1:74706528>
[19:39:17] Client "SuRr34L^" spawned in server <STEAM_0:1:88630621> (took 64 seconds).
[19:45:11] Client "Azeqw" connected.
[19:46:09] SuRr34L^: !r
[19:55:09] SuRr34L^: !r
[19:56:51] Dropped "SuRr34L^" from server<STEAM_0:1:88630621>
[19:56:51] Dropped "Bot111" from server<BOT>
[19:56:51] Dropped "Bot112" from server<BOT>
[20:06:23] Server is shutting down/changing levels.



[20:06:31] New map: surf_rookie
[20:35:38] Client "Grendel" connected.
[20:36:47] Client "Grendel" spawned in server <STEAM_0:0:140660237> (took 69 seconds).
[20:36:47] Client "Bot113" connected.
[20:36:47] Client "Bot113" spawned in server <BOT> (took 1818 seconds).
[20:36:49] Client "Bot114" connected.
[20:36:49] Client "Bot114" spawned in server <BOT> (took 1820 seconds).
[20:37:07] Server is shutting down/changing levels.



[20:37:14] New map: surf_wood
[20:37:25] Client "Viper youtube.com/user/107PIOTE" connected.
[20:37:28] Client "Grendel" spawned in server <STEAM_0:0:140660237> (took 16 seconds).
[20:37:28] Client "Bot115" connected.
[20:37:28] Client "Bot115" spawned in server <BOT> (took 16 seconds).
[20:37:30] Client "Bot116" connected.
[20:37:30] Client "Bot116" spawned in server <BOT> (took 18 seconds).
[20:38:11] Dropped "Grendel" from server<STEAM_0:0:140660237>
[20:40:41] Client "Viper youtube.com/user/107PIOTE" spawned in server <STEAM_0:0:94361308> (took 196 seconds).
[20:43:55] Dropped "Viper youtube.com/user/107PIOTE" from server<STEAM_0:0:94361308>
[20:43:55] Dropped "Bot115" from server<BOT>
[20:43:55] Dropped "Bot116" from server<BOT>
[21:04:24] Client "^4Options" connected.
[21:07:50] Server is shutting down/changing levels.



[21:07:57] New map: surf_utopia_njv
[21:10:14] Client "^4Options" spawned in server <STEAM_0:1:88257886> (took 138 seconds).
[21:10:14] Client "Bot117" connected.
[21:10:14] Client "Bot117" spawned in server <BOT> (took 138 seconds).
[21:10:16] Client "Bot118" connected.
[21:10:16] Client "Bot118" spawned in server <BOT> (took 140 seconds).
[21:13:45] ^4Options: NOOO
[21:13:59] ^4Options: ive never beat a surf course and it makes me sad
[21:14:14] ^4Options: !rules
[21:14:59] ^4Options: !unbox
[21:15:52] ^4Options: !tutorial
[21:18:12] Client "CatTEpic" connected.
[21:18:30] ^4Options: *Trips on air*
[21:19:16] Client "CatTEpic" spawned in server <STEAM_0:0:99719953> (took 64 seconds).
[21:21:21] ^4Options: i forgot how bad i am at surf .-.
[21:21:35] Dropped "^4Options" from server<STEAM_0:1:88257886>
[21:23:07] Dropped "CatTEpic" from server<STEAM_0:0:99719953>
[21:23:07] Dropped "Bot117" from server<BOT>
[21:23:07] Dropped "Bot118" from server<BOT>
[21:28:35] Client "horsak" connected.
[21:28:37] Client "horsak" connected.
[21:38:33] Server is shutting down/changing levels.



[21:38:40] New map: surf_prelude_ksf
[21:42:07] Client "KennyW" connected.
[22:09:18] Server is shutting down/changing levels.



[22:09:25] New map: surf_island
[22:40:00] Server is shutting down/changing levels.



[22:40:07] New map: surf_milkyway
[22:43:16] Client "OlDeck" connected.
[22:43:33] Client "OlDeck" spawned in server <STEAM_0:0:34728749> (took 17 seconds).
[22:43:33] Client "Bot119" connected.
[22:43:33] Client "Bot119" spawned in server <BOT> (took 207 seconds).
[22:43:35] Client "Bot120" connected.
[22:43:35] Client "Bot120" spawned in server <BOT> (took 209 seconds).
[22:54:55] Dropped "OlDeck" from server<STEAM_0:0:34728749>
[22:54:55] Dropped "Bot119" from server<BOT>
[22:54:55] Dropped "Bot120" from server<BOT>
[23:10:43] Server is shutting down/changing levels.



[23:10:50] New map: surf_aether
[23:41:25] Server is shutting down/changing levels.



[23:41:32] New map: surf_lt_omnific_fix
<Logging continued in "data/ulx_logs/07-07-17.txt">
