<Logging continued from "data/ulx_logs/07-21-17.txt">
[00:00:02] FlyDream_: !r
[00:00:07] FlyDream_: !record
[00:00:13] Client "Reheight" spawned in server <STEAM_0:0:81189125> (took 141 seconds).
[00:00:37] FlyDream_: !r
[00:00:41] FlyDream_: type !rtv
[00:01:07] FlyDream_: !r
[00:01:59] FlyDream_: !r
[00:02:23] FlyDream_: !record
[00:02:53] FlyDream_: !r
[00:03:05] Reheight: Knives
[00:03:07] FlyDream_: !r
[00:03:09] FlyDream_: type !rtv
[00:03:35] FlyDream_: !r
[00:03:59] FlyDream_: !r
[00:04:16] FlyDream_: 1
[00:04:23] FlyDream_: 1
[00:04:25] FlyDream_: FUCKI9
[00:04:26] FlyDream_: !r
[00:04:27] FlyDream_: 1
[00:04:36] Reheight: 2
[00:04:46] Reheight: fuck
[00:04:46] Server is shutting down/changing levels.



[00:04:53] New map: surf_rebel_scaz
[00:05:49] Client "FlyDream_" spawned in server <STEAM_0:1:171667751> (took 57 seconds).
[00:05:49] Client "Bot85" connected.
[00:05:49] Client "Bot85" spawned in server <BOT> (took 57 seconds).
[00:05:51] Client "Bot86" connected.
[00:05:51] Client "Bot86" spawned in server <BOT> (took 59 seconds).
[00:06:03] Client "Kouille Man" spawned in server <STEAM_0:1:113577447> (took 71 seconds).
[00:06:44] FlyDream_: !bonus
[00:06:48] FlyDream_: !r
[00:06:56] Client "Reheight" spawned in server <STEAM_0:0:81189125> (took 124 seconds).
[00:06:59] FlyDream_: !bot play bonus
[00:07:08] FlyDream_: !r
[00:07:12] FlyDream_: !r
[00:07:40] Reheight: !knife
[00:09:01] FlyDream_: !r
[00:10:12] Reheight: !rtv
[00:10:14] FlyDream_: !r
[00:10:21] FlyDream_: !r
[00:10:24] FlyDream_: !r
[00:10:47] Dropped "Kouille Man" from server<STEAM_0:1:113577447>
[00:12:22] FlyDream_: !r
[00:12:25] FlyDream_: !r
[00:13:33] FlyDream_: !r
[00:13:39] FlyDream_: !r
[00:14:56] FlyDream_: !r
[00:14:58] FlyDream_: !r
[00:17:23] FlyDream_: !record
[00:17:46] FlyDream_: !r
[00:18:23] FlyDream_: !r
[00:18:36] FlyDream_: !r
[00:18:58] FlyDream_: !r
[00:19:07] FlyDream_: !n
[00:19:23] FlyDream_: !bonus
[00:20:05] FlyDream_: !r
[00:21:07] FlyDream_: !r
[00:21:27] FlyDream_: !r
[00:22:17] FlyDream_: !r
[00:23:03] FlyDream_: !r
[00:23:06] FlyDream_: !
[00:23:06] FlyDream_: !r
[00:23:49] FlyDream_: !nominate
[00:24:51] FlyDream_: !r
[00:24:53] Dropped "Reheight" from server<STEAM_0:0:81189125>
[00:26:29] FlyDream_: !rtv
[00:27:05] Server is shutting down/changing levels.



[00:27:11] New map: surf_pox
[00:28:08] Client "FlyDream_" spawned in server <STEAM_0:1:171667751> (took 58 seconds).
[00:28:08] Client "Bot87" connected.
[00:28:08] Client "Bot87" spawned in server <BOT> (took 58 seconds).
[00:28:09] Client "ChanceGaming" connected.
[00:28:10] Client "Bot88" connected.
[00:28:10] Client "Bot88" spawned in server <BOT> (took 60 seconds).
[00:36:26] FlyDream_: !bonus
[00:36:45] FlyDream_: !r
[00:38:09] FlyDream_: !r
[00:38:42] FlyDream_: !r
[00:39:05] FlyDream_: !r
[00:39:36] FlyDream_: !r
[00:40:00] FlyDream_: !r
[00:40:37] FlyDream_: !r
[00:41:12] FlyDream_: !r
[00:42:50] FlyDream_: !r
[00:43:21] FlyDream_: !r
[00:43:51] FlyDream_: !r
[00:44:02] FlyDream_: !r
[00:44:21] FlyDream_: !r
[00:44:35] FlyDream_: !r
[00:45:09] FlyDream_: !r
[00:45:39] FlyDream_: !r
[00:45:55] FlyDream_: !r
[00:46:27] FlyDream_: !r
[00:47:05] FlyDream_: !r
[00:47:38] FlyDream_: !r
[00:47:45] FlyDream_: !r
[00:47:47] FlyDream_: !r
[00:47:51] FlyDream_: !r
[00:48:09] FlyDream_: !r
[00:48:35] FlyDream_: !r
[00:49:09] FlyDream_: !r
[00:50:30] FlyDream_: !r
[00:50:41] FlyDream_: !r
[00:50:45] FlyDream_: r
[00:50:46] FlyDream_: !r
[00:51:15] FlyDream_: !r
[00:51:31] FlyDream_: !r
[00:51:47] FlyDream_: !r
[00:52:25] FlyDream_: !r
[00:52:51] FlyDream_: !r
[00:53:27] FlyDream_: !r
[00:53:51] FlyDream_: !r
[00:54:17] FlyDream_: !r
[00:54:50] FlyDream_: !r
[00:55:31] FlyDream_: !r
[00:56:20] FlyDream_: !r
[00:56:42] FlyDream_: !r
[00:57:47] FlyDream_: !r
[00:58:03] FlyDream_: !r
[00:58:32] FlyDream_: !r
[00:58:48] FlyDream_: !r
[00:59:15] FlyDream_: !r
[00:59:30] FlyDream_: !r
[00:59:54] FlyDream_: !r
[01:00:55] FlyDream_: !r
[01:01:11] FlyDream_: !r
[01:01:27] FlyDream_: !r
[01:01:55] FlyDream_: !r
[01:02:10] FlyDream_: !r
[01:02:42] FlyDream_: !r
[01:03:02] FlyDream_: !r
[01:03:36] FlyDream_: !r
[01:03:53] FlyDream_: !r
[01:04:12] FlyDream_: r
[01:04:14] FlyDream_: !r
[01:06:08] FlyDream_: !r
[01:07:07] FlyDream_: !r
[01:07:39] FlyDream_: !r
[01:08:31] FlyDream_: !r
[01:08:54] FlyDream_: !r
[01:08:55] FlyDream_: !record
[01:09:11] FlyDream_: :r
[01:09:12] FlyDream_: !r
[01:09:53] FlyDream_: !r
[01:10:15] FlyDream_: !r
[01:10:40] FlyDream_: !r
[01:11:28] FlyDream_: !r
[01:11:43] FlyDream_: !r
[01:12:38] FlyDream_: !r
[01:13:17] FlyDream_: r
[01:13:18] FlyDream_: !r
[01:13:34] FlyDream_: !r
[01:14:00] FlyDream_: !r
[01:14:37] FlyDream_: !bot play normal
[01:14:40] FlyDream_: !bot play n
[01:15:02] FlyDream_: !bot record
[01:15:36] FlyDream_: !r
[01:15:52] FlyDream_: !r
[01:16:26] FlyDream_: !r
[01:16:44] FlyDream_: !r
[01:17:00] FlyDream_: !r
[01:17:34] FlyDream_: !r
[01:18:19] FlyDream_: !r
[01:19:19] FlyDream_: !r
[01:19:56] FlyDream_: !r
[01:20:57] FlyDream_: !r
[01:21:42] FlyDream_: !r
[01:21:46] FlyDream_: !record
[01:22:50] FlyDream_: !r
[01:23:23] FlyDream_: !r
[01:23:57] FlyDream_: !r
[01:24:22] FlyDream_: !r
[01:24:48] FlyDream_: !r
[01:25:21] FlyDream_: !r
[01:26:01] FlyDream_: !r
[01:26:39] FlyDream_: !r
[01:27:15] FlyDream_: !r
[01:27:37] FlyDream_: !r
[01:28:09] FlyDream_: !r
[01:28:37] Dropped "FlyDream_" from server<STEAM_0:1:171667751>
[01:28:37] Dropped "Bot87" from server<BOT>
[01:28:37] Dropped "Bot88" from server<BOT>
[01:28:50] Server is shutting down/changing levels.



[01:28:56] New map: surf_graphia
[01:30:53] Client "Dj-Pancakes" connected.
[01:33:10] Client "Dj-Pancakes" spawned in server <STEAM_0:0:12921361> (took 137 seconds).
[01:33:10] Client "Bot89" connected.
[01:33:10] Client "Bot89" spawned in server <BOT> (took 255 seconds).
[01:33:12] Client "Bot90" connected.
[01:33:12] Client "Bot90" spawned in server <BOT> (took 257 seconds).
[01:34:24] Dj-Pancakes: !r
[01:36:40] Dj-Pancakes: !KNIFES
[01:39:20] Dj-Pancakes: !unbox
[01:42:58] Dj-Pancakes: !unbox
[01:49:31] Dj-Pancakes: !unbox
[01:53:10] Dj-Pancakes: !unbox
[01:58:57] Dropped "Dj-Pancakes" from server<STEAM_0:0:12921361>
[01:58:57] Dropped "Bot89" from server<BOT>
[01:58:57] Dropped "Bot90" from server<BOT>
[01:59:33] Server is shutting down/changing levels.



[01:59:40] New map: surf_sluice_final
[02:30:15] Server is shutting down/changing levels.



[02:30:23] New map: surf_happyhands
[03:00:58] Server is shutting down/changing levels.



[03:01:05] New map: surf_lighthouse
[03:14:43] Client "┬┴┬┴┤ ͜ʖ ͡°) ├" connected.
[03:15:50] Client "[MG] LeGaCy" connected.
[03:16:11] Client "┬┴┬┴┤ ͜ʖ ͡°) ├" spawned in server <STEAM_0:1:54092777> (took 88 seconds).
[03:16:11] Client "Bot91" connected.
[03:16:11] Client "Bot91" spawned in server <BOT> (took 907 seconds).
[03:16:13] Client "Bot92" connected.
[03:16:13] Client "Bot92" spawned in server <BOT> (took 909 seconds).
[03:16:52] Dropped "┬┴┬┴┤ ͜ʖ ͡°) ├" from server<STEAM_0:1:54092777>
[03:16:57] Client "┬┴┬┴┤ ͜ʖ ͡°) ├" connected.
[03:17:02] Client "[MG] LeGaCy" spawned in server <STEAM_0:1:79661174> (took 72 seconds).
[03:17:08] Client "┬┴┬┴┤ ͜ʖ ͡°) ├" spawned in server <STEAM_0:1:54092777> (took 11 seconds).
[03:18:22] Dropped "[MG] LeGaCy" from server<STEAM_0:1:79661174>
[03:18:26] Dropped "┬┴┬┴┤ ͜ʖ ͡°) ├" from server<STEAM_0:1:54092777>
[03:18:26] Dropped "Bot91" from server<BOT>
[03:18:26] Dropped "Bot92" from server<BOT>
[03:31:41] Server is shutting down/changing levels.



[03:31:48] New map: surf_aether
[03:35:46] Client "DomGoesRawr" connected.
[03:39:06] Client "DomGoesRawr" spawned in server <STEAM_0:1:121783433> (took 200 seconds).
[03:39:06] Client "Bot93" connected.
[03:39:06] Client "Bot93" spawned in server <BOT> (took 439 seconds).
[03:39:08] Client "Bot94" connected.
[03:39:08] Client "Bot94" spawned in server <BOT> (took 441 seconds).
[03:43:00] DomGoesRawr: !shop
[03:57:23] Dropped "DomGoesRawr" from server<STEAM_0:1:121783433>
[03:57:23] Dropped "Bot93" from server<BOT>
[03:57:23] Dropped "Bot94" from server<BOT>
[04:02:25] Server is shutting down/changing levels.



[04:02:32] New map: surf_funhouse_v1
[04:31:17] Client "MrNanoux12" connected.
[04:31:17] Client "[♥BN♥]Spectral Queen Allie" connected.
[04:32:21] Client "MrNanoux12" spawned in server <STEAM_0:1:81988990> (took 64 seconds).
[04:32:21] Client "Bot95" connected.
[04:32:21] Client "Bot95" spawned in server <BOT> (took 1790 seconds).
[04:32:23] Client "Bot96" connected.
[04:32:23] Client "Bot96" spawned in server <BOT> (took 1792 seconds).
[04:32:26] Client "[♥BN♥]Spectral Queen Allie" spawned in server <STEAM_0:0:85935863> (took 69 seconds).
[04:33:08] Server is shutting down/changing levels.



[04:33:14] New map: surf_funhouse_v1
[04:33:30] Client "[♥BN♥]Spectral Queen Allie" spawned in server <STEAM_0:0:85935863> (took 17 seconds).
[04:33:30] Client "Bot97" connected.
[04:33:30] Client "Bot97" spawned in server <BOT> (took 17 seconds).
[04:33:32] Client "Bot98" connected.
[04:33:32] Client "Bot98" spawned in server <BOT> (took 19 seconds).
[04:33:42] Client "MrNanoux12" spawned in server <STEAM_0:1:81988990> (took 29 seconds).
[04:36:21] [♥BN♥]Spectral Queen Allie: !rtv
[04:37:42] [♥BN♥]Spectral Queen Allie: !r
[04:37:57] Client "syberre" connected.
[04:39:10] [♥BN♥]Spectral Queen Allie: !r
[04:39:25] Client "syberre" spawned in server <STEAM_0:1:121846960> (took 88 seconds).
[04:40:07] [♥BN♥]Spectral Queen Allie: !rtv
[04:40:38] [♥BN♥]Spectral Queen Allie: Anyone for an RTV?
[04:42:09] [♥BN♥]Spectral Queen Allie: !rtv
[04:42:12] [♥BN♥]Spectral Queen Allie: Please guys RTV
[04:43:51] [♥BN♥]Spectral Queen Allie: !r
[04:46:02] Dropped "[♥BN♥]Spectral Queen Allie" from server<STEAM_0:0:85935863>
[04:47:04] Dropped "syberre" from server<STEAM_0:1:121846960>
[04:47:51] Dropped "MrNanoux12" from server<STEAM_0:1:81988990>
[04:47:51] Dropped "Bot97" from server<BOT>
[04:47:51] Dropped "Bot98" from server<BOT>
[05:01:09] Client "Vicheente" connected.
[05:03:50] Server is shutting down/changing levels.



[05:03:57] New map: surf_aether
[05:06:05] Client "Vicheente" spawned in server <STEAM_0:0:104189514> (took 129 seconds).
[05:06:05] Client "Bot99" connected.
[05:06:05] Client "Bot99" spawned in server <BOT> (took 129 seconds).
[05:06:07] Client "Bot100" connected.
[05:06:07] Client "Bot100" spawned in server <BOT> (took 131 seconds).
[05:12:45] Dropped "Vicheente" from server<STEAM_0:0:104189514>
[05:12:45] Dropped "Bot99" from server<BOT>
[05:12:45] Dropped "Bot100" from server<BOT>
[05:34:34] Server is shutting down/changing levels.



[05:34:41] New map: surf_island
[05:37:02] Client "V-VACATION" connected.
[05:41:17] Client "V-VACATION" connected.



[07:12:43] New map: surf_mesa
[07:43:20] Server is shutting down/changing levels.



[07:43:27] New map: surf_kitsune2
[08:14:03] Server is shutting down/changing levels.



[08:14:10] New map: surf_lt_omnific_fix
[08:35:41] Client "Tvfilthyfrank skin on minecraft" connected.
[08:37:02] Client "Tvfilthyfrank skin on minecraft" spawned in server <STEAM_0:1:111703561> (took 81 seconds).
[08:37:03] Client "Bot01" connected.
[08:37:03] Client "Bot01" spawned in server <BOT> (took 1374 seconds).
[08:37:05] Client "Bot02" connected.
[08:37:05] Client "Bot02" spawned in server <BOT> (took 1376 seconds).
[08:44:10] Dropped "Tvfilthyfrank skin on minecraft" from server<STEAM_0:1:111703561>
[08:44:10] Dropped "Bot01" from server<BOT>
[08:44:10] Dropped "Bot02" from server<BOT>
[08:44:46] Server is shutting down/changing levels.



[08:44:53] New map: surf_lighthouse
[08:45:06] Client "Tvfilthyfrank skin on minecraft" connected.
[08:45:27] Client "Tvfilthyfrank skin on minecraft" spawned in server <STEAM_0:1:111703561> (took 21 seconds).
[08:45:27] Client "Bot03" connected.
[08:45:27] Client "Bot03" spawned in server <BOT> (took 35 seconds).
[08:45:29] Client "Bot04" connected.
[08:45:29] Client "Bot04" spawned in server <BOT> (took 37 seconds).
[08:46:02] Dropped "Tvfilthyfrank skin on minecraft" from server<STEAM_0:1:111703561>
[08:46:02] Dropped "Bot03" from server<BOT>
[08:46:02] Dropped "Bot04" from server<BOT>
[08:58:09] Client "[ßωß]pedro the bacon boi [DC" connected.
[09:05:17] Client "[FX]AlexCorruptor" connected.
[09:06:26] Client "[FX]AlexCorruptor" spawned in server <STEAM_0:0:77731187> (took 69 seconds).
[09:06:26] Client "Bot05" connected.
[09:06:26] Client "Bot05" spawned in server <BOT> (took 1294 seconds).
[09:06:28] Client "Bot06" connected.
[09:06:28] Client "Bot06" spawned in server <BOT> (took 1296 seconds).
[09:32:40] Dropped "[FX]AlexCorruptor" from server<STEAM_0:0:77731187>
[09:32:40] Dropped "Bot05" from server<BOT>
[09:32:40] Dropped "Bot06" from server<BOT>
[09:46:30] Server is shutting down/changing levels.



[09:46:37] New map: surf_kitsune
[10:17:13] Server is shutting down/changing levels.



[10:17:19] New map: surf_beginner_hell
[10:47:55] Server is shutting down/changing levels.



[10:48:02] New map: surf_dusk
[11:16:38] Client "Mr.Frank" connected.
[11:18:14] Client "Mr.Frank" spawned in server <STEAM_0:0:113187351> (took 96 seconds).
[11:18:14] Client "Bot07" connected.
[11:18:14] Client "Bot07" spawned in server <BOT> (took 1813 seconds).
[11:18:16] Client "Bot08" connected.
[11:18:16] Client "Bot08" spawned in server <BOT> (took 1815 seconds).
[11:18:38] Server is shutting down/changing levels.



[11:18:45] New map: surf_pox
[11:19:31] Client "Mr.Frank" spawned in server <STEAM_0:0:113187351> (took 47 seconds).
[11:19:31] Client "Bot09" connected.
[11:19:31] Client "Bot09" spawned in server <BOT> (took 47 seconds).
[11:19:33] Client "Bot10" connected.
[11:19:33] Client "Bot10" spawned in server <BOT> (took 49 seconds).
[11:19:56] Mr.Frank: !r
[11:20:29] Mr.Frank: !r
[11:20:30] Mr.Frank: !r
[11:21:06] Mr.Frank: !nominate
[11:21:20] Client "McDigBick¨''" connected.
[11:21:30] Mr.Frank: !rtv
[11:21:47] Mr.Frank: !rtv
[11:23:20] Mr.Frank: !r
[11:23:45] Mr.Frank: !r
[11:23:52] Mr.Frank: !r
[11:24:31] Mr.Frank: !rtv
[11:25:07] Server is shutting down/changing levels.



[11:25:14] New map: surf_forbidden_ways_ksf
[11:25:54] Client "Mr.Frank" spawned in server <STEAM_0:0:113187351> (took 41 seconds).
[11:25:54] Client "Bot11" connected.
[11:25:54] Client "Bot11" spawned in server <BOT> (took 41 seconds).
[11:25:56] Client "Bot12" connected.
[11:25:56] Client "Bot12" spawned in server <BOT> (took 43 seconds).
[11:26:33] Client "McDigBick¨''" connected.
[11:26:34] Mr.Frank: !r
[11:27:02] Client "McDigBick¨''" spawned in server <STEAM_0:0:25481166> (took 29 seconds).
[11:27:26] Client "Roan Albers" connected.
[11:27:57] Client "Roan Albers" spawned in server <STEAM_0:1:156969471> (took 31 seconds).
[11:28:24] Mr.Frank: minns du vart jag lägger mappen med texturees?
[11:28:35] Mr.Frank: !r
[11:28:35] McDigBick¨'': nej 
[11:29:04] Mr.Frank: !r
[11:29:47] Mr.Frank: brb 6 min när den e färdig
[11:31:19] Mr.Frank: kommer strax
[11:31:25] Dropped "Mr.Frank" from server<STEAM_0:0:113187351>
[11:36:10] Dropped "Roan Albers" from server<STEAM_0:1:156969471>
[11:37:12] McDigBick¨'': !nominate
[11:37:40] McDigBick¨'': !rtv
[11:38:02] Client "Mr.Frank" connected.
[11:38:16] Server is shutting down/changing levels.



[11:38:23] New map: surf_rookie
[11:38:42] Client "McDigBick¨''" spawned in server <STEAM_0:0:25481166> (took 20 seconds).
[11:38:42] Client "Bot13" connected.
[11:38:42] Client "Bot13" spawned in server <BOT> (took 20 seconds).
[11:38:44] Client "Bot14" connected.
[11:38:44] Client "Bot14" spawned in server <BOT> (took 22 seconds).
[11:38:51] Client "Mr.Frank" spawned in server <STEAM_0:0:113187351> (took 29 seconds).
[11:39:02] Mr.Frank: skiten funkade ju inte
[11:39:03] McDigBick¨'': VADÅ HÄMTA PAPPER
[11:39:07] McDigBick¨'': caps
[11:40:10] McDigBick¨'': kolla bak
[11:40:15] Mr.Frank: Du är ju fett trög
[11:40:31] Mr.Frank: brb
[11:40:33] Dropped "Mr.Frank" from server<STEAM_0:0:113187351>
[11:43:29] Client "MikaEL csgoatse.com" connected.
[11:44:44] Client "MikaEL csgoatse.com" spawned in server <STEAM_0:0:101925824> (took 75 seconds).
[11:47:24] McDigBick¨'': !r
[11:48:33] Client "Mr.Frank" connected.
[11:48:57] Client "Mr.Frank" spawned in server <STEAM_0:0:113187351> (took 24 seconds).
[11:49:12] Mr.Frank: sååå ja
[11:49:47] MikaEL csgoatse.com: !knife
[11:50:56] MikaEL csgoatse.com: !knifes
[11:51:19] McDigBick¨'': !r
[11:51:23] MikaEL csgoatse.com: how i can unbox knife
[11:51:24] McDigBick¨'': !lg
[11:51:44] McDigBick¨'': !un
[11:51:50] MikaEL csgoatse.com: !unbox
[11:52:39] Mr.Frank: !r
[11:52:54] Mr.Frank: !r
[11:52:58] Mr.Frank: !r
[11:54:18] Mr.Frank: !r
[11:54:21] Mr.Frank: !r
[11:54:45] McDigBick¨'': !rtv
[11:54:49] McDigBick¨'': !nominate
[11:54:49] MikaEL csgoatse.com: !knife
[11:54:51] Mr.Frank: !rtv
[11:54:57] Mr.Frank: Sluice e nice :D
[11:55:07] (TEAM) McDigBick¨'': dude
[11:55:10] Mr.Frank: Ganska svår dock, men har klarat den ett par gånger nu
[11:55:17] Mr.Frank: okejdå
[11:55:24] McDigBick¨'': är inte så bra
[11:55:27] Server is shutting down/changing levels.



[11:55:33] New map: surf_inspire
[11:55:50] Client "MikaEL csgoatse.com" spawned in server <STEAM_0:0:101925824> (took 18 seconds).
[11:55:50] Client "Bot15" connected.
[11:55:50] Client "Bot15" spawned in server <BOT> (took 18 seconds).
[11:55:52] Client "Bot16" connected.
[11:55:52] Client "Bot16" spawned in server <BOT> (took 20 seconds).
[11:55:54] Client "Mr.Frank" spawned in server <STEAM_0:0:113187351> (took 22 seconds).
[11:56:36] Mr.Frank: !r
[11:58:49] Client "McDigBick¨''" connected.
[11:59:17] Client "McDigBick¨''" connected.
[11:59:46] Client "McDigBick¨''" spawned in server <STEAM_0:0:25481166> (took 29 seconds).
[12:02:08] MikaEL csgoatse.com: rtv
[12:02:21] Mr.Frank: wait
[12:02:27] McDigBick¨'': stfu
[12:05:40] Client "Tominator Games" connected.
[12:07:33] Dropped "MikaEL csgoatse.com" from server<STEAM_0:0:101925824>
[12:07:35] Mr.Frank: Fan
[12:07:36] Mr.Frank: precis slutet
[12:09:22] Mr.Frank: igen snart klarar jag den
[12:09:48] McDigBick¨'': nice
[12:12:34] Client "eetunissinen08" connected.
[12:13:05] Client "eetunissinen08" spawned in server <STEAM_0:0:192320072> (took 31 seconds).
[12:14:09] Dropped "eetunissinen08" from server<STEAM_0:0:192320072>
[12:15:27] Client "Tominator Games" spawned in server <STEAM_0:0:173132136> (took 587 seconds).
[12:15:27] Mr.Frank: !r
[12:17:52] Mr.Frank: jävla lagg fuckar för mig hela tiden
[12:17:56] Mr.Frank: internetdelning asså
[12:18:03] McDigBick¨'': laggar du nu?
[12:18:07] Mr.Frank: Ibland fastnar det
[12:18:11] Mr.Frank: pajar ju hela runnen
[12:18:38] Mr.Frank: tror jukeboxen gör mycket , den laddar ju musik hela tiden
[12:20:56] McDigBick¨'': börjar bli arg på denna banan
[12:21:21] Mr.Frank: hur långt kommer du
[12:21:58] McDigBick¨'': dit
[12:22:11] Mr.Frank: !r
[12:23:00] Mr.Frank: byta?
[12:23:09] Mr.Frank: !nominate
[12:23:11] McDigBick¨'': nej
[12:23:26] Dropped "Tominator Games" from server<STEAM_0:0:173132136>
[12:26:10] Server is shutting down/changing levels.



[12:26:17] New map: surf_happyhands
[12:26:42] Client "McDigBick¨''" spawned in server <STEAM_0:0:25481166> (took 27 seconds).
[12:26:42] Client "Bot17" connected.
[12:26:42] Client "Bot17" spawned in server <BOT> (took 27 seconds).
[12:26:44] Client "Bot18" connected.
[12:26:44] Client "Bot18" spawned in server <BOT> (took 29 seconds).
[12:27:05] Client "Mr.Frank" spawned in server <STEAM_0:0:113187351> (took 50 seconds).
[12:31:37] Mr.Frank: !r
[12:32:53] Client "Kurtox" connected.
[12:33:06] Mr.Frank: I vinter kommer rs ut på mobilen
[12:33:12] Mr.Frank: osrs
[12:33:18] Mr.Frank: 2018 kommer rs3
[12:33:47] Client "Kurtox" spawned in server <STEAM_0:0:71079069> (took 54 seconds).
[12:33:49] McDigBick¨'': såg betan på de
[12:36:14] Client "Yadlavi" connected.
[12:37:41] Mr.Frank: Nu orkar jag inte surfa mer
[12:37:45] Mr.Frank: Höres
[12:37:57] Dropped "Mr.Frank" from server<STEAM_0:0:113187351>
[12:38:13] Dropped "McDigBick¨''" from server<STEAM_0:0:25481166>
[12:40:12] Client "Yadlavi" spawned in server <STEAM_0:0:139689490> (took 238 seconds).
[12:41:17] Dropped "Kurtox" from server<STEAM_0:0:71079069>
[12:47:20] Yadlavi: !tutorial
[12:47:38] Yadlavi: !unbox
[12:47:50] Yadlavi: !steam
[12:48:21] Yadlavi: !unbox
[12:55:52] Client "Kurtox" connected.
[12:55:55] Dropped "Yadlavi" from server<STEAM_0:0:139689490>
[12:56:05] Client "Kurtox" spawned in server <STEAM_0:0:71079069> (took 13 seconds).
[12:56:53] Server is shutting down/changing levels.



[12:57:00] New map: surf_milkyway
[12:57:33] Client "Kurtox" spawned in server <STEAM_0:0:71079069> (took 34 seconds).
[12:57:33] Client "Bot19" connected.
[12:57:33] Client "Bot19" spawned in server <BOT> (took 34 seconds).
[12:57:35] Client "Bot20" connected.
[12:57:35] Client "Bot20" spawned in server <BOT> (took 36 seconds).
[13:11:25] Client "Speedy9765" connected.
[13:11:31] Client "quelqu'un" connected.
[13:12:40] Client "quelqu'un" spawned in server <STEAM_0:0:122047360> (took 69 seconds).
[13:14:02] Client "Speedy9765" spawned in server <STEAM_0:1:90776780> (took 157 seconds).
[13:15:30] Kurtox: !nominate
[13:15:37] Kurtox: !rtv
[13:15:49] Kurtox: guys rtv plz
[13:22:00] Dropped "Kurtox" from server<STEAM_0:0:71079069>
[13:25:28] Client "Kurtox" connected.
[13:25:41] Client "Kurtox" spawned in server <STEAM_0:0:71079069> (took 13 seconds).
[13:25:59] Kurtox: !Rtv
[13:26:09] Kurtox: !R
[13:26:13] Kurtox: !R
[13:26:22] Kurtox: !R
[13:26:45] Kurtox: !QR
[13:26:46] Kurtox: !R
[13:27:36] Server is shutting down/changing levels.



[13:27:43] New map: surf_aether
[13:28:14] Client "quelqu'un" spawned in server <STEAM_0:0:122047360> (took 32 seconds).
[13:28:14] Client "Bot21" connected.
[13:28:14] Client "Bot21" spawned in server <BOT> (took 32 seconds).
[13:28:16] Client "Bot22" connected.
[13:28:16] Client "Bot22" spawned in server <BOT> (took 34 seconds).
[13:28:23] Client "Kurtox" spawned in server <STEAM_0:0:71079069> (took 41 seconds).
[13:28:48] Client "Speedy9765" spawned in server <STEAM_0:1:90776780> (took 66 seconds).
[13:34:19] Client "lolenole" connected.
[13:35:19] Client "THEGLICHER(RDS)" connected.
[13:36:39] Dropped "Kurtox" from server<STEAM_0:0:71079069>
[13:36:46] Client "THEGLICHER(RDS)" spawned in server <STEAM_0:1:119118860> (took 87 seconds).
[13:40:22] Client "lolenole" spawned in server <STEAM_0:0:188301453> (took 363 seconds).
[13:40:53] Dropped "THEGLICHER(RDS)" from server<STEAM_0:1:119118860>
[13:48:44] Dropped "lolenole" from server<STEAM_0:0:188301453>
[13:51:10] Client "CEO RundesCrosshair" connected.
[13:53:02] Client "CEO RundesCrosshair" spawned in server <STEAM_0:1:71825525> (took 112 seconds).
[13:54:18] Dropped "CEO RundesCrosshair" from server<STEAM_0:1:71825525>
[13:58:19] Server is shutting down/changing levels.



[13:58:27] New map: surf_classics
[13:58:41] Client "quelqu'un" spawned in server <STEAM_0:0:122047360> (took 16 seconds).
[13:58:41] Client "Bot23" connected.
[13:58:41] Client "Bot23" spawned in server <BOT> (took 16 seconds).
[13:58:43] Client "Bot24" connected.
[13:58:43] Client "Bot24" spawned in server <BOT> (took 18 seconds).
[13:59:32] Client "Speedy9765" spawned in server <STEAM_0:1:90776780> (took 67 seconds).
[14:11:48] Dropped "Speedy9765" from server<STEAM_0:1:90776780>
[14:12:27] Client "Speedy9765" connected.
[14:13:05] Client "Speedy9765" spawned in server <STEAM_0:1:90776780> (took 38 seconds).
[14:27:49] Client "[FAFB]TottalyNOTRacist" connected.
[14:29:03] Server is shutting down/changing levels.



[14:29:10] New map: surf_fast
[14:30:20] Client "[FAFB]TottalyNOTRacist" spawned in server <STEAM_0:1:84483760> (took 71 seconds).
[14:30:20] Client "Bot25" connected.
[14:30:20] Client "Bot25" spawned in server <BOT> (took 71 seconds).
[14:30:22] Client "Bot26" connected.
[14:30:22] Client "Bot26" spawned in server <BOT> (took 73 seconds).
[14:30:45] Client "quelqu'un" spawned in server <STEAM_0:0:122047360> (took 96 seconds).
[14:30:45] Client "Speedy9765" spawned in server <STEAM_0:1:90776780> (took 96 seconds).
[14:31:22] Dropped "[FAFB]TottalyNOTRacist" from server<STEAM_0:1:84483760>
[14:33:30] Client "FAT BANANA MAN" connected.
[14:35:21] Dropped "quelqu'un" from server<STEAM_0:0:122047360>
[14:35:25] Dropped "Speedy9765" from server<STEAM_0:1:90776780>
[14:35:27] Dropped "Bot25" from server<BOT>
[14:35:27] Dropped "Bot26" from server<BOT>
[14:58:17] Client "SarcazMicGamez" connected.
[14:59:46] Server is shutting down/changing levels.



[14:59:53] New map: surf_advanced
[15:18:15] Client "liruik" connected.
[15:18:35] Client "liruik" spawned in server <STEAM_0:0:177311164> (took 20 seconds).
[15:18:35] Client "Bot27" connected.
[15:18:35] Client "Bot27" spawned in server <BOT> (took 1123 seconds).
[15:18:37] Client "Bot28" connected.
[15:18:37] Client "Bot28" spawned in server <BOT> (took 1125 seconds).
[15:19:07] Dropped "liruik" from server<STEAM_0:0:177311164>
[15:19:07] Dropped "Bot27" from server<BOT>
[15:19:07] Dropped "Bot28" from server<BOT>
[15:26:07] Client "Roan Albers" connected.
[15:26:43] Client "Roan Albers" spawned in server <STEAM_0:1:156969471> (took 36 seconds).
[15:26:43] Client "Bot29" connected.
[15:26:43] Client "Bot29" spawned in server <BOT> (took 1611 seconds).
[15:26:45] Client "Bot30" connected.
[15:26:45] Client "Bot30" spawned in server <BOT> (took 1613 seconds).
[15:27:58] Dropped "Roan Albers" from server<STEAM_0:1:156969471>
[15:27:58] Dropped "Bot29" from server<BOT>
[15:27:58] Dropped "Bot30" from server<BOT>
[15:30:29] Server is shutting down/changing levels.



[15:30:36] New map: surf_beginner
[15:44:57] Client "edior13" connected.
[15:45:08] Client "edior13" spawned in server <STEAM_0:0:163558315> (took 11 seconds).
[15:45:08] Client "Bot31" connected.
[15:45:08] Client "Bot31" spawned in server <BOT> (took 873 seconds).
[15:45:10] Client "Bot32" connected.
[15:45:10] Client "Bot32" spawned in server <BOT> (took 875 seconds).
[15:47:21] edior13: !knife
[15:48:09] Dropped "edior13" from server<STEAM_0:0:163558315>
[15:48:09] Dropped "Bot31" from server<BOT>
[15:48:09] Dropped "Bot32" from server<BOT>
[15:57:14] Client "AtomPvPCraft" connected.
[15:57:29] Client "AtomPvPCraft" spawned in server <STEAM_0:1:111655205> (took 15 seconds).
[15:57:29] Client "Bot33" connected.
[15:57:29] Client "Bot33" spawned in server <BOT> (took 1614 seconds).
[15:57:31] Client "Bot34" connected.
[15:57:31] Client "Bot34" spawned in server <BOT> (took 1616 seconds).
[15:59:59] Client "blakemedlock" connected.
[16:00:50] Client "blakemedlock" spawned in server <STEAM_0:0:201209605> (took 51 seconds).
[16:00:59] Dropped "AtomPvPCraft" from server<STEAM_0:1:111655205>
[16:01:12] Server is shutting down/changing levels.



[16:01:19] New map: surf_kitsune2
[16:31:55] Server is shutting down/changing levels.



[16:32:01] New map: surf_ace
[16:44:36] Client "Jupituss" connected.
[16:45:07] Client "Jupituss" spawned in server <STEAM_0:1:172088423> (took 31 seconds).
[16:45:07] Client "Bot35" connected.
[16:45:07] Client "Bot35" spawned in server <BOT> (took 787 seconds).
[16:45:09] Client "Bot36" connected.
[16:45:09] Client "Bot36" spawned in server <BOT> (took 789 seconds).
[16:47:50] Jupituss: !r
[16:48:04] Jupituss: !r
[16:49:26] Jupituss: !r
[16:50:18] Dropped "Jupituss" from server<STEAM_0:1:172088423>
[16:50:18] Dropped "Bot35" from server<BOT>
[16:50:18] Dropped "Bot36" from server<BOT>
[17:02:37] Server is shutting down/changing levels.



[17:02:44] New map: surf_reprise_fix
[17:33:19] Server is shutting down/changing levels.



[17:33:26] New map: surf_sundown_njv
[18:04:02] Server is shutting down/changing levels.



[18:04:09] New map: surf_simpsons_source
[18:11:37] Client "maxance.mainguet" connected.
[18:24:36] Client "Schnitzelnaut" connected.
[18:24:41] Client "Phlibbib" connected.
[18:25:47] Client "Schnitzelnaut" spawned in server <STEAM_0:1:66187099> (took 71 seconds).
[18:25:47] Client "Bot37" connected.
[18:25:47] Client "Bot37" spawned in server <BOT> (took 1299 seconds).
[18:25:49] Client "Bot38" connected.
[18:25:49] Client "Bot38" spawned in server <BOT> (took 1301 seconds).
[18:26:45] Client "Phlibbib" spawned in server <STEAM_0:0:80666915> (took 124 seconds).
[18:28:03] (TEAM) Schnitzelnaut: !tutorial
[18:30:48] Phlibbib: !unbox
[18:30:52] Phlibbib: !unbox
[18:31:53] Dropped "Schnitzelnaut" from server<STEAM_0:1:66187099>
[18:32:08] Dropped "Phlibbib" from server<STEAM_0:0:80666915>
[18:32:08] Dropped "Bot37" from server<BOT>
[18:32:08] Dropped "Bot38" from server<BOT>
[18:34:49] Server is shutting down/changing levels.



[18:34:56] New map: surf_ace
[18:46:55] Client "divinedragon" connected.
[19:04:57] Client "Mr.Frank" connected.
[19:05:31] Server is shutting down/changing levels.



[19:05:38] New map: surf_rookie
[19:05:53] Client "Mr.Frank" spawned in server <STEAM_0:0:113187351> (took 16 seconds).
[19:05:53] Client "Bot39" connected.
[19:05:53] Client "Bot39" spawned in server <BOT> (took 16 seconds).
[19:05:55] Client "Bot40" connected.
[19:05:55] Client "Bot40" spawned in server <BOT> (took 18 seconds).
[19:06:11] Mr.Frank: !r
[19:08:35] Mr.Frank: !r
[19:08:38] Mr.Frank: !rtv
[19:08:44] Mr.Frank: !nominate
[19:09:19] Mr.Frank: !rtv
[19:09:22] Mr.Frank: !rtv
[19:10:15] Mr.Frank: !rtv
[19:10:19] Mr.Frank: !r
[19:14:35] Mr.Frank: !r
[19:14:36] Mr.Frank: !rtv
[19:15:13] Server is shutting down/changing levels.



[19:15:20] New map: surf_sluice_final
[19:16:02] Client "Mr.Frank" spawned in server <STEAM_0:0:113187351> (took 44 seconds).
[19:16:02] Client "Bot41" connected.
[19:16:02] Client "Bot41" spawned in server <BOT> (took 44 seconds).
[19:16:04] Client "Bot42" connected.
[19:16:04] Client "Bot42" spawned in server <BOT> (took 46 seconds).
[19:25:42] Mr.Frank: !r
[19:25:46] Mr.Frank: !r
[19:27:03] Mr.Frank: !r
[19:28:26] Client "koterx" connected.
[19:31:57] Mr.Frank: !r
[19:32:20] Mr.Frank: !r
[19:32:24] Mr.Frank: !r
[19:32:28] Mr.Frank: !r
[19:33:01] Mr.Frank: !rtv
[19:33:37] Server is shutting down/changing levels.



[19:33:44] New map: surf_utopia_njv
[19:33:56] Client "Mr.Frank" spawned in server <STEAM_0:0:113187351> (took 14 seconds).
[19:33:56] Client "Bot43" connected.
[19:33:56] Client "Bot43" spawned in server <BOT> (took 14 seconds).
[19:33:58] Client "Bot44" connected.
[19:33:58] Client "Bot44" spawned in server <BOT> (took 16 seconds).
[19:35:00] Client "koterx" spawned in server <STEAM_0:0:77823430> (took 78 seconds).
[19:36:04] Mr.Frank: !r
[19:36:14] Mr.Frank: !r
[19:37:29] Dropped "Mr.Frank" from server<STEAM_0:0:113187351>
[20:02:10] Client "Gang-Gang" connected.
[20:02:17] Client "Gang-Gang" connected.
[20:03:19] Client "Daddy" connected.
[20:03:29] Client "Gang-Gang" connected.
[20:03:44] Client "Daddy" spawned in server <STEAM_0:1:194960052> (took 25 seconds).
[20:04:20] Server is shutting down/changing levels.



[20:04:27] New map: surf_fast
[20:04:38] Client "Daddy" spawned in server <STEAM_0:1:194960052> (took 12 seconds).
[20:04:38] Client "Bot45" connected.
[20:04:38] Client "Bot45" spawned in server <BOT> (took 12 seconds).
[20:04:40] Client "Bot46" connected.
[20:04:40] Client "Bot46" spawned in server <BOT> (took 14 seconds).
[20:04:54] Client "Nevyks | tαyzer" connected.
[20:07:47] Client "SarcazMicGamez" connected.
[20:08:15] Client "Nevyks | tαyzer" connected.
[20:08:47] Client "Nevyks | tαyzer" spawned in server <STEAM_0:1:148439411> (took 32 seconds).
[20:10:43] Dropped "Daddy" from server<STEAM_0:1:194960052>
[20:12:57] Client "koterx" spawned in server <STEAM_0:0:77823430> (took 511 seconds).
[20:18:59] Dropped "Nevyks | tαyzer" from server<STEAM_0:1:148439411>
[20:33:59] Client "Elzar" connected.
[20:35:03] Server is shutting down/changing levels.



[20:35:10] New map: surf_beginner
[20:36:08] Client "koterx" spawned in server <STEAM_0:0:77823430> (took 60 seconds).
[20:36:08] Client "Bot47" connected.
[20:36:08] Client "Bot47" spawned in server <BOT> (took 60 seconds).
[20:36:10] Client "Bot48" connected.
[20:36:10] Client "Bot48" spawned in server <BOT> (took 62 seconds).
[20:41:22] koterx: !tutorial
[20:45:03] Client "Speedy9765" connected.
[20:46:30] Client "Speedy9765" spawned in server <STEAM_0:1:90776780> (took 87 seconds).
[20:53:57] Client "21RedPeppers" connected.
[20:54:26] Client "21RedPeppers" spawned in server <STEAM_0:1:104477117> (took 29 seconds).
[20:58:52] Dropped "21RedPeppers" from server<STEAM_0:1:104477117>
[20:59:35] Dropped "Speedy9765" from server<STEAM_0:1:90776780>
[21:04:33] Client "Sugualizm" connected.
[21:11:22] Client "Sugualizm" spawned in server <STEAM_0:1:219544976> (took 409 seconds).
[21:12:48] Client "ThatOtherSevie" connected.
[21:15:32] Client "BaseHusky539" connected.
[21:17:29] Dropped "koterx" from server<STEAM_0:0:77823430>
[21:17:52] Dropped "Sugualizm" from server<STEAM_0:1:219544976>
[21:19:41] Client "KEVINASCUE" connected.
[21:21:17] Server is shutting down/changing levels.



[21:21:24] New map: surf_advanced
[21:22:15] Client "Roan Albers" connected.
[21:23:04] Client "Roan Albers" spawned in server <STEAM_0:1:156969471> (took 49 seconds).
[21:23:04] Client "Bot49" connected.
[21:23:04] Client "Bot49" spawned in server <BOT> (took 101 seconds).
[21:23:06] Client "Bot50" connected.
[21:23:06] Client "Bot50" spawned in server <BOT> (took 103 seconds).
[21:23:51] Client "ThatOtherSevie" spawned in server <STEAM_0:0:108938283> (took 148 seconds).
[21:24:29] Dropped "ThatOtherSevie" from server<STEAM_0:0:108938283>
[21:24:44] Dropped "Roan Albers" from server<STEAM_0:1:156969471>
[21:25:45] Client "KEVINASCUE" spawned in server <STEAM_0:0:191010368> (took 262 seconds).
[21:28:16] Dropped "KEVINASCUE" from server<STEAM_0:0:191010368>
[21:28:16] Dropped "Bot49" from server<BOT>
[21:28:16] Dropped "Bot50" from server<BOT>
[21:52:00] Server is shutting down/changing levels.



[21:52:07] New map: surf_sundown_njv
[21:57:41] Client "Stanley Judas Pinkwater" connected.
[21:59:29] Client "Stanley Judas Pinkwater" spawned in server <STEAM_0:0:65630119> (took 108 seconds).
[21:59:29] Client "Bot51" connected.
[21:59:29] Client "Bot51" spawned in server <BOT> (took 443 seconds).
[21:59:31] Client "Bot52" connected.
[21:59:31] Client "Bot52" spawned in server <BOT> (took 445 seconds).
[22:03:29] Dropped "Stanley Judas Pinkwater" from server<STEAM_0:0:65630119>
[22:03:29] Dropped "Bot51" from server<BOT>
[22:03:29] Dropped "Bot52" from server<BOT>
[22:22:43] Server is shutting down/changing levels.



[22:22:50] New map: surf_lt_omnific_fix
[22:53:26] Server is shutting down/changing levels.



[22:53:33] New map: surf_rebel_scaz
[23:24:08] Server is shutting down/changing levels.



[23:24:15] New map: surf_stonework3
[23:30:13] Client "Espartano2004" connected.
[23:31:36] Client "Espartano2004" spawned in server <STEAM_0:0:123017690> (took 83 seconds).
[23:31:36] Client "Bot53" connected.
[23:31:36] Client "Bot53" spawned in server <BOT> (took 442 seconds).
[23:31:38] Client "Bot54" connected.
[23:31:38] Client "Bot54" spawned in server <BOT> (took 444 seconds).
[23:31:49] Client "♣Ch1wuaka♣" connected.
[23:32:54] Client "♣Ch1wuaka♣" spawned in server <STEAM_0:0:144311905> (took 65 seconds).
[23:35:41] Espartano2004: !rtv
[23:41:49] Client "DoubleThePsycho" connected.
[23:42:49] ♣Ch1wuaka♣: !rtv
[23:43:25] Server is shutting down/changing levels.



[23:43:31] New map: surf_ace
[23:43:50] Client "Espartano2004" spawned in server <STEAM_0:0:123017690> (took 20 seconds).
[23:43:50] Client "Bot55" connected.
[23:43:50] Client "Bot55" spawned in server <BOT> (took 20 seconds).
[23:43:52] Client "Bot56" connected.
[23:43:52] Client "Bot56" spawned in server <BOT> (took 22 seconds).
[23:43:55] Client "♣Ch1wuaka♣" spawned in server <STEAM_0:0:144311905> (took 25 seconds).
[23:44:02] Client "DoubleThePsycho" spawned in server <STEAM_0:0:120853768> (took 32 seconds).
[23:47:02] ♣Ch1wuaka♣: !unbox
[23:47:43] ♣Ch1wuaka♣: !Jb
[23:48:11] Dropped "DoubleThePsycho" from server<STEAM_0:0:120853768>
[23:53:43] Client "Manblox" connected.
[23:54:47] Client "Manblox" spawned in server <STEAM_0:0:140479720> (took 64 seconds).
[23:55:00] Dropped "Manblox" from server<STEAM_0:0:140479720>
[23:55:00] Client "Manblox" connected.
[23:55:12] Client "Manblox" spawned in server <STEAM_0:0:140479720> (took 12 seconds).
[23:55:27] Client "vcoughlan15" connected.
[23:56:58] Manblox: Hi
[23:57:33] Client "vcoughlan15" spawned in server <STEAM_0:1:222554599> (took 126 seconds).
[23:59:42] Client "♛Negodяй♛" connected.
[23:59:55] ♣Ch1wuaka♣: !fb
[23:59:59] (TEAM) ♣Ch1wuaka♣: !fp
<Logging continued in "data/ulx_logs/07-23-17.txt">
