<Logging continued from "data/ulx_logs/07-25-17.txt">
[00:00:16] Dropped "«ɴѕ» Pluto" from server<STEAM_0:0:81864841>
[00:00:42] Dropped "«ɴѕ» Nota" from server<STEAM_0:1:48366380>
[00:00:42] Dropped "Bot69" from server<BOT>
[00:00:42] Dropped "Bot70" from server<BOT>
[00:06:21] Client "omelette du fromage" connected.
[00:13:05] Server is shutting down/changing levels.



[00:13:11] New map: surf_wood
[00:16:19] Client "Sr.Pistoleiro Papaco" connected.
[00:17:59] Client "Putnut" connected.
[00:19:11] Client "Putnut" spawned in server <STEAM_0:0:68028878> (took 72 seconds).
[00:19:11] Client "Bot71" connected.
[00:19:11] Client "Bot71" spawned in server <BOT> (took 361 seconds).
[00:19:13] Client "Bot72" connected.
[00:19:13] Client "Bot72" spawned in server <BOT> (took 363 seconds).
[00:20:31] Dropped "Putnut" from server<STEAM_0:0:68028878>
[00:20:31] Dropped "Bot71" from server<BOT>
[00:20:31] Dropped "Bot72" from server<BOT>
[00:39:14] Client "5am, again" connected.
[00:39:45] Client "5am, again" spawned in server <STEAM_0:0:22821902> (took 31 seconds).
[00:39:45] Client "Bot73" connected.
[00:39:45] Client "Bot73" spawned in server <BOT> (took 1595 seconds).
[00:39:47] Client "Bot74" connected.
[00:39:47] Client "Bot74" spawned in server <BOT> (took 1597 seconds).
[00:40:25] 5am, again: rtv
[00:40:26] 5am, again: /b
[00:40:47] 5am, again: !rtv
[00:41:23] Server is shutting down/changing levels.



[00:41:30] New map: surf_dusk
[00:41:41] Client "5am, again" spawned in server <STEAM_0:0:22821902> (took 12 seconds).
[00:41:41] Client "Bot75" connected.
[00:41:41] Client "Bot75" spawned in server <BOT> (took 12 seconds).
[00:41:43] Client "Bot76" connected.
[00:41:43] Client "Bot76" spawned in server <BOT> (took 14 seconds).
[00:41:52] 5am, again: !r
[00:42:01] 5am, again: !r
[00:42:09] 5am, again: !r
[00:42:32] 5am, again: /lg
[00:43:06] Dropped "5am, again" from server<STEAM_0:0:22821902>
[00:43:06] Dropped "Bot75" from server<BOT>
[00:43:06] Dropped "Bot76" from server<BOT>
[00:57:05] Client "Cutt   {LINK REMOVED}" connected.
[01:05:43] Client "lekiwi78s" connected.
[01:06:24] Client "lekiwi78s" spawned in server <STEAM_0:0:213886191> (took 41 seconds).
[01:06:25] Client "Bot77" connected.
[01:06:25] Client "Bot77" spawned in server <BOT> (took 1496 seconds).
[01:06:26] Client "Bot78" connected.
[01:06:26] Client "Bot78" spawned in server <BOT> (took 1497 seconds).
[01:08:09] Client "[KG] Humpy | Leviathan [M]" connected.
[01:08:47] Dropped "lekiwi78s" from server<STEAM_0:0:213886191>
[01:10:51] Client "[KG] Humpy | Leviathan [M]" spawned in server <STEAM_0:0:95364293> (took 162 seconds).
[01:12:06] Server is shutting down/changing levels.



[01:12:13] New map: surf_placid
[01:13:01] Client "[KG] Humpy | Leviathan [M]" spawned in server <STEAM_0:0:95364293> (took 49 seconds).
[01:13:01] Client "Bot79" connected.
[01:13:01] Client "Bot79" spawned in server <BOT> (took 49 seconds).
[01:13:03] Client "Bot80" connected.
[01:13:03] Client "Bot80" spawned in server <BOT> (took 51 seconds).
[01:18:56] Dropped "[KG] Humpy | Leviathan [M]" from server<STEAM_0:0:95364293>
[01:18:56] Dropped "Bot79" from server<BOT>
[01:18:56] Dropped "Bot80" from server<BOT>
[01:42:50] Server is shutting down/changing levels.



[01:42:56] New map: surf_reprise_fix
[01:51:40] Client "s1mple*" connected.
[01:53:45] Client "s1mple*" spawned in server <STEAM_0:0:155502935> (took 125 seconds).
[01:53:45] Client "Bot81" connected.
[01:53:45] Client "Bot81" spawned in server <BOT> (took 650 seconds).
[01:53:47] Client "Bot82" connected.
[01:53:47] Client "Bot82" spawned in server <BOT> (took 652 seconds).
[02:03:23] s1mple*: rtv
[02:03:29] s1mple*: !rtv
[02:04:05] Server is shutting down/changing levels.



[02:04:12] New map: surf_simpsons_source
[02:05:15] Client "s1mple*" spawned in server <STEAM_0:0:155502935> (took 64 seconds).
[02:05:15] Client "Bot83" connected.
[02:05:15] Client "Bot83" spawned in server <BOT> (took 64 seconds).
[02:05:17] Client "Bot84" connected.
[02:05:17] Client "Bot84" spawned in server <BOT> (took 66 seconds).
[02:06:23] s1mple*: !r
[02:07:20] s1mple*: !r
[02:07:38] s1mple*: !R
[02:07:47] s1mple*: !R
[02:07:55] s1mple*: !r
[02:13:04] s1mple*: hy
[02:25:45] Dropped "s1mple*" from server<STEAM_0:0:155502935>
[02:25:45] Dropped "Bot83" from server<BOT>
[02:25:45] Dropped "Bot84" from server<BOT>
[02:34:49] Server is shutting down/changing levels.



[02:34:56] New map: surf_airflow
[02:48:55] Client "SkylZNeox" connected.
[02:49:11] Client "skyjokers" connected.
[02:49:32] Client "SkylZNeox" spawned in server <STEAM_0:1:32272509> (took 37 seconds).
[02:49:32] Client "Bot85" connected.
[02:49:32] Client "Bot85" spawned in server <BOT> (took 877 seconds).
[02:49:34] Client "Bot86" connected.
[02:49:34] Client "Bot86" spawned in server <BOT> (took 879 seconds).
[02:51:37] Client "skyjokers" spawned in server <STEAM_0:0:114536141> (took 146 seconds).
[02:57:01] SkylZNeox: !rdv
[02:57:04] SkylZNeox: /rdv
[02:57:06] SkylZNeox: !rdv
[02:58:38] SkylZNeox: !tutorial
[03:00:37] Client "EliteViper" connected.
[03:03:00] Client "EliteViper" spawned in server <STEAM_0:0:74295168> (took 143 seconds).
[03:04:10] SkylZNeox: !rdv
[03:04:12] SkylZNeox: !command
[03:04:19] SkylZNeox: !
[03:04:53] SkylZNeox: !mapvote
[03:04:55] SkylZNeox: !votemap
[03:05:32] Server is shutting down/changing levels.



[03:05:39] New map: surf_aether
[03:05:51] Client "$k8r Boi" connected.
[03:06:17] Client "SkylZNeox" spawned in server <STEAM_0:1:32272509> (took 39 seconds).
[03:06:17] Client "Bot87" connected.
[03:06:17] Client "Bot87" spawned in server <BOT> (took 39 seconds).
[03:06:17] Client "skyjokers" spawned in server <STEAM_0:0:114536141> (took 39 seconds).
[03:06:19] Client "Bot88" connected.
[03:06:19] Client "Bot88" spawned in server <BOT> (took 41 seconds).
[03:06:29] Client "EliteViper" spawned in server <STEAM_0:0:74295168> (took 51 seconds).
[03:08:00] Client "$k8r Boi" spawned in server <STEAM_0:0:52352433> (took 129 seconds).
[03:09:12] EliteViper: !nick xXShadowClawXx
[03:09:36] Dropped "EliteViper" from server<STEAM_0:0:74295168>
[03:16:23] Dropped "$k8r Boi" from server<STEAM_0:0:52352433>
[03:34:09] Client "gianchamolo" connected.
[03:34:43] Client "Efes" connected.
[03:35:40] Client "gianchamolo" spawned in server <STEAM_0:0:23931615> (took 91 seconds).
[03:36:15] Server is shutting down/changing levels.



[03:36:22] New map: surf_utopia_njv
[03:36:55] Client "SkylZNeox" spawned in server <STEAM_0:1:32272509> (took 34 seconds).
[03:36:55] Client "Bot89" connected.
[03:36:55] Client "Bot89" spawned in server <BOT> (took 34 seconds).
[03:36:56] Client "skyjokers" spawned in server <STEAM_0:0:114536141> (took 35 seconds).
[03:36:57] Client "Bot90" connected.
[03:36:57] Client "Bot90" spawned in server <BOT> (took 36 seconds).
[03:37:05] Client "gianchamolo" spawned in server <STEAM_0:0:23931615> (took 44 seconds).
[03:37:13] Client "Efes" spawned in server <STEAM_0:1:70224555> (took 52 seconds).
[03:52:11] gianchamolo: !tutorial
[03:52:53] Client "Jesus take the bots" connected.
[03:55:15] Client "Jesus take the bots" connected.
[03:56:09] Client "SlickDickWhoBlowsRick" connected.
[03:56:26] SkylZNeox: !votemap
[03:56:51] Client ".الله ❤" connected.
[03:57:08] skyjokers: !votemap
[03:57:20] skyjokers: vot pls
[03:58:13] Client "SlickDickWhoBlowsRick" spawned in server <STEAM_0:0:51852688> (took 124 seconds).
[03:58:26] SkylZNeox: Vote map please
[03:58:48] Client ".الله ❤" spawned in server <STEAM_0:1:48391430> (took 117 seconds).
[04:05:16] (TEAM) gianchamolo: 1 dollar water
[04:05:20] .الله ❤: !trv
[04:05:22] .الله ❤: !rtv
[04:06:58] Server is shutting down/changing levels.



[04:07:05] New map: surf_pox
[04:07:31] Client "skyjokers" spawned in server <STEAM_0:0:114536141> (took 27 seconds).
[04:07:31] Client "Bot91" connected.
[04:07:31] Client "Bot91" spawned in server <BOT> (took 27 seconds).
[04:07:33] Client "Bot92" connected.
[04:07:33] Client "Bot92" spawned in server <BOT> (took 29 seconds).
[04:07:37] Client "SkylZNeox" spawned in server <STEAM_0:1:32272509> (took 33 seconds).
[04:07:45] Client "gianchamolo" spawned in server <STEAM_0:0:23931615> (took 41 seconds).
[04:08:01] Client ".الله ❤" spawned in server <STEAM_0:1:48391430> (took 57 seconds).
[04:08:01] Client "Efes" connected.
[04:08:09] Client "Efes" spawned in server <STEAM_0:1:70224555> (took 8 seconds).
[04:08:09] Client "SlickDickWhoBlowsRick" spawned in server <STEAM_0:0:51852688> (took 65 seconds).
[04:09:36] Dropped "SkylZNeox" from server<STEAM_0:1:32272509>
[04:10:22] Dropped "skyjokers" from server<STEAM_0:0:114536141>
[04:10:49] .الله ❤: !пъknife
[04:10:52] .الله ❤: !knife
[04:11:44] Dropped "gianchamolo" from server<STEAM_0:0:23931615>
[04:11:52] Dropped "Efes" from server<STEAM_0:1:70224555>
[04:12:21] Client "YourboiLucas" connected.
[04:14:55] Client "YourboiLucas" spawned in server <STEAM_0:0:210565132> (took 154 seconds).
[04:15:00] Dropped "SlickDickWhoBlowsRick" from server<STEAM_0:0:51852688>
[04:15:54] .الله ❤: !rtv
[04:16:49] Client "faniell" connected.
[04:17:06] Dropped "YourboiLucas" from server<STEAM_0:0:210565132>
[04:17:42] Server is shutting down/changing levels.



[04:17:49] New map: surf_beginner_hell
[04:18:18] Client "faniell" spawned in server <STEAM_0:0:135601788> (took 30 seconds).
[04:18:18] Client "Bot93" connected.
[04:18:18] Client "Bot93" spawned in server <BOT> (took 30 seconds).
[04:18:20] Client "Bot94" connected.
[04:18:20] Client "Bot94" spawned in server <BOT> (took 32 seconds).
[04:18:44] Client ".الله ❤" spawned in server <STEAM_0:1:48391430> (took 56 seconds).
[04:20:16] Client "CheeseCake" connected.
[04:22:58] Dropped "faniell" from server<STEAM_0:0:135601788>
[04:23:14] .الله ❤: rtv
[04:23:16] .الله ❤: !rtv
[04:23:52] Server is shutting down/changing levels.



[04:23:59] New map: surf_rebel_scaz
[04:25:30] Client ".الله ❤" spawned in server <STEAM_0:1:48391430> (took 92 seconds).
[04:25:30] Client "Bot95" connected.
[04:25:30] Client "Bot95" spawned in server <BOT> (took 92 seconds).
[04:25:32] Client "Bot96" connected.
[04:25:32] Client "Bot96" spawned in server <BOT> (took 94 seconds).
[04:28:18] Client "CheeseCake" spawned in server <STEAM_0:0:112125961> (took 260 seconds).
[04:28:56] CheeseCake: CHEESECAKE DOOS NOT LIEK
[04:31:04] Dropped "CheeseCake" from server<STEAM_0:0:112125961>
[04:32:03] Dropped ".الله ❤" from server<STEAM_0:1:48391430>
[04:32:03] Dropped "Bot95" from server<BOT>
[04:32:03] Dropped "Bot96" from server<BOT>
[04:54:36] Server is shutting down/changing levels.



[04:54:43] New map: surf_kitsune
[04:55:32] Client "Nut"я" connected.
[04:55:59] Client "Nut"я" spawned in server <STEAM_0:1:78849836> (took 27 seconds).
[04:55:59] Client "Bot97" connected.
[04:55:59] Client "Bot97" spawned in server <BOT> (took 78 seconds).
[04:56:01] Client "Bot98" connected.
[04:56:01] Client "Bot98" spawned in server <BOT> (took 80 seconds).
[04:56:29] Nut"я: !r
[04:57:09] Dropped "Nut"я" from server<STEAM_0:1:78849836>
[04:57:09] Dropped "Bot97" from server<BOT>
[04:57:09] Dropped "Bot98" from server<BOT>
[05:09:54] Client "SkylZNeox" connected.
[05:09:58] Client "skyjokers" connected.
[05:10:18] Client "SkylZNeox" connected.
[05:10:36] Client "skyjokers" spawned in server <STEAM_0:0:114536141> (took 38 seconds).
[05:10:36] Client "Bot99" connected.
[05:10:36] Client "Bot99" spawned in server <BOT> (took 955 seconds).
[05:10:38] Client "Bot100" connected.
[05:10:38] Client "Bot100" spawned in server <BOT> (took 957 seconds).
[05:11:38] Dropped "skyjokers" from server<STEAM_0:0:114536141>
[05:11:38] Dropped "Bot99" from server<BOT>
[05:11:38] Dropped "Bot100" from server<BOT>
[05:14:07] Client "skyjokers" connected.
[05:14:19] Client "skyjokers" spawned in server <STEAM_0:0:114536141> (took 12 seconds).
[05:14:19] Client "Bot101" connected.
[05:14:19] Client "Bot101" spawned in server <BOT> (took 1178 seconds).
[05:14:21] Client "Bot102" connected.
[05:14:21] Client "Bot102" spawned in server <BOT> (took 1180 seconds).
[05:14:38] skyjokers: !votemap
[05:15:14] Server is shutting down/changing levels.



[05:15:21] New map: surf_prelude_ksf
[05:15:46] Client "skyjokers" spawned in server <STEAM_0:0:114536141> (took 26 seconds).
[05:15:46] Client "Bot103" connected.
[05:15:46] Client "Bot103" spawned in server <BOT> (took 26 seconds).
[05:15:48] Client "Bot104" connected.
[05:15:48] Client "Bot104" spawned in server <BOT> (took 28 seconds).
[05:21:21] Client "Pipka" connected.
[05:22:54] Client "Pipka" spawned in server <STEAM_0:1:62740196> (took 93 seconds).
[05:23:37] Client "SkylZNeox" connected.
[05:23:54] Client "SkylZNeox" spawned in server <STEAM_0:1:32272509> (took 17 seconds).
[05:35:15] skyjokers: !votemap
[05:35:29] SkylZNeox: !votemap
[05:36:05] Server is shutting down/changing levels.



[05:36:12] New map: surf_simpsons_source
[05:36:38] Client "SkylZNeox" spawned in server <STEAM_0:1:32272509> (took 27 seconds).
[05:36:38] Client "Bot105" connected.
[05:36:38] Client "Bot105" spawned in server <BOT> (took 27 seconds).
[05:36:40] Client "Bot106" connected.
[05:36:40] Client "Bot106" spawned in server <BOT> (took 29 seconds).
[05:36:55] Client "Pipka" spawned in server <STEAM_0:1:62740196> (took 44 seconds).
[05:37:04] Client "skyjokers" spawned in server <STEAM_0:0:114536141> (took 53 seconds).
[05:39:50] Pipka: !rtv
[05:40:45] Dropped "Pipka" from server<STEAM_0:1:62740196>
[05:47:21] skyjokers: !votemap
[05:48:20] Dropped "SkylZNeox" from server<STEAM_0:1:32272509>
[05:48:20] Client "SkylZNeox" connected.
[05:48:32] Client "SkylZNeox" spawned in server <STEAM_0:1:32272509> (took 12 seconds).
[05:48:56] Server is shutting down/changing levels.



[05:49:03] New map: surf_sundown_njv
[05:49:18] Client "SkylZNeox" spawned in server <STEAM_0:1:32272509> (took 16 seconds).
[05:49:18] Client "Bot107" connected.
[05:49:18] Client "Bot107" spawned in server <BOT> (took 16 seconds).
[05:49:20] Client "Bot108" connected.
[05:49:20] Client "Bot108" spawned in server <BOT> (took 18 seconds).
[05:49:28] Client "skyjokers" spawned in server <STEAM_0:0:114536141> (took 26 seconds).
[05:55:35] Dropped "SkylZNeox" from server<STEAM_0:1:32272509>



[06:05:34] New map: surf_mesa
[06:36:11] Server is shutting down/changing levels.



[06:36:18] New map: surf_mesa_aether
[07:06:54] Server is shutting down/changing levels.



[07:07:01] New map: surf_mesa_mine
[07:12:32] Client "calvin" connected.
[07:14:04] Client "calvin" spawned in server <STEAM_0:0:143257182> (took 92 seconds).
[07:14:04] Client "Bot01" connected.
[07:14:04] Client "Bot01" spawned in server <BOT> (took 424 seconds).
[07:14:06] Client "Bot02" connected.
[07:14:06] Client "Bot02" spawned in server <BOT> (took 426 seconds).
[07:20:51] (TEAM) calvin: !unbox
[07:27:03] Dropped "calvin" from server<STEAM_0:0:143257182>
[07:27:03] Dropped "Bot01" from server<BOT>
[07:27:03] Dropped "Bot02" from server<BOT>
[07:37:37] Server is shutting down/changing levels.



[07:37:43] New map: surf_prelude_ksf
[08:08:19] Server is shutting down/changing levels.



[08:08:26] New map: surf_sluice_final
[08:39:02] Server is shutting down/changing levels.



[08:39:09] New map: surf_waterworks
[09:02:41] Client "[ Commander ] [ NightLife ]" connected.
[09:03:55] Client "[ Commander ] [ NightLife ]" spawned in server <STEAM_0:1:70988135> (took 74 seconds).
[09:03:55] Client "Bot03" connected.
[09:03:55] Client "Bot03" spawned in server <BOT> (took 1487 seconds).
[09:03:57] Client "Bot04" connected.
[09:03:57] Client "Bot04" spawned in server <BOT> (took 1489 seconds).
[09:09:44] Server is shutting down/changing levels.



[09:09:51] New map: surf_this_njv
[09:10:05] Client "[ Commander ] [ NightLife ]" spawned in server <STEAM_0:1:70988135> (took 15 seconds).
[09:10:05] Client "Bot05" connected.
[09:10:05] Client "Bot05" spawned in server <BOT> (took 15 seconds).
[09:10:07] Client "Bot06" connected.
[09:10:07] Client "Bot06" spawned in server <BOT> (took 17 seconds).
[09:10:45] Dropped "[ Commander ] [ NightLife ]" from server<STEAM_0:1:70988135>
[09:10:45] Dropped "Bot05" from server<BOT>
[09:10:45] Dropped "Bot06" from server<BOT>
[09:14:53] Client "Tikr" connected.
[09:17:52] Client "Tikr" spawned in server <STEAM_0:1:70243123> (took 179 seconds).
[09:17:52] Client "Bot07" connected.
[09:17:52] Client "Bot07" spawned in server <BOT> (took 482 seconds).
[09:17:54] Client "Bot08" connected.
[09:17:54] Client "Bot08" spawned in server <BOT> (took 484 seconds).
[09:19:03] Client "filthy" connected.
[09:22:53] Dropped "Tikr" from server<STEAM_0:1:70243123>
[09:22:53] Dropped "Bot07" from server<BOT>
[09:22:53] Dropped "Bot08" from server<BOT>
[09:24:03] Client "Tikr" connected.
[09:26:30] Client "Tikr" spawned in server <STEAM_0:1:70243123> (took 147 seconds).
[09:26:30] Client "Bot09" connected.
[09:26:30] Client "Bot09" spawned in server <BOT> (took 1000 seconds).
[09:26:32] Client "Bot10" connected.
[09:26:32] Client "Bot10" spawned in server <BOT> (took 1002 seconds).
[09:31:30] Dropped "Tikr" from server<STEAM_0:1:70243123>
[09:31:30] Dropped "Bot09" from server<BOT>
[09:31:30] Dropped "Bot10" from server<BOT>
[09:32:32] Client "Tikr" connected.
[09:34:50] Client "Tikr" spawned in server <STEAM_0:1:70243123> (took 138 seconds).
[09:34:51] Client "Bot11" connected.
[09:34:51] Client "Bot11" spawned in server <BOT> (took 1501 seconds).
[09:34:52] Client "Bot12" connected.
[09:34:52] Client "Bot12" spawned in server <BOT> (took 1502 seconds).
[09:39:51] Dropped "Tikr" from server<STEAM_0:1:70243123>
[09:39:51] Dropped "Bot11" from server<BOT>
[09:39:51] Dropped "Bot12" from server<BOT>
[09:40:27] Server is shutting down/changing levels.



[09:40:34] New map: surf_prelude_ksf
[09:58:04] Client "«ɴѕ» Nothing" connected.
[09:58:30] Client "«ɴѕ» Nothing" spawned in server <STEAM_0:1:177750444> (took 26 seconds).
[09:58:30] Client "Bot13" connected.
[09:58:30] Client "Bot13" spawned in server <BOT> (took 1077 seconds).
[09:58:32] Client "Bot14" connected.
[09:58:32] Client "Bot14" spawned in server <BOT> (took 1079 seconds).
[09:58:51] «ɴѕ» Nothing: !nominate surf_beginner_hell
[09:59:03] «ɴѕ» Nothing: !r
[09:59:04] «ɴѕ» Nothing: !rtv
[09:59:23] «ɴѕ» Nothing: !spec
[09:59:30] «ɴѕ» Nothing: !records
[09:59:35] «ɴѕ» Nothing: !records
[09:59:40] Server is shutting down/changing levels.



[09:59:47] New map: surf_beginner_hell
[09:59:58] Client "«ɴѕ» Nothing" spawned in server <STEAM_0:1:177750444> (took 12 seconds).
[09:59:58] Client "Bot15" connected.
[09:59:58] Client "Bot15" spawned in server <BOT> (took 12 seconds).
[10:00:00] Client "Bot16" connected.
[10:00:00] Client "Bot16" spawned in server <BOT> (took 14 seconds).
[10:00:14] «ɴѕ» Nothing: !r
[10:00:41] «ɴѕ» Nothing: !r
[10:00:44] «ɴѕ» Nothing: !r
[10:00:49] «ɴѕ» Nothing: !r
[10:00:52] «ɴѕ» Nothing: !r
[10:00:58] «ɴѕ» Nothing: !r
[10:01:02] «ɴѕ» Nothing: !r
[10:01:08] «ɴѕ» Nothing: !r
[10:01:35] «ɴѕ» Nothing: !r
[10:01:45] «ɴѕ» Nothing: !r
[10:01:51] «ɴѕ» Nothing: !r
[10:02:01] «ɴѕ» Nothing: !r
[10:02:04] «ɴѕ» Nothing: !r
[10:02:10] «ɴѕ» Nothing: !r
[10:02:30] «ɴѕ» Nothing: !r
[10:02:39] «ɴѕ» Nothing: !r
[10:02:50] «ɴѕ» Nothing: !r
[10:02:56] «ɴѕ» Nothing: !r
[10:11:54] Dropped "«ɴѕ» Nothing" from server<STEAM_0:1:177750444>
[10:11:54] Dropped "Bot15" from server<BOT>
[10:11:54] Dropped "Bot16" from server<BOT>
[10:30:23] Server is shutting down/changing levels.



[10:30:30] New map: surf_ace
[11:01:06] Server is shutting down/changing levels.



[11:01:12] New map: surf_sundown_njv
[11:31:48] Server is shutting down/changing levels.



[11:31:55] New map: surf_advanced
[11:32:47] Client "Nut"я" connected.
[11:33:13] Client "Nut"я" spawned in server <STEAM_0:1:78849836> (took 26 seconds).
[11:33:13] Client "Bot17" connected.
[11:33:13] Client "Bot17" spawned in server <BOT> (took 79 seconds).
[11:33:15] Client "Bot18" connected.
[11:33:15] Client "Bot18" spawned in server <BOT> (took 81 seconds).
[11:33:35] Nut"я: !rtv
[11:36:25] Client "CriPx I Brown Bear" connected.
[11:37:26] Client "CriPx I Brown Bear" spawned in server <STEAM_0:1:50305422> (took 61 seconds).
[11:38:12] Nut"я: !rtv
[11:38:59] CriPx I Brown Bear: OLE TAasa
[11:39:02] CriPx I Brown Bear: TRA
[11:39:51] CriPx I Brown Bear: TRA MA OLEN EESTIST LITS
[11:40:11] CriPx I Brown Bear: EESTIST OLEN
[11:42:19] Dropped "CriPx I Brown Bear" from server<STEAM_0:1:50305422>
[11:42:55] Server is shutting down/changing levels.



[11:43:02] New map: surf_mesa
[11:43:20] Client "Nut"я" spawned in server <STEAM_0:1:78849836> (took 20 seconds).
[11:43:20] Client "Bot19" connected.
[11:43:20] Client "Bot19" spawned in server <BOT> (took 20 seconds).
[11:43:22] Client "Bot20" connected.
[11:43:22] Client "Bot20" spawned in server <BOT> (took 22 seconds).
[11:44:45] Client "Jevankings" connected.
[11:46:57] Client "Jevankings" spawned in server <STEAM_0:1:193196951> (took 132 seconds).
[11:48:39] Client "juanismaelruiz7063" connected.
[11:48:56] Jevankings: vai!rules
[11:50:38] Client "juanismaelruiz7063" spawned in server <STEAM_0:1:156314526> (took 119 seconds).
[11:52:44] Dropped "Jevankings" from server<STEAM_0:1:193196951>
[11:53:26] Nut"я: !rank
[11:57:07] Dropped "Nut"я" from server<STEAM_0:1:78849836>
[11:58:08] Client "MAL73" connected.
[12:00:20] Client "MAL73" spawned in server <STEAM_0:1:79453581> (took 132 seconds).
[12:00:42] Dropped "juanismaelruiz7063" from server<STEAM_0:1:156314526>
[12:05:58] Client "Apfelmesser" connected.
[12:06:26] MAL73: !unbox
[12:07:56] Client "Apfelmesser" spawned in server <STEAM_0:0:194997296> (took 118 seconds).
[12:13:38] Server is shutting down/changing levels.



[12:13:45] New map: surf_rookie
[12:14:05] Client "MAL73" spawned in server <STEAM_0:1:79453581> (took 22 seconds).
[12:14:05] Client "Bot21" connected.
[12:14:05] Client "Bot21" spawned in server <BOT> (took 22 seconds).
[12:14:07] Client "Bot22" connected.
[12:14:07] Client "Bot22" spawned in server <BOT> (took 24 seconds).
[12:14:21] Client "Apfelmesser" spawned in server <STEAM_0:0:194997296> (took 38 seconds).
[12:18:14] Client "skyjokers" connected.
[12:19:21] Client "skyjokers" spawned in server <STEAM_0:0:114536141> (took 67 seconds).
[12:19:54] skyjokers: !help
[12:20:17] skyjokers: ~help
[12:20:24] skyjokers: ~
[12:20:27] MAL73: were
[12:20:29] MAL73: sup?
[12:20:31] Apfelmesser: how?
[12:20:48] skyjokers: pls drop command for stop music
[12:20:50] skyjokers: pls
[12:20:54] Apfelmesser: ! jb
[12:20:56] MAL73: .!jb
[12:21:00] Apfelmesser: .!jb
[12:21:03] skyjokers: thx ;)
[12:21:06] Apfelmesser: np
[12:21:07] MAL73: np
[12:22:14] MAL73: !rtv
[12:24:27] Apfelmesser: !rtv
[12:25:03] Server is shutting down/changing levels.



[12:25:10] New map: surf_lighthouse
[12:25:25] Client "MAL73" spawned in server <STEAM_0:1:79453581> (took 16 seconds).
[12:25:25] Client "Bot23" connected.
[12:25:25] Client "Bot23" spawned in server <BOT> (took 16 seconds).
[12:25:27] Client "Bot24" connected.
[12:25:27] Client "Bot24" spawned in server <BOT> (took 18 seconds).
[12:25:29] Client "Apfelmesser" spawned in server <STEAM_0:0:194997296> (took 20 seconds).
[12:25:32] MAL73: !menu
[12:25:35] Client "skyjokers" spawned in server <STEAM_0:0:114536141> (took 26 seconds).
[12:28:45] MAL73: !unbox
[12:29:56] Apfelmesser: !unbox
[12:30:52] MAL73: !unbox
[12:31:34] skyjokers: !votemap
[12:31:46] skyjokers: pls
[12:31:55] MAL73: !unbox
[12:32:57] MAL73: !unbox
[12:33:09] MAL73: !unbox
[12:35:05] Apfelmesser: !unbox
[12:35:05] MAL73: !unbox
[12:35:10] Dropped "Apfelmesser" from server<STEAM_0:0:194997296>
[12:35:23] Client "Apfelmesser" connected.
[12:35:36] Client "Apfelmesser" spawned in server <STEAM_0:0:194997296> (took 13 seconds).
[12:35:51] MAL73: !unbox
[12:36:03] Apfelmesser: !unbox
[12:36:05] MAL73: !unbox
[12:37:00] Apfelmesser: !unbox
[12:37:07] MAL73: !unbox
[12:37:08] Apfelmesser: !unbox
[12:37:29] skyjokers: !votemap
[12:37:40] Client "beb" connected.
[12:37:41] skyjokers: vote pls
[12:37:49] Apfelmesser: !unbox
[12:37:55] MAL73: !menu
[12:37:57] MAL73 voted for surf_aircontrol_ksf (1/3)
[12:38:04] MAL73: !unbox
[12:38:18] skyjokers voted for surf_aircontrol_ksf (2/3)
[12:38:18] skyjokers: !votemap 4
[12:38:41] MAL73: !steam
[12:38:48] Apfelmesser voted for surf_aircontrol_ksf (3/3)
[12:38:48] Votemap for surf_aircontrol_ksf won.
[12:38:48] Apfelmesser: !votemap 4
[12:38:48] Server is shutting down/changing levels.



[12:38:54] New map: surf_aircontrol_ksf
[12:39:08] Client "MAL73" spawned in server <STEAM_0:1:79453581> (took 15 seconds).
[12:39:08] Client "Bot25" connected.
[12:39:08] Client "Bot25" spawned in server <BOT> (took 15 seconds).
[12:39:10] Client "Bot26" connected.
[12:39:10] Client "Bot26" spawned in server <BOT> (took 17 seconds).
[12:39:11] Client "Apfelmesser" spawned in server <STEAM_0:0:194997296> (took 18 seconds).
[12:39:16] Client "skyjokers" spawned in server <STEAM_0:0:114536141> (took 23 seconds).
[12:39:21] Client "beb" spawned in server <STEAM_0:0:100430746> (took 28 seconds).
[12:39:33] Apfelmesser: !unbox
[12:40:34] MAL73: !unbox
[12:42:24] Apfelmesser: !unbox
[12:42:57] Client "[ Commander ] [ NightLife ]" connected.
[12:43:00] MAL73: !unbox
[12:43:33] MAL73: !unbox
[12:44:33] MAL73: !unbox
[12:44:41] MAL73: !unbox
[12:45:18] MAL73: !unbox
[12:45:37] Apfelmesser: !unbox
[12:47:19] Apfelmesser: !unbox
[12:47:20] MAL73: !unbox
[12:47:44] MAL73: !unbox
[12:50:36] MAL73: !unbox
[12:51:42] Apfelmesser: !unbox
[12:52:20] MAL73: !unbox
[12:53:03] MAL73: !unbox
[12:53:09] Client "TheDarkKnight" connected.
[12:54:42] MAL73: !unbox
[12:56:20] MAL73: !unbox
[13:00:07] Client "fuckyou" connected.
[13:00:18] Dropped "beb" from server<STEAM_0:0:100430746>
[13:00:48] Client "G.E.W.P GumburGER" connected.
[13:04:53] Client "G.E.W.P GumburGER" spawned in server <STEAM_0:0:209042156> (took 245 seconds).
[13:06:02] Dropped "G.E.W.P GumburGER" from server<STEAM_0:0:209042156>
[13:07:09] skyjokers: !votemap
[13:16:44] Client "Papanomaly XD" connected.
[13:18:04] Client "( ͡◉ ͜ʖ ͡◉)" connected.
[13:18:18] Client "( ͡◉ ͜ʖ ͡◉)" connected.
[13:19:06] Client "Papanomaly XD" spawned in server <STEAM_0:0:154709751> (took 142 seconds).
[13:19:09] Apfelmesser: !unbox
[13:19:24] Apfelmesser: !unbox
[13:19:27] MAL73: !unbox
[13:19:44] Client "( ͡◉ ͜ʖ ͡◉)" connected.
[13:19:58] MAL73: !unbox
[13:20:30] Client "( ͡◉ ͜ʖ ͡◉)" spawned in server <STEAM_0:0:104863777> (took 46 seconds).
[13:21:16] MAL73: !unbox
[13:21:43] Dropped "Papanomaly XD" from server<STEAM_0:0:154709751>
[13:22:31] MAL73: !unbox
[13:23:21] MAL73: !unbox
[13:23:25] MAL73: !unbox
[13:23:42] Dropped "( ͡◉ ͜ʖ ͡◉)" from server<STEAM_0:0:104863777>
[13:24:40] Apfelmesser: !unbox
[13:25:02] MAL73: !unbox
[13:27:49] MAL73: !unbox
[13:30:37] Apfelmesser: !unbox
[13:30:57] skyjokers: !votemap
[13:31:01] skyjokers: pls
[13:31:18] MAL73: Noo
[13:31:20] MAL73: pls not
[13:31:38] skyjokers: for what
[13:31:43] Client "«ɴѕ» Nothing" connected.
[13:32:27] Client "«ɴѕ» Nothing" spawned in server <STEAM_0:1:177750444> (took 44 seconds).
[13:32:40] skyjokers: !votemap
[13:32:50] MAL73: why do you wanna switch
[13:33:23] skyjokers: pls is lacing the i finish 20 
[13:33:33] «ɴѕ» Nothing: !r
[13:33:34] MAL73: what?
[13:33:49] «ɴѕ» Nothing: !r
[13:33:53] «ɴѕ» Nothing: !r
[13:34:09] skyjokers: i finish the map 20x
[13:34:22] MAL73: then play the map bonus
[13:34:56] «ɴѕ» Nothing: !b
[13:34:59] «ɴѕ» Nothing: !b1
[13:35:01] «ɴѕ» Nothing: !b2
[13:35:04] «ɴѕ» Nothing: !nominate
[13:35:08] «ɴѕ» Nothing: !r
[13:35:15] «ɴѕ» Nothing: !lg
[13:35:43] Dropped "«ɴѕ» Nothing" from server<STEAM_0:1:177750444>
[13:36:28] Dropped "skyjokers" from server<STEAM_0:0:114536141>
[13:41:19] Apfelmesser: !unbox
[13:41:20] MAL73: !unbox
[13:41:46] Apfelmesser: !unbox
[13:43:05] Client "Viper" connected.
[13:43:19] MAL73: !unbox
[13:43:48] MAL73: !unbox
[13:45:39] Apfelmesser: !unbox
[13:46:28] Client "2G Ninja" connected.
[13:46:47] Client "2G Ninja" spawned in server <STEAM_0:1:165151458> (took 19 seconds).
[13:46:55] MAL73: !knife
[13:46:56] Client "Cookie ninja" connected.
[13:47:00] MAL73: !knife
[13:47:08] 2G Ninja: !shop
[13:47:42] MAL73: !rareknife
[13:47:57] MAL73: !knife
[13:48:18] MAL73: 1knife
[13:48:21] MAL73: !knife
[13:48:41] Dropped "2G Ninja" from server<STEAM_0:1:165151458>
[13:48:44] Client "GAZOИGΞ" connected.
[13:50:17] Apfelmesser: war einfach+
[13:50:46] Apfelmesser: mat
[13:50:52] Apfelmesser: mat
[13:50:56] MAL73: !knife
[13:51:10] MAL73: !knivew
[13:51:12] MAL73: !knive
[13:51:54] Apfelmesser: !unbox
[13:51:58] MAL73: !knive
[13:52:10] MAL73: !kives
[13:52:12] MAL73: !knive
[13:52:14] MAL73: !knife
[13:52:29] Apfelmesser: !kinves
[13:52:36] Apfelmesser: !knifes
[13:53:00] Apfelmesser: !unbox
[13:53:17] Client "[Sirenia]-[Decay]-[Ailyn]" connected.
[13:53:46] Client "[Sirenia]-[Decay]-[Ailyn]" spawned in server <STEAM_0:0:50905004> (took 29 seconds).
[13:54:11] MAL73: OUR GOD
[13:54:24] Apfelmesser: !unbox
[13:55:26] MAL73: !menu
[13:55:41] Client "GAZOИGΞ" spawned in server <STEAM_0:1:93185552> (took 417 seconds).
[13:55:43] Apfelmesser: !unbox
[13:56:49] Apfelmesser: !unbox
[13:56:53] [Sirenia]-[Decay]-[Ailyn]: !r
[13:57:42] GAZOИGΞ: !tutorial
[13:57:51] [Sirenia]-[Decay]-[Ailyn]: !r
[13:58:29] MAL73: !record
[13:58:59] [Sirenia]-[Decay]-[Ailyn]: !r
[13:59:04] GAZOИGΞ: !unbox
[13:59:55] [Sirenia]-[Decay]-[Ailyn]: !r
[13:59:58] [Sirenia]-[Decay]-[Ailyn]: !rtv
[14:00:10] Dropped "[Sirenia]-[Decay]-[Ailyn]" from server<STEAM_0:0:50905004>
[14:00:20] GAZOИGΞ: this is map is broken
[14:00:29] Apfelmesser: hmm ok
[14:00:36] Apfelmesser: wanna a case with key?
[14:02:31] Dropped "GAZOИGΞ" from server<STEAM_0:1:93185552>
[14:02:34] Client "GAZOИGΞ" connected.
[14:06:48] Client "нэвэльный" connected.
[14:07:43] Client "нэвэльный" connected.
[14:09:13] Apfelmesser: !unbox
[14:10:05] MAL73: !unbox
[14:11:39] Apfelmesser: !unbox
[14:12:35] Client "Nut"я" connected.
[14:12:54] Client "BleyBleyBley I AG Tv" connected.
[14:13:11] Client "Nut"я" spawned in server <STEAM_0:1:78849836> (took 36 seconds).
[14:13:37] Apfelmesser: !unbox
[14:14:44] MAL73: !unbox
[14:15:24] Apfelmesser: !unbox#
[14:15:26] Apfelmesser: !unbox#
[14:15:30] Apfelmesser: !unbox
[14:16:20] Apfelmesser: !unbox
[14:17:19] Dropped "Nut"я" from server<STEAM_0:1:78849836>
[14:17:32] Apfelmesser: !unbox
[14:18:43] Client "KK" connected.
[14:19:01] Client "KK" spawned in server <STEAM_0:0:30546804> (took 18 seconds).
[14:19:14] Apfelmesser: !unbox#
[14:19:20] Apfelmesser: !unbox
[14:21:54] Client "Drty" connected.
[14:22:00] Client "Drty" connected.
[14:22:07] Dropped "KK" from server<STEAM_0:0:30546804>
[14:22:46] Client "Drty" spawned in server <STEAM_0:1:172220397> (took 46 seconds).
[14:22:55] Drty: !r
[14:23:29] Drty: !r
[14:25:23] Drty: !wr
[14:26:20] Drty: !r
[14:26:29] Drty: !r
[14:26:30] Drty: !r
[14:26:41] Client "Niezręczny" connected.
[14:26:44] Drty: !r
[14:26:45] Client "kox207" connected.
[14:27:23] Drty: !r
[14:27:26] Drty: !r
[14:28:09] Client "Niezręczny" spawned in server <STEAM_0:1:61482073> (took 88 seconds).
[14:28:17] Drty: !r
[14:28:20] Drty: !r
[14:28:29] Drty: !r
[14:28:41] Drty: !r
[14:28:49] Drty: !r
[14:30:13] (TEAM) Niezręczny: !tutorial
[14:30:27] MAL73: !knife
[14:30:52] Drty: !r
[14:31:12] Dropped "Niezręczny" from server<STEAM_0:1:61482073>
[14:31:22] Drty: !r
[14:31:55] Client "żbiku I Demon" connected.
[14:32:03] Drty: !r
[14:32:16] Apfelmesser: jb
[14:32:58] Drty: !r
[14:33:01] Client "Guapo Team" connected.
[14:33:22] Client "żbiku I Demon" spawned in server <STEAM_0:1:162168068> (took 87 seconds).
[14:34:06] Drty: !r
[14:34:17] Apfelmesser: !unbox
[14:34:23] Drty: !wr
[14:34:34] Apfelmesser: !unbox
[14:34:34] Drty: !r
[14:34:44] Dropped "żbiku I Demon" from server<STEAM_0:1:162168068>
[14:34:44] Drty: !r
[14:35:35] Drty: !r
[14:36:40] Drty: !r
[14:36:50] Drty: !r
[14:36:53] Drty: !r
[14:37:30] Client "[Sirenia]-[Decay]-[Ailyn]" connected.
[14:38:30] Client "[Sirenia]-[Decay]-[Ailyn]" spawned in server <STEAM_0:0:50905004> (took 60 seconds).
[14:38:30] Drty: !r
[14:38:35] Drty: !nominate
[14:38:53] Drty: !rtv
[14:38:59] Apfelmesser: !unbox
[14:39:44] Drty: !r
[14:40:08] Drty: !r
[14:40:18] Drty: !r
[14:40:27] Drty: !r
[14:40:35] Drty: !r
[14:40:41] Drty: !r
[14:41:00] Drty: !r
[14:41:20] Drty: !r
[14:41:28] [Sirenia]-[Decay]-[Ailyn]: !r
[14:41:30] Drty: !r
[14:42:10] [Sirenia]-[Decay]-[Ailyn]: how to fuck did u get that amount of speed?
[14:42:17] MAL73: Who?
[14:42:32] Drty: !r
[14:42:42] [Sirenia]-[Decay]-[Ailyn]: nvm
[14:42:47] [Sirenia]-[Decay]-[Ailyn]: its the bonus shit
[14:42:52] MAL73: yeah
[14:42:54] Drty: !b
[14:44:02] Client "skyjokers" connected.
[14:44:17] Drty: !r
[14:44:43] Client "skyjokers" spawned in server <STEAM_0:0:114536141> (took 41 seconds).
[14:46:33] Drty: !r
[14:47:01] Drty: !r
[14:48:02] (TEAM) [Sirenia]-[Decay]-[Ailyn]: yehyeh
[14:48:03] [Sirenia]-[Decay]-[Ailyn]: !r
[14:48:42] Drty: !r
[14:48:44] Drty: !WR
[14:48:48] MAL73: Dude wtf
[14:48:52] MAL73: #3place
[14:49:01] skyjokers: !votemap
[14:49:12] [Sirenia]-[Decay]-[Ailyn]: good job!
[14:49:13] [Sirenia]-[Decay]-[Ailyn]: !r
[14:49:44] Client "BleyBleyBley I AG Tv" connected.
[14:49:57] MAL73: !knife
[14:52:50] Client "guy csgofirewheel.com" connected.
[14:52:55] Dropped "[Sirenia]-[Decay]-[Ailyn]" from server<STEAM_0:0:50905004>
[14:53:43] Client "nico_le_sang_71" connected.
[14:53:54] Dropped "Drty" from server<STEAM_0:1:172220397>
[14:54:07] Client "guy csgofirewheel.com" spawned in server <STEAM_0:1:105011167> (took 77 seconds).
[14:54:38] (TEAM) guy csgofirewheel.com: !knife
[14:54:43] guy csgofirewheel.com: !wp
[14:55:41] guy csgofirewheel.com: !ubox
[14:55:45] guy csgofirewheel.com: !unbox
[14:55:49] Apfelmesser: !unbox
[14:57:08] MAL73: !knive
[14:57:09] MAL73: !menu
[14:57:12] MAL73: !knife
[14:57:47] guy csgofirewheel.com: !kives
[14:58:18] skyjokers: niquer vos mere a voter la mme map en boucle
[14:58:33] Client "Sly_Z0Rù$™" connected.
[14:59:35] Dropped "skyjokers" from server<STEAM_0:0:114536141>
[15:01:45] Client "OwL | nitram([©h|ps²])" connected.
[15:02:05] Client "Sly_Z0Rù$™" spawned in server <STEAM_0:0:53711837> (took 212 seconds).
[15:02:34] Dropped "guy csgofirewheel.com" from server<STEAM_0:1:105011167>
[15:03:05] Dropped "MAL73" from server<STEAM_0:1:79453581>
[15:03:22] Client "OwL | nitram([©h|ps²])" spawned in server <STEAM_0:1:50918264> (took 97 seconds).
[15:03:35] Sly_Z0Rù$™: rtv
[15:03:41] Sly_Z0Rù$™: !rtv
[15:03:46] Client "Dabu" connected.
[15:03:46] Client "Dabu" connected.
[15:06:04] Dropped "Apfelmesser" from server<STEAM_0:0:194997296>
[15:06:14] Client "Dabu" spawned in server <STEAM_0:1:162733037> (took 148 seconds).
[15:07:59] Dropped "Sly_Z0Rù$™" from server<STEAM_0:0:53711837>
[15:08:07] Dropped "OwL | nitram([©h|ps²])" from server<STEAM_0:1:50918264>
[15:11:25] Dropped "Dabu" from server<STEAM_0:1:162733037>
[15:11:25] Dropped "Bot25" from server<BOT>
[15:11:25] Dropped "Bot26" from server<BOT>
[15:13:38] Server is shutting down/changing levels.



[15:13:45] New map: surf_lt_omnific_fix
[15:34:51] Client "Dabu" connected.
[15:36:46] Client "Dabu" spawned in server <STEAM_0:1:162733037> (took 115 seconds).
[15:36:46] Client "Bot27" connected.
[15:36:46] Client "Bot27" spawned in server <BOT> (took 1382 seconds).
[15:36:48] Client "Bot28" connected.
[15:36:48] Client "Bot28" spawned in server <BOT> (took 1384 seconds).
[15:38:24] Dropped "Dabu" from server<STEAM_0:1:162733037>
[15:38:24] Dropped "Bot27" from server<BOT>
[15:38:24] Dropped "Bot28" from server<BOT>
[15:44:22] Server is shutting down/changing levels.



[15:44:29] New map: surf_happyhands
[16:15:04] Server is shutting down/changing levels.



[16:15:11] New map: surf_forbidden_ways_ksf
[16:20:11] Client "Mr.Frank" connected.
[16:21:05] Client "Mr.Frank" spawned in server <STEAM_0:0:113187351> (took 54 seconds).
[16:21:05] Client "Bot29" connected.
[16:21:05] Client "Bot29" spawned in server <BOT> (took 355 seconds).
[16:21:07] Client "Bot30" connected.
[16:21:07] Client "Bot30" spawned in server <BOT> (took 357 seconds).
[16:22:10] Mr.Frank: !r
[16:22:18] Mr.Frank: !r
[16:23:09] Client "Shadow Shark" connected.
[16:23:40] Mr.Frank: !nominate
[16:23:46] Mr.Frank: !rtv
[16:24:04] Mr.Frank: !r
[16:24:22] Server is shutting down/changing levels.



[16:24:29] New map: surf_rebel_scaz
[16:25:31] Client "Mr.Frank" spawned in server <STEAM_0:0:113187351> (took 63 seconds).
[16:25:31] Client "Bot31" connected.
[16:25:31] Client "Bot31" spawned in server <BOT> (took 63 seconds).
[16:25:33] Client "Bot32" connected.
[16:25:33] Client "Bot32" spawned in server <BOT> (took 65 seconds).
[16:26:30] Mr.Frank: !r
[16:26:37] Mr.Frank: !r
[16:26:50] Mr.Frank: !r
[16:28:54] Mr.Frank: !r
[16:29:17] Mr.Frank: !nominate
[16:29:33] Mr.Frank: !nominate
[16:29:51] Mr.Frank: !nominate
[16:29:57] (TEAM) Mr.Frank: !tyb
[16:29:59] Mr.Frank: !rtv
[16:30:35] Server is shutting down/changing levels.



[16:30:42] New map: surf_this_njv
[16:30:50] Client "Mr.Frank" spawned in server <STEAM_0:0:113187351> (took 9 seconds).
[16:30:50] Client "Bot33" connected.
[16:30:50] Client "Bot33" spawned in server <BOT> (took 9 seconds).
[16:30:52] Client "Bot34" connected.
[16:30:52] Client "Bot34" spawned in server <BOT> (took 11 seconds).
[16:35:14] Dropped "Mr.Frank" from server<STEAM_0:0:113187351>
[16:35:14] Dropped "Bot33" from server<BOT>
[16:35:14] Dropped "Bot34" from server<BOT>
[16:50:30] Client "Coq - Unijambiste" connected.
[16:51:28] Client "ziwob99" connected.
[16:51:58] Client "ziwob99" spawned in server <STEAM_0:1:206515151> (took 30 seconds).
[16:51:58] Client "Bot35" connected.
[16:51:58] Client "Bot35" spawned in server <BOT> (took 1277 seconds).
[16:52:00] Client "Bot36" connected.
[16:52:00] Client "Bot36" spawned in server <BOT> (took 1279 seconds).
[16:52:41] Dropped "ziwob99" from server<STEAM_0:1:206515151>
[16:53:41] Client "❤Finn Mertens❤" connected.
[16:53:50] Client "§4❤Єтнαɴ❤" connected.
[16:54:18] Client "❤Finn Mertens❤" spawned in server <STEAM_0:0:151899006> (took 37 seconds).
[16:56:00] Client "Coq - Unijambiste" spawned in server <STEAM_0:1:154609239> (took 330 seconds).
[16:56:17] Client "§4❤Єтнαɴ❤" spawned in server <STEAM_0:1:170239846> (took 147 seconds).
[16:58:39] Coq - Unijambiste: !rtv
[16:58:44] §4❤Єтнαɴ❤: !rtv
[16:59:20] Server is shutting down/changing levels.



[16:59:27] New map: surf_utopia_njv
[16:59:53] Client "❤Finn Mertens❤" spawned in server <STEAM_0:0:151899006> (took 27 seconds).
[16:59:53] Client "Bot37" connected.
[16:59:53] Client "Bot37" spawned in server <BOT> (took 27 seconds).
[16:59:55] Client "Bot38" connected.
[16:59:55] Client "Bot38" spawned in server <BOT> (took 29 seconds).
[17:00:00] Client "§4❤Єтнαɴ❤" spawned in server <STEAM_0:1:170239846> (took 34 seconds).
[17:00:01] Client "Coq - Unijambiste" spawned in server <STEAM_0:1:154609239> (took 35 seconds).
[17:00:47] Client "[RZG] Bot Shino" connected.
[17:01:11] Client "[RZG] Bot Shino" connected.
[17:01:31] Client "zanzi" connected.
[17:02:32] Client "zanzi" spawned in server <STEAM_0:0:63824665> (took 61 seconds).
[17:02:51] zanzi: !style
[17:03:00] zanzi: !maps
[17:03:07] Client "[RZG] Bot Shino" connected.
[17:03:32] zanzi: !nominate surf_kitsune2
[17:03:37] zanzi: !wr surf_kitsune2
[17:04:28] Client "[RZG] Bot Shino" connected.
[17:04:40] Client "[RZG] Bot Shino" connected.
[17:04:47] zanzi: !r
[17:04:52] zanzi: !r
[17:05:14] zanzi: !r
[17:05:33] Client "[RZG] Bot Shino" spawned in server <STEAM_0:0:149758542> (took 53 seconds).
[17:05:58] Client "SkylZNeox" connected.
[17:06:01] Dropped "zanzi" from server<STEAM_0:0:63824665>
[17:06:11] Client "neggas_tr" connected.
[17:06:27] §4❤Єтнαɴ❤: :unbox
[17:06:28] Client "Cryptic    " connected.
[17:06:32] §4❤Єтнαɴ❤: !unbox
[17:07:18] Client "neggas_tr" spawned in server <STEAM_0:1:212353018> (took 67 seconds).
[17:07:44] Client "Cryptic    " spawned in server <STEAM_0:1:173333136> (took 76 seconds).
[17:08:30] Coq - Unijambiste: !r
[17:08:37] §4❤Єтнαɴ❤: ̿̿ ̿̿ ̿'̿'\̵͇̿̿\З= ( ▀ ͜͞ʖ▀) =Ε/̵͇̿̿/’̿’̿ ̿ ̿̿ ̿̿ ̿̿ 
[17:08:40] §4❤Єтнαɴ❤: !rtd
[17:08:41] §4❤Єтнαɴ❤: !rtd
[17:09:39] [RZG] Bot Shino: !unbox
[17:10:51] [RZG] Bot Shino: !knife
[17:10:54] Cryptic    : !knife
[17:11:12] Cryptic    : !knife
[17:12:00] [RZG] Bot Shino: !unbox
[17:13:15] Coq - Unijambiste: !r
[17:13:53] Client "skyjokers" connected.
[17:13:57] Client "SkylZNeox" connected.
[17:14:09] Coq - Unijambiste: !r
[17:14:19] Client "SkylZNeox" spawned in server <STEAM_0:1:32272509> (took 22 seconds).
[17:14:24] Client "skyjokers" connected.
[17:14:34] SkylZNeox: !rtv
[17:15:09] §4❤Єтнαɴ❤: !unbox
[17:15:09] Coq - Unijambiste: !r
[17:15:33] Coq - Unijambiste: !r
[17:15:51] Coq - Unijambiste: !r
[17:15:53] ❤Finn Mertens❤: !
[17:16:02] Coq - Unijambiste: !r
[17:16:07] Coq - Unijambiste: !r
[17:16:23] Dropped "Cryptic    " from server<STEAM_0:1:173333136>
[17:16:34] Client "skyjokers" connected.
[17:16:40] Client "skyjokers" connected.
[17:16:59] Coq - Unijambiste: !r
[17:17:10] Client "skyjokers" spawned in server <STEAM_0:0:114536141> (took 30 seconds).
[17:17:34] [RZG] Bot Shino: !unbox
[17:18:24] Coq - Unijambiste: !r
[17:20:11] Dropped "[RZG] Bot Shino" from server<STEAM_0:0:149758542>
[17:23:09] Dropped "❤Finn Mertens❤" from server<STEAM_0:0:151899006>
[17:23:11] Coq - Unijambiste: !r
[17:23:46] Coq - Unijambiste: !r
[17:24:22] Coq - Unijambiste: !r
[17:24:43] Coq - Unijambiste: !r
[17:25:11] §4❤Єтнαɴ❤: :skip
[17:25:15] §4❤Єтнαɴ❤: !skip
[17:25:17] Coq - Unijambiste: !r
[17:26:50] Coq - Unijambiste: !rtv
[17:26:53] §4❤Єтнαɴ❤: !rtv
[17:27:01] §4❤Єтнαɴ❤: please rtv
[17:27:02] Client "HugaroS" connected.
[17:27:02] SkylZNeox: !rtv
[17:27:07] Client "✫Zamuro✫" connected.
[17:27:20] skyjokers: !votemap
[17:27:56] Server is shutting down/changing levels.



[17:28:03] New map: surf_forbidden_ways_ksf
[17:28:38] Client "Coq - Unijambiste" spawned in server <STEAM_0:1:154609239> (took 36 seconds).
[17:28:38] Client "Bot39" connected.
[17:28:38] Client "Bot39" spawned in server <BOT> (took 36 seconds).
[17:28:39] Client "neggas_tr" spawned in server <STEAM_0:1:212353018> (took 37 seconds).
[17:28:40] Client "Bot40" connected.
[17:28:40] Client "Bot40" spawned in server <BOT> (took 38 seconds).
[17:28:46] Client "skyjokers" spawned in server <STEAM_0:0:114536141> (took 44 seconds).
[17:28:47] Client "§4❤Єтнαɴ❤" spawned in server <STEAM_0:1:170239846> (took 45 seconds).
[17:30:01] Coq - Unijambiste: !r
[17:30:08] Coq - Unijambiste: !r
[17:30:56] Coq - Unijambiste: !r
[17:32:59] Coq - Unijambiste: !r
[17:33:12] Coq - Unijambiste: !r
[17:33:37] Coq - Unijambiste: !r
[17:34:23] Coq - Unijambiste: !r
[17:35:01] Client "HugaroS" spawned in server <STEAM_0:0:187115049> (took 419 seconds).
[17:35:26] Coq - Unijambiste: !unbox
[17:35:48] Dropped "neggas_tr" from server<STEAM_0:1:212353018>
[17:35:57] §4❤Єтнαɴ❤: !unbox
[17:36:38] Coq - Unijambiste: !r
[17:36:47] Coq - Unijambiste: !r
[17:37:30] Coq - Unijambiste: !r
[17:37:52] Coq - Unijambiste: !r
[17:38:18] §4❤Єтнαɴ❤: !unbox
[17:39:29] skyjokers: !votemap
[17:39:58] §4❤Єтнαɴ❤: !unbox
[17:40:45] §4❤Єтнαɴ❤: !knifes
[17:40:49] Coq - Unijambiste: !r
[17:41:43] §4❤Єтнαɴ❤: !unbox
[17:42:13] Dropped "skyjokers" from server<STEAM_0:0:114536141>
[17:43:04] Coq - Unijambiste: !unbox
[17:43:10] Client "CANT STOP THE OVERDRIVE" connected.
[17:44:28] §4❤Єтнαɴ❤: !unbox
[17:44:31] Coq - Unijambiste: !unbox
[17:44:58] §4❤Єтнαɴ❤: !unbox
[17:45:34] §4❤Єтнαɴ❤: !unbox
[17:46:25] Coq - Unijambiste: !r
[17:46:31] Coq - Unijambiste: !unbox
[17:47:27] Client "paweł946465" connected.
[17:49:00] Coq - Unijambiste: !rtv
[17:49:34] Coq - Unijambiste: !r
[17:49:35] Coq - Unijambiste: !r
[17:50:11] §4❤Єтнαɴ❤: !unbox
[17:50:39] Coq - Unijambiste: !unbox
[17:51:00] §4❤Єтнαɴ❤: !unbox
[17:51:08] §4❤Єтнαɴ❤: !unbox
[17:51:24] Client "paweł946465" spawned in server <STEAM_0:0:142633135> (took 237 seconds).
[17:51:31] Client "Killaura13" connected.
[17:51:57] Dropped "HugaroS" from server<STEAM_0:0:187115049>
[17:52:12] Coq - Unijambiste: !unbox
[17:52:28] §4❤Єтнαɴ❤: !rtv
[17:53:04] Server is shutting down/changing levels.



[17:53:12] New map: surf_dusk
[17:53:56] Client "Coq - Unijambiste" spawned in server <STEAM_0:1:154609239> (took 46 seconds).
[17:53:56] Client "Bot41" connected.
[17:53:56] Client "Bot41" spawned in server <BOT> (took 46 seconds).
[17:53:58] Client "Bot42" connected.
[17:53:58] Client "Bot42" spawned in server <BOT> (took 48 seconds).
[17:54:02] Client "§4❤Єтнαɴ❤" spawned in server <STEAM_0:1:170239846> (took 52 seconds).
[17:54:13] Client "paweł946465" spawned in server <STEAM_0:0:142633135> (took 63 seconds).
[17:54:29] Client "Killaura13" spawned in server <STEAM_0:0:192862458> (took 79 seconds).
[17:55:52] Client "blackjay" connected.
[17:56:26] Client "AsscredPL" connected.
[17:56:34] Client "Karandaar" connected.
[17:56:59] Client "HugaroS" connected.
[17:57:04] paweł946465: !knifes
[17:57:12] Client "AsscredPL" spawned in server <STEAM_0:1:155037410> (took 46 seconds).
[17:57:14] Client "blackjay" spawned in server <STEAM_0:0:150803396> (took 82 seconds).
[17:57:18] Coq - Unijambiste: !r
[17:57:23] §4❤Єтнαɴ❤: ̿̿ ̿̿ ̿'̿'\̵͇̿̿\З= ( ▀ ͜͞ʖ▀) =Ε/̵͇̿̿/’̿’̿ ̿ ̿̿ ̿̿ ̿̿ 
[17:57:29] Coq - Unijambiste: !r
[17:57:39] Client "HugaroS" spawned in server <STEAM_0:0:187115049> (took 40 seconds).
[17:57:43] Client "Karandaar" spawned in server <STEAM_0:0:54721015> (took 69 seconds).
[17:58:04] AsscredPL: !shop
[17:58:16] Killaura13: 1JB
[17:58:54] paweł946465: how to get knife?
[17:59:02] Client "ThatOneMeme XD" connected.
[17:59:03] Coq - Unijambiste: do !unbox
[17:59:07] §4❤Єтнαɴ❤: !rtv
[17:59:08] AsscredPL: idk too
[17:59:08] paweł946465: !unbox
[17:59:13] AsscredPL: !shop
[17:59:17] §4❤Єтнαɴ❤: !unbox
[17:59:27] Dropped "AsscredPL" from server<STEAM_0:1:155037410>
[17:59:40] Dropped "Karandaar" from server<STEAM_0:0:54721015>
[18:00:42] HugaroS: fr ?
[18:00:48] Coq - Unijambiste: yep
[18:00:49] §4❤Єтнαɴ❤: ui
[18:01:02] §4❤Єтнαɴ❤: Tes pas un Pro Bunny hop ?
[18:01:11] HugaroS: comment on mes les addon du serveur 
[18:01:30] §4❤Єтнαɴ❤: ui
[18:01:31] Coq - Unijambiste: je sais pas j'avais déja tout perso
[18:01:33] §4❤Єтнαɴ❤: !unbox
[18:01:42] HugaroS: a merde
[18:02:24] §4❤Єтнαɴ❤: !unbox
[18:02:35] HugaroS: ya 0 texture sauf 2 ou 3
[18:03:12] Dropped "blackjay" from server<STEAM_0:0:150803396>
[18:03:22] paweł946465: !unbox
[18:03:23] Client "crankice" connected.
[18:03:27] Killaura13: !unbox
[18:03:45] paweł946465: plz give me knife chest
[18:04:10] §4❤Єтнαɴ❤: !unbox
[18:04:26] Coq - Unijambiste: repeat in french and i give you a knive case
[18:04:29] Coq - Unijambiste: :)
[18:04:37] paweł946465: !unboxc
[18:04:39] paweł946465: !unbox
[18:04:44] Client "crankice" spawned in server <STEAM_0:0:157690572> (took 81 seconds).
[18:05:03] §4❤Єтнαɴ❤: !unbox
[18:05:59] §4❤Єтнαɴ❤: !unbox
[18:06:13] Client "blackjay" connected.
[18:06:38] Client "blackjay" spawned in server <STEAM_0:0:150803396> (took 25 seconds).
[18:06:50] paweł946465: !unbox
[18:07:14] Coq - Unijambiste: !r
[18:07:50] HugaroS: c'est quoi le nom du serveur 
[18:08:05] paweł946465: !unbox
[18:08:09] Coq - Unijambiste: FX Skilled surf
[18:08:19] Coq - Unijambiste: !unbox
[18:08:19] HugaroS: mrc
[18:08:31] §4❤Єтнαɴ❤: dr
[18:08:40] Dropped "blackjay" from server<STEAM_0:0:150803396>
[18:09:02] §4❤Єтнαɴ❤: !unbox
[18:09:08] §4❤Єтнαɴ❤: !unbox
[18:09:39] Killaura13: !shop
[18:09:51] Coq - Unijambiste: !r
[18:10:00] crankice: t
[18:10:05] §4❤Єтнαɴ❤: !unbox
[18:10:05] crankice: !rules
[18:10:07] §4❤Єтнαɴ❤: dr
[18:10:28] §4❤Єтнαɴ❤: A tes souhaits
[18:10:36] Killaura13: !unbox
[18:10:38] Dropped "HugaroS" from server<STEAM_0:0:187115049>
[18:10:42] §4❤Єтнαɴ❤: My  name is Zizi
[18:10:48] §4❤Єтнαɴ❤: And you ?
[18:10:56] §4❤Єтнαɴ❤: §RTV
[18:10:58] §4❤Єтнαɴ❤: !rtv
[18:11:08] Coq - Unijambiste: !rtv
[18:11:11] Killaura13: !shop
[18:11:12] Coq - Unijambiste: !r
[18:11:18] Dropped "crankice" from server<STEAM_0:0:157690572>
[18:11:19] Client "ashcisario" connected.
[18:11:26] §4❤Єтнαɴ❤: !unbox
[18:12:25] Killaura13: !skip
[18:12:29] Killaura13: !skip
[18:12:40] §4❤Єтнαɴ❤: !unbox
[18:12:56] Coq - Unijambiste: !r
[18:13:00] §4❤Єтнαɴ❤: !unbox
[18:13:25] Killaura13: !shop
[18:13:41] paweł946465: !tutorial
[18:14:28] Coq - Unijambiste: !r
[18:14:57] Client "kizi04mario" connected.
[18:15:20] §4❤Єтнαɴ❤: !unbox
[18:15:40] Dropped "Coq - Unijambiste" from server<STEAM_0:1:154609239>
[18:16:00] §4❤Єтнαɴ❤: !unbox
[18:16:00] paweł946465: !unbox
[18:16:42] paweł946465: !kives
[18:16:45] paweł946465: knives
[18:17:33] Client "kizi04mario" spawned in server <STEAM_0:1:160091513> (took 156 seconds).
[18:18:20] paweł946465: i canąt end stage 2 ŁC
[18:18:27] Client "SkylZNeox" connected.
[18:18:30] paweł946465: i cant end stage 2 :C
[18:18:59] Dropped "kizi04mario" from server<STEAM_0:1:160091513>
[18:19:00] Client "SkylZNeox" spawned in server <STEAM_0:1:32272509> (took 33 seconds).
[18:19:46] paweł946465: Spierdalaj
[18:19:52] paweł946465: Spierdalaj
[18:19:55] Client "skyjokers" connected.
[18:22:01] SkylZNeox: !rtv
[18:22:05] Client "skyjokers" spawned in server <STEAM_0:0:114536141> (took 130 seconds).
[18:22:35] paweł946465: !rtv
[18:22:38] paweł946465: !unbox
[18:22:43] §4❤Єтнαɴ❤: !rtv
[18:22:52] §4❤Єтнαɴ❤: please rtv
[18:23:48] Server is shutting down/changing levels.



[18:23:55] New map: surf_mesa
[18:25:01] Client "§4❤Єтнαɴ❤" spawned in server <STEAM_0:1:170239846> (took 67 seconds).
[18:25:01] Client "Bot43" connected.
[18:25:01] Client "Bot43" spawned in server <BOT> (took 67 seconds).
[18:25:03] Client "Bot44" connected.
[18:25:03] Client "Bot44" spawned in server <BOT> (took 69 seconds).
[18:25:12] Client "SkylZNeox" spawned in server <STEAM_0:1:32272509> (took 78 seconds).
[18:25:16] Client "Killaura13" spawned in server <STEAM_0:0:192862458> (took 82 seconds).
[18:26:39] Client "paweł946465" spawned in server <STEAM_0:0:142633135> (took 165 seconds).
[18:27:45] Killaura13: !kill
[18:27:56] Killaura13: !kill
[18:28:14] Client "skyjokers" connected.
[18:29:08] Killaura13: 1kill
[18:29:18] Killaura13: 1kill
[18:29:25] Killaura13: !kill
[18:30:35] Killaura13: 1kill
[18:30:42] Killaura13: !kill
[18:30:54] Killaura13: 1kill
[18:31:00] Killaura13: !kill
[18:31:14] Killaura13: !kill
[18:32:07] Client "skyjokers" spawned in server <STEAM_0:0:114536141> (took 233 seconds).
[18:33:55] Dropped "§4❤Єтнαɴ❤" from server<STEAM_0:1:170239846>
[18:35:13] Killaura13: 1kill
[18:35:17] Killaura13: 1kill
[18:35:22] Killaura13: !kill
[18:36:23] Killaura13: 1kill
[18:36:28] Killaura13: !kill
[18:38:59] Killaura13: 1shop
[18:39:06] Killaura13: !shop
[18:40:34] Dropped "Killaura13" from server<STEAM_0:0:192862458>
[18:46:17] Dropped "SkylZNeox" from server<STEAM_0:1:32272509>
[18:48:14] Dropped "skyjokers" from server<STEAM_0:0:114536141>
[18:48:53] paweł946465: !unbos
[18:48:56] paweł946465: !unbox
[18:49:34] paweł946465: !unbox
[18:50:21] Client "brockface16" connected.
[18:50:45] paweł946465: !unbox
[18:53:21] paweł946465: !unbox
[18:54:31] Server is shutting down/changing levels.



[18:54:38] New map: surf_prelude_ksf
[18:55:04] Client "PePe | Legend" connected.
[18:55:05] Client "§4❤Єтнαɴ❤" connected.
[18:55:10] Client "∂уωεβңσ β ∂уωε" connected.
[18:55:39] Client "paweł946465" spawned in server <STEAM_0:0:142633135> (took 62 seconds).
[18:55:39] Client "Bot45" connected.
[18:55:39] Client "Bot45" spawned in server <BOT> (took 62 seconds).
[18:55:41] Client "Bot46" connected.
[18:55:41] Client "Bot46" spawned in server <BOT> (took 64 seconds).
[18:55:46] Client "§4❤Єтнαɴ❤" spawned in server <STEAM_0:1:170239846> (took 41 seconds).
[18:56:36] Client "Coq - Unijambiste" connected.
[18:57:23] Client "Coq - Unijambiste" spawned in server <STEAM_0:1:154609239> (took 47 seconds).
[18:58:25] Coq - Unijambiste: !r
[18:59:23] Client "PePe | Legend" spawned in server <STEAM_0:0:74367706> (took 259 seconds).
[19:01:56] Client "The Real Ginger Ninja" connected.
[19:03:51] Coq - Unijambiste: !r
[19:03:58] Coq - Unijambiste: !r
[19:04:16] Coq - Unijambiste: !r
[19:04:30] Coq - Unijambiste: !r
[19:06:13] Coq - Unijambiste: !r
[19:06:26] Coq - Unijambiste: !r
[19:06:33] Coq - Unijambiste: !r
[19:08:10] Client "skyjokers" connected.
[19:08:28] Client "skyjokers" spawned in server <STEAM_0:0:114536141> (took 18 seconds).
[19:09:11] Coq - Unijambiste: !r
[19:10:27] paweł946465: Spierdalaj
[19:10:31] paweł946465: !unbox
[19:11:22] paweł946465: !knive
[19:11:25] paweł946465: !knive
[19:11:28] paweł946465: !knife
[19:11:32] Coq - Unijambiste: !r
[19:11:37] paweł946465: !knive
[19:11:48] paweł946465: !knive
[19:11:49] Coq - Unijambiste: !r
[19:12:30] Coq - Unijambiste: !r
[19:13:40] Dropped "skyjokers" from server<STEAM_0:0:114536141>
[19:18:47] PePe | Legend: !tutirial
[19:18:59] PePe | Legend: !tutorial
[19:19:39] Dropped "§4❤Єтнαɴ❤" from server<STEAM_0:1:170239846>
[19:20:06] Coq - Unijambiste: !r
[19:20:29] Coq - Unijambiste: !r
[19:21:42] Coq - Unijambiste: !r
[19:22:40] Coq - Unijambiste: !r
[19:24:39] Dropped "paweł946465" from server<STEAM_0:0:142633135>
[19:25:15] Server is shutting down/changing levels.



[19:25:22] New map: surf_funhouse_v1
[19:25:38] Client "PePe | Legend" spawned in server <STEAM_0:0:74367706> (took 18 seconds).
[19:25:38] Client "Bot47" connected.
[19:25:38] Client "Bot47" spawned in server <BOT> (took 18 seconds).
[19:25:40] Client "Bot48" connected.
[19:25:40] Client "Bot48" spawned in server <BOT> (took 20 seconds).
[19:27:51] Dropped "PePe | Legend" from server<STEAM_0:0:74367706>
[19:27:51] Dropped "Bot47" from server<BOT>
[19:27:51] Dropped "Bot48" from server<BOT>
[19:42:50] Client "§4❤Єтнαɴ❤" connected.
[19:43:15] Client "§4❤Єтнαɴ❤" spawned in server <STEAM_0:1:170239846> (took 25 seconds).
[19:43:15] Client "Bot49" connected.
[19:43:15] Client "Bot49" spawned in server <BOT> (took 1075 seconds).
[19:43:17] Client "Bot50" connected.
[19:43:17] Client "Bot50" spawned in server <BOT> (took 1077 seconds).
[19:45:30] §4❤Єтнαɴ❤: !rtv
[19:46:06] Server is shutting down/changing levels.



[19:46:14] New map: surf_classics
[19:46:54] Client "§4❤Єтнαɴ❤" spawned in server <STEAM_0:1:170239846> (took 42 seconds).
[19:46:54] Client "Bot51" connected.
[19:46:54] Client "Bot51" spawned in server <BOT> (took 42 seconds).
[19:46:56] Client "Bot52" connected.
[19:46:56] Client "Bot52" spawned in server <BOT> (took 44 seconds).
[19:47:43] Client "MAL73" connected.
[19:48:32] Client "MAL73" spawned in server <STEAM_0:1:79453581> (took 49 seconds).
[19:49:28] §4❤Єтнαɴ❤: !rtv
[19:49:51] Client "paweł946465" connected.
[19:50:11] Dropped "MAL73" from server<STEAM_0:1:79453581>
[19:50:44] Client "LH_Flare" connected.
[19:50:59] Client "Neverlution" connected.
[19:51:05] Client "paweł946465" spawned in server <STEAM_0:0:142633135> (took 74 seconds).
[19:51:20] Client "LH_Flare" connected.
[19:51:33] Client "LH_Flare" connected.
[19:54:57] §4❤Єтнαɴ❤: !rtv
[19:55:13] §4❤Єтнαɴ❤: Please rtv men
[19:55:21] paweł946465: whY?
[19:55:34] §4❤Єтнαɴ❤: Please : !rtv in the chat
[19:55:48] (TEAM) paweł946465: !rtv
[19:55:50] paweł946465: ok
[19:55:51] §4❤Єтнαɴ❤: thx
[19:56:20] Client "Neverlution" spawned in server <STEAM_0:1:60183781> (took 321 seconds).
[19:56:24] Server is shutting down/changing levels.



[19:56:31] New map: surf_island
[19:58:03] Client "§4❤Єтнαɴ❤" spawned in server <STEAM_0:1:170239846> (took 93 seconds).
[19:58:03] Client "Bot53" connected.
[19:58:03] Client "Bot53" spawned in server <BOT> (took 93 seconds).
[19:58:05] Client "Bot54" connected.
[19:58:05] Client "Bot54" spawned in server <BOT> (took 95 seconds).
[19:59:06] Client "Neverlution" spawned in server <STEAM_0:1:60183781> (took 156 seconds).
[20:00:35] Client "paweł946465" spawned in server <STEAM_0:0:142633135> (took 245 seconds).
[20:02:57] Client "Señor Vac" connected.
[20:03:42] Neverlution: !unbox
[20:04:17] Neverlution: !steam
[20:04:32] Client "Señor Vac" spawned in server <STEAM_0:0:146065839> (took 95 seconds).
[20:05:30] Neverlution: !unbox
[20:06:59] §4❤Єтнαɴ❤: fr ?
[20:07:23] Dropped "Neverlution" from server<STEAM_0:1:60183781>
[20:09:24] Client "V|L|F Shadow" connected.
[20:10:29] §4❤Єтнαɴ❤: !rtv
[20:10:34] Client "destroyed_banana'd" connected.
[20:10:59] §4❤Єтнαɴ❤: please : !rtv  in tthe tachat$
[20:11:05] §4❤Єтнαɴ❤: tchat*
[20:11:10] paweł946465: no
[20:11:21] paweł946465: nice map
[20:11:32] Dropped "Señor Vac" from server<STEAM_0:0:146065839>
[20:12:39] Client "V|L|F Shadow" spawned in server <STEAM_0:1:78371240> (took 195 seconds).
[20:12:43] §4❤Єтнαɴ❤: tchat*
[20:12:44] §4❤Єтнαɴ❤: please : !rtv  in tthe tachat$
[20:12:53] paweł946465: no
[20:14:27] paweł946465: !unbox
[20:15:27] paweł946465: !unbox
[20:20:07] V|L|F Shadow: Ich bin behindert XD
[20:20:12] V|L|F Shadow: Hey, ich bin G4me L1fe und ein stolzer HuSo
[20:20:31] (TEAM) V|L|F Shadow: !steam
[20:20:33] §4❤Єтнαɴ❤: !rtv
[20:20:38] §4❤Єтнαɴ❤: .!rtv
[20:20:50] paweł946465: !rtv
[20:21:26] Server is shutting down/changing levels.



[20:21:33] New map: surf_simpsons_source
[20:22:26] Client "V|L|F Shadow" spawned in server <STEAM_0:1:78371240> (took 54 seconds).
[20:22:26] Client "Bot55" connected.
[20:22:26] Client "Bot55" spawned in server <BOT> (took 54 seconds).
[20:22:28] Client "Bot56" connected.
[20:22:28] Client "Bot56" spawned in server <BOT> (took 56 seconds).
[20:22:28] Client "§4❤Єтнαɴ❤" spawned in server <STEAM_0:1:170239846> (took 56 seconds).
[20:23:15] Client "paweł946465" spawned in server <STEAM_0:0:142633135> (took 103 seconds).
[20:24:52] Dropped "V|L|F Shadow" from server<STEAM_0:1:78371240>
[20:25:44] paweł946465: !rtv
[20:25:53] paweł946465: !rtv
[20:26:28] (TEAM) paweł946465: !rtv
[20:26:30] (TEAM) paweł946465: rtv plz
[20:26:33] paweł946465: rtv plz
[20:26:39] §4❤Єтнαɴ❤: !rtv
[20:26:43] §4❤Єтнαɴ❤: !rtv
[20:26:49] paweł946465: !rtv
[20:27:25] Server is shutting down/changing levels.



[20:27:32] New map: surf_ing
[20:28:07] Client "§4❤Єтнαɴ❤" spawned in server <STEAM_0:1:170239846> (took 37 seconds).
[20:28:07] Client "Bot57" connected.
[20:28:07] Client "Bot57" spawned in server <BOT> (took 37 seconds).
[20:28:09] Client "Bot58" connected.
[20:28:09] Client "Bot58" spawned in server <BOT> (took 39 seconds).
[20:32:34] Client "greedyhollow" connected.
[20:33:15] Client "greedyhollow" spawned in server <STEAM_0:1:4567332> (took 41 seconds).
[20:37:06] Client "PePe | Legend" connected.
[20:37:44] Client "PePe | Legend" spawned in server <STEAM_0:0:74367706> (took 38 seconds).
[20:38:08] Dropped "§4❤Єтнαɴ❤" from server<STEAM_0:1:170239846>
[20:41:25] Client "«ɴѕ» Pluto" connected.
[20:42:32] Dropped "greedyhollow" from server<STEAM_0:1:4567332>
[20:42:55] Client "«ɴѕ» Pluto" spawned in server <STEAM_0:0:81864841> (took 90 seconds).
[20:43:32] «ɴѕ» Pluto: !r
[20:43:55] «ɴѕ» Pluto: !nominate
[20:43:59] «ɴѕ» Pluto: !rtv
[20:44:13] Dropped "PePe | Legend" from server<STEAM_0:0:74367706>
[20:44:49] Server is shutting down/changing levels.



[20:44:56] New map: surf_advanced
[20:45:13] Client "«ɴѕ» Pluto" spawned in server <STEAM_0:0:81864841> (took 18 seconds).
[20:45:13] Client "Bot59" connected.
[20:45:13] Client "Bot59" spawned in server <BOT> (took 18 seconds).
[20:45:15] Client "Bot60" connected.
[20:45:15] Client "Bot60" spawned in server <BOT> (took 20 seconds).
[20:46:07] «ɴѕ» Pluto: !nominate
[20:46:17] «ɴѕ» Pluto: !rtv
[20:51:47] «ɴѕ» Pluto: !nominate
[20:51:56] «ɴѕ» Pluto: !nominate
[20:52:06] «ɴѕ» Pluto: !rtv
[20:52:42] Server is shutting down/changing levels.



[20:52:49] New map: surf_mesa_mine
[20:53:00] Client "«ɴѕ» Pluto" spawned in server <STEAM_0:0:81864841> (took 12 seconds).
[20:53:00] Client "Bot61" connected.
[20:53:00] Client "Bot61" spawned in server <BOT> (took 12 seconds).
[20:53:02] Client "Bot62" connected.
[20:53:02] Client "Bot62" spawned in server <BOT> (took 14 seconds).
[20:55:05] Client "[TFG] maxie00" connected.
[20:55:56] «ɴѕ» Pluto: !nominate
[20:56:30] «ɴѕ» Pluto: !rtv
[20:56:33] «ɴѕ» Pluto: !rtv
[20:56:37] Client "[TFG] maxie00" spawned in server <STEAM_0:0:88987557> (took 92 seconds).
[20:56:49] «ɴѕ» Pluto: !rtv
[20:57:35] «ɴѕ» Pluto: !r
[20:57:37] «ɴѕ» Pluto: !rtv
[20:58:05] Client "Dad™" connected.
[20:58:19] Dropped "«ɴѕ» Pluto" from server<STEAM_0:0:81864841>
[21:04:13] Client "skyjokers" connected.
[21:04:30] Client "SkylZNeox" connected.
[21:05:04] Client "RC | NoLifer" connected.
[21:06:26] Client "RC | NoLifer" spawned in server <STEAM_0:1:154560608> (took 82 seconds).
[21:06:56] Client "SkylZNeox" spawned in server <STEAM_0:1:32272509> (took 146 seconds).
[21:09:52] [TFG] maxie00: !rtv
[21:10:20] Client "skyjokers" spawned in server <STEAM_0:0:114536141> (took 367 seconds).
[21:10:24] Client "KEVINASCUE" connected.
[21:10:47] RC | NoLifer: !rt
[21:10:51] RC | NoLifer: !rtp
[21:11:01] [TFG] maxie00: .!rtv
[21:11:17] RC | NoLifer: !rtv
[21:11:26] [TFG] maxie00: !rtv
[21:13:44] Dropped "RC | NoLifer" from server<STEAM_0:1:154560608>
[21:13:54] Dropped "[TFG] maxie00" from server<STEAM_0:0:88987557>
[21:14:03] Client "KEVINASCUE" spawned in server <STEAM_0:0:191010368> (took 219 seconds).
[21:17:44] Client "Ninjajosh7" connected.
[21:18:12] Dropped "KEVINASCUE" from server<STEAM_0:0:191010368>
[21:18:52] Client "Ninjajosh7" spawned in server <STEAM_0:1:113871632> (took 68 seconds).
[21:20:34] SkylZNeox: !tv
[21:20:38] SkylZNeox: !votemap
[21:20:46] skyjokers: !votemap
[21:21:22] Server is shutting down/changing levels.



[21:21:29] New map: surf_graphia
[21:22:35] Client "Ninjajosh7" spawned in server <STEAM_0:1:113871632> (took 67 seconds).
[21:22:35] Client "Bot63" connected.
[21:22:35] Client "Bot63" spawned in server <BOT> (took 67 seconds).
[21:22:37] Client "Bot64" connected.
[21:22:37] Client "Bot64" spawned in server <BOT> (took 69 seconds).
[21:22:41] Client "SkylZNeox" spawned in server <STEAM_0:1:32272509> (took 73 seconds).
[21:23:22] Client "skyjokers" spawned in server <STEAM_0:0:114536141> (took 114 seconds).
[21:23:41] SkylZNeox: !r
[21:23:56] Dropped "Ninjajosh7" from server<STEAM_0:1:113871632>
[21:26:03] Client "Drty" connected.
[21:26:40] skyjokers: !votemap
[21:26:47] Client "Drty" spawned in server <STEAM_0:1:172220397> (took 44 seconds).
[21:26:54] SkylZNeox: !votemap
[21:27:30] Server is shutting down/changing levels.



[21:27:37] New map: surf_dusk
[21:27:47] Client "SkylZNeox" spawned in server <STEAM_0:1:32272509> (took 11 seconds).
[21:27:47] Client "Bot65" connected.
[21:27:47] Client "Bot65" spawned in server <BOT> (took 11 seconds).
[21:27:49] Client "Drty" spawned in server <STEAM_0:1:172220397> (took 13 seconds).
[21:27:49] Client "Bot66" connected.
[21:27:49] Client "Bot66" spawned in server <BOT> (took 13 seconds).
[21:27:53] Client "skyjokers" spawned in server <STEAM_0:0:114536141> (took 17 seconds).
[21:28:18] Drty: !r
[21:28:19] SkylZNeox: !votemap
[21:29:16] Dropped "Drty" from server<STEAM_0:1:172220397>
[21:33:48] SkylZNeox: !votemap
[21:36:07] skyjokers: !votemap
[21:36:43] Server is shutting down/changing levels.



[21:36:50] New map: surf_this_njv
[21:37:10] Client "SkylZNeox" spawned in server <STEAM_0:1:32272509> (took 21 seconds).
[21:37:10] Client "Bot67" connected.
[21:37:10] Client "Bot67" spawned in server <BOT> (took 21 seconds).
[21:37:12] Client "Bot68" connected.
[21:37:12] Client "Bot68" spawned in server <BOT> (took 23 seconds).
[21:38:21] Client "skyjokers" spawned in server <STEAM_0:0:114536141> (took 92 seconds).
[21:41:52] SkylZNeox: !votemap
[21:42:00] skyjokers: !votemap
[21:42:36] Server is shutting down/changing levels.



[21:42:43] New map: surf_graphia
[21:42:54] Client "SkylZNeox" spawned in server <STEAM_0:1:32272509> (took 12 seconds).
[21:42:54] Client "Bot69" connected.
[21:42:54] Client "Bot69" spawned in server <BOT> (took 12 seconds).
[21:42:56] Client "Bot70" connected.
[21:42:56] Client "Bot70" spawned in server <BOT> (took 14 seconds).
[21:42:58] Client "skyjokers" spawned in server <STEAM_0:0:114536141> (took 16 seconds).
[21:43:39] SkylZNeox: !r
[21:43:45] skyjokers: !r
[21:43:57] Dropped "SkylZNeox" from server<STEAM_0:1:32272509>
[21:50:08] Dropped "skyjokers" from server<STEAM_0:0:114536141>
[21:50:08] Dropped "Bot69" from server<BOT>
[21:50:08] Dropped "Bot70" from server<BOT>
[21:52:07] Client "riolu396" connected.
[21:52:55] Client "Digit" connected.
[21:53:43] Client "riolu396" spawned in server <STEAM_0:0:92320311> (took 96 seconds).
[21:53:43] Client "Bot71" connected.
[21:53:43] Client "Bot71" spawned in server <BOT> (took 661 seconds).
[21:53:45] Client "Bot72" connected.
[21:53:45] Client "Bot72" spawned in server <BOT> (took 663 seconds).
[21:54:17] Client "Digit" spawned in server <STEAM_0:1:92139704> (took 82 seconds).
[21:54:32] Client "SlothZ" connected.
[21:55:47] Client "SlothZ" spawned in server <STEAM_0:1:68500818> (took 75 seconds).
[21:57:06] Client "neggas_tr" connected.
[21:57:09] Digit: !rtv
[21:57:57] Client "neggas_tr" spawned in server <STEAM_0:1:212353018> (took 51 seconds).
[21:59:40] Digit: !rtv
[21:59:47] Dropped "neggas_tr" from server<STEAM_0:1:212353018>
[21:59:57] riolu396: jb
[22:00:05] (TEAM) riolu396: hi
[22:00:08] riolu396: hi
[22:00:36] Digit: Skip this map?
[22:01:22] Dropped "riolu396" from server<STEAM_0:0:92320311>
[22:03:34] Client "Nemsie," connected.
[22:03:57] Client "Nemsie," spawned in server <STEAM_0:1:129840868> (took 23 seconds).
[22:05:32] Client "Darknesmort" connected.
[22:06:14] Dropped "SlothZ" from server<STEAM_0:1:68500818>
[22:06:30] Digit: !rtv
[22:06:42] Client "Darknesmort" spawned in server <STEAM_0:1:102186178> (took 70 seconds).
[22:09:09] Digit: !kives
[22:10:00] (TEAM) Digit: !unbox
[22:11:59] Nemsie,: !r
[22:12:31] Nemsie,: !r
[22:13:19] Server is shutting down/changing levels.



[22:13:26] New map: surf_pox
[22:13:41] Client "Darknesmort" spawned in server <STEAM_0:1:102186178> (took 16 seconds).
[22:13:41] Client "Bot73" connected.
[22:13:41] Client "Bot73" spawned in server <BOT> (took 16 seconds).
[22:13:43] Client "Bot74" connected.
[22:13:43] Client "Bot74" spawned in server <BOT> (took 18 seconds).
[22:13:59] Client "Digit" spawned in server <STEAM_0:1:92139704> (took 34 seconds).
[22:14:21] Client "Nemsie," spawned in server <STEAM_0:1:129840868> (took 56 seconds).
[22:15:09] Nemsie,: !hop
[22:15:12] Nemsie,: !r
[22:15:14] Nemsie,: !hop
[22:15:19] Nemsie,: !hop darkrp
[22:15:22] Nemsie,: c
[22:15:23] Nemsie,: !r
[22:15:27] Nemsie,: !hop deathrun
[22:15:29] Dropped "Nemsie," from server<STEAM_0:1:129840868>
[22:15:54] Digit: !unbox
[22:16:20] Darknesmort: !hub
[22:16:21] Darknesmort: d
[22:16:51] Darknesmort: !unbox
[22:17:44] Darknesmort: !points
[22:17:54] Darknesmort: !hub
[22:20:01] Client "Drty" connected.
[22:20:39] Client "Drty" spawned in server <STEAM_0:1:172220397> (took 38 seconds).
[22:21:17] Drty: !r
[22:21:54] Drty: !r
[22:21:59] Drty: !r
[22:22:00] Drty: !r
[22:22:01] Drty: !r
[22:22:10] Drty: !r
[22:22:11] Drty: !r
[22:22:22] Dropped "Darknesmort" from server<STEAM_0:1:102186178>
[22:22:36] Drty: !r
[22:23:15] Drty: !r
[22:23:26] Dropped "Digit" from server<STEAM_0:1:92139704>
[22:23:29] Drty: !r
[22:23:39] Client "Digit" connected.
[22:23:56] Drty: !r
[22:24:03] Client "Digit" spawned in server <STEAM_0:1:92139704> (took 24 seconds).
[22:24:54] Drty: !r
[22:24:55] Drty: !r
[22:24:56] Drty: !r
[22:25:27] Drty: !r
[22:26:15] Drty: !r
[22:26:31] Digit: !unbox
[22:26:56] Drty: !wr
[22:27:06] Drty: !r
[22:27:31] Drty: !r
[22:28:06] Drty: !r
[22:28:43] Drty: !r
[22:29:13] Drty: !r
[22:29:32] Client "Olly_2101" connected.
[22:29:32] Drty: !r
[22:30:00] Drty: !r
[22:30:03] Client "Olly_2101" spawned in server <STEAM_0:0:125975134> (took 31 seconds).
[22:30:10] Digit: !unbox
[22:30:30] Drty: !r
[22:31:13] Drty: !r
[22:31:50] Drty: !r
[22:31:59] Dropped "Olly_2101" from server<STEAM_0:0:125975134>
[22:32:00] Drty: !top
[22:32:18] Drty: !rank
[22:32:47] Drty: !r
[22:33:42] Drty: !r
[22:33:56] (TEAM) Digit: !unbox
[22:34:58] Drty: !r
[22:35:14] Drty: !r
[22:35:37] Drty: !r
[22:35:44] Client "Budunkadunk" connected.
[22:36:35] Drty: !r
[22:36:39] (TEAM) Digit: !unbox
[22:37:15] Drty: !r
[22:37:15] (TEAM) Digit: !unbox
[22:37:32] Client "Budunkadunk" spawned in server <STEAM_0:1:100814215> (took 108 seconds).
[22:37:34] Digit: !kives
[22:37:34] Drty: !r
[22:37:37] Drty: !r
[22:38:13] Drty: !r
[22:38:19] Drty: !r
[22:38:45] Drty: !r
[22:38:46] Dropped "Budunkadunk" from server<STEAM_0:1:100814215>
[22:39:05] Drty: !r
[22:39:35] Drty: !r
[22:39:49] Digit: !unbox
[22:40:08] Drty: !r
[22:41:17] Drty: !r
[22:41:33] Drty: !r
[22:42:14] Drty: !r
[22:42:33] Drty: !r
[22:42:46] Drty: !r
[22:43:13] Drty: !r
[22:43:46] Drty: !r
[22:44:02] Dropped "Drty" from server<STEAM_0:1:172220397>
[22:44:02] Server is shutting down/changing levels.



[22:44:09] New map: surf_beginner
[22:49:53] Client "Coq - Unijambiste" connected.
[22:52:29] Client "MikeDoggSett420" connected.
[22:52:57] Client "MikeDoggSett420" spawned in server <STEAM_0:1:835643> (took 28 seconds).
[22:52:57] Client "Bot75" connected.
[22:52:57] Client "Bot75" spawned in server <BOT> (took 529 seconds).
[22:52:59] Client "Bot76" connected.
[22:52:59] Client "Bot76" spawned in server <BOT> (took 531 seconds).
[22:53:07] Client "Coq - Unijambiste" spawned in server <STEAM_0:1:154609239> (took 194 seconds).
[22:54:10] MikeDoggSett420: wassup
[22:54:17] Coq - Unijambiste: hi
[22:54:23] MikeDoggSett420: !unbox
[22:54:27] Coq - Unijambiste: french ?
[22:54:35] Coq - Unijambiste: !r
[22:59:15] Coq - Unijambiste: !r
[23:00:48] Coq - Unijambiste: !r
[23:03:43] Coq - Unijambiste: !r
[23:05:02] Coq - Unijambiste: !r
[23:05:21] Coq - Unijambiste: !r
[23:06:06] Coq - Unijambiste: !r
[23:06:11] Coq - Unijambiste: !rtb
[23:06:16] Coq - Unijambiste: !rtv
[23:06:35] Coq - Unijambiste: !r
[23:07:30] Coq - Unijambiste: !r
[23:08:50] Coq - Unijambiste: !r
[23:09:07] Coq - Unijambiste: please do an rtv
[23:10:41] Coq - Unijambiste: !r
[23:10:51] Coq - Unijambiste: !r
[23:12:09] Coq - Unijambiste: !r
[23:13:07] MikeDoggSett420: wassupp
[23:13:07] Coq - Unijambiste: !r
[23:13:13] Coq - Unijambiste: ???
[23:13:23] MikeDoggSett420: garrygaben
[23:13:26] Coq - Unijambiste: are you a bot ?
[23:13:33] MikeDoggSett420: gary
[23:13:47] MikeDoggSett420: everyting
[23:13:58] MikeDoggSett420: wassup
[23:14:01] MikeDoggSett420: m8
[23:14:09] Coq - Unijambiste: hi
[23:14:17] MikeDoggSett420: were u at
[23:14:30] MikeDoggSett420: and also
[23:14:38] MikeDoggSett420: bigger the ping
[23:14:43] MikeDoggSett420: worse internet
[23:14:46] Coq - Unijambiste: why you speak
[23:14:48] MikeDoggSett420: right?
[23:14:48] Server is shutting down/changing levels.



[23:14:55] New map: surf_graphia
[23:15:28] Client "MikeDoggSett420" spawned in server <STEAM_0:1:835643> (took 34 seconds).
[23:15:28] Client "Bot77" connected.
[23:15:28] Client "Bot77" spawned in server <BOT> (took 34 seconds).
[23:15:30] Client "Bot78" connected.
[23:15:30] Client "Bot78" spawned in server <BOT> (took 36 seconds).
[23:16:08] MikeDoggSett420: !r
[23:16:29] MikeDoggSett420: !r
[23:16:35] Client "Coq - Unijambiste" spawned in server <STEAM_0:1:154609239> (took 101 seconds).
[23:16:49] MikeDoggSett420: took ye long enough
[23:17:00] MikeDoggSett420: wao
[23:17:09] MikeDoggSett420: the knive man
[23:17:13] MikeDoggSett420: jeez lol
[23:17:19] MikeDoggSett420: !unbox
[23:18:21] Coq - Unijambiste: ???
[23:18:30] Coq - Unijambiste: im french
[23:18:57] Coq - Unijambiste: i don't very understand 
[23:20:02] MikeDoggSett420: !inbox
[23:20:07] MikeDoggSett420: !unbox
[23:21:26] MikeDoggSett420: !UNBOX
[23:22:41] MikeDoggSett420: !UNBOX
[23:24:52] Client "Nevyks | tαyzer" connected.
[23:25:06] MikeDoggSett420: wtf
[23:25:11] MikeDoggSett420: same knives
[23:25:13] MikeDoggSett420: TWO
[23:25:17] (TEAM) MikeDoggSett420: of the same
[23:25:29] MikeDoggSett420: how u cahnge skin?
[23:25:33] MikeDoggSett420: change
[23:25:37] MikeDoggSett420: ur skin?
[23:25:38] Coq - Unijambiste: F4
[23:25:45] Coq - Unijambiste: the shop
[23:26:20] Client "Nevyks | tαyzer" spawned in server <STEAM_0:1:148439411> (took 88 seconds).
[23:26:29] Coq - Unijambiste: !r
[23:26:40] Coq - Unijambiste: !r
[23:26:46] MikeDoggSett420: LOOK AT ME
[23:27:00] Coq - Unijambiste: nice
[23:27:39] Coq - Unijambiste: !r
[23:27:49] Coq - Unijambiste: !r
[23:28:00] Coq - Unijambiste: !r
[23:28:40] Coq - Unijambiste: !r
[23:29:25] Coq - Unijambiste: !rtv
[23:29:29] MikeDoggSett420: !rtv
[23:29:38] MikeDoggSett420: ANYONE
[23:29:44] (TEAM) MikeDoggSett420: ANY MAP
[23:29:47] MikeDoggSett420: i mean
[23:29:52] MikeDoggSett420: any map
[23:30:05] Server is shutting down/changing levels.



[23:30:12] New map: surf_mesa_mine
[23:30:49] Client "Nevyks | tαyzer" spawned in server <STEAM_0:1:148439411> (took 38 seconds).
[23:30:49] Client "Bot79" connected.
[23:30:49] Client "Bot79" spawned in server <BOT> (took 38 seconds).
[23:30:51] Client "Bot80" connected.
[23:30:51] Client "Bot80" spawned in server <BOT> (took 40 seconds).
[23:31:37] Nevyks | tαyzer: !r
[23:31:55] Dropped "Nevyks | tαyzer" from server<STEAM_0:1:148439411>
[23:32:34] Client "Nuke_Fry" connected.
[23:32:40] Client "MikeDoggSett420" spawned in server <STEAM_0:1:835643> (took 149 seconds).
[23:32:51] Client "✪SnakeS" connected.
[23:32:57] Client "Coq - Unijambiste" spawned in server <STEAM_0:1:154609239> (took 166 seconds).
[23:33:38] Client "Nuke_Fry" spawned in server <STEAM_0:1:90018125> (took 64 seconds).
[23:34:17] Client "✪SnakeS" spawned in server <STEAM_0:1:96142016> (took 86 seconds).
[23:35:56] Coq - Unijambiste: !r
[23:35:57] ✪SnakeS: !help
[23:36:18] MikeDoggSett420: !unbox
[23:36:22] Nuke_Fry: !menu
[23:36:51] Coq - Unijambiste: !r
[23:37:07] ✪SnakeS: !space
[23:37:20] ✪SnakeS: !space
[23:37:50] Coq - Unijambiste: !r
[23:38:32] MikeDoggSett420: !points
[23:38:42] MikeDoggSett420: !kives
[23:38:50] Nuke_Fry: !knife
[23:38:52] Coq - Unijambiste: !r
[23:39:04] MikeDoggSett420: how u check ur points
[23:39:07] Nuke_Fry: !knife
[23:39:13] MikeDoggSett420: ;-;
[23:39:16] Nuke_Fry: !knifes
[23:39:29] Coq - Unijambiste: with the shop
[23:39:31] Coq - Unijambiste: F4
[23:39:32] Coq - Unijambiste: !r
[23:39:50] Dropped "Nuke_Fry" from server<STEAM_0:1:90018125>
[23:40:09] MikeDoggSett420: !unbox
[23:40:36] Coq - Unijambiste: !r
[23:40:42] MikeDoggSett420: !unbox
[23:41:07] Dropped "✪SnakeS" from server<STEAM_0:1:96142016>
[23:41:29] Coq - Unijambiste: !r
[23:41:58] Coq - Unijambiste: !r
[23:42:22] Client "Ethan" connected.
[23:42:45] Coq - Unijambiste: !r
[23:43:16] Coq - Unijambiste: !r
[23:43:52] MikeDoggSett420: !unbox
[23:44:30] Coq - Unijambiste: !r
[23:44:44] Coq - Unijambiste: !r
[23:45:13] Dropped "MikeDoggSett420" from server<STEAM_0:1:835643>
[23:45:37] Coq - Unijambiste: !rtv
[23:46:13] Server is shutting down/changing levels.



[23:46:20] New map: surf_ace
[23:48:18] Client "Coq - Unijambiste" spawned in server <STEAM_0:1:154609239> (took 120 seconds).
[23:48:18] Client "Bot81" connected.
[23:48:18] Client "Bot81" spawned in server <BOT> (took 120 seconds).
[23:48:20] Client "Bot82" connected.
[23:48:20] Client "Bot82" spawned in server <BOT> (took 122 seconds).
[23:50:01] Coq - Unijambiste: !r
[23:50:20] Coq - Unijambiste: !r
[23:50:46] Coq - Unijambiste: !r
[23:50:49] Coq - Unijambiste: !r
[23:51:10] Coq - Unijambiste: !r
[23:51:24] Coq - Unijambiste: !r
[23:51:43] Coq - Unijambiste: !r
[23:52:05] Coq - Unijambiste: !r
[23:52:11] Coq - Unijambiste: !r
[23:52:15] Coq - Unijambiste: !r
[23:52:39] Coq - Unijambiste: !r
[23:53:21] Coq - Unijambiste: !r
[23:53:39] Coq - Unijambiste: !r
[23:53:49] Coq - Unijambiste: !r
[23:53:54] Coq - Unijambiste: !r
[23:54:12] Coq - Unijambiste: !r
[23:54:30] Coq - Unijambiste: !r
[23:54:54] Coq - Unijambiste: !r
[23:55:00] Client "MikeDoggSett420" connected.
[23:55:11] Coq - Unijambiste: !r
[23:55:41] Coq - Unijambiste: !r
[23:56:24] Client "MikeDoggSett420" spawned in server <STEAM_0:1:835643> (took 84 seconds).
[23:56:33] Dropped "Coq - Unijambiste" from server<STEAM_0:1:154609239>
<Logging continued in "data/ulx_logs/07-27-17.txt">
