<Logging continued from "data/ulx_logs/07-26-17.txt">
[00:00:22] MikeDoggSett420: !rtv
[00:00:58] Server is shutting down/changing levels.



[00:01:05] New map: surf_mesa
[00:03:39] Client "MikeDoggSett420" spawned in server <STEAM_0:1:835643> (took 155 seconds).
[00:03:39] Client "Bot83" connected.
[00:03:39] Client "Bot83" spawned in server <BOT> (took 155 seconds).
[00:03:41] Client "Bot84" connected.
[00:03:41] Client "Bot84" spawned in server <BOT> (took 157 seconds).
[00:07:13] Dropped "MikeDoggSett420" from server<STEAM_0:1:835643>
[00:07:13] Dropped "Bot83" from server<BOT>
[00:07:13] Dropped "Bot84" from server<BOT>
[00:31:42] Server is shutting down/changing levels.



[00:31:48] New map: surf_lighthouse
[00:32:02] Client "emma streeting" connected.
[00:34:41] Client "emma streeting" spawned in server <STEAM_0:0:175259461> (took 159 seconds).
[00:34:41] Client "Bot85" connected.
[00:34:41] Client "Bot85" spawned in server <BOT> (took 174 seconds).
[00:34:43] Client "Bot86" connected.
[00:34:43] Client "Bot86" spawned in server <BOT> (took 176 seconds).
[00:35:15] Client "«ɴѕ» Pluto" connected.
[00:36:03] Client "«ɴѕ» Pluto" spawned in server <STEAM_0:0:81864841> (took 48 seconds).
[00:36:18] «ɴѕ» Pluto: !r
[00:38:28] Dropped "«ɴѕ» Pluto" from server<STEAM_0:0:81864841>
[00:41:51] Dropped "emma streeting" from server<STEAM_0:0:175259461>
[00:41:51] Dropped "Bot85" from server<BOT>
[00:41:51] Dropped "Bot86" from server<BOT>
[01:02:25] Server is shutting down/changing levels.



[01:02:32] New map: surf_airflow
[01:18:47] Client "brendonjones7890" connected.
[01:20:34] Client "JoJo" connected.
[01:20:52] Client "brendonjones7890" spawned in server <STEAM_0:1:202879757> (took 125 seconds).
[01:20:52] Client "Bot87" connected.
[01:20:52] Client "Bot87" spawned in server <BOT> (took 1102 seconds).
[01:20:54] Client "Bot88" connected.
[01:20:54] Client "Bot88" spawned in server <BOT> (took 1104 seconds).
[01:21:38] Client "JoJo" spawned in server <STEAM_0:0:59553904> (took 64 seconds).
[01:22:58] Dropped "JoJo" from server<STEAM_0:0:59553904>
[01:23:15] brendonjones7890: !JB
[01:23:31] brendonjones7890: !JB
[01:24:17] Dropped "brendonjones7890" from server<STEAM_0:1:202879757>
[01:24:17] Dropped "Bot87" from server<BOT>
[01:24:17] Dropped "Bot88" from server<BOT>
[01:33:08] Server is shutting down/changing levels.



[01:33:15] New map: surf_reprise_fix
[02:03:50] Server is shutting down/changing levels.



[02:03:58] New map: surf_classics
[02:28:37] Client "Retarded Cunt" connected.
[02:29:36] Client "Retarded Cunt" spawned in server <STEAM_0:1:116628146> (took 59 seconds).
[02:29:36] Client "Bot89" connected.
[02:29:36] Client "Bot89" spawned in server <BOT> (took 1540 seconds).
[02:29:38] Client "Bot90" connected.
[02:29:38] Client "Bot90" spawned in server <BOT> (took 1542 seconds).
[02:34:34] Server is shutting down/changing levels.



[02:34:40] New map: surf_forbidden_ways_ksf
[02:35:09] Client "Retarded Cunt" spawned in server <STEAM_0:1:116628146> (took 30 seconds).
[02:35:09] Client "Bot91" connected.
[02:35:09] Client "Bot91" spawned in server <BOT> (took 30 seconds).
[02:35:11] Client "Bot92" connected.
[02:35:11] Client "Bot92" spawned in server <BOT> (took 32 seconds).
[02:42:36] Client "♕olymp0o♕" connected.
[02:42:37] Client "✪LonerTage" connected.
[02:44:40] Dropped "Retarded Cunt" from server<STEAM_0:1:116628146>
[02:46:35] Client "♕olymp0o♕" spawned in server <STEAM_0:1:80004370> (took 239 seconds).
[02:52:25] Client "✪LonerTage" spawned in server <STEAM_0:1:168114688> (took 588 seconds).
[02:54:57] ♕olymp0o♕: !unbox
[02:55:16] ♕olymp0o♕: !steam
[02:58:02] ♕olymp0o♕: !unbox
[03:04:29] Client "jjambora" connected.
[03:05:16] Server is shutting down/changing levels.



[03:05:24] New map: surf_classics
[03:06:06] Client "jjambora" spawned in server <STEAM_0:0:95091265> (took 44 seconds).
[03:06:06] Client "Bot93" connected.
[03:06:06] Client "Bot93" spawned in server <BOT> (took 44 seconds).
[03:06:08] Client "♕olymp0o♕" spawned in server <STEAM_0:1:80004370> (took 46 seconds).
[03:06:08] Client "Bot94" connected.
[03:06:08] Client "Bot94" spawned in server <BOT> (took 46 seconds).
[03:06:09] Client "✪LonerTage" spawned in server <STEAM_0:1:168114688> (took 47 seconds).
[03:07:44] Dropped "♕olymp0o♕" from server<STEAM_0:1:80004370>
[03:08:00] Dropped "✪LonerTage" from server<STEAM_0:1:168114688>
[03:36:00] Server is shutting down/changing levels.



[03:36:08] New map: surf_classics2
[03:37:05] Client "jjambora" spawned in server <STEAM_0:0:95091265> (took 58 seconds).
[03:37:05] Client "Bot95" connected.
[03:37:05] Client "Bot95" spawned in server <BOT> (took 58 seconds).
[03:37:07] Client "Bot96" connected.
[03:37:07] Client "Bot96" spawned in server <BOT> (took 60 seconds).
[03:50:02] Client ".الله ❤" connected.
[03:51:45] Client ".الله ❤" spawned in server <STEAM_0:1:48391430> (took 103 seconds).
[03:58:46] Client "Orphan Smasher" connected.
[04:04:13] Dropped ".الله ❤" from server<STEAM_0:1:48391430>
[04:06:44] Server is shutting down/changing levels.



[04:06:51] New map: surf_mesa
[04:08:49] Client "jjambora" spawned in server <STEAM_0:0:95091265> (took 119 seconds).
[04:08:49] Client "Bot97" connected.
[04:08:49] Client "Bot97" spawned in server <BOT> (took 119 seconds).
[04:08:51] Client "Bot98" connected.
[04:08:51] Client "Bot98" spawned in server <BOT> (took 121 seconds).
[04:09:56] Dropped "jjambora" from server<STEAM_0:0:95091265>
[04:09:56] Dropped "Bot97" from server<BOT>
[04:09:56] Dropped "Bot98" from server<BOT>
[04:37:28] Server is shutting down/changing levels.



[04:37:35] New map: surf_airflow
[04:39:29] Client "им ٠ kalle" connected.
[04:40:04] Client "им ٠ kalle" spawned in server <STEAM_0:1:28259056> (took 35 seconds).
[04:40:04] Client "Bot99" connected.
[04:40:04] Client "Bot99" spawned in server <BOT> (took 150 seconds).
[04:40:06] Client "Bot100" connected.
[04:40:06] Client "Bot100" spawned in server <BOT> (took 152 seconds).
[04:40:13] им ٠ kalle: !nominate
[04:40:28] им ٠ kalle: rtv
[04:40:30] им ٠ kalle: !rtv
[04:40:58] им ٠ kalle: rtv
[04:41:00] им ٠ kalle: !rtv
[04:42:38] им ٠ kalle: !rtv
[04:43:14] Server is shutting down/changing levels.



[04:43:21] New map: surf_reprise_fix
[04:43:41] Client "им ٠ kalle" spawned in server <STEAM_0:1:28259056> (took 21 seconds).
[04:43:41] Client "Bot101" connected.
[04:43:41] Client "Bot101" spawned in server <BOT> (took 21 seconds).
[04:43:43] Client "Bot102" connected.
[04:43:43] Client "Bot102" spawned in server <BOT> (took 23 seconds).
[04:43:48] им ٠ kalle: !wr
[04:43:52] им ٠ kalle: !wr
[04:45:03] им ٠ kalle: !r
[04:45:33] им ٠ kalle: !r
[04:48:04] им ٠ kalle: !r
[04:48:14] им ٠ kalle: !r
[04:48:38] им ٠ kalle: !r
[04:48:58] им ٠ kalle: !r
[04:49:32] им ٠ kalle: !r
[04:50:55] им ٠ kalle: !b 1
[04:51:40] им ٠ kalle: !r
[04:51:41] им ٠ kalle: !r
[04:51:42] им ٠ kalle: !n
[04:52:54] им ٠ kalle: !r
[04:54:15] им ٠ kalle: !spec
[04:54:24] им ٠ kalle: !wr
[04:55:03] им ٠ kalle: !start
[04:55:04] им ٠ kalle: !r
[04:55:08] им ٠ kalle: !alive
[04:55:10] им ٠ kalle: !spawn
[04:55:12] им ٠ kalle: !respawn
[04:55:27] им ٠ kalle: !NOMINAT
[04:55:28] им ٠ kalle: nominate
[04:55:30] им ٠ kalle: !nominate
[04:56:02] им ٠ kalle: rtv
[04:56:03] им ٠ kalle: !rtv
[04:56:39] Server is shutting down/changing levels.



[04:56:46] New map: surf_sluice_final
[04:56:58] Client "им ٠ kalle" spawned in server <STEAM_0:1:28259056> (took 13 seconds).
[04:56:58] Client "Bot103" connected.
[04:56:58] Client "Bot103" spawned in server <BOT> (took 13 seconds).
[04:57:00] Client "Bot104" connected.
[04:57:00] Client "Bot104" spawned in server <BOT> (took 15 seconds).
[04:57:05] им ٠ kalle: !rr
[04:57:07] им ٠ kalle: !rr
[04:57:15] им ٠ kalle: !r
[04:57:40] им ٠ kalle: !r



[06:12:27] New map: surf_mesa
[06:12:59] Client "=(eG)= Antonomous" spawned in server <STEAM_0:0:161400071> (took 32 seconds).
[06:12:59] Client "Bot01" connected.
[06:12:59] Client "Bot01" spawned in server <BOT> (took 752 seconds).
[06:13:01] Client "Bot02" connected.
[06:13:01] Client "Bot02" spawned in server <BOT> (took 754 seconds).
[06:21:27] Dropped "=(eG)= Antonomous" from server<STEAM_0:0:161400071>
[06:21:27] Dropped "Bot01" from server<BOT>
[06:21:27] Dropped "Bot02" from server<BOT>
[06:43:03] Server is shutting down/changing levels.



[06:43:10] New map: surf_stonework3
[07:13:45] Server is shutting down/changing levels.



[07:13:52] New map: surf_prelude_ksf
[07:44:27] Server is shutting down/changing levels.



[07:44:34] New map: surf_graphia
[08:15:10] Server is shutting down/changing levels.



[08:15:17] New map: surf_island
[08:45:52] Server is shutting down/changing levels.



[08:45:59] New map: surf_forbidden_ways_ksf
[09:16:34] Server is shutting down/changing levels.



[09:16:41] New map: surf_inspire
[09:18:02] Client "KORNEY_CHUKOVSKI" connected.
[09:18:05] Client "CrazyHazzy" connected.
[09:19:01] Client "KORNEY_CHUKOVSKI" spawned in server <STEAM_0:0:77359136> (took 59 seconds).
[09:19:01] Client "Bot03" connected.
[09:19:01] Client "Bot03" spawned in server <BOT> (took 141 seconds).
[09:19:03] Client "Bot04" connected.
[09:19:03] Client "Bot04" spawned in server <BOT> (took 143 seconds).
[09:25:12] Dropped "KORNEY_CHUKOVSKI" from server<STEAM_0:0:77359136>
[09:25:12] Dropped "Bot03" from server<BOT>
[09:25:12] Dropped "Bot04" from server<BOT>
[09:40:32] Client "[FX]AlexCorruptor" connected.
[09:41:38] Client "[FX]AlexCorruptor" spawned in server <STEAM_0:0:77731187> (took 66 seconds).
[09:41:38] Client "Bot05" connected.
[09:41:38] Client "Bot05" spawned in server <BOT> (took 1498 seconds).
[09:41:40] Client "Bot06" connected.
[09:41:40] Client "Bot06" spawned in server <BOT> (took 1500 seconds).
[09:43:00] [FX]AlexCorruptor: !r
[09:43:52] [FX]AlexCorruptor: !r
[09:44:36] [FX]AlexCorruptor: !r
[09:47:06] [FX]AlexCorruptor: !r
[09:49:13] Client "Psyckosonik hellcase.com" connected.
[09:49:49] Client "Psyckosonik hellcase.com" spawned in server <STEAM_0:1:147580305> (took 36 seconds).
[09:50:28] [FX]AlexCorruptor: !r
[09:50:44] [FX]AlexCorruptor: !r
[09:51:15] [FX]AlexCorruptor: !r
[09:51:51] [FX]AlexCorruptor: !r
[09:52:09] [FX]AlexCorruptor: !r
[09:53:29] [FX]AlexCorruptor: !r
[09:53:32] [FX]AlexCorruptor: !r
[09:53:47] [FX]AlexCorruptor: !r
[09:54:16] [FX]AlexCorruptor: !r
[09:54:31] [FX]AlexCorruptor: !r
[09:54:49] [FX]AlexCorruptor: !r
[09:54:58] Dropped "Psyckosonik hellcase.com" from server<STEAM_0:1:147580305>
[09:55:51] Dropped "[FX]AlexCorruptor" from server<STEAM_0:0:77731187>
[09:55:51] Dropped "Bot05" from server<BOT>
[09:55:51] Dropped "Bot06" from server<BOT>
[09:55:59] Client "§4❤Єтнαɴ❤" connected.
[09:57:16] Client "§4❤Єтнαɴ❤" spawned in server <STEAM_0:1:170239846> (took 77 seconds).
[09:57:16] Client "Bot07" connected.
[09:57:16] Client "Bot07" spawned in server <BOT> (took 2436 seconds).
[09:57:18] Client "Bot08" connected.
[09:57:18] Client "Bot08" spawned in server <BOT> (took 2438 seconds).
[09:58:30] §4❤Єтнαɴ❤: !rtv
[09:59:06] Server is shutting down/changing levels.



[09:59:13] New map: surf_sluice_final
[09:59:47] Client "§4❤Єтнαɴ❤" spawned in server <STEAM_0:1:170239846> (took 35 seconds).
[09:59:47] Client "Bot09" connected.
[09:59:47] Client "Bot09" spawned in server <BOT> (took 35 seconds).
[09:59:49] Client "Bot10" connected.
[09:59:49] Client "Bot10" spawned in server <BOT> (took 37 seconds).
[10:03:29] §4❤Єтнαɴ❤: !rtv
[10:03:32] §4❤Єтнαɴ❤: !rtv
[10:03:50] §4❤Єтнαɴ❤: !rtv
[10:04:24] §4❤Єтнαɴ❤: !rtv
[10:05:00] Server is shutting down/changing levels.



[10:05:07] New map: surf_island
[10:05:27] Client "§4❤Єтнαɴ❤" spawned in server <STEAM_0:1:170239846> (took 21 seconds).
[10:05:27] Client "Bot11" connected.
[10:05:27] Client "Bot11" spawned in server <BOT> (took 21 seconds).
[10:05:29] Client "Bot12" connected.
[10:05:29] Client "Bot12" spawned in server <BOT> (took 23 seconds).
[10:09:30] §4❤Єтнαɴ❤: !rtv
[10:11:52] §4❤Єтнαɴ❤: !rtv
[10:12:28] Server is shutting down/changing levels.



[10:12:35] New map: surf_funhouse_v1
[10:12:58] Client "§4❤Єтнαɴ❤" spawned in server <STEAM_0:1:170239846> (took 24 seconds).
[10:12:58] Client "Bot13" connected.
[10:12:58] Client "Bot13" spawned in server <BOT> (took 24 seconds).
[10:13:00] Client "Bot14" connected.
[10:13:00] Client "Bot14" spawned in server <BOT> (took 26 seconds).
[10:13:56] §4❤Єтнαɴ❤: !addons
[10:14:09] (TEAM) §4❤Єтнαɴ❤: !menu 
[10:18:12] §4❤Єтнαɴ❤: !steam
[10:18:40] §4❤Єтнαɴ❤: !rtv
[10:19:16] Server is shutting down/changing levels.



[10:19:23] New map: surf_airflow
[10:21:02] Client "§4❤Єтнαɴ❤" spawned in server <STEAM_0:1:170239846> (took 100 seconds).
[10:21:02] Client "Bot15" connected.
[10:21:02] Client "Bot15" spawned in server <BOT> (took 100 seconds).
[10:21:04] Client "Bot16" connected.
[10:21:04] Client "Bot16" spawned in server <BOT> (took 102 seconds).
[10:23:52] §4❤Єтнαɴ❤: !rtv
[10:24:54] §4❤Єтнαɴ❤: !rtv
[10:25:30] Server is shutting down/changing levels.



[10:25:37] New map: surf_dusk
[10:25:58] Client "nikita140905" connected.
[10:25:59] Client "TheDarkKnight" connected.
[10:26:03] Client "§4❤Єтнαɴ❤" spawned in server <STEAM_0:1:170239846> (took 27 seconds).
[10:26:03] Client "Bot17" connected.
[10:26:03] Client "Bot17" spawned in server <BOT> (took 27 seconds).
[10:26:06] Client "Bot18" connected.
[10:26:06] Client "Bot18" spawned in server <BOT> (took 30 seconds).
[10:26:35] §4❤Єтнαɴ❤: !rtv
[10:26:51] §4❤Єтнαɴ❤: /help
[10:26:55] §4❤Єтнαɴ❤: !help 
[10:26:58] §4❤Єтнαɴ❤: !help 
[10:27:30] §4❤Єтнαɴ❤: !help 
[10:27:33] §4❤Єтнαɴ❤: /help
[10:27:51] Client "TheDarkKnight" spawned in server <STEAM_0:1:128272843> (took 112 seconds).
[10:27:52] §4❤Єтнαɴ❤: /help
[10:28:01] §4❤Єтнαɴ❤: hy 
[10:28:10] §4❤Єтнαɴ❤: fr?
[10:28:33] §4❤Єтнαɴ❤: what is addons?
[10:29:45] §4❤Єтнαɴ❤: !rtv
[10:30:08] §4❤Єтнαɴ❤: !rtv
[10:30:25] Dropped "TheDarkKnight" from server<STEAM_0:1:128272843>
[10:30:32] §4❤Єтнαɴ❤: !rtv
[10:30:34] §4❤Єтнαɴ❤: !rtv
[10:30:37] (TEAM) §4❤Єтнαɴ❤: !rtv
[10:30:39] §4❤Єтнαɴ❤: !rtv
[10:31:15] Server is shutting down/changing levels.



[10:31:22] New map: surf_ace
[10:31:44] Client "§4❤Єтнαɴ❤" spawned in server <STEAM_0:1:170239846> (took 24 seconds).
[10:31:44] Client "Bot19" connected.
[10:31:44] Client "Bot19" spawned in server <BOT> (took 24 seconds).
[10:31:46] Client "Bot20" connected.
[10:31:46] Client "Bot20" spawned in server <BOT> (took 26 seconds).
[10:32:15] §4❤Єтнαɴ❤: !r
[10:32:21] §4❤Єтнαɴ❤: !r
[10:38:37] §4❤Єтнαɴ❤: !r
[10:39:24] §4❤Єтнαɴ❤: !tutorial
[10:46:22] Dropped "§4❤Єтнαɴ❤" from server<STEAM_0:1:170239846>
[10:46:22] Dropped "Bot19" from server<BOT>
[10:46:22] Dropped "Bot20" from server<BOT>
[11:01:58] Server is shutting down/changing levels.



[11:02:04] New map: surf_lux
[11:06:07] Client "Nut"я" connected.
[11:06:34] Client "Nut"я" spawned in server <STEAM_0:1:78849836> (took 27 seconds).
[11:06:34] Client "Bot21" connected.
[11:06:34] Client "Bot21" spawned in server <BOT> (took 271 seconds).
[11:06:36] Client "Bot22" connected.
[11:06:36] Client "Bot22" spawned in server <BOT> (took 273 seconds).
[11:08:29] Dropped "Nut"я" from server<STEAM_0:1:78849836>
[11:08:29] Dropped "Bot21" from server<BOT>
[11:08:29] Dropped "Bot22" from server<BOT>
[11:09:37] Client "paweł946465" connected.
[11:12:16] Client "paweł946465" spawned in server <STEAM_0:0:142633135> (took 159 seconds).
[11:12:16] Client "Bot23" connected.
[11:12:16] Client "Bot23" spawned in server <BOT> (took 613 seconds).
[11:12:18] Client "Bot24" connected.
[11:12:18] Client "Bot24" spawned in server <BOT> (took 615 seconds).
[11:18:30] Dropped "paweł946465" from server<STEAM_0:0:142633135>
[11:18:30] Dropped "Bot23" from server<BOT>
[11:18:30] Dropped "Bot24" from server<BOT>
[11:20:14] Client "paweł946465" connected.
[11:20:42] Client "paweł946465" spawned in server <STEAM_0:0:142633135> (took 28 seconds).
[11:20:42] Client "Bot25" connected.
[11:20:42] Client "Bot25" spawned in server <BOT> (took 1119 seconds).
[11:20:44] Client "Bot26" connected.
[11:20:44] Client "Bot26" spawned in server <BOT> (took 1121 seconds).
[11:22:08] paweł946465: !unbox
[11:25:03] paweł946465: !rtv
[11:25:39] Server is shutting down/changing levels.



[11:25:46] New map: surf_ace
[11:26:26] Client "paweł946465" spawned in server <STEAM_0:0:142633135> (took 41 seconds).
[11:26:26] Client "Bot27" connected.
[11:26:26] Client "Bot27" spawned in server <BOT> (took 41 seconds).
[11:26:28] Client "Bot28" connected.
[11:26:28] Client "Bot28" spawned in server <BOT> (took 43 seconds).
[11:27:29] Client "Haunt" connected.
[11:28:13] Client "Haunt" spawned in server <STEAM_0:1:197628333> (took 44 seconds).
[11:28:52] Haunt: !R
[11:29:27] Client "lololoshka.206" connected.
[11:29:48] Haunt: !R
[11:29:53] Haunt: !R
[11:30:11] Haunt: !R
[11:30:17] Haunt: !R
[11:30:22] Haunt: !R
[11:30:51] Haunt: !R
[11:31:02] Haunt: !R
[11:31:17] Haunt: !R
[11:31:31] Haunt: !R
[11:31:35] Haunt: !R
[11:31:45] Haunt: !R
[11:32:14] Haunt: !R
[11:32:28] Haunt: !R
[11:32:50] Haunt: !R
[11:32:53] Haunt: !R
[11:33:04] Haunt: !R
[11:33:20] Haunt: !R
[11:33:23] Client "lololoshka.206" spawned in server <STEAM_0:0:223597088> (took 236 seconds).
[11:33:25] paweł946465: !rtv
[11:33:30] Haunt: !R
[11:33:34] Haunt: /nominate
[11:33:43] Haunt: !R
[11:33:47] Haunt: !R
[11:33:52] Haunt: !R
[11:33:55] Haunt: !R
[11:34:01] Haunt: !R
[11:34:22] paweł946465: plz !rtv
[11:34:30] Haunt: !R
[11:34:35] Haunt: lemme get a better time real quick
[11:34:58] Haunt: !R
[11:35:19] Haunt: !R
[11:36:03] paweł946465: plz !rtv!
[11:36:14] Haunt: !R
[11:36:50] Haunt: !R
[11:37:10] Dropped "lololoshka.206" from server<STEAM_0:0:223597088>
[11:37:16] paweł946465: !rtv
[11:37:18] paweł946465: plz !rtv
[11:37:40] Haunt: !R
[11:37:50] Haunt: /wr
[11:38:07] Haunt: !R
[11:38:11] paweł946465: plz !RTV! NOW!
[11:38:12] Haunt: !R
[11:38:14] Haunt: nope
[11:38:17] paweł946465: why :C
[11:38:28] paweł946465: i can't end this map
[11:38:42] Haunt: !R
[11:39:04] Haunt: !R
[11:39:09] Haunt: !R
[11:39:15] Haunt: !R
[11:39:18] paweł946465: !menu
[11:39:21] paweł946465 voted for surf_forbidden_ways_ksf (1/3)
[11:40:07] Haunt: !R
[11:40:08] paweł946465: stupid map
[11:40:14] Haunt: !R
[11:40:17] paweł946465: .!RTV plz
[11:40:20] Haunt: this an easy map tho
[11:40:33] paweł946465: i can't end this map
[11:40:38] paweł946465: plz help me
[11:40:50] Haunt: spec me or the bot, just find out the routes
[11:40:53] Haunt: !R
[11:41:03] Haunt: !R
[11:41:18] paweł946465: i'm can't end 3 stage
[11:41:36] Haunt: !R
[11:41:56] Haunt: !R
[11:42:36] paweł946465: !unspec
[11:42:39] paweł946465: !spec
[11:42:48] Haunt: !R
[11:43:03] Haunt: !R
[11:43:55] Haunt: !R
[11:44:11] Haunt: !R
[11:44:18] Haunt: !R
[11:44:28] Haunt: !R
[11:44:31] paweł946465: .!rtv plz
[11:44:33] Haunt: !R
[11:44:40] Haunt: !R
[11:45:03] Haunt: !R
[11:45:24] Haunt: !R
[11:45:46] Haunt: !R
[11:46:24] Dropped "paweł946465" from server<STEAM_0:0:142633135>
[11:46:36] Haunt: !R
[11:47:23] Haunt: !R
[11:47:31] Haunt: !R
[11:48:06] Haunt: !R
[11:48:12] Haunt: !R
[11:48:17] Haunt: !R
[11:48:51] Haunt: !R
[11:49:46] Haunt: !R
[11:49:55] Haunt: !R
[11:50:03] Haunt: !R
[11:50:09] Haunt: !R
[11:50:25] Haunt: !R
[11:50:45] Haunt: !R
[11:51:38] Haunt: !R
[11:51:40] Haunt: /rtv
[11:52:16] Server is shutting down/changing levels.



[11:52:24] New map: surf_kitsune2
[11:52:42] Client "Haunt" spawned in server <STEAM_0:1:197628333> (took 20 seconds).
[11:52:42] Client "Bot29" connected.
[11:52:42] Client "Bot29" spawned in server <BOT> (took 20 seconds).
[11:52:44] Client "Bot30" connected.
[11:52:44] Client "Bot30" spawned in server <BOT> (took 22 seconds).
[11:55:14] Haunt: !R
[11:55:23] Haunt: !R
[11:55:37] Haunt: !R
[11:55:57] Haunt: !R
[11:57:09] Haunt: !R
[11:57:27] Haunt: !R
[11:57:38] Haunt: !R
[11:58:45] Haunt: !R
[11:59:59] Haunt: !R
[12:00:47] Haunt: !R
[12:01:18] Haunt: /modes
[12:01:46] Haunt: !R
[12:02:28] Haunt: !R
[12:02:53] Haunt: !R
[12:03:28] Haunt: !R
[12:04:51] Haunt: !R
[12:06:06] Haunt: !R
[12:07:09] Haunt: !R
[12:07:17] Haunt: !R
[12:09:02] Haunt: !R
[12:10:30] Haunt: !R
[12:11:05] Client "Jimmie" connected.
[12:11:53] Haunt: !R
[12:12:09] Client "^2okniraMGamer" connected.
[12:12:12] Client "Jimmie" spawned in server <STEAM_0:1:164677995> (took 67 seconds).
[12:13:02] Haunt: !R
[12:13:38] Haunt: !R
[12:14:13] Haunt: !R
[12:14:39] Haunt: !R
[12:15:32] Client "^2okniraMGamer" spawned in server <STEAM_0:1:69702096> (took 203 seconds).
[12:15:37] Haunt: !R
[12:16:22] Haunt: !R
[12:17:09] Haunt: !R
[12:17:44] Haunt: !R
[12:18:01] ^2okniraMGamer: omg 1050 ti oc 200 fps gmod <3
[12:18:13] Haunt: lol
[12:18:21] Haunt: amd radeon 380 r9 series, 200 fps lol
[12:18:22] Haunt: !R
[12:18:28] Client "NaughtyCamel" connected.
[12:18:29] Client "Mr.Nostalgia" connected.
[12:18:40] ^2okniraMGamer: i had a 750 1 gb :C
[12:18:42] Haunt: !R
[12:19:09] ^2okniraMGamer: had like 40-60 fps
[12:19:15] Client "NaughtyCamel" spawned in server <STEAM_0:0:84586431> (took 47 seconds).
[12:19:20] Jimmie: !steam
[12:19:31] Client "Mr.Nostalgia" spawned in server <STEAM_0:0:40138673> (took 62 seconds).
[12:19:47] Client "℟ÕḾǺ'Ẑ╰_╯| Pvpro.co" connected.
[12:21:00] Client "Luckylv" connected.
[12:21:25] Haunt: !R
[12:21:53] Haunt: !R
[12:23:03] NaughtyCamel: !votemap
[12:23:23] NaughtyCamel: /sanic
[12:23:26] NaughtyCamel: /sonic
[12:24:24] ^2okniraMGamer: !spec
[12:24:49] Client "Drty" connected.
[12:25:36] Client "℟ÕḾǺ'Ẑ╰_╯| Pvpro.co" spawned in server <STEAM_0:1:193913464> (took 349 seconds).
[12:25:38] Client "Drty" spawned in server <STEAM_0:1:172220397> (took 49 seconds).
[12:26:10] Jimmie: !steam
[12:26:23] Haunt: !R
[12:26:27] Haunt: /record
[12:26:29] Drty: Ayyy
[12:26:30] Drty: !r
[12:26:32] Haunt: /wr add
[12:26:34] Haunt: /bot add
[12:26:38] Dropped "Mr.Nostalgia" from server<STEAM_0:0:40138673>
[12:26:39] Haunt: xD i messed up on a stage
[12:26:40] ^2okniraMGamer: !spec
[12:26:43] Drty: riipp
[12:26:50] Jimmie: !steam
[12:26:52] ℟ÕḾǺ'Ẑ╰_╯| Pvpro.co: !res
[12:26:54] ℟ÕḾǺ'Ẑ╰_╯| Pvpro.co: /res
[12:27:00] Dropped "NaughtyCamel" from server<STEAM_0:0:84586431>
[12:27:12] Haunt: !R
[12:27:28] Client "Luckylv" spawned in server <STEAM_0:1:25851765> (took 388 seconds).
[12:27:40] Jimmie: !unbox
[12:27:43] ℟ÕḾǺ'Ẑ╰_╯| Pvpro.co: !jn
[12:28:17] Haunt: !R
[12:29:43] Drty: !r
[12:30:26] Jimmie: !unbox
[12:30:46] Drty: !r
[12:30:55] Drty: !bot record
[12:30:58] Drty: !wr
[12:32:45] ^2okniraMGamer: Gj
[12:32:53] Drty: Sub 3 mins? :D
[12:32:57] Haunt: lmao
[12:33:12] Haunt: how about rainbows?
[12:33:14] Drty: !r
[12:33:25] Drty: yeet
[12:33:35] ^2okniraMGamer: :C
[12:34:29] Haunt: !R
[12:34:41] Drty: !nominate
[12:34:59] Drty: !rtv
[12:35:02] Drty: yeet
[12:35:03] Drty: !r
[12:35:15] ^2okniraMGamer: !rtv
[12:35:18] Haunt: /b
[12:35:23] Haunt: /wr
[12:35:40] Haunt: wow
[12:35:47] Haunt: zanzi had 4:45 for 3 days
[12:35:52] Haunt: FeelsBadMan
[12:36:03] ^2okniraMGamer: !spec
[12:36:08] Drty: yeet
[12:36:09] Drty: !r
[12:36:16] Drty: !r
[12:36:25] Haunt: yeet
[12:36:36] Haunt: /top
[12:36:57] Haunt: /rank
[12:37:01] (TEAM) Haunt: /top
[12:37:06] Drty: <hsv> Homosexual yeet </hsv>
[12:37:08] Drty: !r
[12:37:12] ^2okniraMGamer: smash rtv pls :D
[12:37:16] Luckylv: !rtv
[12:37:18] ℟ÕḾǺ'Ẑ╰_╯| Pvpro.co: !rtv
[12:37:19] Haunt: /nominate
[12:37:39] Drty: SMaSh TaHt LeiK BuTtON JaKe PaUlERs
[12:37:52] Haunt: I gOt SwAtTeD
[12:37:52] Drty: Why classsiccss
[12:37:54] Server is shutting down/changing levels.



[12:38:02] New map: surf_classics2
[12:38:16] Client "nidjalegenda" connected.
[12:38:36] Client "Drty" spawned in server <STEAM_0:1:172220397> (took 35 seconds).
[12:38:36] Client "Bot31" connected.
[12:38:36] Client "Bot31" spawned in server <BOT> (took 35 seconds).
[12:38:38] Client "Bot32" connected.
[12:38:38] Client "Bot32" spawned in server <BOT> (took 37 seconds).
[12:38:53] Client "Haunt" spawned in server <STEAM_0:1:197628333> (took 52 seconds).
[12:39:02] Drty: Fuck noob amirite
[12:39:07] Client "Jimmie" spawned in server <STEAM_0:1:164677995> (took 66 seconds).
[12:39:09] Drty: !r
[12:39:13] Haunt: JAKE PAUL GETS SWATTED TWICE!
[12:39:16] Drty: !r
[12:39:18] Client "^2okniraMGamer" spawned in server <STEAM_0:1:69702096> (took 77 seconds).
[12:39:19] Drty: yeet
[12:40:08] Haunt: !R
[12:40:13] Client "℟ÕḾǺ'Ẑ╰_╯| Pvpro.co" spawned in server <STEAM_0:1:193913464> (took 132 seconds).
[12:40:26] ^2okniraMGamer: wtf is that for a map
[12:40:27] Haunt: !R
[12:40:32] ^2okniraMGamer: !r
[12:40:45] Jimmie: !unbox
[12:41:00] Haunt: !R
[12:41:05] Haunt: !R
[12:41:53] ℟ÕḾǺ'Ẑ╰_╯| Pvpro.co: !Knives
[12:42:33] Haunt: !R
[12:42:47] ℟ÕḾǺ'Ẑ╰_╯| Pvpro.co: !help
[12:43:14] ℟ÕḾǺ'Ẑ╰_╯| Pvpro.co: !restart
[12:43:33] ℟ÕḾǺ'Ẑ╰_╯| Pvpro.co: https://discord.gg/BCE9WV
[12:43:40] ℟ÕḾǺ'Ẑ╰_╯| Pvpro.co: !restart
[12:44:09] Dropped "℟ÕḾǺ'Ẑ╰_╯| Pvpro.co" from server<STEAM_0:1:193913464>
[12:45:41] ^2okniraMGamer: this map is so weird :3
[12:45:47] Haunt: !R
[12:46:45] Drty: Wow
[12:46:50] Drty: That time was very...
[12:46:53] Drty: BONELESS
[12:46:56] Drty: !r
[12:47:00] Haunt: can i get a boneless pizza?
[12:47:11] Drty: What do you mean?
[12:47:14] ^2okniraMGamer: NO
[12:49:14] Client "AtomPvPCraft" connected.
[12:50:01] Client "AtomPvPCraft" spawned in server <STEAM_0:1:111655205> (took 47 seconds).
[12:50:37] Dropped "^2okniraMGamer" from server<STEAM_0:1:69702096>
[12:51:06] Dropped "Haunt" from server<STEAM_0:1:197628333>
[12:51:13] Dropped "Jimmie" from server<STEAM_0:1:164677995>
[12:51:57] Dropped "AtomPvPCraft" from server<STEAM_0:1:111655205>
[12:52:22] Drty: !r
[12:52:51] Dropped "Drty" from server<STEAM_0:1:172220397>
[12:52:51] Dropped "Bot31" from server<BOT>
[12:52:51] Dropped "Bot32" from server<BOT>
[12:58:02] Client "§4❤Єтнαɴ❤" connected.
[12:59:23] Client "§4❤Єтнαɴ❤" spawned in server <STEAM_0:1:170239846> (took 81 seconds).
[12:59:23] Client "Bot33" connected.
[12:59:23] Client "Bot33" spawned in server <BOT> (took 1282 seconds).
[12:59:25] Client "Bot34" connected.
[12:59:25] Client "Bot34" spawned in server <BOT> (took 1284 seconds).
[13:01:50] §4❤Єтнαɴ❤: !rtv
[13:02:26] Server is shutting down/changing levels.



[13:02:33] New map: surf_milkyway
[13:03:16] Client "§4❤Єтнαɴ❤" spawned in server <STEAM_0:1:170239846> (took 44 seconds).
[13:03:16] Client "Bot35" connected.
[13:03:16] Client "Bot35" spawned in server <BOT> (took 44 seconds).
[13:03:18] Client "Bot36" connected.
[13:03:18] Client "Bot36" spawned in server <BOT> (took 46 seconds).
[13:09:28] §4❤Єтнαɴ❤: !rtv
[13:09:37] Client "[GG]tyrone(ger)" connected.
[13:10:04] Server is shutting down/changing levels.



[13:10:11] New map: surf_utopia_njv
[13:10:20] Client "[GG]tyrone(ger)" connected.
[13:10:29] Client "§4❤Єтнαɴ❤" spawned in server <STEAM_0:1:170239846> (took 19 seconds).
[13:10:29] Client "Bot37" connected.
[13:10:29] Client "Bot37" spawned in server <BOT> (took 19 seconds).
[13:10:31] Client "Bot38" connected.
[13:10:31] Client "Bot38" spawned in server <BOT> (took 21 seconds).
[13:11:00] §4❤Єтнαɴ❤: !nominate
[13:11:21] Client "Snoop Frogg" connected.
[13:12:11] Client "Snoop Frogg" spawned in server <STEAM_0:1:78928969> (took 50 seconds).
[13:14:51] Client "paweł946465" connected.
[13:16:13] Client "paweł946465" spawned in server <STEAM_0:0:142633135> (took 82 seconds).
[13:16:36] Dropped "Snoop Frogg" from server<STEAM_0:1:78928969>
[13:17:44] §4❤Єтнαɴ❤: !unbox
[13:20:26] §4❤Єтнαɴ❤: !unbox
[13:21:37] Client ":DFYZ" connected.
[13:22:18] Client ":DFYZ" spawned in server <STEAM_0:0:50780331> (took 41 seconds).
[13:22:55] paweł946465: !unbocx
[13:22:56] paweł946465: !unboc
[13:22:58] paweł946465: !unbox
[13:26:33] Dropped ":DFYZ" from server<STEAM_0:0:50780331>
[13:27:38] Client "Parappa The Rapper" connected.
[13:28:16] paweł946465: !unbox
[13:29:02] Client "Jancis The TTT" connected.
[13:29:51] paweł946465: !knivs
[13:31:01] paweł946465: !rtv
[13:31:04] paweł946465: plz !rtv
[13:32:05] Dropped "paweł946465" from server<STEAM_0:0:142633135>
[13:33:04] Client "Jancis The TTT" spawned in server <STEAM_0:1:195030265> (took 242 seconds).
[13:36:07] Client "Mr.Frank" connected.
[13:36:30] Client "Mr.Frank" spawned in server <STEAM_0:0:113187351> (took 23 seconds).
[13:36:39] Jancis The TTT: !knifes
[13:37:06] Mr.Frank: !r
[13:37:15] Mr.Frank: !r
[13:38:28] §4❤Єтнαɴ❤: gg
[13:39:42] Mr.Frank: !r
[13:40:47] Server is shutting down/changing levels.



[13:40:54] New map: surf_mesa
[13:41:15] Client "§4❤Єтнαɴ❤" spawned in server <STEAM_0:1:170239846> (took 22 seconds).
[13:41:16] Client "Bot39" connected.
[13:41:16] Client "Bot39" spawned in server <BOT> (took 23 seconds).
[13:41:18] Client "Bot40" connected.
[13:41:18] Client "Bot40" spawned in server <BOT> (took 25 seconds).
[13:42:39] Client "Mr.Frank" spawned in server <STEAM_0:0:113187351> (took 106 seconds).
[13:48:25] Mr.Frank: !r
[13:48:51] Mr.Frank: !r
[13:48:54] Mr.Frank: !nominate
[13:49:00] Mr.Frank: !rtv
[13:49:10] §4❤Єтнαɴ❤: !rtv
[13:49:39] Mr.Frank: !r
[13:49:46] Server is shutting down/changing levels.



[13:49:53] New map: surf_this_njv
[13:50:12] Client "§4❤Єтнαɴ❤" spawned in server <STEAM_0:1:170239846> (took 20 seconds).
[13:50:12] Client "Bot41" connected.
[13:50:12] Client "Bot41" spawned in server <BOT> (took 20 seconds).
[13:50:14] Client "Bot42" connected.
[13:50:14] Client "Bot42" spawned in server <BOT> (took 22 seconds).
[13:50:21] Client "Mr.Frank" spawned in server <STEAM_0:0:113187351> (took 29 seconds).
[13:50:57] §4❤Єтнαɴ❤: !rtv
[13:51:01] §4❤Єтнαɴ❤: ERROR
[13:51:15] §4❤Єтнαɴ❤: What is workshop addons please?
[13:51:24] Mr.Frank: Its css textures
[13:51:31] §4❤Єтнαɴ❤: oh
[13:51:33] Mr.Frank: Google "CSS Textures for garrys mod"
[13:51:42] Mr.Frank: g a rrys mod
[13:51:47] §4❤Єтнαɴ❤: thanks
[13:51:51] Client "ObjectiveButter" connected.
[13:52:09] Dropped "§4❤Єтнαɴ❤" from server<STEAM_0:1:170239846>
[13:52:34] Mr.Frank: !r
[13:52:53] Client "ObjectiveButter" spawned in server <STEAM_0:1:95346213> (took 62 seconds).
[13:53:20] Mr.Frank: !r
[13:53:36] Mr.Frank: !r
[13:54:12] Dropped "ObjectiveButter" from server<STEAM_0:1:95346213>
[13:55:58] Dropped "Mr.Frank" from server<STEAM_0:0:113187351>
[13:55:58] Dropped "Bot41" from server<BOT>
[13:55:58] Dropped "Bot42" from server<BOT>
[13:56:18] Client "Lunakeef" connected.
[14:01:26] Client "Lunakeef" spawned in server <STEAM_0:0:181945142> (took 308 seconds).
[14:01:26] Client "Bot43" connected.
[14:01:26] Client "Bot43" spawned in server <BOT> (took 694 seconds).
[14:01:28] Client "Bot44" connected.
[14:01:28] Client "Bot44" spawned in server <BOT> (took 696 seconds).
[14:02:21] Dropped "Lunakeef" from server<STEAM_0:0:181945142>
[14:02:21] Dropped "Bot43" from server<BOT>
[14:02:21] Dropped "Bot44" from server<BOT>
[14:02:21] Client "Lunakeef" connected.
[14:20:29] Server is shutting down/changing levels.



[14:20:36] New map: surf_aether
[14:22:46] Client "FX | EagleGamer" connected.
[14:25:04] Client "FX | EagleGamer" spawned in server <STEAM_0:0:75258757> (took 138 seconds).
[14:25:04] Client "Bot45" connected.
[14:25:04] Client "Bot45" spawned in server <BOT> (took 269 seconds).
[14:25:06] Client "Bot46" connected.
[14:25:06] Client "Bot46" spawned in server <BOT> (took 271 seconds).
[14:27:38] Client "Digit" connected.
[14:28:25] Client "Digit" spawned in server <STEAM_0:1:92139704> (took 47 seconds).
[14:29:22] Digit: /unbox
[14:31:35] Digit: 1Steam
[14:31:39] Digit: !steam
[14:32:11] FX | EagleGamer: Go check out our Deathrun server!
[14:32:18] Digit: !unbox
[14:33:10] Client "Drty" connected.
[14:33:24] Client "Drty" spawned in server <STEAM_0:1:172220397> (took 14 seconds).
[14:34:03] Client "Max™" connected.
[14:34:40] Drty: !r
[14:34:45] Drty: !wr
[14:35:27] FX | EagleGamer: Go check out our Deathrun server!
[14:35:34] Drty: yeet
[14:36:03] FX | EagleGamer: !unbox
[14:36:04] Drty: !bot record
[14:36:22] Digit: !rtv
[14:36:26] Drty: !r
[14:36:32] FX | EagleGamer: !rtv
[14:36:39] FX | EagleGamer: 5
[14:36:45] Drty: !r
[14:37:07] Drty: !r
[14:37:16] Drty: !r
[14:37:16] Dropped "FX | EagleGamer" from server<STEAM_0:0:75258757>
[14:38:07] Drty: !r
[14:38:22] Drty: !r
[14:38:38] Drty: !r
[14:39:21] Dropped "Drty" from server<STEAM_0:1:172220397>
[14:40:06] Digit: !JB
[14:46:08] Digit: !rtv
[14:46:44] Server is shutting down/changing levels.



[14:46:51] New map: surf_beginner_hell
[14:47:25] Client "Digit" spawned in server <STEAM_0:1:92139704> (took 35 seconds).
[14:47:25] Client "Bot47" connected.
[14:47:25] Client "Bot47" spawned in server <BOT> (took 35 seconds).
[14:47:27] Client "Bot48" connected.
[14:47:27] Client "Bot48" spawned in server <BOT> (took 37 seconds).
[14:52:10] Digit: !nominate
[14:52:33] Digit: !rtv
[14:53:09] Server is shutting down/changing levels.



[14:53:16] New map: surf_kitsune2
[14:54:07] Client "Digit" spawned in server <STEAM_0:1:92139704> (took 52 seconds).
[14:54:07] Client "Bot49" connected.
[14:54:07] Client "Bot49" spawned in server <BOT> (took 52 seconds).
[14:54:09] Client "Bot50" connected.
[14:54:09] Client "Bot50" spawned in server <BOT> (took 54 seconds).
[14:55:35] Digit: !nominate
[14:55:52] Digit: !rtv
[14:56:05] Digit: !R
[14:57:44] Digit: !Rtv
[14:57:48] Digit: !rtv
[14:58:34] Digit: !rtv
[14:59:10] Server is shutting down/changing levels.



[14:59:17] New map: surf_kitsune
[14:59:44] Client "Digit" spawned in server <STEAM_0:1:92139704> (took 28 seconds).
[14:59:44] Client "Bot51" connected.
[14:59:44] Client "Bot51" spawned in server <BOT> (took 28 seconds).
[14:59:46] Client "Bot52" connected.
[14:59:46] Client "Bot52" spawned in server <BOT> (took 30 seconds).
[15:01:48] Digit: !r
[15:02:07] Digit: !r
[15:03:00] Digit: !r
[15:03:26] Digit: !r
[15:04:00] Digit: !r
[15:05:38] Digit: !r
[15:06:06] Digit: 1R
[15:06:18] Digit: !r
[15:06:57] Digit: !R
[15:07:14] Digit: !r
[15:07:39] (TEAM) Digit: !r
[15:08:10] Digit: !r
[15:08:28] Digit: !Re
[15:08:30] Digit: !r
[15:09:12] Digit: !e
[15:09:15] Digit: !r
[15:10:14] (TEAM) Digit: !unbox
[15:12:33] Client "perunavirallinen" connected.
[15:12:39] Dropped "Digit" from server<STEAM_0:1:92139704>
[15:13:37] Client "perunavirallinen" spawned in server <STEAM_0:0:112025209> (took 64 seconds).
[15:22:00] perunavirallinen: !knife
[15:22:05] Client "HARRY" connected.
[15:24:20] Client "HARRY" spawned in server <STEAM_0:0:162773958> (took 135 seconds).
[15:25:14] Client "Snakers" connected.
[15:26:10] Client "Snakers" spawned in server <STEAM_0:0:52406869> (took 56 seconds).
[15:27:02] Client "Mcree" connected.
[15:28:12] Client "Mcree" spawned in server <STEAM_0:1:121446579> (took 70 seconds).
[15:28:16] Snakers: !restart
[15:29:11] Dropped "Mcree" from server<STEAM_0:1:121446579>
[15:29:15] Snakers: !restart
[15:29:53] Server is shutting down/changing levels.



[15:30:00] New map: surf_kitsune2
[15:30:19] Client "Snakers" spawned in server <STEAM_0:0:52406869> (took 20 seconds).
[15:30:19] Client "Bot53" connected.
[15:30:19] Client "Bot53" spawned in server <BOT> (took 20 seconds).
[15:30:21] Client "Bot54" connected.
[15:30:21] Client "Bot54" spawned in server <BOT> (took 22 seconds).
[15:30:38] Client "perunavirallinen" spawned in server <STEAM_0:0:112025209> (took 39 seconds).
[15:30:50] Client "§4❤Єтнαɴ❤" connected.
[15:31:14] Client "skyjokers" connected.
[15:31:50] Client "skyjokers" spawned in server <STEAM_0:0:114536141> (took 36 seconds).
[15:32:01] Client "HARRY" spawned in server <STEAM_0:0:162773958> (took 122 seconds).
[15:33:49] Client "§4❤Єтнαɴ❤" spawned in server <STEAM_0:1:170239846> (took 179 seconds).
[15:36:15] Client "AtomPvPCraft" connected.
[15:37:07] Client "AtomPvPCraft" spawned in server <STEAM_0:1:111655205> (took 52 seconds).
[15:38:53] Dropped "Snakers" from server<STEAM_0:0:52406869>
[15:39:00] §4❤Єтнαɴ❤: xd
[15:41:19] Dropped "HARRY" from server<STEAM_0:0:162773958>
[15:42:00] Dropped "skyjokers" from server<STEAM_0:0:114536141>
[15:42:16] Client "PePe | Legend" connected.
[15:42:29] §4❤Єтнαɴ❤: !rtv
[15:43:21] §4❤Єтнαɴ❤: !r
[15:44:40] Client "PePe | Legend" spawned in server <STEAM_0:0:74367706> (took 144 seconds).
[15:45:45] §4❤Єтнαɴ❤: !r
[15:45:46] §4❤Єтнαɴ❤: !rtv
[15:45:52] §4❤Єтнαɴ❤: !rtv pleasxe
[15:45:56] §4❤Єтнαɴ❤: .!rtv
[15:46:59] Client "valentin73" connected.
[15:47:45] §4❤Єтнαɴ❤: !rtv pleasxe
[15:47:48] §4❤Єтнαɴ❤: !r
[15:48:16] §4❤Єтнαɴ❤: !r
[15:48:17] Dropped "AtomPvPCraft" from server<STEAM_0:1:111655205>
[15:49:12] §4❤Єтнαɴ❤: Please :: !rtv in the tchat :p
[15:50:00] Dropped "perunavirallinen" from server<STEAM_0:0:112025209>
[15:51:05] Client "☠ Spoon ☠ !!!!" connected.
[15:51:32] Client "valentin73" spawned in server <STEAM_0:0:187716348> (took 273 seconds).
[15:51:44] §4❤Єтнαɴ❤: valentin73
[15:52:03] §4❤Єтнαɴ❤: valentin73
[15:52:16] Client "☠ Spoon ☠ !!!!" spawned in server <STEAM_0:1:67707609> (took 71 seconds).
[15:52:25] §4❤Єтнαɴ❤: fr?
[15:52:49] §4❤Єтнαɴ❤: !r
[15:53:07] §4❤Єтнαɴ❤: !r
[15:53:41] §4❤Єтнαɴ❤: !r
[15:53:48] §4❤Єтнαɴ❤: valentin73
[15:54:17] §4❤Єтнαɴ❤: please rtv
[15:54:43] §4❤Єтнαɴ❤: fr?
[15:55:24] §4❤Єтнαɴ❤: Please : !rtv in the chat :p / Faites !rtv dans le chat :p.
[15:55:50] §4❤Єтнαɴ❤: !r
[15:56:24] (TEAM) valentin73: !knife
[15:56:56] (TEAM) valentin73: !unbox
[15:58:59] Client "perunavirallinen" connected.
[15:59:07] Client "perunavirallinen" spawned in server <STEAM_0:0:112025209> (took 8 seconds).
[15:59:31] §4❤Єтнαɴ❤: !r
[15:59:53] §4❤Єтнαɴ❤: perunavirallinen
[16:00:09] perunavirallinen: helo'
[16:00:36] Server is shutting down/changing levels.



[16:00:43] New map: surf_milkyway
[16:01:11] Client "§4❤Єтнαɴ❤" spawned in server <STEAM_0:1:170239846> (took 29 seconds).
[16:01:11] Client "Bot55" connected.
[16:01:11] Client "Bot55" spawned in server <BOT> (took 29 seconds).
[16:01:13] Client "Bot56" connected.
[16:01:13] Client "Bot56" spawned in server <BOT> (took 31 seconds).
[16:01:27] Client "perunavirallinen" spawned in server <STEAM_0:0:112025209> (took 45 seconds).
[16:02:14] Client "Drty" connected.
[16:02:19] Client "PePe | Legend" spawned in server <STEAM_0:0:74367706> (took 97 seconds).
[16:02:23] Client "☠ Spoon ☠ !!!!" spawned in server <STEAM_0:1:67707609> (took 101 seconds).
[16:02:36] Client "Drty" spawned in server <STEAM_0:1:172220397> (took 22 seconds).
[16:03:36] perunavirallinen: !rtv
[16:04:23] §4❤Єтнαɴ❤: !unbox
[16:06:42] perunavirallinen: !rtv
[16:06:59] perunavirallinen: PLs rtv
[16:07:08] ☠ Spoon ☠ !!!!: !rtv
[16:07:08] Client "valentin73" spawned in server <STEAM_0:0:187716348> (took 386 seconds).
[16:08:51] §4❤Єтнαɴ❤: !rtv
[16:09:21] valentin73: karabit
[16:09:30] §4❤Єтнαɴ❤: valentin73
[16:09:33] valentin73: :p
[16:09:43] §4❤Єтнαɴ❤: français?
[16:10:28] Dropped "valentin73" from server<STEAM_0:0:187716348>
[16:10:41] Dropped "Drty" from server<STEAM_0:1:172220397>
[16:10:50] §4❤Єтнαɴ❤: 5
[16:11:13] §4❤Єтнαɴ❤: Thanks :d
[16:11:17] Server is shutting down/changing levels.



[16:11:24] New map: surf_utopia_njv
[16:11:32] Client "perunavirallinen" spawned in server <STEAM_0:0:112025209> (took 9 seconds).
[16:11:32] Client "Bot57" connected.
[16:11:32] Client "Bot57" spawned in server <BOT> (took 9 seconds).
[16:11:34] Client "Bot58" connected.
[16:11:34] Client "Bot58" spawned in server <BOT> (took 11 seconds).
[16:11:49] Client "§4❤Єтнαɴ❤" spawned in server <STEAM_0:1:170239846> (took 26 seconds).
[16:11:51] Client "☠ Spoon ☠ !!!!" spawned in server <STEAM_0:1:67707609> (took 28 seconds).
[16:12:03] Client "PePe | Legend" spawned in server <STEAM_0:0:74367706> (took 40 seconds).
[16:16:44] Dropped "☠ Spoon ☠ !!!!" from server<STEAM_0:1:67707609>
[16:17:40] §4❤Єтнαɴ❤: !unbox
[16:18:06] §4❤Єтнαɴ❤: !unbox
[16:19:23] §4❤Єтнαɴ❤: !unbox
[16:21:33] Dropped "perunavirallinen" from server<STEAM_0:0:112025209>
[16:21:48] Client "Drty" connected.
[16:22:07] Client "Drty" spawned in server <STEAM_0:1:172220397> (took 19 seconds).
[16:24:33] Drty: !r
[16:25:52] Drty: !r
[16:28:59] Drty: !r
[16:31:28] Drty: !r
[16:31:59] Dropped "Drty" from server<STEAM_0:1:172220397>
[16:35:57] Client "Coq - Unijambiste" connected.
[16:37:44] Client "Coq - Unijambiste" spawned in server <STEAM_0:1:154609239> (took 107 seconds).
[16:38:14] §4❤Єтнαɴ❤: Coq - Unijambiste
[16:38:15] Dropped "PePe | Legend" from server<STEAM_0:0:74367706>
[16:38:23] §4❤Єтнαɴ❤: cc twa
[16:38:56] Client "FlyingTuna" connected.
[16:40:45] Client "DreaMs" connected.
[16:41:04] Client "Potato" connected.
[16:41:14] Client "DreaMs" spawned in server <STEAM_0:0:64189261> (took 29 seconds).
[16:41:29] Coq - Unijambiste: !r
[16:41:57] Coq - Unijambiste: !r
[16:43:08] Client "Potato" spawned in server <STEAM_0:0:80564424> (took 124 seconds).
[16:43:39] DreaMs: !r
[16:45:02] DreaMs: !r
[16:45:15] Client "memeD" connected.
[16:45:49] Coq - Unijambiste: !r
[16:46:34] Potato: !unbox
[16:46:55] Potato: !shop
[16:47:01] DreaMs: !shop
[16:47:14] Client "memeD" spawned in server <STEAM_0:0:154569343> (took 119 seconds).
[16:47:14] Potato: !unbox
[16:47:17] DreaMs: !unbox
[16:47:52] Coq - Unijambiste: !r
[16:47:53] Client "2G Ninja" connected.
[16:47:57] Coq - Unijambiste: !r
[16:48:07] Client "2G Ninja" spawned in server <STEAM_0:1:165151458> (took 14 seconds).
[16:48:17] Potato: !steam
[16:48:28] Client "Cookie ninja" connected.
[16:48:46] memeD: !unbox
[16:48:52] Client "Cookie ninja" connected.
[16:49:08] memeD: !stean
[16:49:11] memeD: !steam
[16:49:33] DreaMs: !unbox
[16:49:51] Potato: !unbox
[16:50:04] Coq - Unijambiste: !r
[16:50:07] Dropped "2G Ninja" from server<STEAM_0:1:165151458>
[16:50:59] Coq - Unijambiste: !r
[16:51:02] DreaMs: !unbox
[16:51:23] memeD: !r
[16:51:54] Coq - Unijambiste: !r
[16:52:09] DreaMs: !unbox
[16:52:14] DreaMs: !shop
[16:52:20] DreaMs: !unbox
[16:52:32] memeD: !unbox
[16:52:39] memeD: !steam
[16:52:47] DreaMs: !unbox
[16:52:52] DreaMs: !knife
[16:53:14] memeD: !steam
[16:53:23] Client "matt800k" connected.
[16:53:42] Coq - Unijambiste: !manual
[16:53:47] Coq - Unijambiste: !auto
[16:53:52] memeD: !unbox
[16:53:56] Client "matt800k" spawned in server <STEAM_0:1:184569301> (took 33 seconds).
[16:54:01] memeD: !kinfe
[16:54:03] Coq - Unijambiste: !r
[16:54:32] DreaMs: !r
[16:54:56] DreaMs: !r
[16:54:59] Coq - Unijambiste: !r
[16:54:59] Potato: !shop
[16:55:15] DreaMs: !r
[16:55:59] Dropped "matt800k" from server<STEAM_0:1:184569301>
[16:56:02] Potato: !unbox
[16:56:25] Coq - Unijambiste: !s
[16:56:33] Coq - Unijambiste: !auto
[16:56:41] Coq - Unijambiste: !manual
[16:56:45] memeD: !r
[16:56:46] memeD: !r
[16:56:47] Coq - Unijambiste: !auto
[16:56:49] memeD: (╯°□°）╯︵ ┻━┻
[16:57:10] §4❤Єтнαɴ❤: !auto
[16:57:31] Server is shutting down/changing levels.



[16:57:38] New map: surf_simpsons_source
[16:57:54] Client "DreaMs" spawned in server <STEAM_0:0:64189261> (took 17 seconds).
[16:57:54] Client "Bot59" connected.
[16:57:54] Client "Bot59" spawned in server <BOT> (took 17 seconds).
[16:57:56] Client "Bot60" connected.
[16:57:56] Client "Bot60" spawned in server <BOT> (took 19 seconds).
[16:58:07] Client "§4❤Єтнαɴ❤" spawned in server <STEAM_0:1:170239846> (took 30 seconds).
[16:58:17] Client "Dexter" connected.
[16:58:22] DreaMs: !r
[16:58:23] Client "Potato" spawned in server <STEAM_0:0:80564424> (took 46 seconds).
[16:58:28] Client "memeD" spawned in server <STEAM_0:0:154569343> (took 51 seconds).
[16:58:31] DreaMs: !r
[16:58:40] DreaMs: !r
[16:58:50] DreaMs: !r
[16:58:58] DreaMs: !r
[16:59:05] DreaMs: !r
[16:59:13] Client "Coq - Unijambiste" spawned in server <STEAM_0:1:154609239> (took 96 seconds).
[16:59:13] DreaMs: !r
[16:59:19] DreaMs: !r
[16:59:34] DreaMs: !r
[16:59:43] DreaMs: !r
[16:59:45] Coq - Unijambiste: !r
[16:59:48] DreaMs: !r
[16:59:53] Coq - Unijambiste: !auto
[16:59:56] Potato: !unbox
[16:59:56] DreaMs: !r
[17:00:00] §4❤Єтнαɴ❤: !rtv
[17:00:02] Coq - Unijambiste: !atuo
[17:00:09] Coq - Unijambiste: !manual
[17:00:14] memeD: (╯°□°）╯︵ ┻━┻
[17:00:16] §4❤Єтнαɴ❤: ̿̿ ̿̿ ̿'̿'\̵͇̿̿\З= ( ▀ ͜͞ʖ▀) =Ε/̵͇̿̿/’̿’̿ ̿ ̿̿ ̿̿ ̿̿ 
[17:00:29] Coq - Unijambiste: !r
[17:00:32] Coq - Unijambiste: !r
[17:00:41] Coq - Unijambiste: !auto
[17:00:52] Coq - Unijambiste: !r
[17:00:57] Coq - Unijambiste: !r
[17:00:59] DreaMs: !r
[17:01:07] Coq - Unijambiste: !r
[17:01:09] DreaMs: !r
[17:01:17] Coq - Unijambiste: !r
[17:01:19] Dropped "memeD" from server<STEAM_0:0:154569343>
[17:01:23] Coq - Unijambiste: !r
[17:01:29] Coq - Unijambiste: !r
[17:01:38] Coq - Unijambiste: !r
[17:01:46] Coq - Unijambiste: !r
[17:01:52] Coq - Unijambiste: !auto
[17:02:00] §4❤Єтнαɴ❤: !auto
[17:02:03] Coq - Unijambiste: !r
[17:02:10] Coq - Unijambiste: !r
[17:02:18] Coq - Unijambiste: !r
[17:02:24] Coq - Unijambiste: !r
[17:02:31] Coq - Unijambiste: !r
[17:02:38] Coq - Unijambiste: !r
[17:02:47] Coq - Unijambiste: !r
[17:02:56] Coq - Unijambiste: !r
[17:03:00] Coq - Unijambiste: §AUTO
[17:03:05] Coq - Unijambiste: !auto
[17:03:10] §4❤Єтнαɴ❤: !rtv
[17:03:15] Coq - Unijambiste: !rtv
[17:03:22] Coq - Unijambiste: !r
[17:03:24] §4❤Єтнαɴ❤: please : !rtv
[17:03:34] Coq - Unijambiste: !r
[17:04:11] Potato: !unbox
[17:04:21] Client "riolu396" connected.
[17:04:32] §4❤Єтнαɴ❤: please : !rtv
[17:04:45] DreaMs: !rtv
[17:05:21] Server is shutting down/changing levels.



[17:05:28] New map: surf_mesa
[17:05:49] Client "§4❤Єтнαɴ❤" spawned in server <STEAM_0:1:170239846> (took 22 seconds).
[17:05:49] Client "Bot61" connected.
[17:05:49] Client "Bot61" spawned in server <BOT> (took 22 seconds).
[17:05:49] Client "DreaMs" spawned in server <STEAM_0:0:64189261> (took 22 seconds).
[17:05:51] Client "Bot62" connected.
[17:05:51] Client "Bot62" spawned in server <BOT> (took 24 seconds).
[17:06:13] Client "Alundra0203" connected.
[17:06:37] Client "Potato" spawned in server <STEAM_0:0:80564424> (took 70 seconds).
[17:07:15] Client "riolu396" spawned in server <STEAM_0:0:92320311> (took 108 seconds).
[17:07:38] Potato: !unbox
[17:07:43] Client "Alundra0203" spawned in server <STEAM_0:0:88719159> (took 90 seconds).
[17:09:41] DreaMs: /knives
[17:10:19] Client "❤Finn Mertens❤" connected.
[17:10:58] Potato: !shop
[17:11:12] Client "❤Finn Mertens❤" spawned in server <STEAM_0:0:151899006> (took 53 seconds).
[17:11:39] Potato: !unbox
[17:11:42] DreaMs: !unbox
[17:12:16] ❤Finn Mertens❤: 83P
[17:13:23] Potato: !tutorial
[17:13:39] DreaMs: !r
[17:14:06] Potato: !sho
[17:14:09] Potato: !shop
[17:14:43] Potato: !unboc
[17:14:47] Potato: !unbox
[17:15:23] DreaMs: !r
[17:15:55] DreaMs: !unbox
[17:18:40] DreaMs: !unbox
[17:19:46] Dropped "riolu396" from server<STEAM_0:0:92320311>
[17:20:06] §4❤Єтнαɴ❤: !rtv
[17:20:28] Dropped "Potato" from server<STEAM_0:0:80564424>
[17:20:51] Client "Potato" connected.
[17:21:02] Client "Potato" spawned in server <STEAM_0:0:80564424> (took 11 seconds).
[17:21:46] Client "riolu396" connected.
[17:22:03] Client "riolu396" spawned in server <STEAM_0:0:92320311> (took 17 seconds).
[17:22:13] DreaMs: !r
[17:22:24] Dropped "Alundra0203" from server<STEAM_0:0:88719159>
[17:22:41] Potato: !unbox
[17:23:24] ❤Finn Mertens❤: !tutorial
[17:23:33] DreaMs: !r
[17:23:58] Dropped "riolu396" from server<STEAM_0:0:92320311>
[17:25:04] Potato: !unbox
[17:26:03] DreaMs: !r
[17:28:16] DreaMs: !r
[17:29:04] Dropped "❤Finn Mertens❤" from server<STEAM_0:0:151899006>
[17:30:12] DreaMs: !r
[17:31:04] Potato: !shop
[17:31:49] Potato: !jackpot
[17:31:53] Potato: !bet
[17:31:58] Potato: !unbox
[17:32:37] Dropped "DreaMs" from server<STEAM_0:0:64189261>
[17:36:04] Server is shutting down/changing levels.



[17:36:11] New map: surf_utopia_njv
[17:36:22] Client "Potato" spawned in server <STEAM_0:0:80564424> (took 12 seconds).
[17:36:22] Client "Bot63" connected.
[17:36:22] Client "Bot63" spawned in server <BOT> (took 12 seconds).
[17:36:24] Client "Bot64" connected.
[17:36:24] Client "Bot64" spawned in server <BOT> (took 14 seconds).
[17:39:01] Potato: !unbox
[17:40:11] Client "NorsiGHG" connected.
[17:40:57] Client "Shizoffren!™(baran)" connected.
[17:42:05] Client "NorsiGHG" spawned in server <STEAM_0:1:200865749> (took 114 seconds).
[17:42:56] Potato: !shop
[17:44:02] Dropped "NorsiGHG" from server<STEAM_0:1:200865749>
[17:46:53] Client "Shizoffren!™(baran)" spawned in server <STEAM_0:0:178484306> (took 356 seconds).
[17:50:16] Potato: !unbox
[17:50:36] Client "kizi04mario" connected.
[17:50:49] Shizoffren!™(baran): !unbox
[17:53:13] Client "kizi04mario" spawned in server <STEAM_0:1:160091513> (took 157 seconds).
[17:54:09] Client "Yunx Senpai" connected.
[17:54:12] Dropped "kizi04mario" from server<STEAM_0:1:160091513>
[17:54:35] Client "Mogza" connected.
[17:54:44] Shizoffren!™(baran): jb
[17:56:59] Client "CoumeChiottes" connected.
[17:57:13] Client "Bukkake" connected.
[17:57:41] Shizoffren!™(baran): !unbox
[17:58:24] Potato: !unbox
[17:58:58] Client "Bukkake" spawned in server <STEAM_0:0:52457750> (took 105 seconds).
[17:59:06] Client "CoumeChiottes" spawned in server <STEAM_0:0:57323472> (took 127 seconds).
[17:59:14] Shizoffren!™(baran): !money
[17:59:18] Client "Yunx Senpai" spawned in server <STEAM_0:0:71942467> (took 309 seconds).
[17:59:19] Shizoffren!™(baran): !money
[17:59:31] Shizoffren!™(baran): !my money
[17:59:42] Shizoffren!™(baran): !steam
[18:00:35] Shizoffren!™(baran): !unbox
[18:01:38] Dropped "CoumeChiottes" from server<STEAM_0:0:57323472>
[18:02:09] Shizoffren!™(baran): !my money
[18:02:38] Dropped "Bukkake" from server<STEAM_0:0:52457750>
[18:02:40] Potato: !shop
[18:03:11] Dropped "Yunx Senpai" from server<STEAM_0:0:71942467>
[18:03:35] Shizoffren!™(baran): !steam
[18:04:17] Shizoffren!™(baran): !steam
[18:04:59] Shizoffren!™(baran): !unbox
[18:06:47] Server is shutting down/changing levels.



[18:06:54] New map: surf_sundown_njv
[18:07:14] Client "Potato" spawned in server <STEAM_0:0:80564424> (took 21 seconds).
[18:07:14] Client "Bot65" connected.
[18:07:14] Client "Bot65" spawned in server <BOT> (took 21 seconds).
[18:07:16] Client "Bot66" connected.
[18:07:16] Client "Bot66" spawned in server <BOT> (took 23 seconds).
[18:07:58] Client "Shizoffren!™(baran)" spawned in server <STEAM_0:0:178484306> (took 65 seconds).
[18:08:29] Client "samblaster923" connected.
[18:08:35] Client "samblaster923" connected.
[18:09:52] Client "samblaster923" spawned in server <STEAM_0:0:183227644> (took 77 seconds).
[18:10:23] Shizoffren!™(baran): !unbox
[18:13:10] Potato: !shop
[18:16:02] Shizoffren!™(baran): !unbox
[18:16:08] Shizoffren!™(baran): !unbox
[18:17:25] samblaster923: !unbox
[18:19:40] Potato: !unbox
[18:20:43] samblaster923: !RTV
[18:21:54] Dropped "Shizoffren!™(baran)" from server<STEAM_0:0:178484306>
[18:25:12] Potato: !unbox
[18:29:11] Potato: !unbox
[18:30:33] Client "JAJAOHNO" connected.
[18:31:18] Dropped "samblaster923" from server<STEAM_0:0:183227644>
[18:31:20] Client "Shizoffren!™(baran)" connected.
[18:31:32] Client "Shizoffren!™(baran)" spawned in server <STEAM_0:0:178484306> (took 12 seconds).
[18:31:51] Shizoffren!™(baran): !unbox
[18:32:51] Potato: !shop
[18:33:04] Potato: !unboc
[18:33:08] Potato: !unbox
[18:33:59] Client "JAJAOHNO" spawned in server <STEAM_0:1:110965111> (took 206 seconds).
[18:34:31] Client "Drty" connected.
[18:35:00] Client "Drty" spawned in server <STEAM_0:1:172220397> (took 29 seconds).
[18:35:24] Drty: !wr
[18:36:54] Drty: !r
[18:36:54] Dropped "Shizoffren!™(baran)" from server<STEAM_0:0:178484306>
[18:36:59] Client "Shizoffren!™(baran)" connected.
[18:37:11] Client "Shizoffren!™(baran)" spawned in server <STEAM_0:0:178484306> (took 12 seconds).
[18:37:13] Drty: !r
[18:37:17] Drty: 6
[18:37:18] Dropped "JAJAOHNO" from server<STEAM_0:1:110965111>
[18:37:20] Shizoffren!™(baran): !unbox
[18:37:23] Drty: 6
[18:37:27] Dropped "Drty" from server<STEAM_0:1:172220397>
[18:37:30] Server is shutting down/changing levels.



[18:37:37] New map: surf_kitsune2
[18:38:22] Client "Potato" spawned in server <STEAM_0:0:80564424> (took 46 seconds).
[18:38:22] Client "Bot67" connected.
[18:38:22] Client "Bot67" spawned in server <BOT> (took 46 seconds).
[18:38:24] Client "Bot68" connected.
[18:38:24] Client "Bot68" spawned in server <BOT> (took 48 seconds).
[18:38:29] Client "Shizoffren!™(baran)" spawned in server <STEAM_0:0:178484306> (took 53 seconds).
[18:39:08] Potato: rly fallout music
[18:39:48] Shizoffren!™(baran): !unbox
[18:40:05] Client "Upel" connected.
[18:41:05] Dropped "Shizoffren!™(baran)" from server<STEAM_0:0:178484306>
[18:41:37] Client "Gabe/DanSon" connected.
[18:45:09] Client "Gabe/DanSon" spawned in server <STEAM_0:0:62230563> (took 212 seconds).
[18:52:38] Dropped "Potato" from server<STEAM_0:0:80564424>
[18:52:45] Dropped "Gabe/DanSon" from server<STEAM_0:0:62230563>
[18:52:45] Dropped "Bot67" from server<BOT>
[18:52:45] Dropped "Bot68" from server<BOT>
[18:54:34] Client "SilverCege" connected.
[19:02:34] Client "Soapierdig" connected.
[19:05:01] Client "Soapierdig" spawned in server <STEAM_0:0:52809653> (took 147 seconds).
[19:05:01] Client "Bot69" connected.
[19:05:01] Client "Bot69" spawned in server <BOT> (took 1645 seconds).
[19:05:03] Client "Bot70" connected.
[19:05:03] Client "Bot70" spawned in server <BOT> (took 1647 seconds).
[19:07:29] Client "Lunakeef" connected.
[19:08:14] Server is shutting down/changing levels.



[19:08:21] New map: surf_mesa_mine
[19:09:02] Client "Soapierdig" spawned in server <STEAM_0:0:52809653> (took 42 seconds).
[19:09:02] Client "Bot71" connected.
[19:09:02] Client "Bot71" spawned in server <BOT> (took 42 seconds).
[19:09:04] Client "Bot72" connected.
[19:09:04] Client "Bot72" spawned in server <BOT> (took 44 seconds).
[19:12:03] Soapierdig: !steam
[19:21:01] Dropped "Soapierdig" from server<STEAM_0:0:52809653>
[19:21:01] Dropped "Bot71" from server<BOT>
[19:21:01] Dropped "Bot72" from server<BOT>
[19:22:37] Client "Skip™" connected.
[19:32:48] Client "Fuyukemasita" connected.
[19:33:47] Client "glowjimmy05" connected.
[19:34:00] Client "Shizoffren!™(baran)" connected.
[19:35:38] Client "Fuyukemasita" spawned in server <STEAM_0:0:54699550> (took 170 seconds).
[19:35:38] Client "Bot73" connected.
[19:35:38] Client "Bot73" spawned in server <BOT> (took 1638 seconds).
[19:35:40] Client "Bot74" connected.
[19:35:40] Client "Bot74" spawned in server <BOT> (took 1640 seconds).
[19:36:07] Client "Mx Vfx" connected.
[19:36:13] Client "Mx Vfx" connected.
[19:37:09] Client "glowjimmy05" spawned in server <STEAM_0:0:138531537> (took 202 seconds).
[19:38:01] glowjimmy05: !n
[19:38:57] Server is shutting down/changing levels.



[19:39:04] New map: surf_mesa
[19:40:42] Client "Fuyukemasita" spawned in server <STEAM_0:0:54699550> (took 99 seconds).
[19:40:42] Client "Bot75" connected.
[19:40:42] Client "Bot75" spawned in server <BOT> (took 99 seconds).
[19:40:44] Client "Bot76" connected.
[19:40:44] Client "Bot76" spawned in server <BOT> (took 101 seconds).
[19:41:54] Fuyukemasita: !r
[19:42:10] Fuyukemasita: !r
[19:42:28] Fuyukemasita: !r
[19:42:59] Fuyukemasita: !r
[19:43:04] (TEAM) Fuyukemasita: !unbox
[19:43:42] (TEAM) Fuyukemasita: !r
[19:43:57] (TEAM) Fuyukemasita: !r
[19:44:42] (TEAM) Fuyukemasita: !r
[19:45:05] (TEAM) Fuyukemasita: !r
[19:45:55] (TEAM) Fuyukemasita: !r
[19:45:59] Client "Shizoffren!™(baran)" connected.
[19:46:04] Client "Shizoffren!™(baran)" connected.
[19:46:43] (TEAM) Fuyukemasita: !r
[19:47:06] (TEAM) Fuyukemasita: !r
[19:48:40] (TEAM) Fuyukemasita: !r
[19:48:51] (TEAM) Fuyukemasita: !r
[19:49:04] (TEAM) Fuyukemasita: !er
[19:49:08] (TEAM) Fuyukemasita: !r
[19:49:17] (TEAM) Fuyukemasita: !r
[19:49:27] (TEAM) Fuyukemasita: !r
[19:49:38] (TEAM) Fuyukemasita: !r
[19:50:29] (TEAM) Fuyukemasita: !r
[19:51:48] (TEAM) Fuyukemasita: !r
[19:52:09] Client "Mx Vfx" spawned in server <STEAM_0:1:126535892> (took 786 seconds).
[19:55:39] Client "Shizoffren!™(baran)" connected.
[19:56:18] (TEAM) Fuyukemasita: !r
[19:56:31] (TEAM) Fuyukemasita: !r
[19:57:04] (TEAM) Fuyukemasita: !r
[19:57:15] (TEAM) Fuyukemasita: !r
[19:57:30] (TEAM) Fuyukemasita: !r
[19:58:14] (TEAM) Fuyukemasita: !r
[19:58:46] Dropped "Fuyukemasita" from server<STEAM_0:0:54699550>
[19:59:05] Dropped "Mx Vfx" from server<STEAM_0:1:126535892>
[20:03:51] Client "Shizoffren!™(baran)" spawned in server <STEAM_0:0:178484306> (took 492 seconds).
[20:09:05] Dropped "Shizoffren!™(baran)" from server<STEAM_0:0:178484306>
[20:09:05] Dropped "Bot75" from server<BOT>
[20:09:05] Dropped "Bot76" from server<BOT>
[20:09:41] Server is shutting down/changing levels.



[20:09:48] New map: surf_utopia_njv
[20:14:50] Client "Shizoffren!™(baran)" connected.
[20:15:27] Client "Shizoffren!™(baran)" spawned in server <STEAM_0:0:178484306> (took 37 seconds).
[20:15:27] Client "Bot77" connected.
[20:15:27] Client "Bot77" spawned in server <BOT> (took 341 seconds).
[20:15:29] Client "Bot78" connected.
[20:15:29] Client "Bot78" spawned in server <BOT> (took 343 seconds).
[20:16:30] Shizoffren!™(baran): !unbox
[20:19:20] Shizoffren!™(baran): !unbox
[20:21:07] Client "§4❤Єтнαɴ❤" connected.
[20:21:47] Client "§4❤Єтнαɴ❤" spawned in server <STEAM_0:1:170239846> (took 40 seconds).
[20:22:53] Shizoffren!™(baran): !unbox
[20:24:48] §4❤Єтнαɴ❤: Waaw
[20:26:06] §4❤Єтнαɴ❤: !auto
[20:26:15] Shizoffren!™(baran): !unbox
[20:26:37] §4❤Єтнαɴ❤: !auto
[20:28:25] Shizoffren!™(baran): !unbox
[20:29:53] §4❤Єтнαɴ❤: !auto
[20:31:08] Shizoffren!™(baran): ,
[20:31:11] §4❤Єтнαɴ❤: .
[20:32:08] Dropped "Shizoffren!™(baran)" from server<STEAM_0:0:178484306>
[20:35:39] §4❤Єтнαɴ❤: !rtv
[20:36:08] Dropped "§4❤Єтнαɴ❤" from server<STEAM_0:1:170239846>
[20:36:08] Dropped "Bot77" from server<BOT>
[20:36:08] Dropped "Bot78" from server<BOT>
[20:36:15] Server is shutting down/changing levels.



[20:36:22] New map: surf_lt_omnific_fix
[20:50:49] Client "Shizoffren!™(baran)" connected.
[20:54:25] Client "Shizoffren!™(baran)" spawned in server <STEAM_0:0:178484306> (took 216 seconds).
[20:54:25] Client "Bot79" connected.
[20:54:25] Client "Bot79" spawned in server <BOT> (took 1084 seconds).
[20:54:27] Client "Bot80" connected.
[20:54:27] Client "Bot80" spawned in server <BOT> (took 1086 seconds).
[20:56:54] Client "TheDarkKnight" connected.
[21:01:23] Dropped "Shizoffren!™(baran)" from server<STEAM_0:0:178484306>
[21:01:23] Dropped "Bot79" from server<BOT>
[21:01:23] Dropped "Bot80" from server<BOT>
[21:04:41] Client "Shizoffren!™(baran)" connected.
[21:04:59] Client "Shizoffren!™(baran)" spawned in server <STEAM_0:0:178484306> (took 18 seconds).
[21:04:59] Client "Bot81" connected.
[21:04:59] Client "Bot81" spawned in server <BOT> (took 1718 seconds).
[21:05:01] Client "Bot82" connected.
[21:05:01] Client "Bot82" spawned in server <BOT> (took 1720 seconds).
[21:06:59] Server is shutting down/changing levels.



[21:07:06] New map: surf_mesa_aether
[21:09:20] Client "YoshiOrigine" connected.
[21:09:52] Client "Shizoffren!™(baran)" connected.
[21:15:01] Client "Shizoffren!™(baran)" connected.
[21:22:49] Client "Shizoffren!™(baran)" connected.
[21:28:29] Client "riolu396" connected.
[21:30:33] Client "riolu396" spawned in server <STEAM_0:0:92320311> (took 124 seconds).
[21:30:33] Client "Bot83" connected.
[21:30:33] Client "Bot83" spawned in server <BOT> (took 1408 seconds).
[21:30:35] Client "Bot84" connected.
[21:30:35] Client "Bot84" spawned in server <BOT> (took 1410 seconds).
[21:35:17] Client "Nollyn" connected.
[21:37:45] Server is shutting down/changing levels.



[21:37:52] New map: surf_classics
[21:39:25] Client "Nollyn" spawned in server <STEAM_0:1:182396239> (took 94 seconds).
[21:39:25] Client "Bot85" connected.
[21:39:25] Client "Bot85" spawned in server <BOT> (took 94 seconds).
[21:39:27] Client "Bot86" connected.
[21:39:27] Client "Bot86" spawned in server <BOT> (took 96 seconds).
[21:39:51] Client "riolu396" connected.
[21:40:33] Client "riolu396" spawned in server <STEAM_0:0:92320311> (took 42 seconds).
[21:42:05] Dropped "Nollyn" from server<STEAM_0:1:182396239>
[21:45:14] Client "are9" connected.
[21:47:35] Client "davidfowler1000" connected.
[21:51:09] Dropped "riolu396" from server<STEAM_0:0:92320311>
[21:51:09] Dropped "Bot85" from server<BOT>
[21:51:09] Dropped "Bot86" from server<BOT>
[22:06:53] Client "abbzii88" connected.
[22:08:29] Server is shutting down/changing levels.



[22:08:36] New map: surf_mesa_mine
[22:12:24] Client "abbzii88" spawned in server <STEAM_0:1:183432671> (took 229 seconds).
[22:12:24] Client "Bot87" connected.
[22:12:24] Client "Bot87" spawned in server <BOT> (took 229 seconds).
[22:12:26] Client "Bot88" connected.
[22:12:26] Client "Bot88" spawned in server <BOT> (took 231 seconds).
[22:17:01] Dropped "abbzii88" from server<STEAM_0:1:183432671>
[22:17:01] Dropped "Bot87" from server<BOT>
[22:17:01] Dropped "Bot88" from server<BOT>
[22:39:13] Server is shutting down/changing levels.



[22:39:20] New map: surf_aether
[22:57:43] Client "nikigrobar98" connected.
[22:59:27] Client "nikigrobar98" spawned in server <STEAM_0:1:156282840> (took 104 seconds).
[22:59:27] Client "Bot89" connected.
[22:59:27] Client "Bot89" spawned in server <BOT> (took 1208 seconds).
[22:59:29] Client "Bot90" connected.
[22:59:29] Client "Bot90" spawned in server <BOT> (took 1210 seconds).
[23:01:25] Client "RealMacphisto" connected.
[23:03:03] (TEAM) nikigrobar98: !unbox
[23:03:52] (TEAM) nikigrobar98: !unbox
[23:04:49] (TEAM) nikigrobar98: !unbox
[23:05:10] (TEAM) nikigrobar98: !unbox
[23:06:47] (TEAM) nikigrobar98: !unbox
[23:07:17] (TEAM) nikigrobar98: !unbox
[23:08:38] (TEAM) nikigrobar98: !unbox
[23:09:53] (TEAM) nikigrobar98: !unbox
[23:09:56] Server is shutting down/changing levels.



[23:10:03] New map: surf_simpsons_source
[23:11:04] Client "nikigrobar98" spawned in server <STEAM_0:1:156282840> (took 62 seconds).
[23:11:05] Client "Bot91" connected.
[23:11:05] Client "Bot91" spawned in server <BOT> (took 63 seconds).
[23:11:07] Client "Bot92" connected.
[23:11:07] Client "Bot92" spawned in server <BOT> (took 65 seconds).
[23:12:12] (TEAM) nikigrobar98: !unbox
[23:12:28] (TEAM) nikigrobar98: !unbox
[23:13:11] (TEAM) nikigrobar98: !unbox
[23:13:37] (TEAM) nikigrobar98: !unbox
[23:15:31] Dropped "nikigrobar98" from server<STEAM_0:1:156282840>
[23:15:31] Dropped "Bot91" from server<BOT>
[23:15:31] Dropped "Bot92" from server<BOT>
[23:34:40] Client "MoHo.jpg" connected.
[23:34:50] Client "NotMagiick" connected.
[23:35:49] Client "MoHo.jpg" spawned in server <STEAM_0:1:59544564> (took 69 seconds).
[23:35:49] Client "Bot93" connected.
[23:35:49] Client "Bot93" spawned in server <BOT> (took 1547 seconds).
[23:35:51] Client "Bot94" connected.
[23:35:51] Client "Bot94" spawned in server <BOT> (took 1549 seconds).
[23:37:00] Client "NotMagiick" spawned in server <STEAM_0:1:215773242> (took 130 seconds).
[23:40:40] Server is shutting down/changing levels.



[23:40:47] New map: surf_classics2
[23:41:21] Client "MoHo.jpg" spawned in server <STEAM_0:1:59544564> (took 35 seconds).
[23:41:21] Client "Bot95" connected.
[23:41:21] Client "Bot95" spawned in server <BOT> (took 35 seconds).
[23:41:23] Client "Bot96" connected.
[23:41:23] Client "Bot96" spawned in server <BOT> (took 37 seconds).
[23:41:31] Client "NotMagiick" spawned in server <STEAM_0:1:215773242> (took 45 seconds).
[23:42:23] MoHo.jpg: !thirdperson
[23:42:37] NotMagiick: paige?
[23:43:29] NotMagiick: 1restart
[23:43:35] NotMagiick: !restart
[23:44:31] Client "[Sparkz.us] Boys4Jesus Roug ʎ" connected.
[23:45:29] MoHo.jpg: !unbox
[23:45:55] Client "[Sparkz.us] Boys4Jesus Roug ʎ" spawned in server <STEAM_0:1:17291332> (took 84 seconds).
[23:46:33] MoHo.jpg: !r
[23:46:53] MoHo.jpg: !r
[23:47:42] NotMagiick: !unbox
[23:49:52] MoHo.jpg: !r
[23:50:05] MoHo.jpg: !r
[23:50:55] Dropped "[Sparkz.us] Boys4Jesus Roug ʎ" from server<STEAM_0:1:17291332>
[23:51:00] MoHo.jpg: !r
[23:52:44] MoHo.jpg: !r
[23:52:59] Dropped "MoHo.jpg" from server<STEAM_0:1:59544564>
[23:53:37] Dropped "NotMagiick" from server<STEAM_0:1:215773242>
[23:53:37] Dropped "Bot95" from server<BOT>
[23:53:37] Dropped "Bot96" from server<BOT>
<Logging continued in "data/ulx_logs/07-28-17.txt">
