<Logging continued from "data/ulx_logs/07-29-17.txt">
[00:05:22] Server is shutting down/changing levels.



[00:05:29] New map: surf_this_njv
[00:36:04] Server is shutting down/changing levels.



[00:36:11] New map: surf_placid
[01:06:47] Server is shutting down/changing levels.



[01:06:53] New map: surf_beginner_hell
[01:37:29] Server is shutting down/changing levels.



[01:37:37] New map: surf_classics2
[02:08:12] Server is shutting down/changing levels.



[02:08:19] New map: surf_mesa_aether
[02:38:55] Server is shutting down/changing levels.



[02:39:02] New map: surf_lighthouse
[03:09:37] Server is shutting down/changing levels.



[03:09:44] New map: surf_beginner_hell
[03:40:20] Server is shutting down/changing levels.



[03:40:26] New map: surf_this_njv
[04:11:02] Server is shutting down/changing levels.



[04:11:09] New map: surf_prelude_ksf
[04:41:44] Server is shutting down/changing levels.



[04:41:51] New map: surf_funhouse_v1
[05:12:27] Server is shutting down/changing levels.



[05:12:33] New map: surf_stonework3
[05:43:09] Server is shutting down/changing levels.



[05:43:16] New map: surf_reprise_fix



[07:47:34] New map: surf_mesa
[07:48:43] Client "Mugen Tsukuyomi" spawned in server <STEAM_0:0:91046518> (took 69 seconds).
[07:48:43] Client "Bot01" connected.
[07:48:43] Client "Bot01" spawned in server <BOT> (took 6495 seconds).
[07:48:45] Client "Bot02" connected.
[07:48:45] Client "Bot02" spawned in server <BOT> (took 6497 seconds).
[07:52:23] Client "к у с т" connected.
[07:53:50] Client "к у с т" spawned in server <STEAM_0:1:94241705> (took 87 seconds).
[07:54:00] Client "Danker" connected.
[07:56:57] к у с т: !r
[08:00:50] к у с т: !r
[08:01:44] к у с т: !r
[08:02:41] к у с т: !r
[08:03:24] к у с т: !r
[08:04:40] к у с т: !r
[08:06:41] Mugen Tsukuyomi: !r
[08:08:26] к у с т: /nominate
[08:08:33] к у с т: /rtv
[08:08:40] Mugen Tsukuyomi: !rtv
[08:09:16] Server is shutting down/changing levels.



[08:09:23] New map: surf_classics
[08:09:53] Client "Mugen Tsukuyomi" spawned in server <STEAM_0:0:91046518> (took 31 seconds).
[08:09:53] Client "Bot03" connected.
[08:09:53] Client "Bot03" spawned in server <BOT> (took 31 seconds).
[08:09:55] Client "Bot04" connected.
[08:09:55] Client "Bot04" spawned in server <BOT> (took 33 seconds).
[08:09:59] Client "к у с т" spawned in server <STEAM_0:1:94241705> (took 37 seconds).
[08:11:15] Mugen Tsukuyomi: !r
[08:14:35] к у с т: !r
[08:22:17] Client "☆机智弟☆ 超贱" connected.
[08:22:57] к у с т: !r
[08:27:52] к у с т: !r
[08:28:28] к у с т: !r
[08:38:57] Mugen Tsukuyomi: !rtv
[08:59:33] к у с т: !unbox
[08:59:51] Mugen Tsukuyomi: !unbox
[09:02:45] Mugen Tsukuyomi: !unbox
[09:04:23] Mugen Tsukuyomi: !unbox
[09:05:07] Mugen Tsukuyomi: !unbox
[09:05:27] Mugen Tsukuyomi: !unbox
[09:19:44] к у с т: /rtv
[09:20:21] Mugen Tsukuyomi: !rtv
[09:20:57] Server is shutting down/changing levels.



[09:21:03] New map: surf_sundown_njv
[09:21:30] Client "Mugen Tsukuyomi" spawned in server <STEAM_0:0:91046518> (took 28 seconds).
[09:21:30] Client "Bot05" connected.
[09:21:30] Client "Bot05" spawned in server <BOT> (took 28 seconds).
[09:21:32] Client "Bot06" connected.
[09:21:32] Client "Bot06" spawned in server <BOT> (took 30 seconds).
[09:22:02] Client "к у с т" spawned in server <STEAM_0:1:94241705> (took 60 seconds).
[09:28:30] Dropped "к у с т" from server<STEAM_0:1:94241705>
[09:29:33] Dropped "Mugen Tsukuyomi" from server<STEAM_0:0:91046518>
[09:29:33] Dropped "Bot05" from server<BOT>
[09:29:33] Dropped "Bot06" from server<BOT>
[09:51:40] Server is shutting down/changing levels.



[09:51:46] New map: surf_waterworks
[09:55:44] Client "Kitsunebi_Ryu" connected.
[10:02:00] Client "PinkFluffyUnicorns" connected.
[10:02:45] Client "PinkFluffyUnicorns" spawned in server <STEAM_0:0:58158789> (took 45 seconds).
[10:02:45] Client "Bot07" connected.
[10:02:45] Client "Bot07" spawned in server <BOT> (took 660 seconds).
[10:02:47] Client "Bot08" connected.
[10:02:47] Client "Bot08" spawned in server <BOT> (took 662 seconds).
[10:07:07] Dropped "PinkFluffyUnicorns" from server<STEAM_0:0:58158789>
[10:11:08] Client "Kitsunebi_Ryu" spawned in server <STEAM_0:1:82600268> (took 924 seconds).
[10:22:25] Server is shutting down/changing levels.



[10:22:32] New map: surf_aether
[10:25:55] Client "Kitsunebi_Ryu" spawned in server <STEAM_0:1:82600268> (took 204 seconds).
[10:25:55] Client "Bot09" connected.
[10:25:55] Client "Bot09" spawned in server <BOT> (took 204 seconds).
[10:25:57] Client "Bot10" connected.
[10:25:57] Client "Bot10" spawned in server <BOT> (took 206 seconds).
[10:35:27] Client "Xenophade" connected.
[10:35:28] Client "Sage-" connected.
[10:35:59] Client "Xenophade" spawned in server <STEAM_0:1:54895580> (took 32 seconds).
[10:38:24] Client "Sage-" spawned in server <STEAM_0:1:50889243> (took 176 seconds).
[10:39:55] Dropped "Xenophade" from server<STEAM_0:1:54895580>
[10:43:50] Dropped "Sage-" from server<STEAM_0:1:50889243>
[10:46:11] Client "pernilla.ihse" connected.
[10:46:47] Client "pernilla.ihse" spawned in server <STEAM_0:1:188234364> (took 36 seconds).
[10:49:23] Dropped "Kitsunebi_Ryu" from server<STEAM_0:1:82600268>
[10:51:57] Client "old meme" connected.
[10:53:00] Client "old meme" spawned in server <STEAM_0:1:111703561> (took 63 seconds).
[10:53:09] Server is shutting down/changing levels.



[10:53:16] New map: surf_beginner_hell
[10:53:36] Client "pernilla.ihse" spawned in server <STEAM_0:1:188234364> (took 21 seconds).
[10:53:36] Client "Bot11" connected.
[10:53:36] Client "Bot11" spawned in server <BOT> (took 21 seconds).
[10:53:38] Client "Bot12" connected.
[10:53:38] Client "Bot12" spawned in server <BOT> (took 23 seconds).
[10:54:06] Client "old meme" spawned in server <STEAM_0:1:111703561> (took 51 seconds).
[10:57:06] old meme: !RTV
[10:57:10] old meme: !RTV
[10:57:54] Dropped "old meme" from server<STEAM_0:1:111703561>
[11:03:16] Dropped "pernilla.ihse" from server<STEAM_0:1:188234364>
[11:03:16] Dropped "Bot11" from server<BOT>
[11:03:16] Dropped "Bot12" from server<BOT>
[11:23:52] Server is shutting down/changing levels.



[11:23:59] New map: surf_pox
[11:54:34] Server is shutting down/changing levels.



[11:54:41] New map: surf_lt_omnific_fix
[12:25:17] Server is shutting down/changing levels.



[12:25:24] New map: surf_dusk
[12:56:00] Server is shutting down/changing levels.



[12:56:07] New map: surf_reprise_fix
[13:04:47] Client "[FX] Cosmic" connected.
[13:08:43] Client "[FX] Cosmic" spawned in server <STEAM_0:1:168631107> (took 236 seconds).
[13:08:43] Client "Bot13" connected.
[13:08:43] Client "Bot13" spawned in server <BOT> (took 758 seconds).
[13:08:45] Client "Bot14" connected.
[13:08:45] Client "Bot14" spawned in server <BOT> (took 760 seconds).
[13:15:03] Dropped "[FX] Cosmic" from server<STEAM_0:1:168631107>
[13:15:03] Dropped "Bot13" from server<BOT>
[13:15:03] Dropped "Bot14" from server<BOT>
[13:24:44] Client "_JR_FX" connected.
[13:26:25] Client "_JR_FX" spawned in server <STEAM_0:0:109545465> (took 101 seconds).
[13:26:25] Client "Bot15" connected.
[13:26:25] Client "Bot15" spawned in server <BOT> (took 1820 seconds).
[13:26:27] Client "Bot16" connected.
[13:26:27] Client "Bot16" spawned in server <BOT> (took 1822 seconds).
[13:26:44] Server is shutting down/changing levels.



[13:26:50] New map: surf_this_njv
[13:27:14] Client "_JR_FX" spawned in server <STEAM_0:0:109545465> (took 25 seconds).
[13:27:14] Client "Bot17" connected.
[13:27:14] Client "Bot17" spawned in server <BOT> (took 25 seconds).
[13:27:16] Client "Bot18" connected.
[13:27:16] Client "Bot18" spawned in server <BOT> (took 27 seconds).
[13:30:23] Dropped "_JR_FX" from server<STEAM_0:0:109545465>
[13:30:23] Dropped "Bot17" from server<BOT>
[13:30:23] Dropped "Bot18" from server<BOT>
[13:37:35] Client "Хайпанём :]" connected.
[13:38:23] Client "Хайпанём :]" spawned in server <STEAM_0:1:151287240> (took 48 seconds).
[13:38:23] Client "Bot19" connected.
[13:38:23] Client "Bot19" spawned in server <BOT> (took 694 seconds).
[13:38:25] Client "Bot20" connected.
[13:38:25] Client "Bot20" spawned in server <BOT> (took 696 seconds).
[13:42:53] Dropped "Хайпанём :]" from server<STEAM_0:1:151287240>
[13:42:53] Dropped "Bot19" from server<BOT>
[13:42:53] Dropped "Bot20" from server<BOT>
[13:57:27] Server is shutting down/changing levels.



[13:57:33] New map: surf_funhouse_v1
[14:28:09] Server is shutting down/changing levels.



[14:28:16] New map: surf_simpsons_source
[14:43:13] Client "Gloward" connected.
[14:43:26] Client "Gloward" spawned in server <STEAM_0:0:16102041> (took 13 seconds).
[14:43:26] Client "Bot21" connected.
[14:43:26] Client "Bot21" spawned in server <BOT> (took 911 seconds).
[14:43:28] Client "Bot22" connected.
[14:43:28] Client "Bot22" spawned in server <BOT> (took 913 seconds).
[14:44:25] Gloward: !restart
[14:44:31] Gloward: !restart
[14:44:43] Gloward: !restart
[14:44:50] Gloward: !restart
[14:45:09] Gloward: !restart
[14:45:29] Gloward: !restart
[14:45:35] Gloward: !restart
[14:45:43] Gloward: !restart
[14:45:50] Gloward: !restart
[14:45:57] Gloward: !restart
[14:46:24] Gloward: !restart
[14:46:41] Gloward: !restart
[14:46:49] Gloward: !restart
[14:46:57] Gloward: !restart
[14:47:04] Gloward: !restart
[14:47:26] Gloward: !restart
[14:48:19] Gloward: !restart
[14:48:32] Gloward: !restart
[14:48:42] Gloward: !restart
[14:48:50] Gloward: !restart
[14:48:58] Gloward: !restart
[14:49:09] Gloward: !restart
[14:49:16] Gloward: !restart
[14:49:42] Gloward: !restart
[14:49:50] Gloward: !restart
[14:50:10] Gloward: !restart
[14:50:13] Dropped "Gloward" from server<STEAM_0:0:16102041>
[14:50:13] Dropped "Bot21" from server<BOT>
[14:50:13] Dropped "Bot22" from server<BOT>
[14:58:51] Server is shutting down/changing levels.



[14:58:58] New map: surf_utopia_njv
[15:18:06] Client "-HeavS-(MFS)" connected.
[15:22:16] Client "Gloward" connected.
[15:22:27] Client "Gloward" spawned in server <STEAM_0:0:16102041> (took 11 seconds).
[15:22:27] Client "Bot23" connected.
[15:22:27] Client "Bot23" spawned in server <BOT> (took 1410 seconds).
[15:22:29] Client "Bot24" connected.
[15:22:29] Client "Bot24" spawned in server <BOT> (took 1412 seconds).
[15:28:31] Gloward: !restart
[15:29:32] Gloward: !restart
[15:29:34] Server is shutting down/changing levels.



[15:29:41] New map: surf_lighthouse
[15:29:55] Client "Gloward" spawned in server <STEAM_0:0:16102041> (took 16 seconds).
[15:29:55] Client "Bot25" connected.
[15:29:55] Client "Bot25" spawned in server <BOT> (took 16 seconds).
[15:29:57] Client "Bot26" connected.
[15:29:57] Client "Bot26" spawned in server <BOT> (took 18 seconds).
[15:30:45] Gloward: !restart
[15:30:52] Gloward: !restart
[15:31:15] Gloward: !restart
[15:31:23] Gloward: !restart
[15:32:31] Gloward: !restart
[15:32:44] Gloward: !restart
[15:33:37] Gloward: !restart
[15:33:48] Gloward: !restart
[15:34:16] Gloward: !restart
[15:35:44] Gloward: !restart
[15:36:16] Dropped "Gloward" from server<STEAM_0:0:16102041>
[15:36:16] Dropped "Bot25" from server<BOT>
[15:36:16] Dropped "Bot26" from server<BOT>
[15:46:38] Client "Coq - Unijambiste" connected.
[15:52:09] Client "Coq - Unijambiste" spawned in server <STEAM_0:1:154609239> (took 331 seconds).
[15:52:09] Client "Bot27" connected.
[15:52:09] Client "Bot27" spawned in server <BOT> (took 1350 seconds).
[15:52:11] Client "Bot28" connected.
[15:52:11] Client "Bot28" spawned in server <BOT> (took 1352 seconds).
[15:53:33] Coq - Unijambiste: !r
[15:53:42] Coq - Unijambiste: !r
[15:53:44] Coq - Unijambiste: !r
[15:54:05] Coq - Unijambiste: !r
[15:55:23] Coq - Unijambiste: !r
[15:57:36] Coq - Unijambiste: !r
[15:57:38] Coq - Unijambiste: !rtv
[15:58:14] Server is shutting down/changing levels.



[15:58:21] New map: surf_happyhands
[16:01:27] Client "Coq - Unijambiste" spawned in server <STEAM_0:1:154609239> (took 188 seconds).
[16:01:27] Client "Bot29" connected.
[16:01:27] Client "Bot29" spawned in server <BOT> (took 188 seconds).
[16:01:29] Client "Bot30" connected.
[16:01:29] Client "Bot30" spawned in server <BOT> (took 190 seconds).
[16:04:13] Dropped "Coq - Unijambiste" from server<STEAM_0:1:154609239>
[16:04:13] Dropped "Bot29" from server<BOT>
[16:04:13] Dropped "Bot30" from server<BOT>
[16:28:01] Client "Nut"я" connected.
[16:28:35] Client "Nut"я" spawned in server <STEAM_0:1:78849836> (took 34 seconds).
[16:28:35] Client "Bot31" connected.
[16:28:35] Client "Bot31" spawned in server <BOT> (took 1816 seconds).
[16:28:37] Client "Bot32" connected.
[16:28:37] Client "Bot32" spawned in server <BOT> (took 1818 seconds).
[16:28:58] Server is shutting down/changing levels.



[16:29:05] New map: surf_prelude_ksf
[16:29:13] Client "Nut"я" spawned in server <STEAM_0:1:78849836> (took 9 seconds).
[16:29:13] Client "Bot33" connected.
[16:29:13] Client "Bot33" spawned in server <BOT> (took 9 seconds).
[16:29:15] Client "Bot34" connected.
[16:29:15] Client "Bot34" spawned in server <BOT> (took 11 seconds).
[16:31:39] Nut"я: !rtv
[16:32:08] Nut"я: !r
[16:35:51] Dropped "Nut"я" from server<STEAM_0:1:78849836>
[16:35:51] Dropped "Bot33" from server<BOT>
[16:35:51] Dropped "Bot34" from server<BOT>
[16:42:23] Client "[KOLOK]_Fonzy" connected.
[16:59:41] Server is shutting down/changing levels.



[16:59:48] New map: surf_dusk
[17:22:05] Client "к у с т" connected.
[17:22:47] Client "Mugen Tsukuyomi" connected.
[17:22:57] Client "к у с т" spawned in server <STEAM_0:1:94241705> (took 52 seconds).
[17:22:57] Client "Bot35" connected.
[17:22:57] Client "Bot35" spawned in server <BOT> (took 1390 seconds).
[17:22:59] Client "Bot36" connected.
[17:22:59] Client "Bot36" spawned in server <BOT> (took 1392 seconds).
[17:23:32] Client "Mugen Tsukuyomi" spawned in server <STEAM_0:0:91046518> (took 45 seconds).
[17:24:10] к у с т: /rtv
[17:24:19] Mugen Tsukuyomi: !rtv
[17:24:24] Mugen Tsukuyomi: 1
[17:24:44] Client "Magic Rabbit" connected.
[17:24:55] Server is shutting down/changing levels.



[17:25:02] New map: surf_rookie
[17:25:13] Client "Mugen Tsukuyomi" spawned in server <STEAM_0:0:91046518> (took 12 seconds).
[17:25:13] Client "Bot37" connected.
[17:25:13] Client "Bot37" spawned in server <BOT> (took 12 seconds).
[17:25:15] Client "Bot38" connected.
[17:25:15] Client "Bot38" spawned in server <BOT> (took 14 seconds).
[17:25:24] Client "к у с т" spawned in server <STEAM_0:1:94241705> (took 23 seconds).
[17:28:05] Client "ImWinning" connected.
[17:28:16] Mugen Tsukuyomi: месяц назад
[17:29:05] Mugen Tsukuyomi: да ладно
[17:29:08] Client "ImWinning" spawned in server <STEAM_0:0:85366687> (took 63 seconds).
[17:29:11] Client "Magic Rabbit" spawned in server <STEAM_0:0:151228208> (took 250 seconds).
[17:29:21] Mugen Tsukuyomi: на счет музыки
[17:30:09] Mugen Tsukuyomi: подрочили на нее*
[17:31:35] Mugen Tsukuyomi: нет
[17:31:55] Mugen Tsukuyomi: бхоп не решает
[17:32:03] Client "Topless Dio" connected.
[17:32:26] Mugen Tsukuyomi: ლ(╹◡╹ლ)
[17:32:27] Mugen Tsukuyomi: ლ(╹◡╹ლ)
[17:32:28] Mugen Tsukuyomi: ლ(╹◡╹ლ)
[17:32:29] Mugen Tsukuyomi: ლ(╹◡╹ლ)
[17:32:29] Mugen Tsukuyomi: ლ(╹◡╹ლ)
[17:32:30] Mugen Tsukuyomi: ლ(╹◡╹ლ)
[17:32:31] Mugen Tsukuyomi: ლ(╹◡╹ლ)
[17:32:32] Mugen Tsukuyomi: ლ(╹◡╹ლ)
[17:32:32] Mugen Tsukuyomi: ლ(╹◡╹ლ)
[17:32:33] Mugen Tsukuyomi: ლ(╹◡╹ლ)
[17:32:34] Mugen Tsukuyomi: ლ(╹◡╹ლ)
[17:32:34] к у с т: ( ͡° ͜ʖ ͡°)
[17:32:35] к у с т: ( ͡° ͜ʖ ͡°)
[17:32:35] к у с т: ( ͡° ͜ʖ ͡°)
[17:34:06] Mugen Tsukuyomi: у меня кстате 571к
[17:34:41] Client "Topless Dio" spawned in server <STEAM_0:1:129075142> (took 158 seconds).
[17:35:13] Magic Rabbit: !unbox
[17:35:25] Magic Rabbit: !group
[17:35:35] к у с т: yy
[17:36:38] Mugen Tsukuyomi: смотри
[17:36:54] Mugen Tsukuyomi: кузд
[17:37:03] Mugen Tsukuyomi: выбил
[17:37:12] Mugen Tsukuyomi: деньги раздюпал
[17:38:02] ImWinning: !unbox
[17:38:19] Client "Mental CD is Back Baby!!!" connected.
[17:38:42] Mugen Tsukuyomi: ты тупая?
[17:38:45] Mugen Tsukuyomi: я без микро
[17:38:46] ImWinning: !knif
[17:38:52] ImWinning: !knifes
[17:39:08] Mugen Tsukuyomi: .!knive***
[17:39:12] ImWinning: !knive
[17:39:13] Mugen Tsukuyomi: /knives**
[17:39:24] Client "Mental CD is Back Baby!!!" spawned in server <STEAM_0:1:183753098> (took 65 seconds).
[17:39:27] к у с т: .!knives
[17:40:00] к у с т: !knife
[17:43:07] Client "Paradox" connected.
[17:43:25] Client "Paradox" spawned in server <STEAM_0:0:79525589> (took 18 seconds).
[17:43:42] Paradox: !r
[17:45:03] Mugen Tsukuyomi: !unbox
[17:45:20] Magic Rabbit: !steam
[17:45:34] Paradox: !r
[17:45:38] Dropped "Paradox" from server<STEAM_0:0:79525589>
[17:46:36] Mugen Tsukuyomi: !unbox
[17:46:40] Magic Rabbit: !steam
[17:46:40] Client "uege17" connected.
[17:47:12] Client "ТУПАЯ ШАЛАВА" connected.
[17:47:18] Dropped "Magic Rabbit" from server<STEAM_0:0:151228208>
[17:47:39] ImWinning: !unbox
[17:47:51] Client "Magic Rabbit" connected.
[17:47:57] Mugen Tsukuyomi: !unbox
[17:48:12] Client "ТУПАЯ ШАЛАВА" spawned in server <STEAM_0:1:93100063> (took 60 seconds).
[17:48:19] Client "Magic Rabbit" spawned in server <STEAM_0:0:151228208> (took 28 seconds).
[17:48:26] Topless Dio: !JB
[17:48:35] Topless Dio: !JB
[17:49:16] к у с т: /rtv
[17:49:22] Mugen Tsukuyomi: !rtv
[17:49:26] Mental CD is Back Baby!!!: !rtv
[17:49:42] Client "jackbrowne1010" connected.
[17:51:58] Mugen Tsukuyomi: !nominate
[17:52:01] к у с т: /nominate
[17:52:54] ImWinning: !rtv
[17:53:23] к у с т: rtv pls
[17:53:31] ТУПАЯ ШАЛАВА: !rtv
[17:54:03] Client "ТЕЛЕПУЗЕГ" connected.
[17:54:07] Server is shutting down/changing levels.



[17:54:14] New map: surf_rebel_scaz
[17:54:34] Client "Mental CD is Back Baby!!!" spawned in server <STEAM_0:1:183753098> (took 21 seconds).
[17:54:34] Client "Bot39" connected.
[17:54:34] Client "Bot39" spawned in server <BOT> (took 21 seconds).
[17:54:36] Client "Bot40" connected.
[17:54:36] Client "Bot40" spawned in server <BOT> (took 23 seconds).
[17:54:56] Mental CD is Back Baby!!!: !r
[17:54:59] Client "ТУПАЯ ШАЛАВА" spawned in server <STEAM_0:1:93100063> (took 46 seconds).
[17:55:03] Client "Topless Dio" spawned in server <STEAM_0:1:129075142> (took 50 seconds).
[17:55:13] Client "Magic Rabbit" spawned in server <STEAM_0:0:151228208> (took 60 seconds).
[17:55:21] Client "Mugen Tsukuyomi" spawned in server <STEAM_0:0:91046518> (took 68 seconds).
[17:55:31] Client "ImWinning" spawned in server <STEAM_0:0:85366687> (took 78 seconds).
[17:55:47] Client "к у с т" spawned in server <STEAM_0:1:94241705> (took 94 seconds).
[17:56:15] Client "ТЕЛЕПУЗЕГ" spawned in server <STEAM_0:0:145009319> (took 122 seconds).
[17:57:31] Magic Rabbit: !shop
[17:57:38] Magic Rabbit: !unbox
[17:57:48] Client "Мамкин спиногрыз" connected.
[17:57:51] Mugen Tsukuyomi: !unbox
[17:58:15] к у с т: !unbox
[17:58:27] к у с т: !unbox
[17:59:04] Client "_JR_FX" connected.
[17:59:10] Client "[FX]AlexCorruptor" connected.
[17:59:54] Magic Rabbit: can we do a vote?
[18:00:05] ImWinning: knives
[18:00:06] к у с т: no we can't cuz that's an ez map
[18:00:08] Client "[FX]AlexCorruptor" spawned in server <STEAM_0:0:77731187> (took 58 seconds).
[18:00:32] Client "_JR_FX" spawned in server <STEAM_0:0:109545465> (took 88 seconds).
[18:00:49] [FX]AlexCorruptor: !r
[18:01:15] [FX]AlexCorruptor: !r
[18:01:33] [FX]AlexCorruptor: !r
[18:01:52] [FX]AlexCorruptor: !r
[18:02:04] [FX]AlexCorruptor: !r
[18:02:07] [FX]AlexCorruptor: !r
[18:02:17] [FX]AlexCorruptor: !r
[18:02:21] [FX]AlexCorruptor: !r
[18:02:33] [FX]AlexCorruptor: !r
[18:03:14] [FX]AlexCorruptor: !r
[18:03:29] [FX]AlexCorruptor: !r
[18:03:37] Magic Rabbit: !unbox
[18:03:43] _JR_FX:   
[18:03:53] Topless Dio: !unbox
[18:03:54] [FX]AlexCorruptor:  
[18:04:11] [FX]AlexCorruptor: !r
[18:04:43] _JR_FX to admins: hi alex waiting for Kjelles to give me the Community Manager ran :#
[18:05:15] Client "Мамкин спиногрыз" spawned in server <STEAM_0:1:168054496> (took 447 seconds).
[18:05:27] [FX]AlexCorruptor: !r
[18:05:33] [FX]AlexCorruptor: !r
[18:05:53] [FX]AlexCorruptor: !r
[18:06:06] Dropped "Mental CD is Back Baby!!!" from server<STEAM_0:1:183753098>
[18:06:15] к у с т: why the fuck i can't finish that map
[18:06:16] [FX]AlexCorruptor: !r
[18:07:29] Dropped "Мамкин спиногрыз" from server<STEAM_0:1:168054496>
[18:07:51] [FX]AlexCorruptor: !r
[18:08:02] [FX]AlexCorruptor: !r
[18:08:41] [FX]AlexCorruptor: !r
[18:08:47] _JR_FX: !b
[18:09:01] [FX]AlexCorruptor: !r
[18:09:05] [FX]AlexCorruptor: !r
[18:09:14] Dropped "Topless Dio" from server<STEAM_0:1:129075142>
[18:09:22] Client "Topless Dio" connected.
[18:09:35] Client "Topless Dio" spawned in server <STEAM_0:1:129075142> (took 13 seconds).
[18:09:49] к у с т: HOW YOU FINISHING THAT MAP
[18:09:55] Topless Dio: !shop
[18:10:04] [FX]AlexCorruptor: !b
[18:10:23] Topless Dio: !shop
[18:10:25] [FX]AlexCorruptor: !r
[18:10:34] к у с т: ЗА БОТОМ ЗАСПЕКТЕЙТИТЕ И ПОЙМЕТЕ КАК
[18:10:48] Topless Dio: !shop
[18:10:56] Magic Rabbit: !shop
[18:10:58] к у с т: Я УЖЕ
[18:11:05] [FX]AlexCorruptor: !r
[18:11:08] [FX]AlexCorruptor: !r
[18:11:15] [FX]AlexCorruptor: !r
[18:11:24] [FX]AlexCorruptor: !r
[18:11:31] [FX]AlexCorruptor: !r
[18:11:39] [FX]AlexCorruptor: !r
[18:11:47] Topless Dio: !unbox
[18:11:51] [FX]AlexCorruptor: !r
[18:11:55] [FX]AlexCorruptor: !r
[18:12:03] [FX]AlexCorruptor: !r
[18:12:11] [FX]AlexCorruptor: !r
[18:12:12] Magic Rabbit: !unbox
[18:12:12] к у с т: лол
[18:12:16] к у с т: Я СКВАЙР
[18:12:17] к у с т: ЕЕЕЕЕЕЕ
[18:12:27] к у с т: HOW 6 SEC
[18:12:35] [FX]AlexCorruptor: !r
[18:12:45] [FX]AlexCorruptor: !r
[18:12:59] [FX]AlexCorruptor: This map have atleast 2 different mods
[18:13:06] [FX]AlexCorruptor: Normal and Bonus
[18:13:21] [FX]AlexCorruptor: !r
[18:13:30] [FX]AlexCorruptor: !r
[18:13:34] Topless Dio: !unbox
[18:13:41] [FX]AlexCorruptor: !r
[18:13:50] [FX]AlexCorruptor: !r
[18:13:58] [FX]AlexCorruptor: !r
[18:14:05] к у с т: заспектейтите лучше меня лохи
[18:14:14] [FX]AlexCorruptor: !r
[18:14:37] Client "FX | Zombiez ✔" connected.
[18:14:45] [FX]AlexCorruptor: !r
[18:14:52] к у с т: логает
[18:14:56] Topless Dio: !shop
[18:14:56] [FX]AlexCorruptor: !r
[18:15:07] к у с т: 6 секунд
[18:15:08] Magic Rabbit: !shop
[18:15:09] [FX]AlexCorruptor: !r
[18:15:17] [FX]AlexCorruptor: !r
[18:15:19] к у с т: !r
[18:15:23] Client "FX | Zombiez ✔" spawned in server <STEAM_0:1:78129233> (took 46 seconds).
[18:15:27] [FX]AlexCorruptor: !r
[18:15:40] [FX]AlexCorruptor: !r
[18:15:50] [FX]AlexCorruptor: !r
[18:16:08] Topless Dio: !shop
[18:16:23] [FX]AlexCorruptor: !r
[18:16:28] Client "Budunkadunk" connected.
[18:16:44] [FX]AlexCorruptor: !r
[18:16:54] [FX]AlexCorruptor: !r
[18:16:55] FX | Zombiez ✔: !r
[18:16:58] Client "Budunkadunk" spawned in server <STEAM_0:1:100814215> (took 30 seconds).
[18:17:02] [FX]AlexCorruptor: Hey Zombiez
[18:17:02] FX | Zombiez ✔: !r
[18:17:05] FX | Zombiez ✔: !r
[18:17:07] FX | Zombiez ✔: !r
[18:17:09] FX | Zombiez ✔: Hey
[18:17:21] Dropped "ImWinning" from server<STEAM_0:0:85366687>
[18:17:29] [FX]AlexCorruptor: It's finally somewhat full
[18:17:39] FX | Zombiez ✔: !r
[18:17:49] [FX]AlexCorruptor: Usually when i am here, it's empty
[18:17:55] Magic Rabbit: !shop
[18:18:01] [FX]AlexCorruptor: !r
[18:18:02] (TEAM) ТЕЛЕПУЗЕГ: !unbox
[18:18:04] [FX]AlexCorruptor: !r
[18:18:05] FX | Zombiez ✔ to admins: Now its your job to keep these players in game xd
[18:18:08] к у с т: In the morning it's empty
[18:18:09] ТУПАЯ ШАЛАВА: !unbox
[18:18:13] [FX]AlexCorruptor: !r
[18:18:15] ТЕЛЕПУЗЕГ: !kinves
[18:18:19] ТЕЛЕПУЗЕГ: !unbox
[18:18:22] [FX]AlexCorruptor: !r
[18:18:33] [FX]AlexCorruptor: !r
[18:18:37] к у с т: until 10am moscow time
[18:18:38] Dropped "_JR_FX" from server<STEAM_0:0:109545465>
[18:18:41] FX | Zombiez ✔: !r
[18:18:43] Topless Dio: !unbox
[18:19:02] [FX]AlexCorruptor: !r
[18:19:05] (TEAM) ТЕЛЕПУЗЕГ: !unbox
[18:19:09] к у с т: я блять лагаю
[18:19:14] [FX]AlexCorruptor: !r
[18:19:32] [FX]AlexCorruptor: !r
[18:19:56] [FX]AlexCorruptor: !r
[18:20:01] Topless Dio: !shop
[18:20:01] к у с т: пойду я
[18:20:03] к у с т: серв виснет
[18:20:04] ТЕЛЕПУЗЕГ: !unbox
[18:20:07] к у с т: завтра поставим
[18:20:14] [FX]AlexCorruptor: !r
[18:20:15] ТУПАЯ ШАЛАВА: !unbox
[18:20:17] к у с т: или пошли на мердера или куда
[18:20:22] [FX]AlexCorruptor: !r
[18:20:22] Dropped "Mugen Tsukuyomi" from server<STEAM_0:0:91046518>
[18:20:28] Topless Dio: !unbox
[18:20:30] Dropped "к у с т" from server<STEAM_0:1:94241705>
[18:20:33] [FX]AlexCorruptor: !r
[18:20:38] FX | Zombiez ✔: !r
[18:20:39] [FX]AlexCorruptor: !n
[18:20:42] FX | Zombiez ✔: !r
[18:20:49] [FX]AlexCorruptor: !r
[18:21:02] Client "Drty" connected.
[18:21:03] Client "Eri Freeman" connected.
[18:21:03] ТУПАЯ ШАЛАВА: !unbox
[18:21:08] [FX]AlexCorruptor: !r
[18:21:28] Dropped "Budunkadunk" from server<STEAM_0:1:100814215>
[18:21:37] Client "Drty" spawned in server <STEAM_0:1:172220397> (took 35 seconds).
[18:22:07] ТЕЛЕПУЗЕГ: !unbox
[18:22:08] [FX]AlexCorruptor: !r
[18:22:12] Topless Dio: !shop
[18:22:29] Drty: !r
[18:22:43] [FX]AlexCorruptor: !r
[18:22:43] Client "Eri Freeman" spawned in server <STEAM_0:1:2087818> (took 100 seconds).
[18:22:46] Magic Rabbit: !unbox
[18:22:46] [FX]AlexCorruptor: !r
[18:22:50] Topless Dio: !unbox
[18:23:07] Drty: !r
[18:23:29] [FX]AlexCorruptor: !r
[18:23:36] [FX]AlexCorruptor: !r
[18:23:36] ТЕЛЕПУЗЕГ: !unbox
[18:23:42] Drty: !r
[18:23:49] Drty: !r
[18:23:54] Drty: !r
[18:23:55] ТУПАЯ ШАЛАВА: !unbox
[18:23:59] Drty: !r
[18:24:05] Drty: !r
[18:24:07] [FX]AlexCorruptor: !r
[18:24:12] Drty: !r
[18:24:18] Drty: !r
[18:24:30] Drty: !r
[18:24:40] Drty: !r
[18:24:50] Server is shutting down/changing levels.



[18:24:57] New map: surf_placid
[18:25:07] Client "[FX]AlexCorruptor" spawned in server <STEAM_0:0:77731187> (took 11 seconds).
[18:25:07] Client "Bot41" connected.
[18:25:07] Client "Bot41" spawned in server <BOT> (took 11 seconds).
[18:25:09] Client "Bot42" connected.
[18:25:09] Client "Bot42" spawned in server <BOT> (took 13 seconds).
[18:25:12] Client "Drty" spawned in server <STEAM_0:1:172220397> (took 16 seconds).
[18:25:20] Client "ТУПАЯ ШАЛАВА" spawned in server <STEAM_0:1:93100063> (took 24 seconds).
[18:25:24] Client "Eri Freeman" spawned in server <STEAM_0:1:2087818> (took 28 seconds).
[18:25:26] Client "FX | Zombiez ✔" spawned in server <STEAM_0:1:78129233> (took 30 seconds).
[18:25:39] Client "ТЕЛЕПУЗЕГ" spawned in server <STEAM_0:0:145009319> (took 43 seconds).
[18:25:46] Client "Мамкин спиногрыз" connected.
[18:25:51] [FX]AlexCorruptor: !r
[18:26:01] [FX]AlexCorruptor: !r
[18:26:21] Dropped "Eri Freeman" from server<STEAM_0:1:2087818>
[18:26:29] Client "Magic Rabbit" spawned in server <STEAM_0:0:151228208> (took 93 seconds).
[18:26:55] [FX]AlexCorruptor: !r
[18:27:00] ТУПАЯ ШАЛАВА: !unbox
[18:27:03] ТЕЛЕПУЗЕГ: !unbox
[18:27:06] Client "Topless Dio" spawned in server <STEAM_0:1:129075142> (took 130 seconds).
[18:27:17] Client "Мамкин спиногрыз" spawned in server <STEAM_0:1:168054496> (took 91 seconds).
[18:27:24] Magic Rabbit: !unbox
[18:27:47] Drty: !r
[18:28:11] Drty: !r
[18:28:19] Drty: !r
[18:28:21] Мамкин спиногрыз: unbox
[18:28:25] [FX]AlexCorruptor: !r
[18:28:30] Drty: !r
[18:28:32] Magic Rabbit: !shop
[18:28:34] [FX]AlexCorruptor: !r
[18:28:37] Drty: !r
[18:28:47] Magic Rabbit: !unbox
[18:28:51] Мамкин спиногрыз: !unbox
[18:28:56] Drty: !r
[18:29:06] Drty: !r
[18:29:06] ТУПАЯ ШАЛАВА: !unboc
[18:29:10] ТУПАЯ ШАЛАВА: !unbox
[18:29:14] Topless Dio: !unbox
[18:29:18] Drty: !r
[18:29:44] Dropped "Magic Rabbit" from server<STEAM_0:0:151228208>
[18:29:45] Client "Magic Rabbit" connected.
[18:29:53] Client "Magic Rabbit" connected.
[18:30:09] Client "Magic Rabbit" spawned in server <STEAM_0:0:151228208> (took 16 seconds).
[18:30:09] Drty: !r
[18:30:16] Drty: !r
[18:30:21] Drty: !r
[18:30:31] [FX]AlexCorruptor: !r
[18:30:33] Мамкин спиногрыз: !unbox
[18:30:41] Client "Zed_Cuzade" connected.
[18:30:51] Client "Zed_Realm h1z1stakes.com" connected.
[18:30:55] Magic Rabbit: !shop
[18:30:57] [FX]AlexCorruptor: !r
[18:30:57] Drty: !wr
[18:31:06] Topless Dio: Dirty, I may or may not have accidently gifted you may crate
[18:31:15] Topless Dio: can i have it back please?
[18:31:19] ТЕЛЕПУЗЕГ: !unbox
[18:31:25] Topless Dio: !unbox
[18:31:32] Drty: I dont have one
[18:31:47] Drty: have you lost it?
[18:31:49] (TEAM) Topless Dio: It says I gifted it to you
[18:31:52] Client "Zed_Realm h1z1stakes.com" spawned in server <STEAM_0:0:195816839> (took 61 seconds).
[18:31:54] Drty: !unbox
[18:31:58] [FX]AlexCorruptor: !r
[18:32:05] Drty: There you go
[18:32:10] Topless Dio: Thx
[18:32:16] Client "Zed_Cuzade" spawned in server <STEAM_0:1:10078775> (took 95 seconds).
[18:32:16] ТУПАЯ ШАЛАВА: !unbox
[18:32:17] Topless Dio: !unbox
[18:32:18] [FX]AlexCorruptor: !r
[18:32:31] Мамкин спиногрыз: !unbox
[18:32:43] Drty: !r
[18:32:45] [FX]AlexCorruptor: !r
[18:32:49] Drty: !r
[18:33:01] ТЕЛЕПУЗЕГ: !unbox
[18:33:02] Drty: !r
[18:33:11] Drty: !r
[18:33:18] Drty: !r
[18:33:23] Topless Dio: !shop
[18:33:37] Magic Rabbit: !shop
[18:33:37] Drty: !r
[18:33:49] Drty: !r
[18:33:50] Dropped "Zed_Cuzade" from server<STEAM_0:1:10078775>
[18:33:56] Drty: !r
[18:33:57] Magic Rabbit: !unbox
[18:33:59] Drty: !r
[18:34:06] Dropped "Zed_Realm h1z1stakes.com" from server<STEAM_0:0:195816839>
[18:34:11] Drty: !r
[18:34:17] Topless Dio: !unbox
[18:34:20] ТУПАЯ ШАЛАВА: !unbox
[18:34:25] Dropped "ТЕЛЕПУЗЕГ" from server<STEAM_0:0:145009319>
[18:34:39] Drty: !r
[18:34:43] FX | Zombiez ✔: Im off to work on DarkRP
[18:34:50] Magic Rabbit: bai
[18:34:54] FX | Zombiez ✔: see you all in a bit :)
[18:34:56] Drty: !r
[18:35:00] [FX]AlexCorruptor: Cya
[18:35:12] Drty: !r
[18:35:16] FX | Zombiez ✔: Feel free to join our steam group and stay updated AND get a little reward for joining too! Type !steam :) Thank you all
[18:35:17] FX | Zombiez ✔: Feel free to join our steam group and stay updated AND get a little reward for joining too! Type !steam :) Thank you all
[18:35:22] Drty: !r
[18:35:24] Dropped "FX | Zombiez ✔" from server<STEAM_0:1:78129233>
[18:35:30] Мамкин спиногрыз: !unbox
[18:35:33] Drty: !r
[18:35:44] Drty: !r
[18:35:47] Drty: !r
[18:36:04] Drty: !r
[18:36:09] [FX]AlexCorruptor: !r
[18:36:15] Drty: !r
[18:36:22] Мамкин спиногрыз: !unbox
[18:36:53] ТУПАЯ ШАЛАВА: !unbox
[18:36:58] Dropped "[FX]AlexCorruptor" from server<STEAM_0:0:77731187>
[18:37:14] Drty: !r
[18:37:23] Drty: !r
[18:37:30] Drty: !r
[18:37:39] Drty: !r
[18:37:42] Drty: !r
[18:37:46] Drty: !r
[18:37:50] Topless Dio: !shop
[18:38:00] Topless Dio: !unbox
[18:38:19] Drty: !r
[18:38:29] Drty: !r
[18:38:32] Drty: !r
[18:38:38] Drty: !r
[18:39:19] Client "shankdog" connected.
[18:40:08] ТУПАЯ ШАЛАВА: !unbox
[18:40:13] Topless Dio: !shop
[18:40:14] Мамкин спиногрыз: !unbox
[18:40:32] Client "-_asd_-" connected.
[18:40:36] Client "shankdog" spawned in server <STEAM_0:1:97088259> (took 77 seconds).
[18:40:37] Topless Dio: !unbox
[18:40:37] Drty: !r
[18:40:57] Drty: !r
[18:41:06] Drty: !r
[18:41:09] Drty: !r
[18:41:11] Drty: !r
[18:41:14] Drty: !r
[18:41:37] Dropped "shankdog" from server<STEAM_0:1:97088259>
[18:41:40] Drty: !r
[18:41:43] Drty: !r
[18:41:46] Drty: !r
[18:41:56] Drty: !r
[18:41:59] Drty: !r
[18:42:08] Client "basboy1743" connected.
[18:42:15] ТУПАЯ ШАЛАВА: !unbox
[18:42:22] Drty: !r
[18:42:37] Drty: !r
[18:42:46] Drty: !r
[18:42:57] Drty: !r
[18:42:59] Client "PinkFluffyUnicorns" connected.
[18:43:00] Мамкин спиногрыз: !unbox
[18:43:07] Drty: !r
[18:43:12] Drty: !r
[18:43:21] Drty: !r
[18:43:32] Drty: !r
[18:43:38] Drty: !r
[18:43:40] Drty: !r
[18:43:43] Drty: !r
[18:43:50] Client "PinkFluffyUnicorns" spawned in server <STEAM_0:0:58158789> (took 51 seconds).
[18:43:52] Client "basboy1743" connected.
[18:43:54] Drty: !r
[18:43:57] Drty: !r
[18:44:06] Magic Rabbit: !unbox
[18:44:29] Drty: !r
[18:44:33] Topless Dio: !unbpox
[18:44:35] Drty: !r
[18:44:36] Magic Rabbit: !unbox
[18:44:38] Topless Dio: !unbox
[18:44:47] Drty: !r
[18:44:56] Drty: !r
[18:45:14] Drty: !r
[18:45:21] Topless Dio: !shop
[18:45:35] Drty: !r
[18:45:36] Drty: !r
[18:45:51] Topless Dio: !shop
[18:45:55] Drty: !r
[18:46:08] Drty: !r
[18:46:21] Topless Dio: !shop
[18:46:37] Drty: !r
[18:46:54] Magic Rabbit: can you send knives
[18:46:55] Topless Dio: !kill
[18:46:55] Drty: !r
[18:47:12] Topless Dio: !kill
[18:47:12] Drty: !r
[18:47:18] (TEAM) Topless Dio: !shop
[18:47:31] Мамкин спиногрыз: !unbox
[18:47:32] Client "Vidamine" connected.
[18:47:45] Drty: !r
[18:47:56] Drty: !r
[18:48:05] Drty: !r
[18:48:23] Drty: !r
[18:48:24] ТУПАЯ ШАЛАВА: !unbox
[18:48:28] Drty: !r
[18:48:32] Client "basboy1743" connected.
[18:48:39] Topless Dio: !unbox
[18:48:56] Client "Vidamine" spawned in server <STEAM_0:0:44836034> (took 84 seconds).
[18:48:58] Drty: !r
[18:49:07] Client "basboy1743" spawned in server <STEAM_0:0:97922407> (took 35 seconds).
[18:49:07] Topless Dio: !shop
[18:49:19] Drty: !r
[18:49:27] Drty: !r
[18:49:31] Topless Dio: I can't get my kmife to show
[18:49:38] Drty: !r
[18:49:41] Drty: !r
[18:50:00] Topless Dio: !unbox
[18:50:01] Dropped "basboy1743" from server<STEAM_0:0:97922407>
[18:50:13] Magic Rabbit: !unbox
[18:50:17] Drty: !r
[18:50:20] Client "basboy1743" connected.
[18:50:36] Client "basboy1743" spawned in server <STEAM_0:0:97922407> (took 16 seconds).
[18:50:41] ТУПАЯ ШАЛАВА: !unbox
[18:51:08] Dropped "basboy1743" from server<STEAM_0:0:97922407>
[18:51:16] Drty: !r
[18:51:19] Client "basboy1743" connected.
[18:51:34] Client "basboy1743" spawned in server <STEAM_0:0:97922407> (took 15 seconds).
[18:51:40] Dropped "Vidamine" from server<STEAM_0:0:44836034>
[18:51:53] Мамкин спиногрыз: !unbox
[18:51:59] Magic Rabbit: !shop
[18:52:08] Drty: !r
[18:52:14] Dropped "Drty" from server<STEAM_0:1:172220397>
[18:52:20] PinkFluffyUnicorns: !rtv
[18:52:40] Topless Dio: !unboox
[18:52:44] Topless Dio: !unbox
[18:53:30] basboy1743: next map plz
[18:53:39] Magic Rabbit: !shop
[18:53:53] Dropped "basboy1743" from server<STEAM_0:0:97922407>
[18:54:00] Client "просто ярик" connected.
[18:54:10] Magic Rabbit: !shop
[18:54:17] Magic Rabbit: !unbox
[18:54:49] Dropped "PinkFluffyUnicorns" from server<STEAM_0:0:58158789>
[18:55:24] Topless Dio: !unbox
[18:55:33] Server is shutting down/changing levels.



[18:55:40] New map: surf_forbidden_ways_ksf
[18:55:50] Client "ТУПАЯ ШАЛАВА" spawned in server <STEAM_0:1:93100063> (took 11 seconds).
[18:55:50] Client "Bot43" connected.
[18:55:50] Client "Bot43" spawned in server <BOT> (took 11 seconds).
[18:55:52] Client "Bot44" connected.
[18:55:52] Client "Bot44" spawned in server <BOT> (took 13 seconds).
[18:56:17] Client "Мамкин спиногрыз" spawned in server <STEAM_0:1:168054496> (took 38 seconds).
[18:56:35] ТУПАЯ ШАЛАВА: !unbox
[18:57:18] Client "MeowthyShootsLazers" connected.
[18:57:24] Client "MeowthyShootsLazers" connected.
[18:57:34] Мамкин спиногрыз: !unbox
[18:58:26] Client "Topless Dio" spawned in server <STEAM_0:1:129075142> (took 167 seconds).
[18:58:28] Client "Moon2k" connected.
[18:58:47] Client "Moon2k" spawned in server <STEAM_0:0:140443128> (took 19 seconds).
[18:59:09] Мамкин спиногрыз: !unbox
[18:59:12] Client "Magic Rabbit" spawned in server <STEAM_0:0:151228208> (took 213 seconds).
[18:59:50] Dropped "ТУПАЯ ШАЛАВА" from server<STEAM_0:1:93100063>
[18:59:54] Client "ТУПАЯ ШАЛАВА" connected.
[19:00:02] Client "ТУПАЯ ШАЛАВА" spawned in server <STEAM_0:1:93100063> (took 8 seconds).
[19:00:46] Client "-_asd_-" spawned in server <STEAM_0:1:126870226> (took 307 seconds).
[19:01:12] Topless Dio: !unbox
[19:01:55] Dropped "ТУПАЯ ШАЛАВА" from server<STEAM_0:1:93100063>
[19:02:51] Topless Dio: !shop
[19:03:19] Client "ТУПАЯ ШАЛАВА" connected.
[19:03:19] Client "vglazman" connected.
[19:03:20] Magic Rabbit: !shop
[19:03:42] Client "ТУПАЯ ШАЛАВА" spawned in server <STEAM_0:1:93100063> (took 23 seconds).
[19:04:34] Мамкин спиногрыз: !unbox
[19:04:48] ТУПАЯ ШАЛАВА: !unbox
[19:04:59] Topless Dio: !shop
[19:05:27] -_asd_-: !maps
[19:05:38] Мамкин спиногрыз: !knive
[19:05:45] Мамкин спиногрыз: !kniwe
[19:05:53] Мамкин спиногрыз: !knive
[19:06:08] Мамкин спиногрыз: !knive
[19:06:25] Topless Dio: !unbox
[19:07:20] Topless Dio: !shop
[19:07:28] Topless Dio: !kill
[19:07:32] Topless Dio: !shop
[19:07:36] Мамкин спиногрыз: !unbox
[19:07:52] Topless Dio: !unbox
[19:07:52] ТУПАЯ ШАЛАВА: !unbox
[19:07:54] Client "vglazman" spawned in server <STEAM_0:0:201270437> (took 275 seconds).
[19:09:31] -_asd_-: !rtv
[19:09:47] Topless Dio: !shop
[19:09:56] Magic Rabbit: !unbox
[19:10:17] Topless Dio: !unbox
[19:10:39] Client "ТЕЛЕПУЗЕГ" connected.
[19:11:09] -_asd_-: !mode
[19:11:14] -_asd_-: !unreal
[19:11:19] -_asd_-: !u
[19:11:24] -_asd_-: !mode
[19:11:30] Client "ТЕЛЕПУЗЕГ" spawned in server <STEAM_0:0:145009319> (took 51 seconds).
[19:11:46] (TEAM) ТЕЛЕПУЗЕГ: г
[19:11:52] Мамкин спиногрыз: !unbox
[19:12:08] Мамкин спиногрыз: !unbox
[19:12:16] Client "TrustTheTurtle" connected.
[19:12:37] -_asd_-: !u
[19:12:39] -_asd_-: !unreal
[19:13:07] Client "TrustTheTurtle" spawned in server <STEAM_0:1:42844433> (took 51 seconds).
[19:13:13] Magic Rabbit: can you send knives?
[19:13:36] Topless Dio: I can't get my knife to show, any idea why/
[19:13:46] TrustTheTurtle: !unbox
[19:14:12] ТЕЛЕПУЗЕГ: !unbox
[19:15:41] -_asd_-: !n
[19:15:47] Dropped "TrustTheTurtle" from server<STEAM_0:1:42844433>
[19:16:09] -_asd_-: !rtv
[19:16:13] -_asd_-: !nominate
[19:16:34] -_asd_-: !n
[19:16:51] ТУПАЯ ШАЛАВА: !unbox
[19:16:53] Dropped "Topless Dio" from server<STEAM_0:1:129075142>
[19:17:04] Мамкин спиногрыз: !unbox
[19:18:08] Dropped "Magic Rabbit" from server<STEAM_0:0:151228208>
[19:19:37] Мамкин спиногрыз: !unbox
[19:20:22] ТУПАЯ ШАЛАВА: !лтшмуы
[19:21:34] Dropped "vglazman" from server<STEAM_0:0:201270437>
[19:21:58] Мамкин спиногрыз: !unbox
[19:25:50] Dropped "ТЕЛЕПУЗЕГ" from server<STEAM_0:0:145009319>
[19:25:51] Moon2k: ¯\(°_o)/¯
[19:26:16] Server is shutting down/changing levels.



[19:26:23] New map: surf_kitsune
[19:26:45] Client "Moon2k" spawned in server <STEAM_0:0:140443128> (took 23 seconds).
[19:26:45] Client "Bot45" connected.
[19:26:45] Client "Bot45" spawned in server <BOT> (took 23 seconds).
[19:26:47] Client "Bot46" connected.
[19:26:47] Client "Bot46" spawned in server <BOT> (took 25 seconds).
[19:26:48] Client "ТУПАЯ ШАЛАВА" spawned in server <STEAM_0:1:93100063> (took 26 seconds).
[19:28:10] Client "-_asd_-" spawned in server <STEAM_0:1:126870226> (took 108 seconds).
[19:28:31] Client "Мамкин спиногрыз" spawned in server <STEAM_0:1:168054496> (took 129 seconds).
[19:29:31] -_asd_-: !к
[19:29:33] -_asd_-: !к
[19:29:34] -_asd_-: !r
[19:29:53] -_asd_-: !r
[19:30:07] -_asd_-: 1r
[19:30:09] -_asd_-: !r
[19:30:17] -_asd_-: 1r
[19:30:19] -_asd_-: !r
[19:30:41] (TEAM) Мамкин спиногрыз: !unbox
[19:31:51] -_asd_-: !b
[19:31:53] -_asd_-: !rtv
[19:32:21] -_asd_-: !r
[19:33:46] Мамкин спиногрыз: !unbox
[19:36:01] -_asd_-: !nominate
[19:36:23] Dropped "ТУПАЯ ШАЛАВА" from server<STEAM_0:1:93100063>
[19:38:04] Мамкин спиногрыз: !unbox
[19:38:38] Dropped "Мамкин спиногрыз" from server<STEAM_0:1:168054496>
[19:38:57] -_asd_-: !wr
[19:39:53] Client "[F-X] Lil' Massif" connected.
[19:39:55] Client "♛shreddZ♛ hellcase.com" connected.
[19:41:47] Client "[F-X] Lil' Massif" spawned in server <STEAM_0:1:74663039> (took 114 seconds).
[19:41:48] Client "skroods" connected.
[19:41:53] -_asd_-: !r
[19:41:58] Client "♛shreddZ♛ hellcase.com" spawned in server <STEAM_0:1:150003767> (took 123 seconds).
[19:42:08] (TEAM) [F-X] Lil' Massif: heya guys
[19:42:19] -_asd_-: hi
[19:42:23] Moon2k: hey
[19:42:23] -_asd_-: !r
[19:42:24] Client "skroods" connected.
[19:42:30] -_asd_-: !r
[19:42:30] [F-X] Lil' Massif: !r
[19:43:03] Client "jackbrowne1010" connected.
[19:43:07] [F-X] Lil' Massif: !r
[19:43:30] [F-X] Lil' Massif: !r
[19:43:42] Client "Drty" connected.
[19:43:50] [F-X] Lil' Massif: !r
[19:44:00] [F-X] Lil' Massif: !r
[19:44:12] [F-X] Lil' Massif: !r
[19:44:21] [F-X] Lil' Massif: !r
[19:44:23] Client "Drty" spawned in server <STEAM_0:1:172220397> (took 41 seconds).
[19:44:25] [F-X] Lil' Massif: !r
[19:44:36] [F-X] Lil' Massif: hi drty!
[19:44:43] [F-X] Lil' Massif: long time no see
[19:44:46] Drty: Hey
[19:44:51] Drty: Yeah ikr
[19:44:54] [F-X] Lil' Massif: !r
[19:45:07] [F-X] Lil' Massif: !r
[19:45:11] Drty: !r
[19:45:21] [F-X] Lil' Massif: !r
[19:45:45] [F-X] Lil' Massif: !r
[19:45:51] Drty: !r
[19:45:57] Drty: !r
[19:46:01] Client "jackbrowne1010" spawned in server <STEAM_0:1:164271420> (took 178 seconds).
[19:46:18] [F-X] Lil' Massif: !r
[19:46:24] Dropped "♛shreddZ♛ hellcase.com" from server<STEAM_0:1:150003767>
[19:46:27] Drty: !r
[19:46:54] Drty: !r
[19:46:54] [F-X] Lil' Massif: !r
[19:46:58] [F-X] Lil' Massif: !r
[19:47:22] -_asd_-: !hsw
[19:47:25] [F-X] Lil' Massif: !r
[19:47:25] Drty: !r
[19:47:30] -_asd_-: !r
[19:47:31] -_asd_-: !n
[19:47:32] -_asd_-: !rtv
[19:47:33] [F-X] Lil' Massif: !r
[19:48:01] Drty: !r
[19:48:29] [F-X] Lil' Massif: !r
[19:48:32] [F-X] Lil' Massif: !r
[19:48:43] [F-X] Lil' Massif: !r
[19:48:54] [F-X] Lil' Massif: !r
[19:49:05] Drty: !r
[19:49:17] [F-X] Lil' Massif: !r
[19:49:17] -_asd_-: !r
[19:49:21] -_asd_-: rtv ples
[19:49:23] [F-X] Lil' Massif: !r
[19:49:26] [F-X] Lil' Massif: !rtv
[19:49:29] [F-X] Lil' Massif: !r
[19:49:31] -_asd_-: !r
[19:49:39] Drty: !r
[19:49:42] [F-X] Lil' Massif: !r
[19:49:45] Moon2k: rtv
[19:49:47] Moon2k: !rtv
[19:50:03] [F-X] Lil' Massif: !r
[19:50:06] -_asd_-: !r
[19:50:09] Drty: !r
[19:50:16] Drty: !r
[19:50:18] -_asd_-: !r
[19:50:27] [F-X] Lil' Massif: !r
[19:50:46] Drty: !r
[19:50:48] Drty: !r
[19:50:49] [F-X] Lil' Massif: !r
[19:50:53] Drty: !nominate
[19:50:54] [F-X] Lil' Massif: !r
[19:51:17] [F-X] Lil' Massif: !r
[19:51:23] Dropped "[F-X] Lil' Massif" from server<STEAM_0:1:74663039>
[19:51:29] Dropped "Drty" from server<STEAM_0:1:172220397>
[19:51:49] Dropped "jackbrowne1010" from server<STEAM_0:1:164271420>
[19:52:05] Server is shutting down/changing levels.



[19:52:12] New map: surf_ace
[19:52:35] Client "Moon2k" spawned in server <STEAM_0:0:140443128> (took 24 seconds).
[19:52:35] Client "Bot47" connected.
[19:52:35] Client "Bot47" spawned in server <BOT> (took 24 seconds).
[19:52:37] Client "Bot48" connected.
[19:52:37] Client "Bot48" spawned in server <BOT> (took 26 seconds).
[19:54:12] Moon2k: !r
[19:54:19] Client "-_asd_-" spawned in server <STEAM_0:1:126870226> (took 128 seconds).
[19:54:33] Moon2k: !shop
[19:54:37] Moon2k: !r
[19:54:51] Moon2k: !r
[19:55:12] Moon2k: !r
[19:55:38] -_asd_-: !к
[19:55:40] -_asd_-: !r
[19:55:43] Moon2k: !r
[19:55:59] -_asd_-: !b
[19:56:11] -_asd_-: !b
[19:56:23] -_asd_-: wtf
[19:56:23] Moon2k: !r
[19:56:24] -_asd_-: !b
[19:56:25] -_asd_-: !r
[19:56:26] Moon2k: ?
[19:56:31] -_asd_-: how to complete the bonus
[19:56:49] -_asd_-: !r
[19:56:49] Moon2k: i have no clue sorry 
[19:56:50] Moon2k: !r
[19:56:53] -_asd_-: !spec
[19:57:03] -_asd_-: !b
[19:57:07] -_asd_-: !wr
[19:57:09] Moon2k: !r
[19:57:29] Client "MyNyX" connected.
[19:57:29] -_asd_-: 1n
[19:57:32] Moon2k: !r
[19:57:32] -_asd_-: !n
[19:57:50] Client "KiZzGamer" connected.
[19:57:54] Moon2k: !r
[19:58:13] -_asd_-: !r
[19:58:36] -_asd_-: 1r
[19:58:37] -_asd_-: !r
[19:58:38] Client "MyNyX" spawned in server <STEAM_0:0:55608674> (took 69 seconds).
[19:58:42] Client "KiZzGamer" spawned in server <STEAM_0:0:136289434> (took 52 seconds).
[19:58:42] Moon2k: !r
[19:58:52] -_asd_-: !r
[19:59:02] MyNyX: !r
[19:59:18] -_asd_-: !r
[19:59:30] Moon2k: !r
[19:59:42] -_asd_-: !r
[19:59:53] Moon2k: !r
[20:00:16] Moon2k: !r
[20:00:20] -_asd_-: !к
[20:00:21] -_asd_-: !r
[20:00:37] Moon2k: !r
[20:00:45] -_asd_-: !к
[20:00:46] -_asd_-: !r
[20:01:08] -_asd_-: 1r
[20:01:09] Moon2k: !r
[20:01:11] -_asd_-: !r
[20:01:32] Moon2k: !shop
[20:01:34] Moon2k: !shop
[20:01:35] Moon2k: !r
[20:01:46] Moon2k: !r
[20:01:46] -_asd_-: 1r
[20:01:47] -_asd_-: !r
[20:02:13] -_asd_-: !r
[20:02:21] Moon2k: !r
[20:02:44] Moon2k: !r
[20:02:53] Moon2k: !r
[20:03:37] Moon2k: !r
[20:03:49] -_asd_-: !r
[20:03:53] -_asd_-: !thirdperson
[20:04:09] Moon2k: !r
[20:04:17] Client "McAwesome" connected.
[20:04:34] Moon2k: !r
[20:04:53] -_asd_-: !r
[20:05:03] -_asd_-: !r
[20:05:13] Moon2k: !r
[20:05:22] -_asd_-: !r
[20:05:30] Moon2k: !r
[20:05:58] -_asd_-: !r
[20:06:00] -_asd_-: !rtv
[20:06:17] Moon2k: !rtv
[20:06:22] MyNyX: !rtv
[20:06:29] -_asd_-: !r
[20:06:58] Server is shutting down/changing levels.



[20:07:05] New map: surf_island
[20:07:20] Client "KiZzGamer" spawned in server <STEAM_0:0:136289434> (took 16 seconds).
[20:07:20] Client "Bot49" connected.
[20:07:20] Client "Bot49" spawned in server <BOT> (took 16 seconds).
[20:07:22] Client "Bot50" connected.
[20:07:22] Client "Bot50" spawned in server <BOT> (took 18 seconds).
[20:08:03] Client "MyNyX" spawned in server <STEAM_0:0:55608674> (took 59 seconds).
[20:08:29] Client "Onii-Chan" connected.
[20:08:55] Client "Moon2k" spawned in server <STEAM_0:0:140443128> (took 111 seconds).
[20:09:03] Client "McAwesome" connected.
[20:09:43] Client "-_asd_-" connected.
[20:11:18] Moon2k: !r
[20:13:15] Client "Onii-Chan" spawned in server <STEAM_0:1:64659941> (took 286 seconds).
[20:14:20] Client "нαυит" connected.
[20:15:08] Moon2k: !r
[20:15:31] Client "нαυит" spawned in server <STEAM_0:1:105876123> (took 71 seconds).
[20:16:18] нαυит: !R
[20:16:48] нαυит: !R
[20:18:17] Moon2k: !r
[20:18:20] Moon2k: !r
[20:18:36] Dropped "Onii-Chan" from server<STEAM_0:1:64659941>
[20:18:43] нαυит: !R
[20:18:48] нαυит: !R
[20:19:02] Moon2k: !r
[20:19:40] Client "AbercheYT" connected.
[20:21:00] Moon2k: !r
[20:21:02] Moon2k: !r
[20:21:24] Moon2k: !r
[20:22:14] нαυит: !R
[20:22:15] нαυит: !R
[20:23:00] нαυит: !R
[20:23:01] нαυит: !R
[20:23:31] нαυит: !R
[20:23:48] Moon2k: !r
[20:24:09] Moon2k: !r
[20:24:32] Moon2k: !r
[20:24:58] Moon2k: !r
[20:28:07] Moon2k: !r
[20:28:43] MyNyX: !rtv
[20:28:50] Dropped "нαυит" from server<STEAM_0:1:105876123>
[20:28:58] KiZzGamer: !rtv
[20:29:07] Moon2k: ¯\(°_o)/¯
[20:29:34] Server is shutting down/changing levels.



[20:29:41] New map: surf_lt_omnific_fix
[20:30:11] Client "KiZzGamer" spawned in server <STEAM_0:0:136289434> (took 31 seconds).
[20:30:12] Client "Bot51" connected.
[20:30:12] Client "Bot51" spawned in server <BOT> (took 32 seconds).
[20:30:14] Client "Bot52" connected.
[20:30:14] Client "Bot52" spawned in server <BOT> (took 34 seconds).
[20:30:28] Client "MyNyX" spawned in server <STEAM_0:0:55608674> (took 48 seconds).
[20:30:38] Client "Moon2k" spawned in server <STEAM_0:0:140443128> (took 58 seconds).
[20:31:52] Moon2k: !r
[20:31:54] Dropped "Moon2k" from server<STEAM_0:0:140443128>
[20:32:14] Dropped "MyNyX" from server<STEAM_0:0:55608674>
[20:39:41] Dropped "KiZzGamer" from server<STEAM_0:0:136289434>
[20:39:41] Dropped "Bot51" from server<BOT>
[20:39:41] Dropped "Bot52" from server<BOT>
[20:47:46] Client "✪ Fusion" connected.
[20:50:11] Client "✪ Fusion" spawned in server <STEAM_0:1:121872161> (took 145 seconds).
[20:50:11] Client "Bot53" connected.
[20:50:11] Client "Bot53" spawned in server <BOT> (took 1231 seconds).
[20:50:13] Client "Bot54" connected.
[20:50:13] Client "Bot54" spawned in server <BOT> (took 1233 seconds).
[20:51:31] ✪ Fusion: !b
[20:53:04] Dropped "✪ Fusion" from server<STEAM_0:1:121872161>
[20:53:04] Dropped "Bot53" from server<BOT>
[20:53:04] Dropped "Bot54" from server<BOT>
[21:00:17] Server is shutting down/changing levels.



[21:00:24] New map: surf_lux
[21:02:15] Client "Paradox" connected.
[21:02:23] Client "Paradox" spawned in server <STEAM_0:0:79525589> (took 8 seconds).
[21:02:24] Client "Bot55" connected.
[21:02:24] Client "Bot55" spawned in server <BOT> (took 121 seconds).
[21:02:26] Client "Bot56" connected.
[21:02:26] Client "Bot56" spawned in server <BOT> (took 123 seconds).
[21:03:07] Paradox: !r
[21:03:31] Paradox: !r
[21:03:34] Dropped "Paradox" from server<STEAM_0:0:79525589>
[21:03:34] Dropped "Bot55" from server<BOT>
[21:03:34] Dropped "Bot56" from server<BOT>
[21:21:04] Client "esteban9876" connected.
[21:21:48] Client "esteban9876" spawned in server <STEAM_0:0:79872189> (took 44 seconds).
[21:21:48] Client "Bot57" connected.
[21:21:48] Client "Bot57" spawned in server <BOT> (took 1285 seconds).
[21:21:50] Client "Bot58" connected.
[21:21:50] Client "Bot58" spawned in server <BOT> (took 1287 seconds).
[21:25:20] esteban9876: !rtv
[21:25:56] Server is shutting down/changing levels.



[21:26:03] New map: surf_ace
[21:26:41] Client "esteban9876" spawned in server <STEAM_0:0:79872189> (took 39 seconds).
[21:26:41] Client "Bot59" connected.
[21:26:41] Client "Bot59" spawned in server <BOT> (took 39 seconds).
[21:26:43] Client "Bot60" connected.
[21:26:43] Client "Bot60" spawned in server <BOT> (took 41 seconds).
[21:27:02] esteban9876: !r
[21:35:37] esteban9876: !rtv
[21:36:13] Server is shutting down/changing levels.



[21:36:20] New map: surf_beginner_hell
[21:36:38] Client "esteban9876" spawned in server <STEAM_0:0:79872189> (took 19 seconds).
[21:36:38] Client "Bot61" connected.
[21:36:38] Client "Bot61" spawned in server <BOT> (took 19 seconds).
[21:36:40] Client "Bot62" connected.
[21:36:40] Client "Bot62" spawned in server <BOT> (took 21 seconds).
[21:41:46] esteban9876: !RTV
[21:42:22] Server is shutting down/changing levels.



[21:42:29] New map: surf_waterworks
[21:42:47] Client "esteban9876" spawned in server <STEAM_0:0:79872189> (took 19 seconds).
[21:42:47] Client "Bot63" connected.
[21:42:47] Client "Bot63" spawned in server <BOT> (took 19 seconds).
[21:42:49] Client "Bot64" connected.
[21:42:49] Client "Bot64" spawned in server <BOT> (took 21 seconds).
[21:46:05] Dropped "esteban9876" from server<STEAM_0:0:79872189>
[21:46:05] Dropped "Bot63" from server<BOT>
[21:46:05] Dropped "Bot64" from server<BOT>
[22:13:05] Server is shutting down/changing levels.



[22:13:12] New map: surf_mesa_mine
[22:43:48] Server is shutting down/changing levels.



[22:43:55] New map: surf_classics
[23:14:31] Server is shutting down/changing levels.



[23:14:37] New map: surf_inspire
[23:34:50] Client "DrakonPheonix" connected.
[23:36:20] Client "DrakonPheonix" spawned in server <STEAM_0:0:45578269> (took 90 seconds).
[23:36:20] Client "Bot65" connected.
[23:36:20] Client "Bot65" spawned in server <BOT> (took 1304 seconds).
[23:36:22] Client "Bot66" connected.
[23:36:22] Client "Bot66" spawned in server <BOT> (took 1306 seconds).
[23:38:30] Dropped "DrakonPheonix" from server<STEAM_0:0:45578269>
[23:38:30] Dropped "Bot65" from server<BOT>
[23:38:30] Dropped "Bot66" from server<BOT>
[23:39:09] Client "xToo_Bad" connected.
[23:40:04] Client "xToo_Bad" spawned in server <STEAM_0:0:214104020> (took 55 seconds).
[23:40:05] Client "Bot67" connected.
[23:40:05] Client "Bot67" spawned in server <BOT> (took 1529 seconds).
[23:40:06] Client "Bot68" connected.
[23:40:06] Client "Bot68" spawned in server <BOT> (took 1530 seconds).
[23:42:18] Dropped "xToo_Bad" from server<STEAM_0:0:214104020>
[23:42:18] Dropped "Bot67" from server<BOT>
[23:42:18] Dropped "Bot68" from server<BOT>
[23:45:13] Server is shutting down/changing levels.



[23:45:21] New map: surf_island
<Logging continued in "data/ulx_logs/07-31-17.txt">
