<Logging continued from "data/ulx_logs/08-01-17.txt">
[00:05:17] Client "p_nut27 v2" spawned in server <STEAM_0:0:127852676> (took 321 seconds).
[00:14:21] Dropped "ΔEmperial PALPYΔ" from server<STEAM_0:0:132795692>
[00:15:08] (TEAM) p_nut27 v2: !styles
[00:17:44] Server is shutting down/changing levels.



[00:17:51] New map: surf_mesa
[00:41:47] Client "♛๖ۣۜYoshi Jr♛" connected.
[00:48:27] Server is shutting down/changing levels.



[00:48:34] New map: surf_beginner_hell
[01:18:09] Client "NichtJanine" connected.
[01:18:32] Client "Maxiu [PL]" connected.
[01:19:10] Server is shutting down/changing levels.



[01:19:17] New map: surf_inspire
[01:19:39] Client "Maxiu [PL]" spawned in server <STEAM_0:0:190771088> (took 23 seconds).
[01:19:39] Client "Bot65" connected.
[01:19:39] Client "Bot65" spawned in server <BOT> (took 23 seconds).
[01:19:41] Client "Bot66" connected.
[01:19:41] Client "Bot66" spawned in server <BOT> (took 25 seconds).
[01:20:45] Maxiu [PL]: !r
[01:20:52] Maxiu [PL]: !r
[01:21:07] Client "NichtJanine" spawned in server <STEAM_0:0:156921353> (took 111 seconds).
[01:21:13] Maxiu [PL]: !r
[01:21:29] Maxiu [PL]: !r
[01:21:40] Maxiu [PL]: !r
[01:21:43] Maxiu [PL]: !r
[01:22:15] Maxiu [PL]: !r
[01:22:20] Maxiu [PL]: !r
[01:22:27] Maxiu [PL]: !r
[01:22:54] Maxiu [PL]: !r
[01:22:58] Maxiu [PL]: !r
[01:23:43] Maxiu [PL]: !r
[01:24:43] Maxiu [PL]: !r
[01:24:49] (TEAM) Maxiu [PL]: !rtv
[01:25:33] Maxiu [PL]: !r
[01:25:53] Maxiu [PL]: !r
[01:26:02] Maxiu [PL]: !r
[01:26:31] Maxiu [PL]: !r
[01:26:39] Maxiu [PL]: !r
[01:26:51] Maxiu [PL]: !r
[01:27:31] Maxiu [PL]: !r
[01:27:41] Maxiu [PL]: !r
[01:27:54] Maxiu [PL]: !r
[01:28:08] Maxiu [PL]: !r
[01:28:47] Maxiu [PL]: !r
[01:29:08] NichtJanine: !r
[01:29:20] Maxiu [PL]: !r
[01:29:23] Maxiu [PL]: !r
[01:29:35] Maxiu [PL]: !r
[01:29:42] Maxiu [PL]: !r
[01:29:53] Maxiu [PL]: !r
[01:30:00] Maxiu [PL]: !r
[01:30:11] Maxiu [PL]: !r
[01:31:00] Maxiu [PL]: !r
[01:32:31] Maxiu [PL]: !r
[01:32:38] Maxiu [PL]: !r
[01:32:48] NichtJanine: !rtv
[01:33:24] Server is shutting down/changing levels.



[01:33:31] New map: surf_pox
[01:33:53] Client "Maxiu [PL]" spawned in server <STEAM_0:0:190771088> (took 23 seconds).
[01:33:53] Client "Bot67" connected.
[01:33:53] Client "Bot67" spawned in server <BOT> (took 23 seconds).
[01:33:55] Client "Bot68" connected.
[01:33:55] Client "Bot68" spawned in server <BOT> (took 25 seconds).
[01:34:08] (TEAM) Maxiu [PL]: !rtv 
[01:34:52] Dropped "Maxiu [PL]" from server<STEAM_0:0:190771088>
[01:35:27] Client "NichtJanine" spawned in server <STEAM_0:0:156921353> (took 117 seconds).
[01:35:57] NichtJanine: !rtv
[01:36:01] Client "Maxiu [PL]" connected.
[01:36:24] Client "Maxiu [PL]" spawned in server <STEAM_0:0:190771088> (took 23 seconds).
[01:36:40] NichtJanine: !r
[01:37:56] NichtJanine: !maxistdumm
[01:38:01] NichtJanine: .!maxistdumm
[01:38:38] (TEAM) Maxiu [PL]: !rtvb
[01:38:40] (TEAM) Maxiu [PL]: !rtv
[01:38:48] NichtJanine: !rtv
[01:39:24] Server is shutting down/changing levels.



[01:39:31] New map: surf_airflow
[01:39:53] Client "Maxiu [PL]" spawned in server <STEAM_0:0:190771088> (took 24 seconds).
[01:39:53] Client "Bot69" connected.
[01:39:53] Client "Bot69" spawned in server <BOT> (took 24 seconds).
[01:39:55] Client "Bot70" connected.
[01:39:55] Client "Bot70" spawned in server <BOT> (took 26 seconds).
[01:40:15] Maxiu [PL]: !r
[01:41:12] Client "NichtJanine" spawned in server <STEAM_0:0:156921353> (took 103 seconds).
[01:48:19] Client "[AKF]xI3lacK//Dominik//SwaG" connected.
[01:49:15] Client "[AKF]xI3lacK//Dominik//SwaG" spawned in server <STEAM_0:1:156915169> (took 56 seconds).
[01:51:32] [AKF]xI3lacK//Dominik//SwaG: !r
[01:51:35] [AKF]xI3lacK//Dominik//SwaG: !r
[01:51:48] [AKF]xI3lacK//Dominik//SwaG: !r
[01:51:52] NichtJanine: !rtv
[01:52:15] Maxiu [PL]: !r
[01:52:24] Maxiu [PL]: !r
[01:52:33] [AKF]xI3lacK//Dominik//SwaG: !r
[01:52:41] [AKF]xI3lacK//Dominik//SwaG: !r
[01:53:10] [AKF]xI3lacK//Dominik//SwaG: !r
[01:53:12] (TEAM) Maxiu [PL]: !rtv
[01:53:36] [AKF]xI3lacK//Dominik//SwaG: !r
[01:53:48] Server is shutting down/changing levels.



[01:53:55] New map: surf_rebel_scaz
[01:54:05] Client "Maxiu [PL]" spawned in server <STEAM_0:0:190771088> (took 12 seconds).
[01:54:05] Client "Bot71" connected.
[01:54:05] Client "Bot71" spawned in server <BOT> (took 12 seconds).
[01:54:07] Client "Bot72" connected.
[01:54:07] Client "Bot72" spawned in server <BOT> (took 14 seconds).
[01:54:15] Client "[AKF]xI3lacK//Dominik//SwaG" spawned in server <STEAM_0:1:156915169> (took 22 seconds).
[01:54:32] Maxiu [PL]: !r
[01:54:53] Maxiu [PL]: !r
[01:54:56] Client "NichtJanine" spawned in server <STEAM_0:0:156921353> (took 63 seconds).
[01:54:56] Maxiu [PL]: !r
[01:55:14] Maxiu [PL]: !r
[01:55:24] Maxiu [PL]: !r
[01:55:54] Maxiu [PL]: !r
[01:56:18] Maxiu [PL]: !r
[01:56:21] [AKF]xI3lacK//Dominik//SwaG: !r
[01:56:25] NichtJanine: !r
[01:56:26] NichtJanine: !r
[01:56:27] NichtJanine: !r
[01:56:28] NichtJanine: !r
[01:56:28] NichtJanine: !r
[01:56:45] [AKF]xI3lacK//Dominik//SwaG: !r
[01:57:47] Maxiu [PL]: !r
[01:57:59] [AKF]xI3lacK//Dominik//SwaG: !r
[01:58:11] Maxiu [PL]: !r
[01:58:11] Maxiu [PL]: !r
[01:58:12] Maxiu [PL]: !r
[01:58:16] [AKF]xI3lacK//Dominik//SwaG: !r
[01:59:46] Maxiu [PL]: !r
[02:00:16] [AKF]xI3lacK//Dominik//SwaG: !r
[02:00:21] Maxiu [PL]: !r
[02:00:35] [AKF]xI3lacK//Dominik//SwaG: !r
[02:00:44] Maxiu [PL]: !r
[02:00:47] Maxiu [PL]: !r
[02:00:47] [AKF]xI3lacK//Dominik//SwaG: !r
[02:00:59] Maxiu [PL]: !r
[02:01:05] [AKF]xI3lacK//Dominik//SwaG: !r
[02:01:11] Maxiu [PL]: !r
[02:01:12] Maxiu [PL]: !r
[02:01:36] Maxiu [PL]: !r
[02:01:40] Maxiu [PL]: !r
[02:01:48] [AKF]xI3lacK//Dominik//SwaG: !r
[02:01:58] Maxiu [PL]: !r
[02:01:59] [AKF]xI3lacK//Dominik//SwaG: !r
[02:02:09] Maxiu [PL]: !r
[02:02:09] [AKF]xI3lacK//Dominik//SwaG: !r
[02:02:15] [AKF]xI3lacK//Dominik//SwaG: !r
[02:02:42] Maxiu [PL]: !r
[02:02:46] [AKF]xI3lacK//Dominik//SwaG: !r
[02:02:55] [AKF]xI3lacK//Dominik//SwaG: !r
[02:03:05] [AKF]xI3lacK//Dominik//SwaG: !r
[02:03:55] Dropped "NichtJanine" from server<STEAM_0:0:156921353>
[02:04:03] Client "NichtJanine" connected.
[02:05:10] Client "NichtJanine" spawned in server <STEAM_0:0:156921353> (took 67 seconds).
[02:07:48] [AKF]xI3lacK//Dominik//SwaG: !r
[02:07:49] [AKF]xI3lacK//Dominik//SwaG: !r
[02:07:50] [AKF]xI3lacK//Dominik//SwaG: !r
[02:07:51] [AKF]xI3lacK//Dominik//SwaG: !r
[02:07:56] [AKF]xI3lacK//Dominik//SwaG: !r
[02:08:01] [AKF]xI3lacK//Dominik//SwaG: !r
[02:08:10] Maxiu [PL]: !r
[02:08:29] Maxiu [PL]: !r
[02:08:44] Maxiu [PL]: !r
[02:13:55] Dropped "NichtJanine" from server<STEAM_0:0:156921353>
[02:13:55] Dropped "Maxiu [PL]" from server<STEAM_0:0:190771088>
[02:13:55] Dropped "[AKF]xI3lacK//Dominik//SwaG" from server<STEAM_0:1:156915169>
[02:13:55] Dropped "Bot71" from server<BOT>
[02:13:55] Dropped "Bot72" from server<BOT>
[02:19:06] Client "HOOT!" connected.
[02:20:25] Client "HOOT!" spawned in server <STEAM_0:1:75163451> (took 79 seconds).
[02:20:25] Client "Bot73" connected.
[02:20:25] Client "Bot73" spawned in server <BOT> (took 1592 seconds).
[02:20:27] Client "Bot74" connected.
[02:20:27] Client "Bot74" spawned in server <BOT> (took 1594 seconds).
[02:20:38] Client "Maxiu [PL]" connected.
[02:20:47] Client "Maxiu [PL]" spawned in server <STEAM_0:0:190771088> (took 9 seconds).
[02:21:12] Maxiu [PL]: !r
[02:23:31] Dropped "Maxiu [PL]" from server<STEAM_0:0:190771088>
[02:24:31] Server is shutting down/changing levels.



[02:24:38] New map: surf_advanced
[02:55:14] Server is shutting down/changing levels.



[02:55:21] New map: surf_classics
[03:25:56] Server is shutting down/changing levels.



[03:26:04] New map: surf_classics2
[03:56:40] Server is shutting down/changing levels.



[03:56:47] New map: surf_prelude_ksf
[04:27:22] Server is shutting down/changing levels.



[04:27:29] New map: surf_pox
[04:44:58] Client ".الله ❤" connected.
[04:45:55] Client ".الله ❤" spawned in server <STEAM_0:1:48391430> (took 57 seconds).
[04:45:55] Client "Bot75" connected.
[04:45:55] Client "Bot75" spawned in server <BOT> (took 1107 seconds).
[04:45:57] Client "Bot76" connected.
[04:45:57] Client "Bot76" spawned in server <BOT> (took 1109 seconds).
[04:48:49] .الله ❤: !rtv
[04:49:25] Server is shutting down/changing levels.



[04:49:32] New map: surf_dusk
[04:50:31] Client ".الله ❤" spawned in server <STEAM_0:1:48391430> (took 60 seconds).
[04:50:31] Client "Bot77" connected.
[04:50:31] Client "Bot77" spawned in server <BOT> (took 60 seconds).
[04:50:33] Client "Bot78" connected.
[04:50:33] Client "Bot78" spawned in server <BOT> (took 62 seconds).
[05:01:58] Client "Ля шо бы поделат?" connected.
[05:03:21] Client "Ля шо бы поделат?" spawned in server <STEAM_0:1:221227951> (took 83 seconds).
[05:05:03] Client "sochnyj" connected.
[05:06:28] Client "sochnyj" spawned in server <STEAM_0:1:60521344> (took 85 seconds).
[05:06:32] Dropped "Ля шо бы поделат?" from server<STEAM_0:1:221227951>
[05:07:20] Dropped "sochnyj" from server<STEAM_0:1:60521344>
[05:09:39] Client "AimBot Noodles" connected.
[05:11:09] Client "AimBot Noodles" spawned in server <STEAM_0:0:85146615> (took 90 seconds).
[05:11:56] AimBot Noodles: !JB
[05:12:44] AimBot Noodles: !JB
[05:12:55] Client "Moozy" connected.
[05:16:23] Dropped "AimBot Noodles" from server<STEAM_0:0:85146615>
[05:23:04] .الله ❤: !кем
[05:23:06] .الله ❤: !rtv
[05:23:42] Server is shutting down/changing levels.



[05:23:49] New map: surf_milkyway
[05:25:07] Client ".الله ❤" spawned in server <STEAM_0:1:48391430> (took 79 seconds).
[05:25:07] Client "Bot79" connected.
[05:25:07] Client "Bot79" spawned in server <BOT> (took 79 seconds).
[05:25:09] Client "Bot80" connected.
[05:25:09] Client "Bot80" spawned in server <BOT> (took 81 seconds).
[05:33:50] Dropped ".الله ❤" from server<STEAM_0:1:48391430>
[05:33:50] Dropped "Bot79" from server<BOT>
[05:33:50] Dropped "Bot80" from server<BOT>
[05:50:38] Client ".الله ❤" connected.
[05:51:02] Client ".الله ❤" spawned in server <STEAM_0:1:48391430> (took 24 seconds).
[05:51:02] Client "Bot81" connected.
[05:51:02] Client "Bot81" spawned in server <BOT> (took 1634 seconds).
[05:51:04] Client "Bot82" connected.
[05:51:04] Client "Bot82" spawned in server <BOT> (took 1636 seconds).
[05:54:26] Server is shutting down/changing levels.



[05:54:33] New map: surf_airflow
[05:55:10] Client ".الله ❤" spawned in server <STEAM_0:1:48391430> (took 39 seconds).
[05:55:10] Client "Bot83" connected.
[05:55:10] Client "Bot83" spawned in server <BOT> (took 39 seconds).
[05:55:12] Client "Bot84" connected.
[05:55:12] Client "Bot84" spawned in server <BOT> (took 41 seconds).
[05:58:15] .الله ❤: !кем
[05:58:17] .الله ❤: !rtv
[05:58:26] Dropped ".الله ❤" from server<STEAM_0:1:48391430>
[05:58:26] Dropped "Bot83" from server<BOT>
[05:58:26] Dropped "Bot84" from server<BOT>



[07:11:20] New map: surf_mesa
[07:11:38] Client "Shizoffren!™(baran)" spawned in server <STEAM_0:0:178484306> (took 18 seconds).
[07:11:39] Client "Bot01" connected.
[07:11:39] Client "Bot01" spawned in server <BOT> (took 4272 seconds).
[07:11:41] Client "Bot02" connected.
[07:11:41] Client "Bot02" spawned in server <BOT> (took 4274 seconds).
[07:13:27] Shizoffren!™(baran): !unbox
[07:15:04] Dropped "Shizoffren!™(baran)" from server<STEAM_0:0:178484306>
[07:15:04] Dropped "Bot01" from server<BOT>
[07:15:04] Dropped "Bot02" from server<BOT>
[07:41:57] Server is shutting down/changing levels.



[07:42:03] New map: surf_simpsons_source
[08:12:39] Server is shutting down/changing levels.



[08:12:46] New map: surf_classics
[08:43:22] Server is shutting down/changing levels.



[08:43:28] New map: surf_sundown_njv
[09:14:04] Server is shutting down/changing levels.



[09:14:11] New map: surf_simpsons_source
[09:36:50] Client "Calvin Atlan" connected.
[09:37:49] Client "Calvin Atlan" spawned in server <STEAM_0:0:157190107> (took 59 seconds).
[09:37:49] Client "Bot03" connected.
[09:37:49] Client "Bot03" spawned in server <BOT> (took 1420 seconds).
[09:37:51] Client "Bot04" connected.
[09:37:51] Client "Bot04" spawned in server <BOT> (took 1422 seconds).
[09:37:59] Client ".الله ❤" connected.
[09:38:48] Calvin Atlan: !rtv
[09:39:24] Server is shutting down/changing levels.



[09:39:31] New map: surf_funhouse_v1
[09:40:01] Client "Calvin Atlan" spawned in server <STEAM_0:0:157190107> (took 31 seconds).
[09:40:01] Client "Bot05" connected.
[09:40:01] Client "Bot05" spawned in server <BOT> (took 31 seconds).
[09:40:03] Client "Bot06" connected.
[09:40:03] Client "Bot06" spawned in server <BOT> (took 33 seconds).
[09:40:37] Calvin Atlan: !rtv
[09:40:39] Client ".الله ❤" spawned in server <STEAM_0:1:48391430> (took 69 seconds).
[09:40:59] Dropped "Calvin Atlan" from server<STEAM_0:0:157190107>
[09:40:59] Client "Calvin Atlan" connected.
[09:41:17] Client "Calvin Atlan" spawned in server <STEAM_0:0:157190107> (took 18 seconds).
[09:42:36] Calvin Atlan: !rtv
[09:43:03] Calvin Atlan: !rtv
[09:43:05] Calvin Atlan: !rtv
[09:43:54] Client "シ❃†Tyranex †シ❃" connected.
[09:44:09] Calvin Atlan: !rtv
[09:45:12] Client "シ❃†Tyranex †シ❃" spawned in server <STEAM_0:1:122447950> (took 78 seconds).
[09:45:36] シ❃†Tyranex †シ❃: !r
[09:45:46] Calvin Atlan: !rtv
[09:46:05] Calvin Atlan: rtv please
[09:46:49] シ❃†Tyranex †シ❃: !rtv
[09:47:25] Server is shutting down/changing levels.



[09:47:32] New map: surf_kitsune
[09:47:57] Client "シ❃†Tyranex †シ❃" spawned in server <STEAM_0:1:122447950> (took 26 seconds).
[09:47:57] Client "Bot07" connected.
[09:47:57] Client "Bot07" spawned in server <BOT> (took 26 seconds).
[09:47:59] Client "Bot08" connected.
[09:47:59] Client "Bot08" spawned in server <BOT> (took 28 seconds).
[09:48:11] Client "Calvin Atlan" spawned in server <STEAM_0:0:157190107> (took 40 seconds).
[09:48:19] Client ".الله ❤" spawned in server <STEAM_0:1:48391430> (took 48 seconds).
[09:54:29] Calvin Atlan: !rtv
[09:55:51] Calvin Atlan: rtv please
[09:56:02] (TEAM) シ❃†Tyranex †シ❃: !rtv
[09:56:38] Server is shutting down/changing levels.



[09:56:46] New map: surf_rebel_scaz
[09:57:25] Client ".الله ❤" spawned in server <STEAM_0:1:48391430> (took 41 seconds).
[09:57:25] Client "Bot09" connected.
[09:57:25] Client "Bot09" spawned in server <BOT> (took 41 seconds).
[09:57:27] Client "Bot10" connected.
[09:57:27] Client "Bot10" spawned in server <BOT> (took 43 seconds).
[09:57:49] Client "Calvin Atlan" spawned in server <STEAM_0:0:157190107> (took 65 seconds).
[09:58:10] Client "シ❃†Tyranex †シ❃" spawned in server <STEAM_0:1:122447950> (took 86 seconds).
[10:05:19] .الله ❤: !rtv
[10:05:45] Client "SiemsonXPL" connected.
[10:07:39] Calvin Atlan: !rtv
[10:08:15] Server is shutting down/changing levels.



[10:08:22] New map: surf_mesa_aether
[10:10:02] Client "Calvin Atlan" spawned in server <STEAM_0:0:157190107> (took 101 seconds).
[10:10:02] Client "Bot11" connected.
[10:10:02] Client "Bot11" spawned in server <BOT> (took 101 seconds).
[10:10:04] Client "Bot12" connected.
[10:10:04] Client "Bot12" spawned in server <BOT> (took 103 seconds).
[10:10:31] Client "シ❃†Tyranex †シ❃" spawned in server <STEAM_0:1:122447950> (took 130 seconds).
[10:11:22] Client ".الله ❤" spawned in server <STEAM_0:1:48391430> (took 181 seconds).
[10:11:43] Client "SiemsonXPL" spawned in server <STEAM_0:1:164673133> (took 202 seconds).
[10:16:46] .الله ❤: !кем
[10:16:48] .الله ❤: !rtv
[10:17:18] Calvin Atlan: !rtv
[10:19:30] Dropped "SiemsonXPL" from server<STEAM_0:1:164673133>
[10:19:47] Dropped "シ❃†Tyranex †シ❃" from server<STEAM_0:1:122447950>
[10:20:06] Server is shutting down/changing levels.



[10:20:13] New map: surf_simpsons_source
[10:20:38] Client "Calvin Atlan" spawned in server <STEAM_0:0:157190107> (took 26 seconds).
[10:20:38] Client "Bot13" connected.
[10:20:38] Client "Bot13" spawned in server <BOT> (took 26 seconds).
[10:20:40] Client "Bot14" connected.
[10:20:40] Client "Bot14" spawned in server <BOT> (took 28 seconds).
[10:20:43] Client ".الله ❤" spawned in server <STEAM_0:1:48391430> (took 31 seconds).
[10:23:57] Calvin Atlan: !rtv
[10:25:42] Client "TheUltimateDroid" connected.
[10:27:02] Client "dǝǝW ƃuᴉʞ" connected.
[10:27:21] Client "dǝǝW ƃuᴉʞ" spawned in server <STEAM_0:0:168132318> (took 19 seconds).
[10:28:48] Calvin Atlan: !rtv
[10:28:52] dǝǝW ƃuᴉʞ: !RTV
[10:28:53] dǝǝW ƃuᴉʞ: NO AUDIO
[10:28:57] dǝǝW ƃuᴉʞ: !r
[10:29:28] Server is shutting down/changing levels.



[10:29:35] New map: surf_waterworks
[10:29:44] Client "dǝǝW ƃuᴉʞ" spawned in server <STEAM_0:0:168132318> (took 10 seconds).
[10:29:44] Client "Bot15" connected.
[10:29:44] Client "Bot15" spawned in server <BOT> (took 10 seconds).
[10:29:46] Client "Bot16" connected.
[10:29:46] Client "Bot16" spawned in server <BOT> (took 12 seconds).
[10:29:59] Dropped "dǝǝW ƃuᴉʞ" from server<STEAM_0:0:168132318>
[10:30:13] Client "Calvin Atlan" spawned in server <STEAM_0:0:157190107> (took 39 seconds).
[10:30:36] Client ".الله ❤" spawned in server <STEAM_0:1:48391430> (took 62 seconds).
[10:31:31] .الله ❤: !kill
[10:33:07] Client "TheUltimateDroid" spawned in server <STEAM_0:0:196854735> (took 213 seconds).
[10:35:23] Dropped ".الله ❤" from server<STEAM_0:1:48391430>
[10:35:54] Dropped "TheUltimateDroid" from server<STEAM_0:0:196854735>
[10:37:45] Calvin Atlan: !rtv
[10:38:21] Server is shutting down/changing levels.



[10:38:29] New map: surf_kitsune2
[10:39:38] Client "Calvin Atlan" spawned in server <STEAM_0:0:157190107> (took 71 seconds).
[10:39:38] Client "Bot17" connected.
[10:39:38] Client "Bot17" spawned in server <BOT> (took 71 seconds).
[10:39:40] Client "Bot18" connected.
[10:39:40] Client "Bot18" spawned in server <BOT> (took 73 seconds).
[10:42:55] Calvin Atlan: §RTV
[10:42:59] Calvin Atlan: !rtv
[10:43:30] Calvin Atlan: !rtv
[10:44:06] Server is shutting down/changing levels.



[10:44:13] New map: surf_classics
[10:44:32] Client "Calvin Atlan" spawned in server <STEAM_0:0:157190107> (took 20 seconds).
[10:44:32] Client "Bot19" connected.
[10:44:32] Client "Bot19" spawned in server <BOT> (took 20 seconds).
[10:44:34] Client "Bot20" connected.
[10:44:34] Client "Bot20" spawned in server <BOT> (took 22 seconds).
[10:45:06] Client "MC_Hovanskiy" connected.
[10:50:30] Client "MC_Hovanskiy" spawned in server <STEAM_0:0:165944120> (took 324 seconds).
[10:58:01] Client "Z A E L U X" connected.
[10:58:32] Client "Z A E L U X" spawned in server <STEAM_0:1:28390275> (took 31 seconds).
[10:59:13] Dropped "Calvin Atlan" from server<STEAM_0:0:157190107>
[11:04:07] Client "Şugu  Băț" connected.
[11:09:13] Dropped "Z A E L U X" from server<STEAM_0:1:28390275>
[11:14:49] Server is shutting down/changing levels.



[11:14:57] New map: surf_dusk
[11:16:16] Client "MC_Hovanskiy" spawned in server <STEAM_0:0:165944120> (took 81 seconds).
[11:16:16] Client "Bot21" connected.
[11:16:16] Client "Bot21" spawned in server <BOT> (took 81 seconds).
[11:16:18] Client "Bot22" connected.
[11:16:18] Client "Bot22" spawned in server <BOT> (took 83 seconds).
[11:17:54] Dropped "MC_Hovanskiy" from server<STEAM_0:0:165944120>
[11:17:54] Dropped "Bot21" from server<BOT>
[11:17:54] Dropped "Bot22" from server<BOT>
[11:18:14] Client "TuRtUr22" connected.
[11:18:42] Client "Panda Pit HYPLEX.CO" connected.
[11:22:48] Client "Someone Once Knew" connected.
[11:24:14] Client "AfaList" connected.
[11:26:44] Client "AfaList" spawned in server <STEAM_0:0:220481237> (took 150 seconds).
[11:26:44] Client "Bot23" connected.
[11:26:44] Client "Bot23" spawned in server <BOT> (took 709 seconds).
[11:26:46] Client "Bot24" connected.
[11:26:46] Client "Bot24" spawned in server <BOT> (took 711 seconds).
[11:29:53] Dropped "AfaList" from server<STEAM_0:0:220481237>
[11:29:53] Dropped "Bot23" from server<BOT>
[11:29:53] Dropped "Bot24" from server<BOT>
[11:45:33] Server is shutting down/changing levels.



[11:45:40] New map: surf_utopia_njv
[11:51:30] Client "MagnusMinion" connected.
[11:51:50] Client "MagnusMinion" spawned in server <STEAM_0:1:122041308> (took 20 seconds).
[11:51:50] Client "Bot25" connected.
[11:51:50] Client "Bot25" spawned in server <BOT> (took 371 seconds).
[11:51:52] Client "Bot26" connected.
[11:51:52] Client "Bot26" spawned in server <BOT> (took 373 seconds).
[11:52:14] MagnusMinion: !knife
[11:52:48] MagnusMinion: !unbox
[11:53:19] Client "FeuerFaust1997" connected.
[11:53:37] Dropped "MagnusMinion" from server<STEAM_0:1:122041308>
[11:53:37] Client "MagnusMinion" connected.
[11:53:41] Client "Ocean Man" connected.
[11:53:45] Client "MagnusMinion" spawned in server <STEAM_0:1:122041308> (took 8 seconds).
[11:53:57] Client "FeuerFaust1997" spawned in server <STEAM_0:0:58872080> (took 38 seconds).
[11:54:18] MagnusMinion: !tutoriel
[11:55:05] Client "Ocean Man" spawned in server <STEAM_0:0:88021484> (took 84 seconds).
[11:55:48] MagnusMinion: !tv
[11:55:54] MagnusMinion: !rtv
[11:56:05] MagnusMinion: Say !rtv
[11:56:12] FeuerFaust1997: !rtv
[11:56:48] Server is shutting down/changing levels.



[11:56:55] New map: surf_lt_omnific_fix
[11:57:06] Client "MagnusMinion" spawned in server <STEAM_0:1:122041308> (took 12 seconds).
[11:57:06] Client "Bot27" connected.
[11:57:06] Client "Bot27" spawned in server <BOT> (took 12 seconds).
[11:57:08] Client "Bot28" connected.
[11:57:08] Client "Bot28" spawned in server <BOT> (took 14 seconds).
[11:57:27] Client "Ocean Man" spawned in server <STEAM_0:0:88021484> (took 33 seconds).
[11:57:52] Client "FeuerFaust1997" spawned in server <STEAM_0:0:58872080> (took 58 seconds).
[11:58:37] Dropped "FeuerFaust1997" from server<STEAM_0:0:58872080>
[12:00:00] Dropped "Ocean Man" from server<STEAM_0:0:88021484>
[12:05:10] MagnusMinion: !rules
[12:06:38] Client "BIGnoob" connected.
[12:07:47] Dropped "MagnusMinion" from server<STEAM_0:1:122041308>
[12:08:00] Client "BIGnoob" spawned in server <STEAM_0:1:150312654> (took 82 seconds).
[12:09:18] BIGnoob: !rtv
[12:09:54] Server is shutting down/changing levels.



[12:10:01] New map: surf_rookie
[12:10:33] Client "BIGnoob" spawned in server <STEAM_0:1:150312654> (took 34 seconds).
[12:10:33] Client "Bot29" connected.
[12:10:33] Client "Bot29" spawned in server <BOT> (took 34 seconds).
[12:10:35] Client "Bot30" connected.
[12:10:35] Client "Bot30" spawned in server <BOT> (took 36 seconds).
[12:18:26] Client "Credissimo" connected.
[12:18:49] Client "Credissimo" spawned in server <STEAM_0:0:97560074> (took 23 seconds).
[12:20:15] Client "Chapstick ʢ◉ᴥ◉ʡ" connected.
[12:20:36] Client "ZeroEmpathy" connected.
[12:20:45] Client "Chapstick ʢ◉ᴥ◉ʡ" spawned in server <STEAM_0:0:58851915> (took 30 seconds).
[12:21:00] Chapstick ʢ◉ᴥ◉ʡ: !r
[12:21:09] Client "ZeroEmpathy" spawned in server <STEAM_0:0:31524723> (took 33 seconds).
[12:21:40] Chapstick ʢ◉ᴥ◉ʡ: !r
[12:23:58] Chapstick ʢ◉ᴥ◉ʡ: !r
[12:25:01] Chapstick ʢ◉ᴥ◉ʡ: !r
[12:25:33] Chapstick ʢ◉ᴥ◉ʡ: !r
[12:25:40] Chapstick ʢ◉ᴥ◉ʡ: !r
[12:26:10] Chapstick ʢ◉ᴥ◉ʡ: !r
[12:28:12] Chapstick ʢ◉ᴥ◉ʡ: !r
[12:30:18] Dropped "Credissimo" from server<STEAM_0:0:97560074>
[12:30:27] Dropped "ZeroEmpathy" from server<STEAM_0:0:31524723>
[12:30:41] Chapstick ʢ◉ᴥ◉ʡ: !r
[12:31:46] Client "ZeroEmpathy" connected.
[12:32:00] Client "ZeroEmpathy" spawned in server <STEAM_0:0:31524723> (took 14 seconds).
[12:34:51] Chapstick ʢ◉ᴥ◉ʡ: !r
[12:35:49] Dropped "ZeroEmpathy" from server<STEAM_0:0:31524723>
[12:36:21] Client "hkhongkong2014" connected.
[12:36:53] Client "hkhongkong2014" spawned in server <STEAM_0:0:158540489> (took 32 seconds).
[12:38:37] Chapstick ʢ◉ᴥ◉ʡ: !r
[12:38:59] Chapstick ʢ◉ᴥ◉ʡ: !r
[12:39:56] Dropped "Chapstick ʢ◉ᴥ◉ʡ" from server<STEAM_0:0:58851915>
[12:40:37] Server is shutting down/changing levels.



[12:40:44] New map: surf_funhouse_v1
[12:41:02] Client "hkhongkong2014" spawned in server <STEAM_0:0:158540489> (took 19 seconds).
[12:41:02] Client "Bot31" connected.
[12:41:02] Client "Bot31" spawned in server <BOT> (took 19 seconds).
[12:41:04] Client "Bot32" connected.
[12:41:04] Client "Bot32" spawned in server <BOT> (took 21 seconds).
[12:41:15] Client "BIGnoob" spawned in server <STEAM_0:1:150312654> (took 32 seconds).
[12:41:49] Dropped "hkhongkong2014" from server<STEAM_0:0:158540489>
[12:47:25] BIGnoob: !r
[12:50:20] BIGnoob: !rtv
[12:50:56] Server is shutting down/changing levels.



[12:51:03] New map: surf_reprise_fix
[12:51:22] Client "BIGnoob" spawned in server <STEAM_0:1:150312654> (took 20 seconds).
[12:51:22] Client "Bot33" connected.
[12:51:22] Client "Bot33" spawned in server <BOT> (took 20 seconds).
[12:51:24] Client "Bot34" connected.
[12:51:24] Client "Bot34" spawned in server <BOT> (took 22 seconds).
[12:54:45] Dropped "BIGnoob" from server<STEAM_0:1:150312654>
[12:54:45] Dropped "Bot33" from server<BOT>
[12:54:45] Dropped "Bot34" from server<BOT>
[13:05:34] Client "hkhongkong2014" connected.
[13:05:44] Client "hkhongkong2014" spawned in server <STEAM_0:0:158540489> (took 10 seconds).
[13:05:44] Client "Bot35" connected.
[13:05:44] Client "Bot35" spawned in server <BOT> (took 882 seconds).
[13:05:46] Client "Bot36" connected.
[13:05:46] Client "Bot36" spawned in server <BOT> (took 884 seconds).
[13:06:47] Dropped "hkhongkong2014" from server<STEAM_0:0:158540489>
[13:06:47] Dropped "Bot35" from server<BOT>
[13:06:47] Dropped "Bot36" from server<BOT>
[13:15:36] Client "highschool" connected.
[13:21:39] Server is shutting down/changing levels.



[13:21:46] New map: surf_funhouse_v1
[13:22:48] Client "highschool" spawned in server <STEAM_0:1:196216886> (took 63 seconds).
[13:22:48] Client "Bot37" connected.
[13:22:48] Client "Bot37" spawned in server <BOT> (took 63 seconds).
[13:22:50] Client "Bot38" connected.
[13:22:50] Client "Bot38" spawned in server <BOT> (took 65 seconds).
[13:24:03] Client "Calvin Atlan" connected.
[13:24:43] Client "Calvin Atlan" spawned in server <STEAM_0:0:157190107> (took 40 seconds).
[13:25:11] Dropped "highschool" from server<STEAM_0:1:196216886>
[13:25:22] Client "bela333" connected.
[13:26:23] Client "bela333" spawned in server <STEAM_0:1:59859965> (took 61 seconds).
[13:26:56] Dropped "bela333" from server<STEAM_0:1:59859965>
[13:28:11] Calvin Atlan: !rtv
[13:28:47] Server is shutting down/changing levels.



[13:28:54] New map: surf_rookie
[13:29:30] Client "Calvin Atlan" spawned in server <STEAM_0:0:157190107> (took 37 seconds).
[13:29:30] Client "Bot39" connected.
[13:29:30] Client "Bot39" spawned in server <BOT> (took 37 seconds).
[13:29:32] Client "Bot40" connected.
[13:29:32] Client "Bot40" spawned in server <BOT> (took 39 seconds).
[13:34:07] Client "bela333" connected.
[13:34:45] Client "bela333" spawned in server <STEAM_0:1:59859965> (took 38 seconds).
[13:44:42] Calvin Atlan: §RTV
[13:44:46] Calvin Atlan: !rtv
[13:44:53] bela333: !rtv
[13:45:29] Server is shutting down/changing levels.



[13:45:36] New map: surf_inspire
[13:45:59] Client "bela333" spawned in server <STEAM_0:1:59859965> (took 24 seconds).
[13:45:59] Client "Bot41" connected.
[13:45:59] Client "Bot41" spawned in server <BOT> (took 24 seconds).
[13:46:01] Client "Bot42" connected.
[13:46:01] Client "Bot42" spawned in server <BOT> (took 26 seconds).
[13:46:04] Client "Calvin Atlan" spawned in server <STEAM_0:0:157190107> (took 29 seconds).
[13:49:42] Client "TheMysteriousCarrot" connected.
[13:50:56] Client "TheMysteriousCarrot" spawned in server <STEAM_0:0:81234195> (took 74 seconds).
[13:52:35] Client "Skew" connected.
[13:53:33] (TEAM) TheMysteriousCarrot: !tutorial
[13:54:56] Client "Nobody" connected.
[13:55:37] Dropped "bela333" from server<STEAM_0:1:59859965>
[13:57:14] Client "Skew" spawned in server <STEAM_0:1:89796826> (took 279 seconds).
[14:01:22] Skew: !tutorial
[14:02:08] Client "Nobody" spawned in server <STEAM_0:0:198277184> (took 432 seconds).
[14:02:09] Dropped "TheMysteriousCarrot" from server<STEAM_0:0:81234195>
[14:02:18] Skew: !rules
[14:05:39] Dropped "Nobody" from server<STEAM_0:0:198277184>
[14:06:52] Dropped "Skew" from server<STEAM_0:1:89796826>
[14:12:48] Client "PT | Funstyle7" connected.
[14:12:52] Client "Elite-Pro" connected.
[14:13:48] Client "Elite-Pro" spawned in server <STEAM_0:1:119930731> (took 56 seconds).
[14:14:34] Client "PT | Funstyle7" spawned in server <STEAM_0:0:87994827> (took 106 seconds).
[14:16:13] Server is shutting down/changing levels.



[14:16:19] New map: surf_simpsons_source
[14:16:40] Client "Calvin Atlan" spawned in server <STEAM_0:0:157190107> (took 22 seconds).
[14:16:40] Client "Bot43" connected.
[14:16:40] Client "Bot43" spawned in server <BOT> (took 22 seconds).
[14:16:42] Client "Bot44" connected.
[14:16:42] Client "Bot44" spawned in server <BOT> (took 24 seconds).
[14:16:47] Client "ElSanoj" connected.
[14:16:50] Client "Elite-Pro" spawned in server <STEAM_0:1:119930731> (took 32 seconds).
[14:16:56] Client "PT | Funstyle7" spawned in server <STEAM_0:0:87994827> (took 38 seconds).
[14:18:46] Client "ElSanoj" spawned in server <STEAM_0:1:57847997> (took 119 seconds).
[14:18:49] Calvin Atlan: !rtl
[14:19:15] Calvin Atlan: rtv
[14:19:20] Calvin Atlan: !rtv
[14:19:26] PT | Funstyle7: !rtv
[14:20:19] PT | Funstyle7: !kn ifes
[14:20:20] Client "Skew" connected.
[14:20:22] PT | Funstyle7: !knifes
[14:20:29] Elite-Pro: !knife
[14:20:37] PT | Funstyle7: !knife
[14:20:48] Elite-Pro: !knife
[14:20:49] PT | Funstyle7: !knifes
[14:20:51] Elite-Pro: !knifes
[14:21:00] PT | Funstyle7: !knife
[14:21:20] PT | Funstyle7: !unbox
[14:21:34] Elite-Pro: !unbox
[14:21:35] Calvin Atlan: rtv !!!
[14:21:59] Calvin Atlan: rtv !!!w
[14:22:01] Calvin Atlan: rtv !!!w
[14:22:02] Calvin Atlan: rtv !!!w
[14:22:03] Calvin Atlan: rtv !!!w
[14:22:04] Calvin Atlan: rtv !!!w
[14:22:05] Calvin Atlan: rtv !!!w
[14:22:08] PT | Funstyle7: !shop
[14:22:11] Elite-Pro: !unbox
[14:22:30] PT | Funstyle7: !unbox
[14:22:52] Elite-Pro: !unbox
[14:23:37] PT | Funstyle7: !knife
[14:23:49] PT | Funstyle7: !knife
[14:24:12] PT | Funstyle7: !steam
[14:24:57] Calvin Atlan: rtv !!!wy
[14:25:17] Elite-Pro: !rtv
[14:25:24] Client "Killaura13" connected.
[14:25:39] PT | Funstyle7: !knifies
[14:25:42] PT | Funstyle7: !steam
[14:25:49] Dropped "PT | Funstyle7" from server<STEAM_0:0:87994827>
[14:25:49] Client "PT | Funstyle7" connected.
[14:25:59] Client "PT | Funstyle7" spawned in server <STEAM_0:0:87994827> (took 10 seconds).
[14:26:13] PT | Funstyle7: !knife
[14:27:16] PT | Funstyle7: !rtv
[14:27:24] PT | Funstyle7: !rtv
[14:27:30] Client "Killaura13" spawned in server <STEAM_0:0:192862458> (took 126 seconds).
[14:27:34] Elite-Pro: !rtv
[14:27:37] Calvin Atlan: rtv !!!wyw
[14:28:27] Calvin Atlan: rtv !!!wyw
[14:28:29] Dropped "Elite-Pro" from server<STEAM_0:1:119930731>
[14:28:34] Calvin Atlan: rtv !!!wyw
[14:28:37] Calvin Atlan: rtv !!!wyw
[14:28:37] Calvin Atlan: rtv !!!wyw
[14:28:38] Calvin Atlan: rtv !!!wyw
[14:28:41] Calvin Atlan: rtv !!!wyw
[14:28:48] Dropped "PT | Funstyle7" from server<STEAM_0:0:87994827>
[14:29:01] Calvin Atlan: !rtv
[14:29:30] Client "Skew" connected.
[14:31:01] Client "Skew" connected.
[14:31:51] Calvin Atlan: !rtv
[14:31:57] Calvin Atlan: !rtv
[14:32:00] Calvin Atlan: !rtv
[14:32:00] Calvin Atlan: !rtv
[14:32:01] Calvin Atlan: !rtvy
[14:32:02] Calvin Atlan: !rtvyy
[14:32:12] Calvin Atlan: rtv
[14:32:13] Calvin Atlan: rtv
[14:32:13] Calvin Atlan: rtvy
[14:32:14] Calvin Atlan: rtvy
[14:32:15] Calvin Atlan: rtvy
[14:32:15] Calvin Atlan: rtvyy
[14:32:20] Calvin Atlan: rtv
[14:33:47] Killaura13: !jd
[14:33:53] Killaura13: !jd
[14:35:22] ElSanoj: !r
[14:35:30] ElSanoj: !r
[14:35:52] Client "FlyDream_" connected.
[14:36:05] ElSanoj: !r
[14:36:14] ElSanoj: !r
[14:36:21] ElSanoj: !r
[14:36:28] ElSanoj: !r
[14:36:31] Client "Skew" connected.
[14:36:35] ElSanoj: !r
[14:36:45] ElSanoj: !r
[14:36:53] ElSanoj: !r
[14:37:00] ElSanoj: !r
[14:37:12] ElSanoj: !r
[14:37:17] Dropped "ElSanoj" from server<STEAM_0:1:57847997>
[14:37:57] Calvin Atlan: !rtv
[14:38:05] Calvin Atlan: rtv !!!!
[14:38:56] Calvin Atlan: can you writh !rtv ??!!!!!
[14:39:17] Calvin Atlan: tu peut ecrit !rtv
[14:39:38] Killaura13: !speed 20
[14:39:43] Calvin Atlan: fils de pute v＆a te faire enculer salopard bouge a ecrire ou je te fait ban gros cannard
[14:40:12] Killaura13: !speed 500
[14:40:40] Client "Skew" connected.
[14:40:58] Killaura13: !speed 9999999999999999999999
[14:41:19] Killaura13: 1jb+
[14:41:30] Client "FlyDream_" spawned in server <STEAM_0:1:171667751> (took 338 seconds).
[14:41:55] Calvin Atlan: please writh !rtv killaura
[14:42:18] Calvin Atlan: please writh !rtv killaura
[14:42:18] Calvin Atlan: please writh !rtv killaura
[14:42:19] Calvin Atlan: please writh !rtv killauray
[14:42:20] Calvin Atlan: please writh !rtv killauray
[14:42:21] Calvin Atlan: please writh !rtv killaurayy
[14:42:21] Calvin Atlan: please writh !rtv killaurayyy
[14:42:22] Calvin Atlan: please writh !rtv killaurayyyy
[14:42:23] Calvin Atlan: please writh !rtv killaurayyyyy
[14:42:23] Calvin Atlan: please writh !rtv killaurayyyyyy
[14:42:26] Calvin Atlan: please writh !rtv killaurayyyyyy
[14:42:27] Calvin Atlan: please writh !rtv killaurayyyyyyy
[14:42:28] Calvin Atlan: please writh !rtv killaurayyyyyyyy
[14:42:28] Calvin Atlan: please writh !rtv killaurayyyyyyyyy
[14:42:29] Calvin Atlan: please writh !rtv killaurayyyyyyyyyy
[14:42:31] Calvin Atlan: please writh !rtv killaurayyyyyyyyyy
[14:42:32] Calvin Atlan: please writh !rtv killaurayyyyyyyyyy
[14:42:32] Calvin Atlan: please writh !rtv killaurayyyyyyyyyy
[14:42:33] Calvin Atlan: please writh !rtv killaurayyyyyyyyyyy
[14:42:34] Calvin Atlan: please writh !rtv killaurayyyyyyyyyyy
[14:42:35] Calvin Atlan: please writh !rtv killaurayyyyyyyyyyy
[14:42:36] Calvin Atlan: please writh !rtv killaurayyyyyyyyyyyy
[14:42:36] Calvin Atlan: please writh !rtv killaurayyyyyyyyyyyy
[14:42:37] Calvin Atlan: please writh !rtv killaurayyyyyyyyyyyyy
[14:42:38] Calvin Atlan: please writh !rtv killaurayyyyyyyyyyyyy
[14:42:39] Calvin Atlan: please writh !rtv killaurayyyyyyyyyyyyyy
[14:42:40] Calvin Atlan: please writh !rtv killaurayyyyyyyyyyyyyy
[14:42:40] Calvin Atlan: please writh !rtv killaurayyyyyyyyyyyyyy
[14:42:41] Calvin Atlan: please writh !rtv killaurayyyyyyyyyyyyyy
[14:42:41] Calvin Atlan: please writh !rtv killaurayyyyyyyyyyyyyy
[14:42:42] Calvin Atlan: please writh !rtv killaurayyyyyyyyyyyyyy
[14:42:43] Calvin Atlan: please writh !rtv killaurayyyyyyyyyyyyyy
[14:42:43] Calvin Atlan: please writh !rtv killaurayyyyyyyyyyyyyy
[14:42:44] Calvin Atlan: please writh !rtv killaurayyyyyyyyyyyyyy
[14:42:44] Calvin Atlan: please writh !rtv killaurayyyyyyyyyyyyyy
[14:42:45] Calvin Atlan: please writh !rtv killaurayyyyyyyyyyyyyy
[14:42:45] Calvin Atlan: please writh !rtv killaurayyyyyyyyyyyyyy
[14:42:46] Calvin Atlan: please writh !rtv killaurayyyyyyyyyyyyyy
[14:42:46] Calvin Atlan: please writh !rtv killaurayyyyyyyyyyyyyy
[14:42:47] Calvin Atlan: please writh !rtv killaurayyyyyyyyyyyyyy
[14:42:48] Calvin Atlan: please writh !rtv killaurayyyyyyyyyyyyyyyy
[14:42:49] Calvin Atlan: please writh !rtv killaurayyyyyyyyyyyyyyyyyy
[14:42:50] Calvin Atlan: please writh !rtv killaurayyyyyyyyyyyyyyyyyyy
[14:42:51] Calvin Atlan: please writh !rtv killaurayyyyyyyyyyyyyyyyyyyyy
[14:42:53] Calvin Atlan: please writh !rtv killaurayyyyyyyyyyyyyyyyyyyyyy
[14:42:54] Calvin Atlan: please writh !rtv killaurayyyyyyyyyyyyyyyyyyyyyyyy
[14:42:54] Killaura13: !rtv Calvin Atlan
[14:42:54] Calvin Atlan: y
[14:42:56] Calvin Atlan: yy
[14:42:57] Calvin Atlan: yyyy
[14:43:15] FlyDream_: !r
[14:44:00] Client "Weed Scout" connected.
[14:44:02] Killaura13: shut the fuck up
[14:44:08] FlyDream_: !record
[14:44:10] Calvin Atlan: fuck fou *
[14:44:17] Calvin Atlan: fuck you
[14:45:24] Client "Weed Scout" spawned in server <STEAM_0:0:100410780> (took 84 seconds).
[14:46:32] FlyDream_: 1
[14:46:45] FlyDream_: 1
[14:46:56] Server is shutting down/changing levels.



[14:47:02] New map: surf_milkyway
[14:47:50] Client "Calvin Atlan" spawned in server <STEAM_0:0:157190107> (took 49 seconds).
[14:47:50] Client "Bot45" connected.
[14:47:50] Client "Bot45" spawned in server <BOT> (took 49 seconds).
[14:47:52] Client "Bot46" connected.
[14:47:52] Client "Bot46" spawned in server <BOT> (took 51 seconds).
[14:48:09] Client "CM" connected.
[14:48:14] Client "Weed Scout" spawned in server <STEAM_0:0:100410780> (took 73 seconds).
[14:48:37] Client "Killaura13" spawned in server <STEAM_0:0:192862458> (took 96 seconds).
[14:48:47] Client "CM" spawned in server <STEAM_0:0:63744820> (took 38 seconds).
[14:49:06] CM: Hey everyone
[14:49:26] CM: !rtv
[14:50:15] CM: !nominate surf_ace
[14:50:52] CM: !unbox
[14:51:06] Weed Scout: !unbox
[14:51:33] Client "Dr.Steve( ͡° ͜ʖ ͡°)( ͡°" connected.
[14:51:53] Weed Scout: !unbox
[14:52:22] CM: !unbox
[14:53:02] Weed Scout: !unbox
[14:53:14] Client "bela333" connected.
[14:53:42] Weed Scout: !unbox
[14:53:43] CM: !unbox
[14:54:04] Client "Dr.Steve( ͡° ͜ʖ ͡°)( ͡°" spawned in server <STEAM_0:1:181290730> (took 151 seconds).
[14:54:14] Weed Scout: !unbox
[14:54:15] Dropped "Killaura13" from server<STEAM_0:0:192862458>
[14:55:02] Weed Scout: !unbox
[14:55:29] Weed Scout: !unbox
[14:55:54] CM: !rtv
[14:55:56] Weed Scout: !unbox
[14:56:01] Calvin Atlan: !rtv
[14:56:04] CM: !unbox
[14:56:04] Weed Scout: !rtv
[14:56:11] Weed Scout: !unbox
[14:56:40] Server is shutting down/changing levels.



[14:56:47] New map: surf_ace
[14:56:47] Client "TheMysteriousCarrot" connected.
[14:56:58] Client "CM" spawned in server <STEAM_0:0:63744820> (took 12 seconds).
[14:56:59] Client "Bot47" connected.
[14:56:59] Client "Bot47" spawned in server <BOT> (took 13 seconds).
[14:57:01] Client "Bot48" connected.
[14:57:01] Client "Bot48" spawned in server <BOT> (took 15 seconds).
[14:57:10] Client "Calvin Atlan" spawned in server <STEAM_0:0:157190107> (took 24 seconds).
[14:57:16] Client "Dr.Steve( ͡° ͜ʖ ͡°)( ͡°" spawned in server <STEAM_0:1:181290730> (took 30 seconds).
[14:57:22] Client "Weed Scout" spawned in server <STEAM_0:0:100410780> (took 36 seconds).
[14:57:32] Client "TheMysteriousCarrot" spawned in server <STEAM_0:0:81234195> (took 45 seconds).
[14:57:37] Client "bela333" connected.
[14:57:45] CM: !R
[14:58:05] Client "bela333" spawned in server <STEAM_0:1:59859965> (took 28 seconds).
[14:58:39] Weed Scout: !unbox
[14:58:53] CM: !r
[14:59:57] CM: !R
[15:00:18] TheMysteriousCarrot: !steam
[15:00:22] CM: !R
[15:00:32] Weed Scout: !steam
[15:01:02] CM: !r
[15:01:14] Weed Scout: !unbox
[15:01:29] bela333: !r
[15:01:40] TheMysteriousCarrot: !unbox
[15:01:43] Weed Scout: !unbox
[15:01:50] bela333: !r
[15:02:08] CM: !R
[15:02:29] Weed Scout: !unbox
[15:02:36] CM: !re
[15:02:37] CM: !r
[15:03:04] CM: !R
[15:03:37] CM: !r
[15:04:05] bela333: !r
[15:04:29] Weed Scout: !rtv
[15:04:38] CM: !r
[15:04:57] Dropped "Dr.Steve( ͡° ͜ʖ ͡°)( ͡°" from server<STEAM_0:1:181290730>
[15:05:08] CM: !r
[15:05:17] bela333: !r
[15:05:17] CM: !R
[15:05:27] CM: !r
[15:05:46] bela333: !r
[15:06:09] bela333: !r
[15:06:27] CM: !R
[15:06:59] CM: !r
[15:07:22] bela333: !r
[15:07:25] CM: !R
[15:07:31] TheMysteriousCarrot: can someone help with this level
[15:07:32] bela333: !r
[15:07:53] bela333: !r
[15:07:57] TheMysteriousCarrot: anyone?
[15:08:16] (TEAM) CM: !R
[15:08:19] Calvin Atlan: !rtv
[15:08:21] bela333: !r
[15:08:22] CM: !unbox
[15:08:42] Client "Mr.Frank" connected.
[15:08:42] bela333: !r
[15:09:01] Client "Mr.Frank" spawned in server <STEAM_0:0:113187351> (took 19 seconds).
[15:09:04] bela333: !r
[15:09:23] Weed Scout: !unbox
[15:09:28] bela333: !r
[15:09:51] Mr.Frank: !r
[15:09:58] Mr.Frank: !r
[15:10:07] CM: !unbox
[15:10:17] bela333: !r
[15:10:35] bela333: !r
[15:10:45] Client "FeuerFaust1997" connected.
[15:10:57] Mr.Frank: !r
[15:11:05] Client "FeuerFaust1997" spawned in server <STEAM_0:0:58872080> (took 20 seconds).
[15:11:10] bela333: !r
[15:11:15] Weed Scout: !unbox
[15:11:22] Mr.Frank: !r
[15:11:36] bela333: !r
[15:11:51] bela333: !r
[15:11:53] Weed Scout: !unbox
[15:11:58] bela333: !r
[15:12:04] CM: !r
[15:12:13] FeuerFaust1997: !rtv
[15:12:18] bela333: !r
[15:12:18] Weed Scout: !rtv
[15:12:21] FeuerFaust1997: .!rtv
[15:12:23] Weed Scout: !unbox
[15:12:37] FeuerFaust1997: !tutorial
[15:12:43] CM: !R
[15:12:44] bela333: !r
[15:12:45] FeuerFaust1997: !r
[15:13:26] Mr.Frank: !r
[15:13:30] bela333: !r
[15:13:38] FeuerFaust1997: !r
[15:13:46] CM: !r
[15:13:48] FeuerFaust1997: !r
[15:13:48] bela333: !r
[15:13:48] Calvin Atlan: !rtv
[15:13:51] Mr.Frank: !r
[15:14:00] Mr.Frank: !r
[15:14:08] Weed Scout: !restart
[15:14:10] bela333: !r
[15:14:11] CM: !R
[15:14:22] FeuerFaust1997: !r
[15:14:23] Mr.Frank: !r
[15:14:39] Mr.Frank: !r
[15:14:49] bela333: !r
[15:14:51] Dropped "Mr.Frank" from server<STEAM_0:0:113187351>
[15:14:52] Weed Scout: !restart
[15:15:12] FeuerFaust1997: !r
[15:15:24] bela333: !r
[15:15:27] Weed Scout: !restart
[15:15:46] Weed Scout: !restart
[15:15:50] FeuerFaust1997: !r
[15:16:03] bela333: !r
[15:16:14] Weed Scout: !restart
[15:16:17] Weed Scout: !unbox
[15:16:24] FeuerFaust1997: !r
[15:16:55] FeuerFaust1997: !r
[15:16:59] FeuerFaust1997: !unbox
[15:17:05] bela333: !r
[15:17:11] bela333: !r
[15:17:24] Weed Scout: !restart
[15:17:31] bela333: !r
[15:17:40] Weed Scout: !restart
[15:17:51] bela333: !r
[15:17:53] Weed Scout: !restart
[15:17:56] Weed Scout: !unbox
[15:18:13] bela333: !r
[15:18:32] Calvin Atlan: !rtv
[15:18:40] Calvin Atlan: rtv
[15:18:44] FeuerFaust1997: !r
[15:18:56] FeuerFaust1997: !r
[15:18:57] bela333: !r
[15:19:01] Weed Scout: i already rtv
[15:19:05] Calvin Atlan: yes
[15:19:19] FeuerFaust1997: !r
[15:19:28] bela333: !r
[15:19:33] Weed Scout: !restart
[15:19:40] Calvin Atlan: let's go rtv
[15:19:45] FeuerFaust1997: !rtv
[15:19:48] FeuerFaust1997: !r
[15:19:57] bela333: !r
[15:20:07] Weed Scout: !restart
[15:20:19] FeuerFaust1997: !r
[15:20:20] Weed Scout: !restart
[15:20:30] bela333: !r
[15:20:34] Weed Scout: !restart
[15:20:50] Weed Scout: !restart
[15:20:56] Calvin Atlan: let's go rtv
[15:21:06] Weed Scout: !restart
[15:21:31] bela333: !r
[15:21:32] Weed Scout: !restart
[15:21:47] Dropped "CM" from server<STEAM_0:0:63744820>
[15:21:49] Weed Scout: !restart
[15:21:50] bela333: !r
[15:21:56] FeuerFaust1997: !r
[15:22:15] Weed Scout: !restart
[15:22:25] FeuerFaust1997: !r
[15:22:29] bela333: !r
[15:22:47] Dropped "Weed Scout" from server<STEAM_0:0:100410780>
[15:22:50] FeuerFaust1997: !r
[15:23:06] bela333: !r
[15:23:30] FeuerFaust1997: !knife
[15:23:44] Calvin Atlan: RTV PLEASE
[15:23:55] bela333: !r
[15:23:56] Calvin Atlan: yes
[15:23:58] Calvin Atlan: !rtv
[15:24:03] TheMysteriousCarrot: !knive
[15:24:07] TheMysteriousCarrot: !knife
[15:24:24] TheMysteriousCarrot: !invontory
[15:24:34] TheMysteriousCarrot: !knifes
[15:24:37] bela333: !r
[15:24:38] Client "Skew" connected.
[15:24:39] TheMysteriousCarrot: !unbox
[15:24:48] TheMysteriousCarrot: !knifes
[15:25:35] Client "Skew" spawned in server <STEAM_0:1:89796826> (took 57 seconds).
[15:25:45] TheMysteriousCarrot: !inentory
[15:25:49] Client "Kriks999@twitch.tv" connected.
[15:26:01] bela333: !r
[15:26:31] bela333: !r
[15:27:06] bela333: !r
[15:27:15] bela333: !r
[15:27:23] Server is shutting down/changing levels.



[15:27:30] New map: surf_beginner_hell
[15:27:37] Client "bela333" connected.
[15:27:43] Client "CM" connected.
[15:27:47] Client "FeuerFaust1997" spawned in server <STEAM_0:0:58872080> (took 18 seconds).
[15:27:47] Client "Bot49" connected.
[15:27:47] Client "Bot49" spawned in server <BOT> (took 18 seconds).
[15:27:48] Client "TheMysteriousCarrot" spawned in server <STEAM_0:0:81234195> (took 19 seconds).
[15:27:49] Client "Bot50" connected.
[15:27:49] Client "Bot50" spawned in server <BOT> (took 20 seconds).
[15:27:58] Client "Calvin Atlan" spawned in server <STEAM_0:0:157190107> (took 29 seconds).
[15:28:06] Client "bela333" spawned in server <STEAM_0:1:59859965> (took 29 seconds).
[15:28:07] FeuerFaust1997: !knife
[15:28:12] (TEAM) TheMysteriousCarrot: !knife
[15:28:23] Client "Kriks999@twitch.tv" spawned in server <STEAM_0:1:163333730> (took 54 seconds).
[15:28:24] Client "Skew" spawned in server <STEAM_0:1:89796826> (took 55 seconds).
[15:29:03] FeuerFaust1997: !rtv
[15:29:10] FeuerFaust1997: !s
[15:29:13] FeuerFaust1997: !s 1
[15:29:16] FeuerFaust1997: !s 2
[15:29:16] Client "CM" spawned in server <STEAM_0:0:63744820> (took 93 seconds).
[15:29:21] Client "Ov3rRe0 hellcase.com" connected.
[15:29:54] Client "Jdog" connected.
[15:29:59] CM: !rtv
[15:30:35] FeuerFaust1997: wtf
[15:30:39] Dropped "Kriks999@twitch.tv" from server<STEAM_0:1:163333730>
[15:30:43] Client "Jdog" spawned in server <STEAM_0:0:79635702> (took 49 seconds).
[15:31:00] CM: !rtv
[15:31:05] CM: !unbox
[15:31:06] Dropped "FeuerFaust1997" from server<STEAM_0:0:58872080>
[15:31:11] Dropped "Jdog" from server<STEAM_0:0:79635702>
[15:31:29] Calvin Atlan: !rtv
[15:31:46] Client "Ov3rRe0 hellcase.com" spawned in server <STEAM_0:1:125168773> (took 145 seconds).
[15:32:15] CM: !unbox
[15:32:25] bela333: !r
[15:32:31] Client "MoonCat" connected.
[15:32:56] Dropped "TheMysteriousCarrot" from server<STEAM_0:0:81234195>
[15:33:11] Calvin Atlan: !rtv
[15:33:21] Client "MoonCat" spawned in server <STEAM_0:0:81864841> (took 50 seconds).
[15:33:30] Dropped "Skew" from server<STEAM_0:1:89796826>
[15:33:35] Calvin Atlan: rtv please
[15:34:11] Ov3rRe0 hellcase.com: !rtv
[15:34:22] MoonCat: rtv is for scrubs
[15:34:35] Dropped "Ov3rRe0 hellcase.com" from server<STEAM_0:1:125168773>
[15:35:03] Calvin Atlan: rtv please
[15:35:08] CM: !rtv
[15:35:13] MoonCat: finish the map first
[15:35:19] bela333: It's better to die as a scrub than to die in lava 2 million times
[15:35:22] bela333: !rtv
[15:35:27] MoonCat: yall puss :P
[15:35:34] MoonCat: vote 3
[15:35:57] MoonCat: fuck
[15:35:58] Server is shutting down/changing levels.



[15:36:05] New map: surf_kitsune
[15:36:14] Client "CM" spawned in server <STEAM_0:0:63744820> (took 11 seconds).
[15:36:14] Client "Bot51" connected.
[15:36:14] Client "Bot51" spawned in server <BOT> (took 11 seconds).
[15:36:14] Client "MoonCat" spawned in server <STEAM_0:0:81864841> (took 11 seconds).
[15:36:16] Client "Bot52" connected.
[15:36:16] Client "Bot52" spawned in server <BOT> (took 13 seconds).
[15:36:19] Client "Calvin Atlan" spawned in server <STEAM_0:0:157190107> (took 16 seconds).
[15:36:23] MoonCat: !rtv
[15:36:24] Client "bela333" spawned in server <STEAM_0:1:59859965> (took 21 seconds).
[15:36:53] MoonCat: !r
[15:37:06] bela333: !r
[15:38:00] bela333: !r
[15:38:02] bela333: !r
[15:38:11] bela333: !r
[15:38:24] MoonCat: !r
[15:38:28] MoonCat: ugh this map is so boring
[15:38:30] MoonCat: !nominate
[15:38:49] bela333: !r
[15:38:52] Calvin Atlan: !rtv
[15:39:12] MoonCat: !r
[15:39:19] MoonCat: !r
[15:39:42] MoonCat: !r
[15:39:55] CM: !unbox
[15:40:28] MoonCat: !r
[15:40:55] MoonCat: anyone want credits?
[15:41:09] CM: i do 
[15:41:18] MoonCat: there
[15:41:44] CM: thanks
[15:42:10] bela333: !r
[15:42:39] CM: !R
[15:42:46] MoonCat: i think knives disturb surfing so much
[15:43:18] Dropped "MoonCat" from server<STEAM_0:0:81864841>
[15:43:26] Calvin Atlan: !rtv
[15:43:39] Calvin Atlan: rtv please
[15:43:47] CM: !r
[15:44:09] bela333: !r
[15:44:15] CM: !R
[15:44:22] bela333: !r
[15:44:25] CM: !R
[15:44:27] CM: !rtv
[15:44:34] Dropped "bela333" from server<STEAM_0:1:59859965>
[15:44:53] CM: !r
[15:45:03] Server is shutting down/changing levels.



[15:45:10] New map: surf_lt_omnific_fix
[15:46:07] Client "Calvin Atlan" spawned in server <STEAM_0:0:157190107> (took 58 seconds).
[15:46:07] Client "Bot53" connected.
[15:46:07] Client "Bot53" spawned in server <BOT> (took 58 seconds).
[15:46:09] Client "Bot54" connected.
[15:46:09] Client "Bot54" spawned in server <BOT> (took 60 seconds).
[15:47:12] Client "stars" connected.
[15:47:12] Client "pernilla.ihse" connected.
[15:47:20] Calvin Atlan: !rtv
[15:47:54] Client "pernilla.ihse" spawned in server <STEAM_0:1:188234364> (took 42 seconds).
[15:47:57] Calvin Atlan: !rtv
[15:48:17] Client "perunavirallinen" connected.
[15:48:40] Calvin Atlan: !rtv
[15:49:13] Calvin Atlan: !rtv
[15:49:16] Calvin Atlan: !rtv
[15:49:17] Calvin Atlan: !rtv
[15:49:18] Calvin Atlan: !rtv
[15:49:29] Client "perunavirallinen" spawned in server <STEAM_0:0:112025209> (took 72 seconds).
[15:49:36] Calvin Atlan: !rtv
[15:49:44] Client "stars" spawned in server <STEAM_0:0:49910401> (took 152 seconds).
[15:49:48] Calvin Atlan: !rtv
[15:50:09] Calvin Atlan: please !rtv 
[15:50:11] Calvin Atlan: !rtv
[15:50:22] Calvin Atlan: please !rtv 
[15:52:14] Dropped "perunavirallinen" from server<STEAM_0:0:112025209>
[15:52:17] Calvin Atlan: please !rtv 
[15:52:19] Calvin Atlan: please !rtv 
[15:52:22] stars: Hi
[15:52:40] Calvin Atlan: hi rtv please
[15:52:44] Calvin Atlan: hi rtv please
[15:53:04] stars: Why?
[15:53:46] Dropped "pernilla.ihse" from server<STEAM_0:1:188234364>
[15:54:15] stars: !rtv
[15:54:24] Calvin Atlan: 3
[15:54:25] Calvin Atlan: 3
[15:54:51] Server is shutting down/changing levels.



[15:54:58] New map: surf_beginner
[15:55:20] Client "Calvin Atlan" spawned in server <STEAM_0:0:157190107> (took 24 seconds).
[15:55:20] Client "Bot55" connected.
[15:55:20] Client "Bot55" spawned in server <BOT> (took 24 seconds).
[15:55:22] Client "Bot56" connected.
[15:55:22] Client "Bot56" spawned in server <BOT> (took 26 seconds).
[15:55:23] Client "stars" spawned in server <STEAM_0:0:49910401> (took 27 seconds).
[15:56:53] stars: Fuck
[15:57:05] Calvin Atlan: fuck 
[16:00:12] stars: Fuck
[16:00:27] Calvin Atlan: FUCK mother fucker
[16:00:29] stars: I see end
[16:00:43] Calvin Atlan: !rtv
[16:00:59] stars: No
[16:01:10] stars: No
[16:01:20] stars: net
[16:02:06] (TEAM) stars: Я русский
[16:03:05] stars: No
[16:03:18] stars: You boy
[16:03:28] stars: No boy
[16:03:38] stars: Boy
[16:03:44] stars: boy
[16:03:52] stars: Fuck you
[16:03:58] stars: Yes
[16:04:04] stars: Yes
[16:04:32] stars: You chiken
[16:04:43] stars: Yea
[16:04:50] stars: Yes
[16:05:13] stars: Fuck you
[16:05:19] stars: No
[16:05:39] stars: Nothing
[16:06:17] stars: Okay
[16:06:19] stars: !rtv
[16:06:49] stars: You monkey
[16:06:55] Server is shutting down/changing levels.



[16:07:02] New map: surf_waterworks
[16:07:18] Client "Calvin Atlan" spawned in server <STEAM_0:0:157190107> (took 17 seconds).
[16:07:18] Client "Bot57" connected.
[16:07:18] Client "Bot57" spawned in server <BOT> (took 17 seconds).
[16:07:20] Client "Bot58" connected.
[16:07:20] Client "Bot58" spawned in server <BOT> (took 19 seconds).
[16:07:41] Client "stars" spawned in server <STEAM_0:0:49910401> (took 40 seconds).
[16:07:52] Client "Rare" connected.
[16:08:02] stars: You monkey
[16:08:11] stars: I,m wolf
[16:09:23] stars: Shut up chiken
[16:10:33] stars: You monkey
[16:10:38] stars: Go spawn
[16:11:37] stars: Fuck
[16:11:38] Calvin Atlan: !rtv
[16:14:50] stars: Aaaaaa
[16:14:54] stars: Shut up 
[16:14:57] stars: Fuck
[16:15:46] stars: Do tou speak russia?
[16:15:51] stars: You*
[16:16:06] stars: You stupid
[16:16:16] stars: No
[16:16:23] stars: You stupid
[16:16:27] stars: Yea
[16:16:37] Calvin Atlan: !rtv
[16:16:58] stars: No
[16:17:55] Calvin Atlan: !rtv
[16:18:03] Calvin Atlan: !rtv
[16:18:24] stars: I,m superstar
[16:18:33] Client "KameNRV" connected.
[16:18:42] Client "^^^OvErDooZz^^^" connected.
[16:18:42] stars: !bot
[16:18:57] Client "DarkSambrio" connected.
[16:18:58] stars: !shop
[16:19:15] Client "^^^OvErDooZz^^^" connected.
[16:19:47] Client "KameNRV" spawned in server <STEAM_0:0:209528802> (took 74 seconds).
[16:20:25] stars: !rtv
[16:20:48] stars: !shop
[16:21:00] Client "^^^OvErDooZz^^^" spawned in server <STEAM_0:1:88085665> (took 105 seconds).
[16:21:01] Server is shutting down/changing levels.



[16:21:08] New map: surf_utopia_njv
[16:21:23] Client "Calvin Atlan" spawned in server <STEAM_0:0:157190107> (took 16 seconds).
[16:21:23] Client "Bot59" connected.
[16:21:23] Client "Bot59" spawned in server <BOT> (took 16 seconds).
[16:21:25] Client "Bot60" connected.
[16:21:25] Client "Bot60" spawned in server <BOT> (took 18 seconds).
[16:21:30] Client "KameNRV" spawned in server <STEAM_0:0:209528802> (took 23 seconds).
[16:21:43] Client "stars" spawned in server <STEAM_0:0:49910401> (took 36 seconds).
[16:21:51] Client "^^^OvErDooZz^^^" spawned in server <STEAM_0:1:88085665> (took 44 seconds).
[16:22:12] Client "DarkSambrio" spawned in server <STEAM_0:0:143734513> (took 65 seconds).
[16:23:14] Client "Ruxe" connected.
[16:23:47] Client "Ruxe" spawned in server <STEAM_0:0:59484527> (took 33 seconds).
[16:24:04] Dropped "Ruxe" from server<STEAM_0:0:59484527>
[16:24:55] stars: Где русские блэт?
[16:27:23] KameNRV: §RTV
[16:27:26] KameNRV: !rtv
[16:27:31] Client "Arson" connected.
[16:27:51] ^^^OvErDooZz^^^: !rtv
[16:27:59] DarkSambrio: !rtv
[16:28:00] Client "fiigu007" connected.
[16:28:05] stars: Ahahahah
[16:28:11] stars: Last rtv
[16:28:15] Client "Midget" connected.
[16:28:34] Client "CreepyPic" connected.
[16:29:08] stars: !rtv
[16:29:31] Client "CreepyPic" spawned in server <STEAM_0:1:67100142> (took 57 seconds).
[16:29:41] Client "fiigu007" spawned in server <STEAM_0:1:216104668> (took 101 seconds).
[16:29:44] Server is shutting down/changing levels.



[16:29:50] New map: surf_funhouse_v1
[16:30:06] Client "Calvin Atlan" spawned in server <STEAM_0:0:157190107> (took 17 seconds).
[16:30:06] Client "Bot61" connected.
[16:30:06] Client "Bot61" spawned in server <BOT> (took 17 seconds).
[16:30:06] Client "fiigu007" spawned in server <STEAM_0:1:216104668> (took 17 seconds).
[16:30:07] Client "KameNRV" spawned in server <STEAM_0:0:209528802> (took 18 seconds).
[16:30:08] Client "stars" spawned in server <STEAM_0:0:49910401> (took 19 seconds).
[16:30:08] Client "Bot62" connected.
[16:30:08] Client "Bot62" spawned in server <BOT> (took 19 seconds).
[16:30:12] Client "CreepyPic" spawned in server <STEAM_0:1:67100142> (took 23 seconds).
[16:30:25] Client "^^^OvErDooZz^^^" spawned in server <STEAM_0:1:88085665> (took 36 seconds).
[16:30:27] Client "DarkSambrio" spawned in server <STEAM_0:0:143734513> (took 38 seconds).
[16:30:58] Client "Midget" spawned in server <STEAM_0:1:106958253> (took 69 seconds).
[16:31:02] CreepyPic: how could i get rid o errors ?
[16:31:35] CreepyPic: how can i get rid of missing textures and errors?
[16:32:08] Dropped "CreepyPic" from server<STEAM_0:1:67100142>
[16:32:47] Dropped "Midget" from server<STEAM_0:1:106958253>
[16:34:29] Client "Arson" spawned in server <STEAM_0:1:189169944> (took 280 seconds).
[16:34:37] Dropped "fiigu007" from server<STEAM_0:1:216104668>
[16:36:05] Dropped "Arson" from server<STEAM_0:1:189169944>
[16:37:56] Client "O.V.E.R.T.A.K.E.R" connected.
[16:38:21] KameNRV: !rtv
[16:38:21] ^^^OvErDooZz^^^: !rtv
[16:38:21] DarkSambrio: !rtv
[16:40:01] Client "O.V.E.R.T.A.K.E.R" spawned in server <STEAM_0:0:97696495> (took 125 seconds).
[16:42:40] stars: !rtv
[16:42:42] Calvin Atlan: !rtv
[16:43:16] Server is shutting down/changing levels.



[16:43:23] New map: surf_classics
[16:43:41] Client "Calvin Atlan" spawned in server <STEAM_0:0:157190107> (took 19 seconds).
[16:43:41] Client "Bot63" connected.
[16:43:41] Client "Bot63" spawned in server <BOT> (took 19 seconds).
[16:43:41] Client "KameNRV" spawned in server <STEAM_0:0:209528802> (took 19 seconds).
[16:43:43] Client "Bot64" connected.
[16:43:43] Client "Bot64" spawned in server <BOT> (took 21 seconds).
[16:43:49] Client "DarkSambrio" spawned in server <STEAM_0:0:143734513> (took 27 seconds).
[16:43:53] Client "^^^OvErDooZz^^^" spawned in server <STEAM_0:1:88085665> (took 31 seconds).
[16:43:56] Client "yassinmarwan" connected.
[16:44:08] Client "stars" spawned in server <STEAM_0:0:49910401> (took 46 seconds).
[16:44:15] Client "O.V.E.R.T.A.K.E.R" spawned in server <STEAM_0:0:97696495> (took 53 seconds).
[16:46:09] Client "yassinmarwan" spawned in server <STEAM_0:0:67134049> (took 133 seconds).
[16:48:32] (TEAM) yassinmarwan: !shop
[16:52:46] Client "FX | Zombiez ✔" connected.
[16:53:11] Client "FX | Zombiez ✔" spawned in server <STEAM_0:1:78129233> (took 25 seconds).
[16:53:37] Dropped "O.V.E.R.T.A.K.E.R" from server<STEAM_0:0:97696495>
[16:53:43] (TEAM) yassinmarwan: !shop
[16:54:14] FX | Zombiez ✔: Hi
[16:54:24] stars: Hi
[16:55:03] Dropped "yassinmarwan" from server<STEAM_0:0:67134049>
[16:55:04] Dropped "FX | Zombiez ✔" from server<STEAM_0:1:78129233>
[17:01:10] Dropped "Calvin Atlan" from server<STEAM_0:0:157190107>
[17:01:31] Client "ZeroEmpathy" connected.
[17:02:04] Dropped "stars" from server<STEAM_0:0:49910401>
[17:02:10] Client "ZeroEmpathy" spawned in server <STEAM_0:0:31524723> (took 39 seconds).
[17:02:59] ZeroEmpathy: !b
[17:12:01] Client "VeX TriLLogY" connected.
[17:13:48] Client "VeX TriLLogY" spawned in server <STEAM_0:0:103791656> (took 107 seconds).
[17:13:59] Server is shutting down/changing levels.



[17:14:07] New map: surf_happyhands
[17:14:22] Client "ZeroEmpathy" spawned in server <STEAM_0:0:31524723> (took 17 seconds).
[17:14:22] Client "Bot65" connected.
[17:14:22] Client "Bot65" spawned in server <BOT> (took 17 seconds).
[17:14:24] Client "Bot66" connected.
[17:14:24] Client "Bot66" spawned in server <BOT> (took 19 seconds).
[17:14:29] Client "VeX TriLLogY" spawned in server <STEAM_0:0:103791656> (took 24 seconds).
[17:15:14] Client "KameNRV" spawned in server <STEAM_0:0:209528802> (took 69 seconds).
[17:15:15] Client "DarkSambrio" spawned in server <STEAM_0:0:143734513> (took 70 seconds).
[17:15:55] Client "^^^OvErDooZz^^^" spawned in server <STEAM_0:1:88085665> (took 110 seconds).
[17:20:03] Dropped "VeX TriLLogY" from server<STEAM_0:0:103791656>
[17:27:00] KameNRV: !rtv
[17:27:07] Dropped "ZeroEmpathy" from server<STEAM_0:0:31524723>
[17:27:09] DarkSambrio: !rtv
[17:27:45] Server is shutting down/changing levels.



[17:27:52] New map: surf_waterworks
[17:28:12] Client "DarkSambrio" spawned in server <STEAM_0:0:143734513> (took 21 seconds).
[17:28:12] Client "Bot67" connected.
[17:28:12] Client "Bot67" spawned in server <BOT> (took 21 seconds).
[17:28:14] Client "Bot68" connected.
[17:28:14] Client "Bot68" spawned in server <BOT> (took 23 seconds).
[17:28:16] Client "^^^OvErDooZz^^^" spawned in server <STEAM_0:1:88085665> (took 25 seconds).
[17:28:18] Client "KameNRV" spawned in server <STEAM_0:0:209528802> (took 27 seconds).
[17:36:40] Client "vabdul" connected.
[17:50:03] DarkSambrio: !rtv
[17:51:44] KameNRV: !rtv
[17:51:54] Dropped "DarkSambrio" from server<STEAM_0:0:143734513>
[17:52:20] Server is shutting down/changing levels.



[17:52:27] New map: surf_advanced
[17:52:32] Client "Beubeul" connected.
[17:52:49] Client "KameNRV" spawned in server <STEAM_0:0:209528802> (took 23 seconds).
[17:52:49] Client "Bot69" connected.
[17:52:49] Client "Bot69" spawned in server <BOT> (took 23 seconds).
[17:52:51] Client "Bot70" connected.
[17:52:51] Client "Bot70" spawned in server <BOT> (took 25 seconds).
[17:53:22] Client "Beubeul" spawned in server <STEAM_0:0:172715096> (took 50 seconds).
[17:54:33] Client "Midget" connected.
[17:54:37] Dropped "KameNRV" from server<STEAM_0:0:209528802>
[17:56:06] Client "BIGnoob" connected.
[17:56:35] Client "Midget" spawned in server <STEAM_0:1:106958253> (took 122 seconds).
[17:57:07] Client "BIGnoob" spawned in server <STEAM_0:1:150312654> (took 61 seconds).
[17:57:35] Dropped "Midget" from server<STEAM_0:1:106958253>
[17:58:09] (TEAM) Beubeul: ON FAIT COMMENT !!!
[17:58:11] BIGnoob: !rtv
[17:59:19] Dropped "Beubeul" from server<STEAM_0:0:172715096>
[17:59:48] Dropped "BIGnoob" from server<STEAM_0:1:150312654>
[17:59:48] Dropped "Bot69" from server<BOT>
[17:59:48] Dropped "Bot70" from server<BOT>
[17:59:52] Client "BIGnoob" connected.
[17:59:55] Server is shutting down/changing levels.



[18:00:02] New map: surf_ace
[18:00:26] Client "BIGnoob" spawned in server <STEAM_0:1:150312654> (took 26 seconds).
[18:00:26] Client "Bot71" connected.
[18:00:26] Client "Bot71" spawned in server <BOT> (took 26 seconds).
[18:00:28] Client "Bot72" connected.
[18:00:28] Client "Bot72" spawned in server <BOT> (took 28 seconds).
[18:01:06] BIGnoob: !r
[18:03:20] BIGnoob: !r
[18:03:41] BIGnoob: !r
[18:04:16] BIGnoob: !r
[18:05:03] BIGnoob: !r
[18:05:49] BIGnoob: !r
[18:06:03] BIGnoob: !r
[18:06:21] BIGnoob: !r
[18:06:45] BIGnoob: !r
[18:07:39] Dropped "BIGnoob" from server<STEAM_0:1:150312654>
[18:07:39] Dropped "Bot71" from server<BOT>
[18:07:39] Dropped "Bot72" from server<BOT>
[18:07:40] Client "BIGnoob" connected.
[18:08:06] Client "BIGnoob" spawned in server <STEAM_0:1:150312654> (took 26 seconds).
[18:08:06] Client "Bot73" connected.
[18:08:06] Client "Bot73" spawned in server <BOT> (took 486 seconds).
[18:08:06] Dropped "BIGnoob" from server<STEAM_0:1:150312654>
[18:08:06] Dropped "Bot73" from server<BOT>
[18:08:07] Client "Bot74" connected.
[18:08:07] Client "Bot74" spawned in server <BOT> (took 487 seconds).
[18:08:08] Client "Bot75" connected.
[18:08:08] Client "Bot75" spawned in server <BOT> (took 488 seconds).
[18:27:36] Client "Skew" connected.
[18:29:26] Client "Skew" spawned in server <STEAM_0:1:89796826> (took 110 seconds).
[18:30:38] Server is shutting down/changing levels.



[18:30:45] New map: surf_dusk
[18:32:03] Client "Skew" spawned in server <STEAM_0:1:89796826> (took 79 seconds).
[18:32:03] Client "Bot76" connected.
[18:32:03] Client "Bot76" spawned in server <BOT> (took 79 seconds).
[18:32:05] Client "Bot77" connected.
[18:32:05] Client "Bot77" spawned in server <BOT> (took 81 seconds).
[18:34:17] Skew: !unbox
[18:34:29] Skew: !steam
[18:35:32] Skew: !unbox
[18:36:13] Client "Пацанчик" connected.
[18:37:29] Client "Пацанчик" spawned in server <STEAM_0:0:144735802> (took 76 seconds).
[18:38:41] Skew: !tutorial
[18:41:00] Пацанчик: !unbox
[18:42:28] Пацанчик: !rtv
[18:42:46] Skew: !menu
[18:42:54] Skew voted for surf_beginner (1/3)
[18:43:13] Пацанчик: !rtv
[18:43:29] Пацанчик: !rtv
[18:43:59] Пацанчик: !unbox
[18:50:01] Пацанчик: !unbox
[18:51:21] Skew: !tutorial
[18:53:42] Пацанчик: /unbox
[18:55:22] Dropped "Skew" from server<STEAM_0:1:89796826>
[18:55:40] Пацанчик: /unbox
[18:55:58] Server is shutting down/changing levels.



[18:56:06] New map: surf_classics2
[18:56:45] Client "Пацанчик" spawned in server <STEAM_0:0:144735802> (took 41 seconds).
[18:56:45] Client "Bot78" connected.
[18:56:45] Client "Bot78" spawned in server <BOT> (took 41 seconds).
[18:56:47] Client "Bot79" connected.
[18:56:47] Client "Bot79" spawned in server <BOT> (took 43 seconds).
[18:57:46] Пацанчик: !unbox
[19:00:55] Пацанчик: !rtv
[19:01:07] Пацанчик: !rtv
[19:01:12] Пацанчик: !rtv
[19:01:18] Пацанчик: /knives
[19:01:32] Пацанчик: /unbox
[19:01:43] Server is shutting down/changing levels.



[19:01:50] New map: surf_ace
[19:01:59] Client "Пацанчик" spawned in server <STEAM_0:0:144735802> (took 10 seconds).
[19:01:59] Client "Bot80" connected.
[19:01:59] Client "Bot80" spawned in server <BOT> (took 10 seconds).
[19:02:01] Client "Bot81" connected.
[19:02:01] Client "Bot81" spawned in server <BOT> (took 12 seconds).
[19:02:12] Пацанчик: /unbox
[19:02:20] Client "Snuffles" connected.
[19:03:50] Пацанчик: /unbox
[19:03:59] (TEAM) Пацанчик: /unbox
[19:05:18] Dropped "Пацанчик" from server<STEAM_0:0:144735802>
[19:06:50] Dropped "Bot80" from server<BOT>
[19:06:50] Dropped "Bot81" from server<BOT>
[19:15:58] Client "L3g1t Lama" connected.
[19:26:17] Client "sammyTJ" connected.
[19:32:26] Server is shutting down/changing levels.



[19:32:33] New map: surf_simpsons_source
[19:47:15] Client "ZeroEmpathy" connected.
[19:48:17] Client "ZeroEmpathy" spawned in server <STEAM_0:0:31524723> (took 62 seconds).
[19:48:17] Client "Bot82" connected.
[19:48:17] Client "Bot82" spawned in server <BOT> (took 945 seconds).
[19:48:19] Client "Bot83" connected.
[19:48:19] Client "Bot83" spawned in server <BOT> (took 947 seconds).
[19:51:13] Client "Simple" connected.
[19:51:56] Dropped "ZeroEmpathy" from server<STEAM_0:0:31524723>
[19:57:26] Dropped "Bot82" from server<BOT>
[19:57:26] Dropped "Bot83" from server<BOT>
[20:02:43] Client "DarkSambrio" connected.
[20:02:49] Client "^^^OvErDooZz^^^" connected.
[20:03:09] Server is shutting down/changing levels.



[20:03:16] New map: surf_kitsune
[20:03:27] Client "KameNRV" connected.
[20:03:50] Client "^^^OvErDooZz^^^" spawned in server <STEAM_0:1:88085665> (took 36 seconds).
[20:03:50] Client "Bot84" connected.
[20:03:50] Client "Bot84" spawned in server <BOT> (took 36 seconds).
[20:03:52] Client "Bot85" connected.
[20:03:52] Client "Bot85" spawned in server <BOT> (took 38 seconds).
[20:04:05] Client "KameNRV" spawned in server <STEAM_0:0:209528802> (took 38 seconds).
[20:04:10] Client "DarkSambrio" spawned in server <STEAM_0:0:143734513> (took 56 seconds).
[20:08:06] Dropped "^^^OvErDooZz^^^" from server<STEAM_0:1:88085665>
[20:08:07] Client "^^^OvErDooZz^^^" connected.
[20:08:35] Client "^^^OvErDooZz^^^" spawned in server <STEAM_0:1:88085665> (took 28 seconds).
[20:09:57] Client "KermiT" connected.
[20:11:14] Client "Adabrzo HELLCASE.COM" connected.
[20:11:21] DarkSambrio: !rtv
[20:11:22] KameNRV: !rtv
[20:11:26] ^^^OvErDooZz^^^: !rtv
[20:11:55] Dropped "^^^OvErDooZz^^^" from server<STEAM_0:1:88085665>
[20:11:58] Server is shutting down/changing levels.



[20:12:05] New map: surf_lt_omnific_fix
[20:12:32] Client "^^^OvErDooZz^^^" connected.
[20:13:01] Client "KameNRV" spawned in server <STEAM_0:0:209528802> (took 57 seconds).
[20:13:01] Client "Bot86" connected.
[20:13:01] Client "Bot86" spawned in server <BOT> (took 57 seconds).
[20:13:03] Client "Bot87" connected.
[20:13:03] Client "Bot87" spawned in server <BOT> (took 59 seconds).
[20:14:13] Client "Bogonacsac" connected.
[20:14:52] Client "DarkSambrio" spawned in server <STEAM_0:0:143734513> (took 168 seconds).
[20:15:00] Client "Bogonacsac" spawned in server <STEAM_0:0:145038061> (took 47 seconds).
[20:15:16] Client "^^^OvErDooZz^^^" spawned in server <STEAM_0:1:88085665> (took 164 seconds).
[20:17:29] Client "KermiT" spawned in server <STEAM_0:1:88198098> (took 325 seconds).
[20:18:24] KermiT: !Jb
[20:19:25] Client "Minouuka" connected.
[20:20:13] Bogonacsac: !tutorial
[20:20:16] KermiT: !ws
[20:20:25] DarkSambrio: !rtv
[20:23:54] Dropped "Bogonacsac" from server<STEAM_0:0:145038061>
[20:24:01] ^^^OvErDooZz^^^: !rtv
[20:24:34] KermiT: !Jb
[20:25:01] Client "CM" connected.
[20:25:42] KermiT: !steam
[20:26:00] KermiT: !knife
[20:26:35] Client "Minouuka" spawned in server <STEAM_0:1:213839369> (took 430 seconds).
[20:26:55] Client "CM" spawned in server <STEAM_0:0:63744820> (took 114 seconds).
[20:27:48] Dropped "KermiT" from server<STEAM_0:1:88198098>
[20:29:24] KameNRV: !rtv
[20:29:29] CM: !rtv
[20:29:48] Client "FeuerFaust1997" connected.
[20:30:05] Server is shutting down/changing levels.



[20:30:12] New map: surf_rebel_scaz
[20:30:27] Client "KameNRV" spawned in server <STEAM_0:0:209528802> (took 16 seconds).
[20:30:27] Client "Bot88" connected.
[20:30:27] Client "Bot88" spawned in server <BOT> (took 16 seconds).
[20:30:29] Client "Bot89" connected.
[20:30:29] Client "Bot89" spawned in server <BOT> (took 18 seconds).
[20:31:03] Client "FeuerFaust1997" spawned in server <STEAM_0:0:58872080> (took 52 seconds).
[20:31:35] Client "DarkSambrio" spawned in server <STEAM_0:0:143734513> (took 84 seconds).
[20:31:36] FeuerFaust1997: !knife
[20:31:47] Client "Minouuka" spawned in server <STEAM_0:1:213839369> (took 96 seconds).
[20:32:08] FeuerFaust1997: !knife
[20:32:35] Client "^^^OvErDooZz^^^" spawned in server <STEAM_0:1:88085665> (took 144 seconds).
[20:33:58] FeuerFaust1997: !r
[20:34:20] Client "JAYSH AL-SHA'ABI 1985" connected.
[20:35:45] Dropped "FeuerFaust1997" from server<STEAM_0:0:58872080>
[20:36:51] Client "JAYSH AL-SHA'ABI 1985" spawned in server <STEAM_0:1:33679049> (took 151 seconds).
[20:38:48] Client "Amplified" connected.
[20:39:37] Client "Amplified" spawned in server <STEAM_0:1:195418332> (took 49 seconds).
[20:40:30] Minouuka: !rtv
[20:40:42] Minouuka: please rtv if u can for another map
[20:40:49] JAYSH AL-SHA'ABI 1985: y
[20:40:53] Client "PlasmaPlayz" connected.
[20:41:02] Minouuka: this one is too easy and annoying
[20:41:36] Client "PlasmaPlayz" spawned in server <STEAM_0:1:126748908> (took 43 seconds).
[20:41:48] Minouuka: !knifes
[20:41:57] Minouuka: !knife
[20:42:04] PlasmaPlayz: hey
[20:42:14] Minouuka: !nominate
[20:43:09] JAYSH AL-SHA'ABI 1985: !knife
[20:43:43] ^^^OvErDooZz^^^: !unbox
[20:44:19] KameNRV: !rtv
[20:48:44] Dropped "Amplified" from server<STEAM_0:1:195418332>
[20:51:45] Minouuka: rtv please
[20:51:50] KameNRV: !rtv
[20:52:01] JAYSH AL-SHA'ABI 1985: !rtv
[20:52:06] JAYSH AL-SHA'ABI 1985: yeah this map is getting pretty boring
[20:52:08] JAYSH AL-SHA'ABI 1985: plz rtv
[20:52:24] ^^^OvErDooZz^^^: nope
[20:52:40] JAYSH AL-SHA'ABI 1985: y
[20:52:56] ^^^OvErDooZz^^^: niop
[20:53:39] KameNRV: snio)p
[20:53:49] ^^^OvErDooZz^^^: 'tretz
[20:54:05] JAYSH AL-SHA'ABI 1985: rtv guys cmon
[20:54:08] JAYSH AL-SHA'ABI 1985: .!rtv
[20:54:34] JAYSH AL-SHA'ABI 1985: /actinjured
[20:58:14] Dropped "JAYSH AL-SHA'ABI 1985" from server<STEAM_0:1:33679049>
[20:59:20] DarkSambrio: !rtv
[21:00:12] Dropped "Minouuka" from server<STEAM_0:1:213839369>
[21:00:48] Server is shutting down/changing levels.



[21:00:55] New map: surf_forbidden_ways_ksf
[21:01:06] Client "PlasmaPlayz" spawned in server <STEAM_0:1:126748908> (took 12 seconds).
[21:01:06] Client "Bot90" connected.
[21:01:06] Client "Bot90" spawned in server <BOT> (took 12 seconds).
[21:01:08] Client "Bot91" connected.
[21:01:08] Client "Bot91" spawned in server <BOT> (took 14 seconds).
[21:01:13] Client "KameNRV" spawned in server <STEAM_0:0:209528802> (took 19 seconds).
[21:01:25] Client "DarkSambrio" spawned in server <STEAM_0:0:143734513> (took 31 seconds).
[21:01:39] Client "^^^OvErDooZz^^^" spawned in server <STEAM_0:1:88085665> (took 45 seconds).
[21:05:13] Client "Minouuka" connected.
[21:06:13] Client "Minouuka" spawned in server <STEAM_0:1:213839369> (took 60 seconds).
[21:08:01] Dropped "Minouuka" from server<STEAM_0:1:213839369>
[21:31:31] Server is shutting down/changing levels.



[21:31:38] New map: surf_stonework3
[21:31:52] Client "PlasmaPlayz" spawned in server <STEAM_0:1:126748908> (took 15 seconds).
[21:31:52] Client "Bot92" connected.
[21:31:52] Client "Bot92" spawned in server <BOT> (took 15 seconds).
[21:31:54] Client "Bot93" connected.
[21:31:54] Client "Bot93" spawned in server <BOT> (took 17 seconds).
[21:32:03] Client "KameNRV" spawned in server <STEAM_0:0:209528802> (took 26 seconds).
[21:32:26] Client "DarkSambrio" spawned in server <STEAM_0:0:143734513> (took 49 seconds).
[21:32:52] Client "^^^OvErDooZz^^^" spawned in server <STEAM_0:1:88085665> (took 75 seconds).
[21:37:00] KameNRV: !rtv
[21:37:03] ^^^OvErDooZz^^^: !rtv
[21:37:12] PlasmaPlayz: !rtv
[21:37:48] Server is shutting down/changing levels.



[21:37:55] New map: surf_graphia
[21:38:07] Client "PlasmaPlayz" spawned in server <STEAM_0:1:126748908> (took 13 seconds).
[21:38:07] Client "Bot94" connected.
[21:38:07] Client "Bot94" spawned in server <BOT> (took 13 seconds).
[21:38:09] Client "Bot95" connected.
[21:38:09] Client "Bot95" spawned in server <BOT> (took 15 seconds).
[21:38:20] Client "KameNRV" spawned in server <STEAM_0:0:209528802> (took 26 seconds).
[21:38:41] Client "DarkSambrio" spawned in server <STEAM_0:0:143734513> (took 47 seconds).
[21:39:07] Client "^^^OvErDooZz^^^" spawned in server <STEAM_0:1:88085665> (took 73 seconds).
[21:42:07] KameNRV: !rtv
[21:42:12] KameNRV: !rtv
[21:42:16] DarkSambrio: !rtv
[21:42:27] KameNRV: !rtv
[21:42:29] DarkSambrio: !rtv
[21:42:34] DarkSambrio: !rtv
[21:42:42] KameNRV: !rtv
[21:42:49] DarkSambrio: !rtv
[21:43:03] KameNRV: !rtv
[21:43:05] DarkSambrio: !rtv
[21:43:10] DarkSambrio: !rtv
[21:53:03] PlasmaPlayz: !rtv
[21:53:23] PlasmaPlayz: ( ͡° ͜ʖ ͡°) 
[21:53:24] PlasmaPlayz: !rtv
[21:54:00] Server is shutting down/changing levels.



[21:54:07] New map: surf_fast
[21:54:23] Client "PlasmaPlayz" spawned in server <STEAM_0:1:126748908> (took 17 seconds).
[21:54:23] Client "Bot96" connected.
[21:54:23] Client "Bot96" spawned in server <BOT> (took 17 seconds).
[21:54:25] Client "Bot97" connected.
[21:54:25] Client "Bot97" spawned in server <BOT> (took 19 seconds).
[21:55:17] Client "KameNRV" spawned in server <STEAM_0:0:209528802> (took 71 seconds).
[21:56:39] Client "DarkSambrio" spawned in server <STEAM_0:0:143734513> (took 153 seconds).
[21:59:40] Client "^^^OvErDooZz^^^" spawned in server <STEAM_0:1:88085665> (took 334 seconds).
[22:03:04] PlasmaPlayz: ( ͡° ͜ʖ ͡°) 
[22:03:07] PlasmaPlayz: !rtv
[22:03:38] PlasmaPlayz: rtv plez
[22:03:44] ^^^OvErDooZz^^^: nop
[22:06:23] PlasmaPlayz: !rtv
[22:09:23] Client "Zenzergaming" connected.
[22:09:24] Dropped "PlasmaPlayz" from server<STEAM_0:1:126748908>
[22:10:50] Client "Zenzergaming" spawned in server <STEAM_0:0:192415215> (took 87 seconds).
[22:12:21] Client "CrowdedBowl839" connected.
[22:15:01] Client "CrowdedBowl839" spawned in server <STEAM_0:1:174503117> (took 160 seconds).
[22:15:31] Zenzergaming: !rtv
[22:15:40] Client "Maxiu [PL]" connected.
[22:15:52] Dropped "DarkSambrio" from server<STEAM_0:0:143734513>
[22:15:53] Client "Nobody" connected.
[22:16:19] Client "Maxiu [PL]" spawned in server <STEAM_0:0:190771088> (took 39 seconds).
[22:17:02] Maxiu [PL]: !r
[22:17:05] (TEAM) Maxiu [PL]: !rtv
[22:17:44] Zenzergaming: !unbox
[22:17:54] Zenzergaming: !knivw
[22:20:08] Maxiu [PL]: !r
[22:20:54] Maxiu [PL]: !r
[22:21:06] Client "JGG" connected.
[22:22:45] Dropped "CrowdedBowl839" from server<STEAM_0:1:174503117>
[22:22:47] Zenzergaming: !rtv
[22:22:55] Dropped "Zenzergaming" from server<STEAM_0:0:192415215>
[22:24:03] Dropped "KameNRV" from server<STEAM_0:0:209528802>
[22:24:28] Dropped "^^^OvErDooZz^^^" from server<STEAM_0:1:88085665>
[22:24:43] Server is shutting down/changing levels.



[22:24:50] New map: surf_rebel_scaz
[22:25:02] Client "Maxiu [PL]" spawned in server <STEAM_0:0:190771088> (took 13 seconds).
[22:25:02] Client "Bot98" connected.
[22:25:02] Client "Bot98" spawned in server <BOT> (took 13 seconds).
[22:25:04] Client "Bot99" connected.
[22:25:04] Client "Bot99" spawned in server <BOT> (took 15 seconds).
[22:25:18] Maxiu [PL]: !r
[22:26:58] Client "JGG" spawned in server <STEAM_0:1:121950234> (took 129 seconds).
[22:27:02] Maxiu [PL]: !r
[22:27:24] Maxiu [PL]: !r
[22:27:34] Maxiu [PL]: !r
[22:27:54] Maxiu [PL]: !r
[22:29:12] Maxiu [PL]: !r
[22:30:07] Maxiu [PL]: !r
[22:30:30] Maxiu [PL]: !r
[22:30:32] Maxiu [PL]: !r
[22:30:58] Maxiu [PL]: !r
[22:31:35] Maxiu [PL]: !r
[22:32:24] Maxiu [PL]: !r
[22:33:54] Maxiu [PL]: !r
[22:34:03] Maxiu [PL]: !r
[22:34:23] Maxiu [PL]: !r
[22:34:42] Dropped "JGG" from server<STEAM_0:1:121950234>
[22:39:50] Dropped "Maxiu [PL]" from server<STEAM_0:0:190771088>
[22:39:50] Dropped "Bot98" from server<BOT>
[22:39:50] Dropped "Bot99" from server<BOT>
[22:41:51] Client "[Empire] Virtual" connected.
[22:43:51] Client "[Empire] Virtual" spawned in server <STEAM_0:0:135051720> (took 120 seconds).
[22:43:51] Client "Bot100" connected.
[22:43:51] Client "Bot100" spawned in server <BOT> (took 1142 seconds).
[22:43:53] Client "Bot101" connected.
[22:43:53] Client "Bot101" spawned in server <BOT> (took 1144 seconds).
[22:47:20] Client "Maxiu [PL]" connected.
[22:47:29] Client "Jr DrChuck" connected.
[22:47:30] Client "Maxiu [PL]" spawned in server <STEAM_0:0:190771088> (took 10 seconds).
[22:49:09] Maxiu [PL]: !r
[22:49:37] Maxiu [PL]: !r
[22:49:57] Maxiu [PL]: !r
[22:50:16] Client "Div" connected.
[22:50:24] Maxiu [PL]: !r
[22:50:57] Client "Zenzergaming" connected.
[22:51:20] Client "Zenzergaming" spawned in server <STEAM_0:0:192415215> (took 23 seconds).
[22:51:31] Client "Div" spawned in server <STEAM_0:1:127964504> (took 75 seconds).
[22:51:56] Maxiu [PL]: !r
[22:52:04] Div: !r
[22:52:18] Div: !r
[22:52:21] Div: !r
[22:52:42] Maxiu [PL]: !r
[22:53:09] Maxiu [PL]: !r
[22:53:17] Client "[AKF]xI3lacK//Dominik//SwaG" connected.
[22:53:22] Div: !r
[22:53:29] Maxiu [PL]: !r
[22:53:45] Maxiu [PL]: !r
[22:53:54] Dropped "Maxiu [PL]" from server<STEAM_0:0:190771088>
[22:54:01] Div: !r
[22:54:01] Zenzergaming: !rtv
[22:54:13] Client "[AKF]xI3lacK//Dominik//SwaG" spawned in server <STEAM_0:1:156915169> (took 56 seconds).
[22:54:30] Div: !r
[22:54:51] [AKF]xI3lacK//Dominik//SwaG: !r
[22:55:04] Div: !r
[22:55:07] [AKF]xI3lacK//Dominik//SwaG: !r
[22:55:24] Dropped "[Empire] Virtual" from server<STEAM_0:0:135051720>
[22:55:26] Div: !r
[22:55:50] [AKF]xI3lacK//Dominik//SwaG: !r
[22:56:07] Div: !r
[22:56:08] [AKF]xI3lacK//Dominik//SwaG: !r
[22:56:35] Div: !r
[22:56:42] [AKF]xI3lacK//Dominik//SwaG: !r
[22:56:49] [AKF]xI3lacK//Dominik//SwaG: !r
[22:57:09] Div: !r
[22:57:17] Div: !r
[22:57:19] Div: !r
[22:57:20] [AKF]xI3lacK//Dominik//SwaG: !r
[22:57:20] Div: !r
[22:57:23] Div: !knife
[22:57:26] [AKF]xI3lacK//Dominik//SwaG: !r
[22:57:26] Div: !knife
[22:57:28] Div: !r
[22:57:28] Div: !r
[22:57:42] [AKF]xI3lacK//Dominik//SwaG: !r
[22:58:02] [AKF]xI3lacK//Dominik//SwaG: !r
[22:58:05] Div: !r
[22:58:16] Div: !r
[22:58:53] Div: !r
[22:59:04] [AKF]xI3lacK//Dominik//SwaG: !r
[22:59:11] Div: !r
[22:59:15] [AKF]xI3lacK//Dominik//SwaG: !r
[22:59:33] Dropped "Zenzergaming" from server<STEAM_0:0:192415215>
[22:59:43] [AKF]xI3lacK//Dominik//SwaG: !r
[22:59:47] Div: !r
[23:00:21] [AKF]xI3lacK//Dominik//SwaG: !r
[23:00:29] Div: !r
[23:00:50] [AKF]xI3lacK//Dominik//SwaG: !r
[23:00:56] [AKF]xI3lacK//Dominik//SwaG: !r
[23:00:57] Div: !r
[23:01:30] [AKF]xI3lacK//Dominik//SwaG: !r
[23:01:35] [AKF]xI3lacK//Dominik//SwaG: !r
[23:01:37] Div: !r
[23:01:45] [AKF]xI3lacK//Dominik//SwaG: !r
[23:01:46] [AKF]xI3lacK//Dominik//SwaG: !r
[23:01:49] [AKF]xI3lacK//Dominik//SwaG: !r
[23:01:58] Div: !r
[23:01:58] [AKF]xI3lacK//Dominik//SwaG: !r
[23:02:04] [AKF]xI3lacK//Dominik//SwaG: !r
[23:02:10] [AKF]xI3lacK//Dominik//SwaG: !r
[23:02:13] Div: !r
[23:02:21] Dropped "Div" from server<STEAM_0:1:127964504>
[23:02:30] [AKF]xI3lacK//Dominik//SwaG: !r
[23:02:36] [AKF]xI3lacK//Dominik//SwaG: !r
[23:02:39] [AKF]xI3lacK//Dominik//SwaG: !r
[23:03:09] [AKF]xI3lacK//Dominik//SwaG: !r
[23:04:37] Client "Niko the Treecko" connected.
[23:05:07] [AKF]xI3lacK//Dominik//SwaG: !r
[23:06:03] Client "Maxiu [PL]" connected.
[23:06:12] Client "Maxiu [PL]" spawned in server <STEAM_0:0:190771088> (took 9 seconds).
[23:06:47] Client "Niko the Treecko" spawned in server <STEAM_0:1:116203328> (took 130 seconds).
[23:07:24] Niko the Treecko: !knife
[23:10:06] Maxiu [PL]: !r
[23:10:46] Maxiu [PL]: !r
[23:10:57] Server is shutting down/changing levels.



[23:11:04] New map: surf_utopia_njv
[23:11:13] Client "Maxiu [PL]" spawned in server <STEAM_0:0:190771088> (took 10 seconds).
[23:11:13] Client "Bot102" connected.
[23:11:13] Client "Bot102" spawned in server <BOT> (took 10 seconds).
[23:11:15] Client "Bot103" connected.
[23:11:15] Client "Bot103" spawned in server <BOT> (took 12 seconds).
[23:11:21] Client "[AKF]xI3lacK//Dominik//SwaG" spawned in server <STEAM_0:1:156915169> (took 18 seconds).
[23:12:11] Client "Niko the Treecko" spawned in server <STEAM_0:1:116203328> (took 68 seconds).
[23:12:33] Niko the Treecko: !knifes
[23:12:36] Niko the Treecko: !kinfe
[23:13:27] Niko the Treecko: !knife
[23:13:46] Niko the Treecko: !unbox
[23:13:56] Client "One Punch Bill Burr" connected.
[23:14:16] (TEAM) Niko the Treecko: !kinfe
[23:15:21] Niko the Treecko: !kinfe
[23:15:25] Niko the Treecko: !knife
[23:15:34] Client "One Punch Bill Burr" spawned in server <STEAM_0:1:116090197> (took 98 seconds).
[23:16:06] Niko the Treecko: !unboc
[23:16:11] (TEAM) Niko the Treecko: !unbox
[23:16:49] (TEAM) Niko the Treecko: !points
[23:17:06] One Punch Bill Burr: !knifes
[23:17:11] One Punch Bill Burr: !Knifes
[23:17:16] One Punch Bill Burr: !unbpx
[23:17:18] One Punch Bill Burr: !unbox
[23:17:20] [AKF]xI3lacK//Dominik//SwaG: !r
[23:17:31] (TEAM) Niko the Treecko: !unbox
[23:18:02] Maxiu [PL]: !r
[23:18:04] [AKF]xI3lacK//Dominik//SwaG: !r
[23:18:21] Client "DoomDemolisher" connected.
[23:18:25] [AKF]xI3lacK//Dominik//SwaG: !r
[23:19:01] [AKF]xI3lacK//Dominik//SwaG: !r
[23:19:01] One Punch Bill Burr: !knife
[23:19:04] One Punch Bill Burr: !knifes
[23:19:39] (TEAM) Maxiu [PL]: !unbox
[23:20:05] Niko the Treecko: !kinves
[23:20:14] (TEAM) Niko the Treecko: !kinves
[23:20:21] [AKF]xI3lacK//Dominik//SwaG: !r
[23:20:52] (TEAM) Niko the Treecko: !unbox
[23:21:11] One Punch Bill Burr: !unbox
[23:21:41] (TEAM) [AKF]xI3lacK//Dominik//SwaG: !Unbox
[23:22:18] [AKF]xI3lacK//Dominik//SwaG: !r
[23:22:18] Client "DoomDemolisher" spawned in server <STEAM_0:0:107974187> (took 237 seconds).
[23:22:27] (TEAM) Niko the Treecko: !unbox
[23:23:04] (TEAM) Maxiu [PL]: !unbox
[23:23:13] [AKF]xI3lacK//Dominik//SwaG: !r
[23:23:17] (TEAM) [AKF]xI3lacK//Dominik//SwaG: !unbox
[23:23:40] One Punch Bill Burr: !unbox
[23:24:06] (TEAM) Maxiu [PL]: !unbox
[23:24:18] (TEAM) [AKF]xI3lacK//Dominik//SwaG: !unbox
[23:24:44] Maxiu [PL]: !r
[23:24:50] Maxiu [PL]: !r
[23:24:56] (TEAM) Niko the Treecko: !unbox
[23:25:27] (TEAM) Niko the Treecko: :tongue:
[23:25:36] (TEAM) Niko the Treecko: !unbox
[23:26:05] Maxiu [PL]: !r
[23:26:11] (TEAM) Niko the Treecko: !unbox
[23:26:12] One Punch Bill Burr: !unbox
[23:26:45] Client "∂υ¢к" connected.
[23:27:00] Dropped "[AKF]xI3lacK//Dominik//SwaG" from server<STEAM_0:1:156915169>
[23:28:07] (TEAM) Niko the Treecko: !unboc
[23:28:12] (TEAM) Niko the Treecko: !unbox
[23:28:26] Dropped "DoomDemolisher" from server<STEAM_0:0:107974187>
[23:28:35] Client "∂υ¢к" spawned in server <STEAM_0:1:92708123> (took 110 seconds).
[23:28:41] (TEAM) One Punch Bill Burr: !unbo
[23:28:44] (TEAM) One Punch Bill Burr: !unbox
[23:28:55] ∂υ¢к: !jab
[23:29:27] Maxiu [PL]: !r
[23:29:32] (TEAM) Niko the Treecko: !unbox
[23:31:58] (TEAM) Niko the Treecko: !unbox
[23:32:12] One Punch Bill Burr: !unbox
[23:32:51] One Punch Bill Burr: How do I add a song
[23:32:54] One Punch Bill Burr: !unbox
[23:33:52] (TEAM) Niko the Treecko: !unbox
[23:34:30] (TEAM) Niko the Treecko: !unbox
[23:34:38] One Punch Bill Burr: !unbox
[23:35:23] Dropped "Maxiu [PL]" from server<STEAM_0:0:190771088>
[23:36:27] (TEAM) Niko the Treecko: !unbox
[23:36:49] Niko the Treecko: How do you check your points
[23:38:01] Dropped "One Punch Bill Burr" from server<STEAM_0:1:116090197>
[23:38:13] (TEAM) Niko the Treecko: !unbox
[23:38:33] Dropped "Niko the Treecko" from server<STEAM_0:1:116203328>
[23:41:26] ∂υ¢к: Death to the french
[23:41:40] Server is shutting down/changing levels.



[23:41:48] New map: surf_kitsune2
[23:43:24] Client "∂υ¢к" spawned in server <STEAM_0:1:92708123> (took 98 seconds).
[23:43:24] Client "Bot104" connected.
[23:43:24] Client "Bot104" spawned in server <BOT> (took 98 seconds).
[23:43:26] Client "Bot105" connected.
[23:43:26] Client "Bot105" spawned in server <BOT> (took 100 seconds).
[23:44:16] Client "100 koechjii -" connected.
[23:45:34] Dropped "∂υ¢к" from server<STEAM_0:1:92708123>
[23:45:50] Dropped "Bot104" from server<BOT>
[23:45:50] Dropped "Bot105" from server<BOT>
[23:50:53] Client "100 koechjii -" connected.
[23:53:18] Client "100 koechjii -" spawned in server <STEAM_0:0:153645088> (took 145 seconds).
[23:53:18] Client "Bot106" connected.
[23:53:18] Client "Bot106" spawned in server <BOT> (took 692 seconds).
[23:53:20] Client "Bot107" connected.
[23:53:20] Client "Bot107" spawned in server <BOT> (took 694 seconds).
[23:55:05] Client "zanzi" connected.
[23:55:41] Client "zanzi" spawned in server <STEAM_0:0:63824665> (took 36 seconds).
[23:56:32] zanzi: !spec
[23:56:48] Dropped "zanzi" from server<STEAM_0:0:63824665>
<Logging continued in "data/ulx_logs/08-03-17.txt">
