<Logging continued from "data/ulx_logs/09-20-16.txt">
[00:22:43] Client "maxxis21" connected.
[07:34:57] Client "toxicmatt34" connected.
[07:35:13] Client "toxicmatt34" spawned in server <STEAM_0:1:176120906> (took 16 seconds).
[07:35:52] Dropped "toxicmatt34" from server<STEAM_0:1:176120906>
[08:36:11] Client "FuFu The First" connected.
[08:36:29] Client "FuFu The First" spawned in server <STEAM_0:0:104949161> (took 18 seconds).
[08:42:12] FuFu The First: t!r
[08:45:29] Dropped "FuFu The First" from server<STEAM_0:0:104949161>
[10:09:28] Client "offy10" connected.
[11:53:34] Client "Bacon | Rip Harambe [DMC]" connected.
[11:53:50] Client "Bacon | Rip Harambe [DMC]" spawned in server <STEAM_0:1:156242635> (took 16 seconds).
[11:57:18] Client "yossef2610" connected.
[12:02:49] Bacon | Rip Harambe [DMC] changed the map to surf_mesa
[12:02:49] Server is shutting down/changing levels.



[12:02:52] New map: surf_mesa
[12:03:00] Client "Bacon | Rip Harambe [DMC]" spawned in server <STEAM_0:1:156242635> (took 8 seconds).
[12:21:09] Client "Барыга (Цунаде)" connected.
[12:21:25] Client "✪Luka" connected.
[12:22:47] Client "✪Luka" spawned in server <STEAM_0:0:178055804> (took 82 seconds).
[12:22:58] Client "Барыга (Цунаде)" spawned in server <STEAM_0:1:87133878> (took 109 seconds).
[12:23:34] Dropped "✪Luka" from server<STEAM_0:0:178055804>
[12:23:51] Dropped "Барыга (Цунаде)" from server<STEAM_0:1:87133878>
[12:26:36] Client "ⓙoker" connected.
[12:27:11] Client "ⓙoker" spawned in server <STEAM_0:0:162771060> (took 35 seconds).
[12:28:10] Dropped "ⓙoker" from server<STEAM_0:0:162771060>
[12:32:29] Bacon | Rip Harambe [DMC] changed the map to surf_utopia_njv
[12:32:29] Server is shutting down/changing levels.



[12:32:32] New map: surf_utopia_njv
[12:33:01] Client "Bacon | Rip Harambe [DMC]" spawned in server <STEAM_0:1:156242635> (took 30 seconds).
[12:35:21] Bacon | Rip Harambe [DMC] changed the map to surf_beginner
[12:35:21] Server is shutting down/changing levels.



[12:35:24] New map: surf_beginner
[12:35:30] Client "Bacon | Rip Harambe [DMC]" spawned in server <STEAM_0:1:156242635> (took 6 seconds).
[12:39:06] Bacon | Rip Harambe [DMC] changed the map to surf_kitsune
[12:39:06] Server is shutting down/changing levels.



[12:39:08] New map: surf_kitsune
[12:39:14] Client "Bacon | Rip Harambe [DMC]" spawned in server <STEAM_0:1:156242635> (took 6 seconds).
[12:53:08] Bacon | Rip Harambe [DMC] changed the map to surf_funhouse_v1
[12:53:08] Server is shutting down/changing levels.



[12:53:11] New map: surf_funhouse_v1
[12:53:18] Client "Bacon | Rip Harambe [DMC]" spawned in server <STEAM_0:1:156242635> (took 7 seconds).
[12:57:27] Client "♥Waliid95♥" connected.
[12:57:33] Client "♥Waliid95♥" spawned in server <STEAM_0:1:121267192> (took 6 seconds).
[12:58:05] Client "Apex Seregios" connected.
[12:58:23] Client "Apex Seregios" spawned in server <STEAM_0:0:141962638> (took 18 seconds).
[12:59:03] Bacon | Rip Harambe [DMC]: Press F1 and choose surf team to play/spawn
[12:59:42] Dropped "Apex Seregios" from server<STEAM_0:0:141962638>
[12:59:52] Bacon | Rip Harambe [DMC]: hi
[13:01:19] ♥Waliid95♥ suicided!
[13:02:00] Dropped "♥Waliid95♥" from server<STEAM_0:1:121267192>
[13:09:02] Bacon | Rip Harambe [DMC] changed the map to surf_utopia_njv
[13:09:02] Server is shutting down/changing levels.



[13:09:05] New map: surf_utopia_njv
[13:09:11] Client "Bacon | Rip Harambe [DMC]" spawned in server <STEAM_0:1:156242635> (took 6 seconds).
[13:15:31] Bacon | Rip Harambe [DMC] changed the map to surf_mesa
[13:15:31] Server is shutting down/changing levels.



[13:15:34] New map: surf_mesa
[13:15:41] Client "Bacon | Rip Harambe [DMC]" spawned in server <STEAM_0:1:156242635> (took 7 seconds).
[13:51:13] Client "HightZo" connected.
[13:51:34] Client "HightZo" spawned in server <STEAM_0:0:91383544> (took 21 seconds).
[13:59:31] Dropped "HightZo" from server<STEAM_0:0:91383544>
[14:06:26] Client "come581" connected.
[14:07:11] Client "come581" spawned in server <STEAM_0:1:116852662> (took 45 seconds).
[14:08:38] Dropped "come581" from server<STEAM_0:1:116852662>
[14:39:56] Client "HightZo" connected.
[14:40:12] Client "HightZo" spawned in server <STEAM_0:0:91383544> (took 16 seconds).
[14:42:24] Bacon | Rip Harambe [DMC]: hi
[14:42:33] HightZo: salut
[14:43:57] HightZo: tu es francais non ?
[14:44:18] Bacon | Rip Harambe [DMC]: english?
[14:44:19] HightZo: gg
[14:44:24] HightZo: yes
[14:44:28] HightZo: a little
[14:44:36] Bacon | Rip Harambe [DMC]: ok
[14:44:46] HightZo: i'm blocked at a part
[14:44:51] Bacon | Rip Harambe [DMC]: you want me to change the map?
[14:45:00] HightZo: no thx
[14:45:11] Bacon | Rip Harambe [DMC]: ok spectate me ill show u
[14:45:16] HightZo: ok
[14:45:23] Bacon | Rip Harambe [DMC]: ready
[14:45:26] HightZo: let's go !
[14:46:21] Bacon | Rip Harambe [DMC]: what part?
[14:46:21] HightZo: ho ...
[14:46:37] HightZo: how can i say
[14:47:09] Bacon | Rip Harambe [DMC]: tell me when to stop
[14:47:14] HightZo: ok
[14:47:48] HightZo: here
[14:47:54] Bacon | Rip Harambe [DMC]: ah ok
[14:48:14] HightZo: my guy jumps at the top
[14:48:23] HightZo: and i lose velocity
[14:48:36] HightZo: what happened
[14:48:45] Bacon | Rip Harambe [DMC]: i will spec u
[14:48:48] HightZo: ok
[14:48:49] Bacon | Rip Harambe [DMC]: go
[14:49:21] Bacon | Rip Harambe [DMC]: Press F1 and choose surf team to play/spawn
[14:49:33] HightZo: sry
[14:49:44] Bacon | Rip Harambe [DMC]: press the opposite key when going round a corner
[14:49:54] HightZo: ok
[14:50:19] Bacon | Rip Harambe [DMC]: not like that
[14:50:27] HightZo: i see you
[14:50:58] HightZo: can you show me plz
[14:51:05] Bacon | Rip Harambe [DMC]: ok i will
[14:51:09] HightZo: thx
[14:51:18] HightZo: you can
[14:51:33] Bacon | Rip Harambe [DMC]: press f1 and go to settings
[14:51:46] HightZo: yes for the keys i have
[14:51:53] HightZo: you can go
[14:51:57] Bacon | Rip Harambe [DMC]: ok good
[14:52:50] HightZo: you're strong
[14:53:00] HightZo: gg
[14:53:08] HightZo: i'll try
[14:53:09] Bacon | Rip Harambe [DMC]: u see?
[14:53:11] Bacon | Rip Harambe [DMC]: ok good
[14:53:12] HightZo: yes
[14:53:43] HightZo: ?
[14:53:59] HightZo: do you know why sometimes the guy stops ?
[14:54:07] Bacon | Rip Harambe [DMC]: its    a    glitch
[14:54:10] HightZo: ok
[14:54:58] HightZo: i'm not succesing
[14:55:12] HightZo: i do like you but my guy fall
[14:55:19] Bacon | Rip Harambe [DMC]: it takes practice but you will get there
[14:55:28] Bacon | Rip Harambe [DMC]: you dont have the speed
[14:56:06] HightZo: how do get it ?
[14:56:25] Bacon | Rip Harambe [DMC]: practice 
[15:00:04] HightZo: ?
[15:00:08] HightZo: what is that ?
[15:00:48] Bacon | Rip Harambe [DMC]: the secret
[15:01:41] HightZo: what is that ?
[15:01:51] HightZo: sry
[15:01:52] Bacon | Rip Harambe [DMC]: the secret of the map
[15:02:33] HightZo: i disconnect,cya later
[15:02:39] Bacon | Rip Harambe [DMC]: cya
[15:03:09] Dropped "HightZo" from server<STEAM_0:0:91383544>
[15:03:34] Bacon | Rip Harambe [DMC] changed the map to surf_utopia_njv
[15:03:34] Server is shutting down/changing levels.



[15:03:37] New map: surf_utopia_njv
[15:03:51] Client "Bacon | Rip Harambe [DMC]" spawned in server <STEAM_0:1:156242635> (took 15 seconds).
[15:05:18] Client "le babouin obscure" connected.
[15:05:59] Client "le babouin obscure" spawned in server <STEAM_0:1:177723484> (took 41 seconds).
[15:06:14] Bacon | Rip Harambe [DMC]: Press F1 and choose surf team to play/spawn
[15:06:40] le babouin obscure: comment je joue
[15:06:47] Bacon | Rip Harambe [DMC]: f1
[15:06:54] le babouin obscure: merci
[15:07:41] le babouin obscure: c dure
[15:07:58] Bacon | Rip Harambe [DMC]: english?
[15:08:11] le babouin obscure: non
[15:09:50] Client "Neon Ocelot" connected.
[15:09:55] le babouin obscure: je sais pas surfer$
[15:11:00] Bacon | Rip Harambe [DMC]: presse a et d sur les rampes
[15:11:09] Dropped "le babouin obscure" from server<STEAM_0:1:177723484>
[15:11:28] Bacon | Rip Harambe [DMC] changed the map to surf_aircontrol_v3
[15:11:28] Server is shutting down/changing levels.



[15:11:31] New map: surf_aircontrol_v3
[15:11:38] Client "Bacon | Rip Harambe [DMC]" spawned in server <STEAM_0:1:156242635> (took 8 seconds).
[15:12:04] Client "AJ money" connected.
[15:12:44] Bacon | Rip Harambe [DMC] changed the map to surf_mesa
[15:12:44] Server is shutting down/changing levels.



[15:12:47] New map: surf_mesa
[15:12:57] Client "Bacon | Rip Harambe [DMC]" spawned in server <STEAM_0:1:156242635> (took 10 seconds).
[15:16:27] Client "Neon Ocelot" connected.
[15:22:29] Client "Neon Ocelot" spawned in server <STEAM_0:0:102677829> (took 362 seconds).
[15:24:11] Bacon | Rip Harambe [DMC]: Press F1 and choose surf team to play/spawn
[15:24:16] Dropped "Neon Ocelot" from server<STEAM_0:0:102677829>
[15:48:12] Dropped "Bacon | Rip Harambe [DMC]" from server<STEAM_0:1:156242635>
[15:49:17] Client "[N-G] Reeceobz" connected.
[15:49:23] Client "[N-G] Reeceobz" connected.
[17:52:03] Client "Bacon | Rip Harambe [DMC]" connected.
[17:52:22] Client "Bacon | Rip Harambe [DMC]" spawned in server <STEAM_0:1:156242635> (took 19 seconds).
[17:53:05] Bacon | Rip Harambe [DMC] changed the map to surf_funhouse_v1
[17:53:05] Server is shutting down/changing levels.



[17:53:07] New map: surf_funhouse_v1
[17:53:15] Client "Bacon | Rip Harambe [DMC]" spawned in server <STEAM_0:1:156242635> (took 8 seconds).
[17:56:29] Client "Zgredek456" connected.
[17:56:42] Client "Zgredek456" spawned in server <STEAM_0:0:90572463> (took 13 seconds).
[17:58:37] Bacon | Rip Harambe [DMC]: Press F1 and choose surf team to play/spawn
[17:59:05] Client "Wolfy" connected.
[18:00:45] Client "dank meme police" connected.
[18:01:14] Client "Wolfy" spawned in server <STEAM_0:0:143813338> (took 129 seconds).
[18:01:28] Client "SheepMarine" connected.
[18:01:39] Bacon | Rip Harambe [DMC]: Press F1 and choose surf team to play/spawn
[18:01:43] Zgredek456: F1
[18:01:56] Client "dank meme police" spawned in server <STEAM_0:0:142958305> (took 71 seconds).
[18:02:17] Dropped "Zgredek456" from server<STEAM_0:0:90572463>
[18:02:38] Bacon | Rip Harambe [DMC]: Press F1 and choose surf team to play/spawn
[18:02:46] dank meme police: wth why am i spec
[18:02:50] Bacon | Rip Harambe [DMC]: Press F1 and choose surf team to play/spawn
[18:03:08] dank meme police: thx
[18:03:15] Bacon | Rip Harambe [DMC]: np
[18:03:16] Client "SheepMarine" spawned in server <STEAM_0:1:71527366> (took 108 seconds).
[18:03:41] Dropped "dank meme police" from server<STEAM_0:0:142958305>
[18:04:30] Bacon | Rip Harambe [DMC]: do    !r    to    respawn
[18:05:12] Bacon | Rip Harambe [DMC]: u guys want me to change the map?
[18:05:15] Dropped "Wolfy" from server<STEAM_0:0:143813338>
[18:05:18] Dropped "SheepMarine" from server<STEAM_0:1:71527366>
[18:06:01] Bacon | Rip Harambe [DMC] changed the map to surf_utopia_njv
[18:06:01] Server is shutting down/changing levels.



[18:06:04] New map: surf_utopia_njv
[18:06:11] Client "Bacon | Rip Harambe [DMC]" spawned in server <STEAM_0:1:156242635> (took 8 seconds).
[18:28:48] Bacon | Rip Harambe [DMC] changed the map to surf_kitsune
[18:28:48] Server is shutting down/changing levels.



[18:28:51] New map: surf_kitsune
[18:28:57] Client "Bacon | Rip Harambe [DMC]" spawned in server <STEAM_0:1:156242635> (took 6 seconds).
[18:33:16] Client "(N-G) MR__JR" connected.
[18:41:28] Bacon | Rip Harambe [DMC] changed the map to surf_aircontrol_v3
[18:41:28] Server is shutting down/changing levels.



[18:41:30] New map: surf_aircontrol_v3
[18:41:38] Client "Bacon | Rip Harambe [DMC]" spawned in server <STEAM_0:1:156242635> (took 8 seconds).
[18:41:42] Client "(N-G) MR__JR" connected.
[18:41:58] Client "(N-G) MR__JR" spawned in server <STEAM_0:0:109545465> (took 16 seconds).
[18:45:01] Client "FuFu The First" connected.
[18:45:09] Client "FuFu The First" spawned in server <STEAM_0:0:104949161> (took 8 seconds).
[18:47:10] Bacon | Rip Harambe [DMC] changed the map to surf_mesa
[18:47:10] Server is shutting down/changing levels.



[18:47:13] New map: surf_mesa
[18:47:20] Client "Bacon | Rip Harambe [DMC]" spawned in server <STEAM_0:1:156242635> (took 7 seconds).
[18:47:29] Client "(N-G) MR__JR" spawned in server <STEAM_0:0:109545465> (took 16 seconds).
[18:49:06] Client "FuFu The First" spawned in server <STEAM_0:0:104949161> (took 113 seconds).
[18:57:37] Dropped "Bacon | Rip Harambe [DMC]" from server<STEAM_0:1:156242635>
[18:58:26] Dropped "(N-G) MR__JR" from server<STEAM_0:0:109545465>
[18:59:03] Dropped "FuFu The First" from server<STEAM_0:0:104949161>
[19:00:06] Client "dudinu9" connected.
[19:00:44] Client "dudinu9" spawned in server <STEAM_0:1:148399584> (took 38 seconds).
[19:13:35] Client "ilo2001" connected.
[19:14:43] Client "CurseofDoom" connected.
[19:15:06] Client "ilo2001" connected.
[19:15:11] Client "ilo2001" spawned in server <STEAM_0:1:96431248> (took 5 seconds).
[19:15:44] Client "CurseofDoom" spawned in server <STEAM_0:0:90122926> (took 61 seconds).
[19:16:54] Dropped "CurseofDoom" from server<STEAM_0:0:90122926>
[19:17:14] Client "Goldenboomstick" connected.
[19:20:13] Client "Goldenboomstick" spawned in server <STEAM_0:0:88313707> (took 179 seconds).
[19:22:09] Client "Boomban20 | kickback.com" connected.
[19:22:26] Dropped "Goldenboomstick" from server<STEAM_0:0:88313707>
[19:22:26] Client "Goldenboomstick" connected.
[19:22:41] Client "Goldenboomstick" spawned in server <STEAM_0:0:88313707> (took 15 seconds).
[19:23:39] ilo2001: !knife
[19:23:51] Goldenboomstick: !knife
[19:24:01] Goldenboomstick: !join
[19:24:13] dudinu9: !knife
[19:24:14] Client "Boomban20 | kickback.com" spawned in server <STEAM_0:0:126898966> (took 125 seconds).
[19:24:49] Goldenboomstick: !knife
[19:25:00] Goldenboomstick: !shop
[19:27:55] Dropped "dudinu9" from server<STEAM_0:1:148399584>
[19:28:12] Boomban20 | kickback.com: !rtv
[19:28:21] Goldenboomstick: !rtv
[19:29:04] Boomban20 | kickback.com: how do change map?
[19:29:10] ilo2001: cant
[19:29:13] ilo2001: !menu
[19:29:18] ilo2001 voted for surf_beginner (1/3)
[19:29:20] Goldenboomstick: !menu
[19:29:33] Boomban20 | kickback.com voted for surf_beginner (2/3)
[19:29:33] Boomban20 | kickback.com: !votemap 3
[19:29:36] Goldenboomstick voted for surf_beginner (3/3)
[19:29:36] Votemap for surf_beginner won.
[19:29:36] Server is shutting down/changing levels.



[19:29:39] New map: surf_beginner
[19:29:45] Client "Boomban20 | kickback.com" spawned in server <STEAM_0:0:126898966> (took 7 seconds).
[19:30:04] Client "ilo2001" spawned in server <STEAM_0:1:96431248> (took 26 seconds).
[19:31:07] Client "Goldenboomstick" spawned in server <STEAM_0:0:88313707> (took 89 seconds).
[19:33:33] Goldenboomstick: !knifes
[19:33:50] Boomban20 | kickback.com: bloxwitch
[19:33:57] Goldenboomstick: bloxwitch
[19:34:01] Client "Anonymous31770" connected.
[19:34:02] ilo2001: blowjob
[19:34:06] Client "Anonymous31770" spawned in server <STEAM_0:0:164556767> (took 5 seconds).
[19:34:07] Goldenboomstick: gg
[19:34:17] Boomban20 | kickback.com: <3
[19:34:19] Anonymous31770: !menu
[19:34:29] Boomban20 | kickback.com: !menu
[19:34:44] Goldenboomstick: !menu
[19:36:18] ilo2001: !menu
[19:36:30] Anonymous31770: !menu
[19:36:43] Dropped "ilo2001" from server<STEAM_0:1:96431248>
[19:37:12] Dropped "Anonymous31770" from server<STEAM_0:0:164556767>
[19:41:34] Client "Anonymous31770" connected.
[19:41:38] Client "Anonymous31770" spawned in server <STEAM_0:0:164556767> (took 4 seconds).
[19:41:47] Anonymous31770: !menu
[19:41:54] Anonymous31770 voted for surf_ace (1/3)
[19:41:57] Anonymous31770: !menu
[19:43:02] Anonymous31770: votempa 2 guys
[19:44:50] Dropped "Anonymous31770" from server<STEAM_0:0:164556767>
[19:45:38] Client "YuviiX" connected.
[19:46:14] Client "coolahmad123456" connected.
[19:46:17] Client "YuviiX" spawned in server <STEAM_0:1:30432682> (took 39 seconds).
[19:46:39] Client "coolahmad123456" spawned in server <STEAM_0:0:174346583> (took 25 seconds).
[19:47:17] Dropped "coolahmad123456" from server<STEAM_0:0:174346583>
[19:50:22] Boomban20 | kickback.com: !menu
[19:50:26] Boomban20 | kickback.com voted for surf_rookie (1/3)
[19:50:30] Dropped "YuviiX" from server<STEAM_0:1:30432682>
[19:50:34] Goldenboomstick: !menu
[19:50:41] Goldenboomstick voted for surf_rookie (2/3)
[19:50:58] Goldenboomstick: !votemap 8
[19:55:42] Dropped "Boomban20 | kickback.com" from server<STEAM_0:0:126898966>
[19:57:22] Dropped "Goldenboomstick" from server<STEAM_0:0:88313707>
[19:58:08] Client "pyromayhem1" connected.
[19:58:20] Client "pyromayhem1" spawned in server <STEAM_0:1:106845326> (took 12 seconds).
[19:59:22] Client "Nox289" connected.
[19:59:48] Client "Nox289" spawned in server <STEAM_0:1:150862511> (took 26 seconds).
[20:00:59] Client "meteltca" connected.
[20:01:48] Client "meteltca" spawned in server <STEAM_0:0:56034209> (took 49 seconds).
[20:05:00] Client "Torandi" connected.
[20:05:07] Client "Torandi" spawned in server <STEAM_0:1:83616739> (took 7 seconds).
[20:05:15] Dropped "meteltca" from server<STEAM_0:0:56034209>
[20:06:06] Nox289: /s
[20:06:09] Nox289: !s 2
[20:06:12] Nox289: /s 2
[20:06:15] Nox289: /stage 1
[20:06:18] Nox289: nope
[20:06:51] Client "Ungraceful Fish" connected.
[20:06:53] Client "Empire_" connected.
[20:07:03] Client "Empire_" spawned in server <STEAM_0:0:156850505> (took 10 seconds).
[20:07:33] Dropped "Empire_" from server<STEAM_0:0:156850505>
[20:07:37] Client "Ungraceful Fish" spawned in server <STEAM_0:0:157838978> (took 46 seconds).
[20:08:35] Dropped "Ungraceful Fish" from server<STEAM_0:0:157838978>
[20:13:03] Dropped "Nox289" from server<STEAM_0:1:150862511>
[20:13:05] Client "Flub" connected.
[20:13:34] Client "Flub" spawned in server <STEAM_0:1:86765399> (took 29 seconds).
[20:13:36] Dropped "Torandi" from server<STEAM_0:1:83616739>
[20:14:11] Dropped "pyromayhem1" from server<STEAM_0:1:106845326>
[20:14:36] Dropped "Flub" from server<STEAM_0:1:86765399>
[20:36:24] Client "Kangaroo™" connected.
[20:36:37] Client "Kangaroo™" spawned in server <STEAM_0:1:53331581> (took 13 seconds).
[20:38:30] (TEAM) Kangaroo™: ythrgefwdqsZ
[20:38:58] Kangaroo™ suicided!
[20:39:53] Dropped "Kangaroo™" from server<STEAM_0:1:53331581>
[20:54:10] Client ""will be on tomorrow"" connected.
<Logging continued in "data/ulx_logs/09-22-16.txt">
