<Logging continued from "data/ulx_logs/09-21-16.txt">
[12:04:06] Client "[TmcT] Ralvek" connected.
[12:04:25] Client "[TmcT] Ralvek" spawned in server <STEAM_0:1:64580498> (took 19 seconds).
[12:05:22] Dropped "[TmcT] Ralvek" from server<STEAM_0:1:64580498>
[12:05:33] Client "[TmcT] Ralvek" connected.
[12:05:37] Client "[TmcT] Ralvek" spawned in server <STEAM_0:1:64580498> (took 4 seconds).
[12:06:35] Dropped "[TmcT] Ralvek" from server<STEAM_0:1:64580498>
[14:10:42] Client "Solar chicken" connected.
[14:10:51] Client "Solar chicken" spawned in server <STEAM_0:1:50458510> (took 9 seconds).
[14:11:17] Dropped "Solar chicken" from server<STEAM_0:1:50458510>
[15:36:45] Client "(N-G) MR__JR" connected.
[15:37:05] Client "(N-G) MR__JR" spawned in server <STEAM_0:0:109545465> (took 20 seconds).
[15:40:38] Dropped "(N-G) MR__JR" from server<STEAM_0:0:109545465>
[15:41:21] Client "OJBM03" connected.
[15:41:27] Client "OJBM03" connected.
[16:16:17] Client "Bacon | Rip Harambe [DMC]" connected.
[16:16:40] Client "Bacon | Rip Harambe [DMC]" spawned in server <STEAM_0:1:156242635> (took 23 seconds).
[16:19:18] Bacon | Rip Harambe [DMC] changed the map to surf_utopia_njv
[16:19:18] Server is shutting down/changing levels.



[16:19:20] New map: surf_utopia_njv
[16:19:29] Client "Bacon | Rip Harambe [DMC]" spawned in server <STEAM_0:1:156242635> (took 9 seconds).
[16:31:32] Bacon | Rip Harambe [DMC] changed the map to surf_mesa
[16:31:32] Server is shutting down/changing levels.



[16:31:35] New map: surf_mesa
[16:31:45] Client "Bacon | Rip Harambe [DMC]" spawned in server <STEAM_0:1:156242635> (took 10 seconds).
[16:36:08] Client "The_Paladin" connected.
[16:41:34] Bacon | Rip Harambe [DMC] changed the map to surf_funhouse_v1
[16:41:34] Server is shutting down/changing levels.



[16:41:37] New map: surf_funhouse_v1
[16:41:47] Client "Bacon | Rip Harambe [DMC]" spawned in server <STEAM_0:1:156242635> (took 11 seconds).
[16:49:53] Client "ThatGuyWithALongName" connected.
[16:50:14] Client "ThatGuyWithALongName" spawned in server <STEAM_0:1:85407270> (took 21 seconds).
[16:50:45] Bacon | Rip Harambe [DMC]: hi
[16:51:07] ThatGuyWithALongName: !rtv
[16:51:22] Bacon | Rip Harambe [DMC]: why the rtv?
[16:51:27] ThatGuyWithALongName: map sucks
[16:51:33] Bacon | Rip Harambe [DMC]: this    is     a    good    map
[16:51:52] ThatGuyWithALongName: dude i cant even do the first bit
[16:52:01] Bacon | Rip Harambe [DMC]: what map u want?
[16:52:07] Bacon | Rip Harambe [DMC]: i will change it for u
[16:52:10] ThatGuyWithALongName: any
[16:52:18] Bacon | Rip Harambe [DMC]: easy or hard?
[16:52:32] ThatGuyWithALongName: up2u
[16:52:46] Bacon | Rip Harambe [DMC]: easy then :P
[16:52:56] Bacon | Rip Harambe [DMC] changed the map to surf_mesa
[16:52:56] Server is shutting down/changing levels.



[16:52:58] New map: surf_mesa
[16:53:05] Client "Bacon | Rip Harambe [DMC]" spawned in server <STEAM_0:1:156242635> (took 7 seconds).
[16:53:20] Client "ThatGuyWithALongName" spawned in server <STEAM_0:1:85407270> (took 22 seconds).
[16:54:34] Dropped "ThatGuyWithALongName" from server<STEAM_0:1:85407270>
[16:55:50] Dropped "Bacon | Rip Harambe [DMC]" from server<STEAM_0:1:156242635>
[18:26:18] Client "Willsypoppins" connected.
[18:26:51] Client "Willsypoppins" spawned in server <STEAM_0:0:119791717> (took 33 seconds).
[18:28:03] Dropped "Willsypoppins" from server<STEAM_0:0:119791717>
[18:28:03] Client "Peng" connected.
[18:28:15] Client "Peng" spawned in server <STEAM_0:1:183084038> (took 12 seconds).
[18:33:32] Dropped "Peng" from server<STEAM_0:1:183084038>
[19:27:23] Client "Bacon | Rip Harambe [DMC]" connected.
[19:27:46] Client "Bacon | Rip Harambe [DMC]" spawned in server <STEAM_0:1:156242635> (took 23 seconds).
[19:28:04] Dropped "Bacon | Rip Harambe [DMC]" from server<STEAM_0:1:156242635>
[20:01:03] Client "Bacon | Rip Harambe [DMC]" connected.
[20:01:12] Client "Bacon | Rip Harambe [DMC]" spawned in server <STEAM_0:1:156242635> (took 9 seconds).
[20:02:03] Client "{N-G}The DemonZ" connected.
[20:02:24] Client "{N-G}The DemonZ" spawned in server <STEAM_0:1:103224516> (took 21 seconds).
[20:06:43] Dropped "{N-G}The DemonZ" from server<STEAM_0:1:103224516>
[20:10:21] Bacon | Rip Harambe [DMC] changed the map to surf_utopia_njv
[20:10:21] Server is shutting down/changing levels.



[20:10:24] New map: surf_utopia_njv
[20:10:32] Client "Bacon | Rip Harambe [DMC]" spawned in server <STEAM_0:1:156242635> (took 8 seconds).
[20:17:37] Bacon | Rip Harambe [DMC] changed the map to surf_funhouse_v1
[20:17:37] Server is shutting down/changing levels.



[20:17:39] New map: surf_funhouse_v1
[20:17:47] Client "Bacon | Rip Harambe [DMC]" spawned in server <STEAM_0:1:156242635> (took 8 seconds).
[20:18:55] Client "Henri7" connected.
[20:19:13] Client "Henri7" spawned in server <STEAM_0:0:146730878> (took 18 seconds).
[20:19:46] Henri7: long time since i played surf :D
[20:20:07] Bacon | Rip Harambe [DMC]: xD :P
[20:20:14] Henri7: :p
[20:20:33] Henri7: !rtv
[20:20:37] Henri7: rtv!
[20:20:47] Henri7: i even forgot this XD
[20:20:54] Bacon | Rip Harambe [DMC]: u want me to change the map?
[20:21:03] Henri7: yed please
[20:21:08] Bacon | Rip Harambe [DMC]: and its !r to respawn
[20:21:11] Bacon | Rip Harambe [DMC]: map?
[20:21:13] Henri7: my friend wants to play as well
[20:21:24] Henri7: anything not this plz
[20:21:33] Client "[OX:RP] Mr. Frain ツ" connected.
[20:21:43] Bacon | Rip Harambe [DMC] changed the map to surf_beginner
[20:21:43] Server is shutting down/changing levels.



[20:21:46] New map: surf_beginner
[20:21:51] Client "Henri7" spawned in server <STEAM_0:0:146730878> (took 6 seconds).
[20:21:52] Client "Vace" connected.
[20:21:52] Client "Bacon | Rip Harambe [DMC]" spawned in server <STEAM_0:1:156242635> (took 7 seconds).
[20:22:04] Henri7: i remeber this :p
[20:22:26] Client "Vace" spawned in server <STEAM_0:0:74517699> (took 34 seconds).
[20:24:59] Client "Sgt_Bash" connected.
[20:25:04] Client "Sgt_Bash" spawned in server <STEAM_0:1:74048789> (took 5 seconds).
[20:25:11] Client "Roboto" connected.
[20:25:36] Vace: h
[20:26:02] Bacon | Rip Harambe [DMC]: yay    :P
[20:26:11] Henri7: WOW
[20:28:20] Bacon | Rip Harambe [DMC]: cya guys need to go wreck on csgo
[20:28:22] Client "Roboto" connected.
[20:28:28] Bacon | Rip Harambe [DMC]: noice one m9
[20:28:36] Henri7: noice
[20:28:36] Dropped "Bacon | Rip Harambe [DMC]" from server<STEAM_0:1:156242635>
[20:28:42] Dropped "Vace" from server<STEAM_0:0:74517699>
[20:28:48] Dropped "Henri7" from server<STEAM_0:0:146730878>
[20:29:12] Client "Roboto" spawned in server <STEAM_0:0:81527333> (took 50 seconds).
[20:29:29] Sgt_Bash: ffs, keep fucking up last and 4th stage
[20:31:36] Sgt_Bash: finally
[20:32:05] Sgt_Bash: !spec Roboto
[20:34:37] Dropped "Sgt_Bash" from server<STEAM_0:1:74048789>
[20:35:36] Dropped "Roboto" from server<STEAM_0:0:81527333>
[20:36:31] Client "Randomking12" connected.
[20:36:36] Client "Randomking12" spawned in server <STEAM_0:1:115424222> (took 5 seconds).
[20:36:43] Client "rewad700" connected.
[20:38:22] Client "rewad700" spawned in server <STEAM_0:1:172733787> (took 99 seconds).
[20:42:32] Client "Drottemsitu" connected.
[20:42:50] Client "Drottemsitu" spawned in server <STEAM_0:1:14294081> (took 18 seconds).
[20:47:41] Dropped "rewad700" from server<STEAM_0:1:172733787>
[20:47:51] Dropped "Randomking12" from server<STEAM_0:1:115424222>
[21:01:35] Client "KrisTheFuckingLeaf" connected.
[21:01:40] Client "KrisTheFuckingLeaf" spawned in server <STEAM_0:1:126494766> (took 5 seconds).
[21:03:18] Dropped "KrisTheFuckingLeaf" from server<STEAM_0:1:126494766>
[21:05:27] Dropped "Drottemsitu" from server<STEAM_0:1:14294081>
[21:06:12] Client "Harry Man" connected.
[21:06:29] Client "Harry Man" connected.
[21:07:00] Client "Harry Man" spawned in server <STEAM_0:0:160141282> (took 31 seconds).
[21:08:05] Harry Man: !restart
[21:08:14] Harry Man: !ghost
[21:08:35] Dropped "Harry Man" from server<STEAM_0:0:160141282>
[21:11:30] Client "Echo" connected.
[21:11:38] Client "Echo" spawned in server <STEAM_0:1:33669599> (took 8 seconds).
[21:11:44] Client "James" connected.
[21:11:58] Client "James" spawned in server <STEAM_0:0:24039696> (took 14 seconds).
[21:12:21] Echo: james
[21:12:23] James: yh
[21:13:31] Echo: why cant we surf
[21:13:37] James: idk
[21:13:56] James: how does it work normally
[21:16:01] Client "ValoRzzz" connected.
[21:16:09] Client "ValoRzzz" spawned in server <STEAM_0:1:82260018> (took 8 seconds).
[21:16:13] Client "(oO)_ReDMull_(Oo)" connected.
[21:16:27] Client "(oO)_ReDMull_(Oo)" spawned in server <STEAM_0:0:60033822> (took 14 seconds).
[21:19:22] Dropped "James" from server<STEAM_0:0:24039696>
[21:25:16] Client "Harry Man" connected.
[21:25:28] Client "Harry Man" spawned in server <STEAM_0:0:160141282> (took 12 seconds).
[21:26:17] Harry Man: why am i a spectator
[21:26:48] Harry Man: !suffers
[21:27:15] Harry Man: how do i become a surrfer
[21:27:55] Echo: eh?
[21:28:14] Harry Man: PLEASE TELL ME HOW TO BECOME A SURRFER
[21:28:17] Echo: f1
[21:28:20] Echo: and click surfer
[21:28:33] Harry Man: thank you
[21:29:07] Dropped "Echo" from server<STEAM_0:1:33669599>
[21:30:44] Harry Man: !rtv
[21:37:09] Client "UnSeeN xxx" connected.
[21:37:39] Client "UnSeeN xxx" spawned in server <STEAM_0:0:11198781> (took 30 seconds).
[21:37:59] Harry Man: how do you change the map
[21:39:12] Client "Doc1429" connected.
[21:39:49] Client "Zozohastie" connected.
[21:40:00] Client "Doc1429" spawned in server <STEAM_0:1:105018269> (took 48 seconds).
[21:40:01] Client "Zozohastie" spawned in server <STEAM_0:1:69689561> (took 12 seconds).
[21:40:23] Dropped "UnSeeN xxx" from server<STEAM_0:0:11198781>
[21:41:47] Dropped "Doc1429" from server<STEAM_0:1:105018269>
[21:41:49] Client "Doc1429" connected.
[21:42:01] Client "Doc1429" spawned in server <STEAM_0:1:105018269> (took 12 seconds).
[21:42:29] Zozohastie: oh.
[21:42:33] Zozohastie: lolololol
[21:42:49] Zozohastie: how did I get stuck here xD
[21:42:49] Harry Man: this map is borring
[21:42:55] Zozohastie: tru
[21:43:06] Doc1429: How do i play
[21:43:17] Harry Man: press f1
[21:43:18] Doc1429: I just see a bunch of other people playing it
[21:43:42] Doc1429: thanks
[21:43:46] Dropped "Zozohastie" from server<STEAM_0:1:69689561>
[21:43:51] Harry Man: thats oks
[21:44:23] Dropped "Harry Man" from server<STEAM_0:0:160141282>
[21:44:53] Dropped "ValoRzzz" from server<STEAM_0:1:82260018>
[21:44:55] Dropped "(oO)_ReDMull_(Oo)" from server<STEAM_0:0:60033822>
[21:45:31] Client "ValoRzzz" connected.
[21:45:35] Client "ValoRzzz" spawned in server <STEAM_0:1:82260018> (took 4 seconds).
[21:45:45] Dropped "ValoRzzz" from server<STEAM_0:1:82260018>
[21:46:17] Dropped "Doc1429" from server<STEAM_0:1:105018269>
[21:53:26] Client "Callums Corner" connected.
[21:54:16] Client "Callums Corner" spawned in server <STEAM_0:1:91692264> (took 50 seconds).
[21:55:16] Client "SABRE WULF" connected.
[21:55:40] Client "SABRE WULF" spawned in server <STEAM_0:1:54551276> (took 24 seconds).
[22:00:49] Dropped "Callums Corner" from server<STEAM_0:1:91692264>
[22:02:09] Dropped "SABRE WULF" from server<STEAM_0:1:54551276>
[22:37:12] Client "N_i_L" connected.
[22:37:23] Client "N_i_L" spawned in server <STEAM_0:0:104892527> (took 11 seconds).
[22:42:04] Dropped "N_i_L" from server<STEAM_0:0:104892527>



[23:49:14] New map: Surf_Mesa
<Logging continued in "data/ulx_logs/09-23-16.txt">
